Configuration: 
Command line parameters  = 
Window width             = 1186
Window height            = 1219
Window title             = Direct3D App
Back-buffer count        = 3
Fill Triangles           = enabled
Triangles Font Clock-Wise= disabled
Fast Build AS            = disabled
Target FPS               = 0
Target UPS               = 60
Tearing                  = enabled
VSync                    = disabled
GUI rendering            = disabled
Debug layer              = enabled
GPU validation           = disabled
GPU profiling            = enabled
Render mode              = Ray Tracing
Loaded scene file        = 
Using testing scene      = disabled
BLAS duplication         = disabled
Rays per pixel           = 9
Quality preset           = Medium
Rasterization Quality    : 
  AO                     = enabled
  AO kernel size         = 4
  Shadows                = enabled
  Shadow map resolution  = 4096
  Shadow PCF kernel size = 4
  Reflections            = disabled
Ray Tracing Quality      : 
  AO                     = enabled
  AO rays                = 4
  AO kernel size         = 4
  Shadows                = enabled
  Shadow rays            = 4
  Shadow kernel size     = 4
  Reflections            = disabled

ProfilingAggregator: 
Render	,	2414.85	,	73.9167	,	71.2982	,	76.2779	,	74.9449	,	83.2375	,	68.3112	,	88.6248	,	84.3328	,	76.7391	,	82.5765	,	68.122	,	74.5463	,	79.5716	,	81.3447	,	74.473	,	71.9102	,	72.2132	,	76.5458	,	92.8201	,	79.2549	,	75.5672	,	73.6327	,	78.1919	,	78.1212	,	82.6021	,	93.6289	,	82.3904	,	76.8178	,	72.7258	,	80.7965	,	71.8565	,	69.1315	,	70.6932	,	67.7867	,	64.8902	,	81.043	,	70.9166	,	92.7664	,	79.1526	,	75.5721	,	67.6605	,	64.8403	,	71.1444	,	73.266	,	76.2608	,	66.7288	,	68.9234	,	65.3804	,	67.2267	,	72.6339	,	81.206	,	76.1917	,	67.636	,	74.4641	,	69.2439	,	65.8691	,	79.2634	,	72.2321	,	89.8802	,	67.9413	,	81.239	,	66.8838	,	72.1697	,	73.6588	,	82.4269	,	71.2954	,	84.4108	,	68.9942	,	68.6063	,	77.9143	,	74.685	,	71.6043	,	73.3671	,	74.6521	,	75.4883	,	73.647	,	71.3086	,	69.3546	,	70.6712	,	80.7275	,	77.1646	,	86.1253	,	71.4367	,	78.5738	,	68.1584	,	64.6381	,	68.6317	,	73.5026	,	73.8084	,	76.936	,	67.4262	,	66.8264	,	68.427	,	75.0217	,	77.7558	,	68.1054	,	69.6716	,	86.0819	,	72.3265	,	72.4111	,	82.8216	,	80.3796	,	74.7668	,	68.1297	,	76.8616	,	71.6438	,	85.2543	,	77.664	,	72.3673	,	86.528	,	73.5072	,	74.1747	,	74.4119	,	71.6306	,	69.8732	,	66.1504	,	80.7062	,	67.5769	,	85.962	,	69.0146	,	81.2874	,	69.0469	,	71.3159	,	70.3955	,	72.7178	,	74.0644	,	75.5882	,	67.7291	,	66.5038	,	81.7872	,	66.9646	,	65.2896	,	72.535	,	75.7571	,	76.0935	,	66.395	,	64.8204	,	77.9006	,	67.3148	,	70.5374	,	65.0371	,	78.1981	,	73.3898	,	67.3039	,	68.2015	,	72.166	,	66.7814	,	68.2555	,	69.5477	,	71.1861	,	67.5406	,	73.6467	,	77.7121	,	69.8284	,	74.4459	,	78.3898	,	65.1557	,	67.1137	,	75.6644	,	76.056	,	67.7011	,	69.905	,	69.0235
Update	,	0.2641	,	0.1234	,	0.1241	,	0.2387	,	0.237	,	0.2399	,	0.1253	,	0.1341	,	0.123	,	0.1237	,	0.1836	,	0.1232	,	0.124	,	0.1238	,	0.1236	,	0.1235	,	0.2135	,	0.1236	,	0.1235	,	0.2388	,	0.1236	,	0.1232	,	0.1253	,	0.1236	,	0.1246	,	0.1244	,	0.123	,	0.1254	,	0.2172	,	0.1667	,	0.1238	,	0.1506	,	0.1235	,	0.1832	,	0.1237	,	0.1237	,	0.1346	,	0.1241	,	0.2185	,	0.1476	,	0.1256	,	0.1375	,	0.1473	,	0.1249	,	0.1546	,	0.1242	,	0.1241	,	0.1238	,	0.1237	,	0.1469	,	0.1893	,	0.2461	,	0.1472	,	0.1475	,	0.1238	,	0.1471	,	0.1247	,	0.1452	,	0.124	,	0.1475	,	0.147	,	0.1473	,	0.1238	,	0.1286	,	0.1237	,	0.1556	,	0.1237	,	0.1298	,	0.1234	,	0.1238	,	0.1595	,	0.147	,	0.1235	,	0.2062	,	0.124	,	0.1254	,	0.1998	,	0.1237	,	0.1234	,	0.1255	,	0.1941	,	0.1891	,	0.124	,	0.124	,	0.147	,	0.1237	,	0.1247	,	0.124	,	0.1467	,	0.3727	,	0.2261	,	0.1236	,	0.1238	,	0.124	,	0.1237	,	0.1235	,	0.1237	,	0.149	,	0.124	,	0.1242	,	0.1255	,	0.1241	,	0.1237	,	0.1239	,	0.1926	,	0.1238	,	0.1237	,	0.1239	,	0.1236	,	0.1237	,	0.1902	,	0.1243	,	0.1288	,	0.1233	,	0.1238	,	0.1236	,	0.1238	,	0.1407	,	0.1469	,	0.2518	,	0.1243	,	0.1235	,	0.1244	,	0.1706	,	0.1234	,	0.124	,	0.1237	,	0.1712	,	0.183	,	0.1468	,	0.1468	,	0.1326	,	0.1234	,	0.2463	,	0.1236	,	0.1239	,	0.1233	,	0.1544	,	0.1295	,	0.1236	,	0.1879	,	0.1238	,	0.1241	,	0.1942	,	0.1244	,	0.1233	,	0.1235	,	0.1235	,	0.1267	,	0.1232	,	0.1436	,	0.1303	,	0.1236	,	0.1241	,	0.1237	,	0.1886	,	0.3095	,	0.1232	,	0.1398	,	0.1249	,	0.1235	,	0.1255	,	0.1233	,	0.1284
RayTracing	,	1717.05	,	60.4134	,	57.2557	,	61.7607	,	60.1325	,	68.9273	,	53.801	,	73.3078	,	69.3502	,	63.5783	,	67.159	,	52.4004	,	59.0063	,	64.1246	,	67.7158	,	60.7501	,	57.1529	,	58.2155	,	59.7971	,	76.47	,	62.6322	,	59.5333	,	57.7237	,	62.3581	,	60.6478	,	66.1036	,	77.4697	,	69.1017	,	59.5504	,	59.6626	,	67.9852	,	56.8879	,	58.0381	,	59.0419	,	56.2423	,	52.9776	,	67.7133	,	59.7561	,	75.8281	,	63.1461	,	62.6778	,	56.5219	,	52.1709	,	58.8588	,	60.3149	,	59.9887	,	53.1828	,	52.9809	,	52.1859	,	53.3305	,	58.4095	,	65.6182	,	60.8233	,	54.6342	,	59.3698	,	54.7748	,	53.0235	,	63.9991	,	58.4612	,	74.6522	,	55.3597	,	67.7313	,	54.1836	,	59.8717	,	57.6746	,	60.7829	,	57.5743	,	68.3944	,	53.4042	,	54.4583	,	59.4527	,	56.4455	,	53.5296	,	57.8296	,	60.8318	,	62.0563	,	59.9493	,	56.5097	,	54.0291	,	57.4903	,	66.0186	,	58.8428	,	68.6373	,	57.7465	,	65.6504	,	54.3902	,	51.5018	,	54.1829	,	58.2977	,	56.1703	,	62.3615	,	54.0179	,	53.5515	,	55.5283	,	61.6405	,	61.4515	,	54.7214	,	53.7761	,	65.8526	,	53.0867	,	56.0836	,	67.5945	,	65.202	,	59.522	,	51.4374	,	62.4408	,	56.0381	,	69.4975	,	61.0185	,	56.4509	,	68.6381	,	56.4662	,	57.7473	,	58.7533	,	52.2536	,	54.7353	,	51.6573	,	64.8693	,	52.4358	,	66.1172	,	53.4068	,	65.492	,	53.3978	,	56.2388	,	54.9394	,	57.6508	,	58.5979	,	60.5714	,	54.0115	,	52.8644	,	68.0183	,	52.4391	,	51.4244	,	56.7128	,	58.2107	,	59.5003	,	51.0928	,	51.4501	,	58.4236	,	53.8516	,	55.8208	,	51.2594	,	63.2554	,	58.5124	,	53.3317	,	53.4587	,	57.7531	,	51.3151	,	53.699	,	55.3992	,	52.9741	,	52.4567	,	58.0125	,	60.4995	,	55.0557	,	59.9113	,	64.4726	,	52.1888	,	53.6804	,	60.9591	,	61.9844	,	53.2275	,	55.9888	,	53.4221
RayTracingGpu	,	681.97	,	5.54563	,	5.81069	,	5.75805	,	5.52432	,	5.52406	,	5.4697	,	5.40563	,	4.97322	,	4.99165	,	6.25923	,	7.73549	,	7.68742	,	7.06192	,	5.53293	,	5.32269	,	5.80499	,	6.53171	,	7.67715	,	7.19136	,	7.92576	,	8.06694	,	8.01693	,	7.89408	,	8.2041	,	7.9783	,	6.05562	,	5.14064	,	4.80109	,	4.11398	,	3.26406	,	3.34144	,	3.46934	,	3.27619	,	3.44698	,	4.39216	,	4.38147	,	3.74998	,	4.69331	,	4.3609	,	4.67366	,	3.44976	,	4.61562	,	4.27888	,	4.82781	,	5.0439	,	5.3201	,	4.9857	,	5.04387	,	5.06115	,	5.67395	,	6.09357	,	4.4911	,	4.97309	,	4.40675	,	5.25792	,	4.48182	,	5.78048	,	5.20342	,	5.74627	,	4.18208	,	4.20131	,	4.29066	,	4.168	,	5.55066	,	4.94186	,	5.17165	,	5.2663	,	5.56061	,	5.25366	,	7.55411	,	8.03888	,	8.92989	,	7.47466	,	5.87373	,	4.74218	,	5.16317	,	5.49389	,	5.1407	,	5.12771	,	5.79334	,	6.83146	,	8.04438	,	5.74029	,	4.76352	,	4.40941	,	4.84534	,	5.97645	,	6.16922	,	7.84547	,	5.27971	,	5.52685	,	5.38042	,	5.09958	,	4.67555	,	6.17261	,	5.52973	,	8.05462	,	9.7455	,	10.8418	,	8.09037	,	6.8816	,	7.21917	,	6.99862	,	7.78509	,	5.25722	,	6.70141	,	7.50787	,	8.5551	,	7.66886	,	9.07821	,	8.21869	,	8.22445	,	7.30851	,	7.27392	,	6.5232	,	6.86819	,	7.81197	,	7.29226	,	8.1417	,	7.77206	,	7.54253	,	7.40499	,	6.75229	,	7.67706	,	7.30355	,	7.25782	,	6.50733	,	5.9593	,	6.07571	,	5.71242	,	6.32387	,	5.92947	,	6.34752	,	6.04928	,	7.5023	,	6.25808	,	5.7497	,	5.50522	,	5.91955	,	5.97706	,	5.68832	,	6.43309	,	5.67491	,	5.83997	,	6.91165	,	6.45398	,	7.18067	,	6.1695	,	6.18112	,	6.8409	,	7.16896	,	6.90534	,	6.78349	,	6.99107	,	6.23843	,	5.77645	,	4.93539	,	4.8207	,	4.48326	,	4.88282	,	5.85226	,	5.40698	,	6.51296
DeferredRLGpu	,	7.67923	,	0.855008	,	0.906048	,	0.890848	,	0.837824	,	0.943936	,	0.859712	,	0.80848	,	0.7808	,	0.845408	,	1.27344	,	1.47629	,	1.33907	,	1.35802	,	0.966144	,	0.847168	,	0.896192	,	1.06342	,	1.19242	,	1.17011	,	1.17178	,	1.60339	,	1.77405	,	1.3559	,	1.60995	,	1.22886	,	1.06237	,	0.9424	,	0.838848	,	0.648	,	0.64768	,	0.67952	,	0.68512	,	0.674432	,	0.693088	,	0.78816	,	0.796288	,	0.707104	,	0.762624	,	0.744256	,	0.787232	,	0.687104	,	0.852256	,	0.890816	,	1.00774	,	1.0672	,	1.1223	,	1.0815	,	1.13808	,	1.16928	,	1.24211	,	1.09379	,	0.904544	,	0.891552	,	0.895104	,	0.978592	,	0.901696	,	1.09696	,	1.01152	,	0.98976	,	0.869184	,	0.847424	,	0.851392	,	0.813536	,	0.897952	,	0.948288	,	0.929792	,	0.95456	,	0.895552	,	0.95728	,	1.09318	,	0.943136	,	1.62656	,	1.03677	,	0.883104	,	0.842176	,	0.919136	,	1.06026	,	1.05123	,	1.06086	,	1.12035	,	1.09552	,	1.18406	,	1.01555	,	0.868288	,	0.858464	,	1.03629	,	1.10323	,	1.16899	,	1.25072	,	1.02602	,	0.978816	,	0.962432	,	0.941984	,	0.878944	,	0.950688	,	0.940512	,	1.19021	,	1.08294	,	1.19882	,	1.13504	,	1.05891	,	1.33267	,	1.30029	,	1.10086	,	0.81104	,	0.952928	,	0.981248	,	1.37827	,	1.10928	,	1.56445	,	1.15235	,	1.15194	,	1.30074	,	1.3856	,	0.984032	,	0.986368	,	1.33629	,	1.08016	,	1.13581	,	1.1473	,	1.11139	,	1.10115	,	1.14429	,	1.24154	,	1.15779	,	1.36211	,	1.08166	,	1.04256	,	1.05843	,	0.979616	,	1.1105	,	1.05642	,	1.37197	,	0.828288	,	0.957152	,	0.94784	,	1.05744	,	1.17808	,	1.13174	,	1.10595	,	0.992032	,	1.51312	,	1.04918	,	1.1104	,	1.41408	,	1.09248	,	1.13142	,	1.08733	,	1.09005	,	1.1305	,	1.16435	,	1.1401	,	1.1303	,	1.11037	,	1.05779	,	1.2616	,	0.933216	,	0.787712	,	0.831776	,	0.794848	,	0.916224	,	0.908448	,	1.44963
RayTracingRLGpu	,	0.03872	,	3.68445	,	3.94726	,	3.91126	,	3.73034	,	3.67808	,	3.71002	,	3.6945	,	3.29085	,	3.1879	,	3.97901	,	5.05024	,	5.24627	,	4.62915	,	3.65562	,	3.56598	,	3.91968	,	4.56246	,	5.27437	,	4.95254	,	5.49568	,	5.42336	,	5.20832	,	5.43005	,	5.39142	,	5.48358	,	4.05123	,	3.28656	,	3.05286	,	2.58477	,	1.68742	,	1.73459	,	1.86106	,	1.73968	,	1.88365	,	2.57741	,	2.53136	,	2.13142	,	2.90128	,	2.49667	,	2.88947	,	1.82438	,	2.32483	,	2.01517	,	2.2769	,	2.33987	,	2.50467	,	2.32106	,	2.33574	,	2.24688	,	2.73414	,	3.11222	,	2.2353	,	2.61878	,	2.20128	,	2.71235	,	2.18195	,	2.93005	,	2.77962	,	3.17853	,	2.20006	,	2.24362	,	2.3143	,	2.2327	,	3.05661	,	2.71872	,	2.98307	,	3.07418	,	3.28499	,	3.00355	,	5.11046	,	5.82698	,	5.74451	,	5.03798	,	3.64051	,	2.67862	,	2.88323	,	2.89302	,	2.5673	,	2.54544	,	3.008	,	3.98125	,	5.2175	,	3.40454	,	2.50458	,	2.16003	,	2.27146	,	3.01539	,	3.02438	,	4.58058	,	2.92579	,	3.11443	,	3.07066	,	2.97443	,	2.62362	,	3.66381	,	3.36506	,	5.5815	,	7.39213	,	8.23725	,	5.62358	,	4.80742	,	4.6737	,	4.58461	,	5.43366	,	3.29091	,	4.4983	,	5.39805	,	5.91066	,	5.36118	,	6.13373	,	5.81059	,	5.81517	,	5.02637	,	4.90858	,	4.6	,	4.94483	,	5.43382	,	5.16387	,	5.76899	,	5.51411	,	5.35718	,	5.20467	,	4.52397	,	5.19926	,	4.90003	,	4.80237	,	4.42285	,	3.92147	,	4.05014	,	3.7729	,	3.94134	,	3.93126	,	4.06688	,	4.3175	,	5.46672	,	4.30646	,	3.76432	,	3.41587	,	3.78563	,	3.8449	,	3.4007	,	3.54557	,	3.18557	,	3.57037	,	4.2209	,	4.32973	,	4.79322	,	4.06922	,	4.07446	,	4.5785	,	4.81878	,	4.6249	,	4.53101	,	4.66163	,	4.19827	,	3.55149	,	2.9663	,	2.74602	,	2.43962	,	2.86029	,	3.58582	,	3.2864	,	3.67181
ResolveRLGpu	,	0.446528	,	1.00282	,	0.954624	,	0.952288	,	0.953344	,	0.89968	,	0.896224	,	0.900288	,	0.89856	,	0.956032	,	1.00419	,	1.20675	,	1.09869	,	1.07178	,	0.909408	,	0.905984	,	0.986048	,	0.901888	,	1.2081	,	1.06566	,	1.25619	,	1.03744	,	1.03274	,	1.10506	,	1.19994	,	1.25885	,	0.938688	,	0.910272	,	0.906976	,	0.878496	,	0.925056	,	0.925056	,	0.919264	,	0.858528	,	0.868672	,	1.02464	,	1.05168	,	0.909184	,	1.02755	,	1.11635	,	0.99472	,	0.93232	,	1.43494	,	1.36976	,	1.53923	,	1.63254	,	1.68797	,	1.57853	,	1.56493	,	1.6393	,	1.69402	,	1.88378	,	1.34726	,	1.45859	,	1.30643	,	1.56336	,	1.39357	,	1.74893	,	1.40874	,	1.57456	,	1.11085	,	1.10736	,	1.12176	,	1.11792	,	1.59334	,	1.27117	,	1.25603	,	1.23341	,	1.37722	,	1.28966	,	1.34736	,	1.2657	,	1.55498	,	1.39715	,	1.34643	,	1.21763	,	1.3577	,	1.53603	,	1.51712	,	1.51603	,	1.66038	,	1.7512	,	1.63866	,	1.31674	,	1.38672	,	1.38672	,	1.53325	,	1.8545	,	1.97133	,	2.00944	,	1.32426	,	1.43059	,	1.34429	,	1.18118	,	1.17027	,	1.55485	,	1.2215	,	1.28006	,	1.26842	,	1.4015	,	1.32931	,	1.0128	,	1.21021	,	1.11005	,	1.24854	,	1.15184	,	1.24666	,	1.12534	,	1.2623	,	1.19501	,	1.37686	,	1.2472	,	1.25472	,	0.97744	,	0.976416	,	0.9344	,	0.93408	,	1.03904	,	1.04438	,	1.23446	,	1.10816	,	1.0719	,	1.09594	,	1.0815	,	1.23242	,	1.24275	,	1.09094	,	0.999936	,	0.991904	,	0.960928	,	0.9576	,	1.27021	,	0.939808	,	0.903776	,	0.899808	,	1.07494	,	0.998112	,	0.922272	,	0.908096	,	0.997632	,	1.02342	,	1.29312	,	1.37037	,	1.43802	,	1.15549	,	1.27466	,	1.02742	,	1.25382	,	1.01062	,	1.01405	,	1.12877	,	1.18266	,	1.13779	,	1.11866	,	1.21619	,	0.977088	,	0.958336	,	1.03254	,	1.28262	,	1.2087	,	1.22483	,	1.34733	,	1.21002	,	1.38816
Index	,	0	,	1	,	2	,	3	,	4	,	5	,	6	,	7	,	8	,	9	,	10	,	11	,	12	,	13	,	14	,	15	,	16	,	17	,	18	,	19	,	20	,	21	,	22	,	23	,	24	,	25	,	26	,	27	,	28	,	29	,	30	,	31	,	32	,	33	,	34	,	35	,	36	,	37	,	38	,	39	,	40	,	41	,	42	,	43	,	44	,	45	,	46	,	47	,	48	,	49	,	50	,	51	,	52	,	53	,	54	,	55	,	56	,	57	,	58	,	59	,	60	,	61	,	62	,	63	,	64	,	65	,	66	,	67	,	68	,	69	,	70	,	71	,	72	,	73	,	74	,	75	,	76	,	77	,	78	,	79	,	80	,	81	,	82	,	83	,	84	,	85	,	86	,	87	,	88	,	89	,	90	,	91	,	92	,	93	,	94	,	95	,	96	,	97	,	98	,	99	,	100	,	101	,	102	,	103	,	104	,	105	,	106	,	107	,	108	,	109	,	110	,	111	,	112	,	113	,	114	,	115	,	116	,	117	,	118	,	119	,	120	,	121	,	122	,	123	,	124	,	125	,	126	,	127	,	128	,	129	,	130	,	131	,	132	,	133	,	134	,	135	,	136	,	137	,	138	,	139	,	140	,	141	,	142	,	143	,	144	,	145	,	146	,	147	,	148	,	149	,	150	,	151	,	152	,	153	,	154	,	155	,	156	,	157	,	158	,	159	,	160	,	161	,	162	,	163

ProfilingBuildAggregator: 
BuildBottomLevelAS	,	1444.77
BuildBottomLevelASGpu	,	672.864
BuildTopLevelAS	,	0.7166
BuildTopLevelASGpu	,	0.856032
Triangles	,	3868741
Meshes	,	3254
BottomLevels	,	3112
TopLevelSize	,	199168
BottomLevelsSize	,	230336272
Index	,	0

FpsAggregator: 
FPS	,	1	,	8	,	9	,	9	,	8	,	9	,	9	,	9	,	8	,	9	,	9	,	10	,	9	,	10	,	9	,	9	,	10	,	10	,	9	,	10	,	10	,	10	,	9	,	10	,	10	,	9	,	8	,	8	,	9	,	9	,	10	,	10	,	10	,	9	,	10	,	10	,	11	,	10	,	10	,	9	,	11	,	10	,	11	,	12	,	11	,	12	,	12	,	12	,	12	,	12	,	12	,	11	,	11	,	11	,	11	,	10	,	10	,	12	,	11	,	11	,	11	,	11	,	11	,	11	,	10	,	9	,	8	,	10	,	10	,	10	,	11	,	10	,	11	,	10	,	11	,	12	,	12	,	12	,	12	,	12	,	11	,	12	,	12	,	10	,	11	,	12	,	12	,	12	,	11	,	11	,	12	,	10	,	10	,	11	,	10	,	11	,	10	,	10	,	10	,	10	,	10	,	10	,	10	,	10	,	10	,	11	,	10	,	10	,	10	,	8	,	6	,	8	,	7	,	9	,	9	,	8	,	10	,	8	,	10	,	9	,	9	,	10	,	10	,	10	,	11	,	10	,	11	,	11	,	11	,	11	,	10	,	11	,	10	,	10	,	11	,	10	,	11	,	11	,	10	,	11	,	10	,	11	,	11	,	11	,	12	,	11	,	11	,	11	,	11	,	11	,	10	,	11	,	10	,	10	,	11	,	11	,	11	,	10	,	11	,	9	,	10	,	10	,	11	,	9
UPS	,	1181	,	957	,	61	,	61	,	60	,	64	,	63	,	63	,	68	,	61	,	61	,	65	,	60	,	65	,	61	,	61	,	65	,	63	,	62	,	66	,	65	,	65	,	63	,	63	,	65	,	58	,	65	,	67	,	65	,	66	,	62	,	65	,	61	,	62	,	60	,	63	,	65	,	69	,	60	,	65	,	66	,	65	,	59	,	69	,	64	,	64	,	65	,	63	,	63	,	62	,	63	,	65	,	73	,	63	,	64	,	63	,	61	,	60	,	64	,	64	,	62	,	61	,	62	,	61	,	63	,	59	,	65	,	63	,	65	,	64	,	63	,	64	,	64	,	65	,	62	,	62	,	64	,	64	,	62	,	63	,	60	,	65	,	63	,	64	,	66	,	65	,	64	,	63	,	61	,	62	,	65	,	62	,	61	,	64	,	66	,	65	,	64	,	62	,	63	,	63	,	62	,	63	,	65	,	63	,	63	,	67	,	63	,	63	,	66	,	50	,	101	,	62	,	59	,	66	,	64	,	58	,	67	,	61	,	67	,	62	,	67	,	66	,	67	,	61	,	64	,	65	,	65	,	66	,	64	,	62	,	61	,	64	,	60	,	61	,	64	,	63	,	61	,	62	,	57	,	67	,	61	,	62	,	59	,	64	,	65	,	64	,	64	,	68	,	61	,	63	,	62	,	60	,	62	,	59	,	64	,	61	,	64	,	62	,	63	,	62	,	64	,	61	,	60	,	61
FrameTime	,	15055.5	,	129.058	,	111.346	,	111.983	,	125.563	,	120.574	,	113.662	,	121.326	,	137.836	,	112.984	,	113.383	,	105.92	,	112.274	,	109.397	,	114.347	,	111.424	,	106.814	,	104.294	,	117.68	,	109.958	,	106.712	,	109.699	,	114.013	,	107.259	,	107.195	,	117.172	,	132.671	,	135.116	,	121.123	,	118.007	,	106.824	,	103.963	,	102.391	,	113.406	,	101.396	,	103.826	,	104.098	,	108.458	,	106.348	,	115.367	,	103.009	,	102.888	,	97.0437	,	89.2732	,	97.2704	,	89.661	,	88.26	,	87.7125	,	87.4306	,	85.4267	,	89.6325	,	112.157	,	96.4668	,	94.2324	,	98.6074	,	103.677	,	100.537	,	85.0037	,	97.3425	,	98.6043	,	91.6259	,	93.8152	,	93.0157	,	92.7028	,	105.77	,	114.561	,	130.022	,	106.215	,	107.279	,	104.959	,	97.0671	,	105.356	,	97.727	,	107.534	,	93.719	,	85.6792	,	88.6076	,	89.2887	,	86.9277	,	86.2648	,	91.2735	,	90.7133	,	88.6307	,	105.933	,	98.9366	,	90.344	,	87.4228	,	88.6757	,	91.9307	,	94.9838	,	91.1869	,	101.282	,	102.273	,	98.0688	,	109.577	,	100.937	,	104.242	,	106.243	,	102.394	,	103.885	,	106.237	,	106.555	,	104.883	,	105.226	,	106.253	,	99.3588	,	106.962	,	105.635	,	109.097	,	183.188	,	176.495	,	128.694	,	144.69	,	117.343	,	119.983	,	125.002	,	106.831	,	130.938	,	108.453	,	120.925	,	120.376	,	110.004	,	109.249	,	102.369	,	96.4055	,	108.404	,	100.084	,	98.181	,	97.4248	,	92.3593	,	104.02	,	95.5218	,	100.585	,	105.721	,	94.5183	,	103.743	,	92.6026	,	92.7222	,	100.113	,	97.9394	,	101.322	,	92.7687	,	91.0643	,	97.3449	,	88.6847	,	96.6465	,	101.817	,	99.5143	,	91.6893	,	95.4588	,	103.437	,	93.4314	,	101.195	,	101.147	,	93.7467	,	95.5569	,	95.8346	,	102.994	,	95.1949	,	116.669	,	104.57	,	100.889	,	91.8662	,	111.558
GigaRays/s	,	0.000470119	,	0.093585	,	0.108472	,	0.107854	,	0.0961897	,	0.100171	,	0.106262	,	0.0995488	,	0.0876252	,	0.106899	,	0.106523	,	0.114028	,	0.107575	,	0.110405	,	0.105625	,	0.108395	,	0.113074	,	0.115806	,	0.102634	,	0.109842	,	0.113183	,	0.1101	,	0.105934	,	0.112605	,	0.112673	,	0.103079	,	0.0910366	,	0.0893889	,	0.0997165	,	0.102349	,	0.113064	,	0.116175	,	0.117959	,	0.106502	,	0.119116	,	0.116328	,	0.116024	,	0.11136	,	0.11357	,	0.104691	,	0.117251	,	0.117389	,	0.124458	,	0.135292	,	0.124168	,	0.134706	,	0.136845	,	0.137699	,	0.138143	,	0.141383	,	0.134749	,	0.107687	,	0.125203	,	0.128172	,	0.122485	,	0.116496	,	0.120134	,	0.142087	,	0.124076	,	0.122489	,	0.131818	,	0.128741	,	0.129848	,	0.130286	,	0.11419	,	0.105428	,	0.0928914	,	0.113712	,	0.112584	,	0.115073	,	0.124428	,	0.114639	,	0.123588	,	0.112317	,	0.128874	,	0.140967	,	0.136308	,	0.135268	,	0.138942	,	0.14001	,	0.132327	,	0.133144	,	0.136272	,	0.114014	,	0.122077	,	0.133688	,	0.138155	,	0.136203	,	0.131381	,	0.127158	,	0.132452	,	0.11925	,	0.118095	,	0.123158	,	0.110223	,	0.119657	,	0.115864	,	0.113682	,	0.117955	,	0.116262	,	0.113689	,	0.113349	,	0.115156	,	0.11478	,	0.113671	,	0.121559	,	0.112918	,	0.114336	,	0.110708	,	0.0659316	,	0.0684321	,	0.0938499	,	0.0834746	,	0.102928	,	0.100664	,	0.096622	,	0.113057	,	0.0922414	,	0.111366	,	0.0998797	,	0.100335	,	0.109796	,	0.110554	,	0.117984	,	0.125282	,	0.111415	,	0.120678	,	0.123017	,	0.123972	,	0.130771	,	0.116112	,	0.126441	,	0.120076	,	0.114243	,	0.127784	,	0.116422	,	0.130427	,	0.130259	,	0.120643	,	0.12332	,	0.119203	,	0.130194	,	0.132631	,	0.124073	,	0.136189	,	0.12497	,	0.118623	,	0.121369	,	0.131726	,	0.126525	,	0.116765	,	0.12927	,	0.119353	,	0.11941	,	0.128836	,	0.126395	,	0.126029	,	0.117269	,	0.126876	,	0.103523	,	0.115501	,	0.119715	,	0.131473	,	0.108266
Index	,	0	,	1	,	2	,	3	,	4	,	5	,	6	,	7	,	8	,	9	,	10	,	11	,	12	,	13	,	14	,	15	,	16	,	17	,	18	,	19	,	20	,	21	,	22	,	23	,	24	,	25	,	26	,	27	,	28	,	29	,	30	,	31	,	32	,	33	,	34	,	35	,	36	,	37	,	38	,	39	,	40	,	41	,	42	,	43	,	44	,	45	,	46	,	47	,	48	,	49	,	50	,	51	,	52	,	53	,	54	,	55	,	56	,	57	,	58	,	59	,	60	,	61	,	62	,	63	,	64	,	65	,	66	,	67	,	68	,	69	,	70	,	71	,	72	,	73	,	74	,	75	,	76	,	77	,	78	,	79	,	80	,	81	,	82	,	83	,	84	,	85	,	86	,	87	,	88	,	89	,	90	,	91	,	92	,	93	,	94	,	95	,	96	,	97	,	98	,	99	,	100	,	101	,	102	,	103	,	104	,	105	,	106	,	107	,	108	,	109	,	110	,	111	,	112	,	113	,	114	,	115	,	116	,	117	,	118	,	119	,	120	,	121	,	122	,	123	,	124	,	125	,	126	,	127	,	128	,	129	,	130	,	131	,	132	,	133	,	134	,	135	,	136	,	137	,	138	,	139	,	140	,	141	,	142	,	143	,	144	,	145	,	146	,	147	,	148	,	149	,	150	,	151	,	152	,	153	,	154	,	155	,	156	,	157	,	158	,	159	,	160	,	161	,	162	,	163


AccelerationStructure: 
Ray tracing acceleration structure building statistics: 
	Bottom Level Acceleration Structure: 
		Maximum [B]: 24505856
		Minimum [B]: 4128
		Currently Allocated [B]: 230336272
		Currently Created [num]: 3112
		Current Average [B]: 74015
		Maximum Triangles [num]: 439546
		Minimum Triangles [num]: 8
		Total Triangles [num]: 3868741
		Maximum Meshes [num]: 4
		Minimum Meshes [num]: 1
		Total Meshes [num]: 3254
	Top Level Acceleration Structure: 
		Maximum [B]: 199168
		Minimum [B]: 199168
		Currently Allocated [B]: 199168
		Total Allocated [B]: 199168
		Total Created [num]: 1
		Average Allocated [B]: 199168
		Maximum Instances [num]: 3112
		Minimum Instances [num]: 3112
		Total Instances [num]: 3112
	Scratch Buffer: 
		Maximum [B]: 3638272
		Minimum [B]: 3638272
		Currently Allocated [B]: 3638272
		Total Allocated [B]: 3638272
		Total Created [num]: 1
		Average Allocated [B]: 3638272
ProfilingStack: 
[PROF] Profiling statistics: 
	Scopes entered : 51387
	Scopes exited : 51387
	Overhead per scope [ticks] : 161.4
	Threads entered : 3
	Threads exited : 0
	============================
		         Sum[Mt]   Parent[%]  Samples[num]       Avg[Mt]   Last/Curr[Mt]        Self[Mt]     Self[%] 	 Name

	main:

		  211757.390 Mt   100.000 %         1 x   211757.391 Mt   211757.390 Mt    70543.628 Mt    33.313 % 	 /

		      73.554 Mt     0.035 %         1 x       73.554 Mt        0.000 Mt        1.092 Mt     1.484 % 	 ./Initialize

		       3.344 Mt     4.547 %         1 x        3.344 Mt        0.000 Mt        3.344 Mt   100.000 % 	 ../TexturedRLInitialization

		       1.704 Mt     2.316 %         1 x        1.704 Mt        0.000 Mt        1.704 Mt   100.000 % 	 ../ShadowMapRLInitialization

		       8.143 Mt    11.071 %         1 x        8.143 Mt        0.000 Mt        8.143 Mt   100.000 % 	 ../AmbientOcclusionRLInitialization

		       5.081 Mt     6.908 %         1 x        5.081 Mt        0.000 Mt        5.081 Mt   100.000 % 	 ../RasterResolveRLInitialization

		       3.997 Mt     5.433 %         1 x        3.997 Mt        0.000 Mt        3.997 Mt   100.000 % 	 ../DeferredRLInitialization

		      45.968 Mt    62.495 %         1 x       45.968 Mt        0.000 Mt        1.382 Mt     3.006 % 	 ../RayTracingRLInitialization

		      44.586 Mt    96.994 %         1 x       44.586 Mt        0.000 Mt       44.586 Mt   100.000 % 	 .../PipelineBuild

		       4.226 Mt     5.745 %         1 x        4.226 Mt        0.000 Mt        4.226 Mt   100.000 % 	 ../ResolveRLInitialization

		  141140.208 Mt    66.652 %      1690 x       83.515 Mt       82.861 Mt      256.814 Mt     0.182 % 	 ./Run

		   14764.486 Mt    10.461 %     12684 x        1.164 Mt        0.144 Mt     6788.313 Mt    45.977 % 	 ../Update

		    4131.542 Mt    27.983 %         1 x     4131.542 Mt        0.000 Mt     4060.920 Mt    98.291 % 	 .../ScenePrep

		      70.622 Mt     1.709 %         1 x       70.622 Mt        0.000 Mt       70.622 Mt   100.000 % 	 ..../SceneDesc-CreateScene

		    3844.631 Mt    26.040 %      3364 x        1.143 Mt        0.000 Mt     1377.382 Mt    35.826 % 	 .../AccelerationStructureBuild

		     950.808 Mt    24.731 %      3364 x        0.283 Mt        0.000 Mt      950.808 Mt   100.000 % 	 ..../BuildBottomLevelAS

		    1516.442 Mt    39.443 %      3364 x        0.451 Mt        0.000 Mt     1516.442 Mt   100.000 % 	 ..../BuildTopLevelAS

		  126118.908 Mt    89.357 %      1690 x       74.627 Mt       81.772 Mt        1.997 Mt     0.002 % 	 ../Render

		  126116.911 Mt    99.998 %      1690 x       74.625 Mt       81.772 Mt    25650.872 Mt    20.339 % 	 .../Render

		  100466.039 Mt    79.661 %      1676 x       59.944 Mt       62.828 Mt    98800.750 Mt    98.342 % 	 ..../RayTracing

		      79.527 Mt     0.079 %      1676 x        0.047 Mt        0.003 Mt        2.750 Mt     3.458 % 	 ...../DeferredRLPrep

		      76.777 Mt    96.542 %         1 x       76.777 Mt        0.000 Mt       10.501 Mt    13.677 % 	 ....../PrepareForRendering

		       1.535 Mt     2.000 %         1 x        1.535 Mt        0.000 Mt        1.535 Mt   100.000 % 	 ......./PrepareMaterials

		       1.869 Mt     2.434 %         1 x        1.869 Mt        0.000 Mt        1.869 Mt   100.000 % 	 ......./BuildMaterialCache

		      62.872 Mt    81.889 %         1 x       62.872 Mt        0.000 Mt       62.872 Mt   100.000 % 	 ......./PrepareDrawBundle

		    1585.763 Mt     1.578 %      1676 x        0.946 Mt        0.004 Mt       15.870 Mt     1.001 % 	 ...../RayTracingRLPrep

		     104.544 Mt     6.593 %         1 x      104.544 Mt        0.000 Mt      104.544 Mt   100.000 % 	 ....../PrepareAccelerationStructures

		       0.880 Mt     0.056 %         1 x        0.880 Mt        0.000 Mt        0.880 Mt   100.000 % 	 ....../PrepareCache

		       5.271 Mt     0.332 %         1 x        5.271 Mt        0.000 Mt        5.271 Mt   100.000 % 	 ....../BuildCache

		    1453.502 Mt    91.660 %         1 x     1453.502 Mt        0.000 Mt        0.002 Mt     0.000 % 	 ....../BuildAccelerationStructures

		    1453.500 Mt   100.000 %         1 x     1453.500 Mt        0.000 Mt        8.016 Mt     0.551 % 	 ......./AccelerationStructureBuild

		    1444.768 Mt    99.399 %         1 x     1444.768 Mt        0.000 Mt     1444.768 Mt   100.000 % 	 ......../BuildBottomLevelAS

		       0.717 Mt     0.049 %         1 x        0.717 Mt        0.000 Mt        0.717 Mt   100.000 % 	 ......../BuildTopLevelAS

		       5.696 Mt     0.359 %         1 x        5.696 Mt        0.000 Mt        5.696 Mt   100.000 % 	 ....../BuildShaderTables

		       0.001 Mt     0.000 %         1 x        0.001 Mt        0.001 Mt        0.001 Mt   100.000 % 	 ./Destroy

	WindowThread:

		  211754.662 Mt   100.000 %         1 x   211754.662 Mt   211754.662 Mt   211754.662 Mt   100.000 % 	 /

	GpuThread:

		   12185.938 Mt   100.000 %      5053 x        2.412 Mt        5.798 Mt       -1.155 Mt    -0.009 % 	 /

		      74.154 Mt     0.609 %      1690 x        0.044 Mt        0.002 Mt       74.154 Mt   100.000 % 	 ./Present

		    1411.932 Mt    11.587 %      3364 x        0.420 Mt        0.000 Mt        7.099 Mt     0.503 % 	 ./AccelerationStructureBuild

		    1024.696 Mt    72.574 %      3364 x        0.305 Mt        0.000 Mt     1024.696 Mt   100.000 % 	 ../BuildBottomLevelASGpu

		     380.137 Mt    26.923 %      3364 x        0.113 Mt        0.000 Mt      380.137 Mt   100.000 % 	 ../BuildTopLevelASGpu

		   10701.007 Mt    87.814 %      1676 x        6.385 Mt        5.796 Mt        5.882 Mt     0.055 % 	 ./RayTracingGpu

		    1741.504 Mt    16.274 %      1676 x        1.039 Mt        1.036 Mt     1741.504 Mt   100.000 % 	 ../DeferredRLGpu

		     673.722 Mt     6.296 %         1 x      673.722 Mt        0.000 Mt        0.002 Mt     0.000 % 	 ../AccelerationStructureBuild

		     672.864 Mt    99.873 %         1 x      672.864 Mt        0.000 Mt      672.864 Mt   100.000 % 	 .../BuildBottomLevelASGpu

		       0.856 Mt     0.127 %         1 x        0.856 Mt        0.000 Mt        0.856 Mt   100.000 % 	 .../BuildTopLevelASGpu

		    6246.811 Mt    58.376 %      1676 x        3.727 Mt        3.479 Mt     6246.811 Mt   100.000 % 	 ../RayTracingRLGpu

		    2033.087 Mt    18.999 %      1676 x        1.213 Mt        1.278 Mt     2033.087 Mt   100.000 % 	 ../ResolveRLGpu


	============================


