Configuration: 
Command line parameters  = 
Window width             = 1186
Window height            = 1219
Window title             = Direct3D App
Back-buffer count        = 3
Fill Triangles           = enabled
Triangles Font Clock-Wise= disabled
Fast Build AS            = disabled
Target FPS               = 0
Target UPS               = 60
Tearing                  = enabled
VSync                    = disabled
GUI rendering            = disabled
Debug layer              = enabled
GPU validation           = disabled
GPU profiling            = enabled
Render mode              = Ray Tracing
Loaded scene file        = 
Using testing scene      = disabled
BLAS duplication         = disabled
Rays per pixel           = 9
Quality preset           = Medium
Rasterization Quality    : 
  AO                     = enabled
  AO kernel size         = 4
  Shadows                = enabled
  Shadow map resolution  = 4096
  Shadow PCF kernel size = 4
  Reflections            = disabled
Ray Tracing Quality      : 
  AO                     = enabled
  AO rays                = 4
  AO kernel size         = 4
  Shadows                = enabled
  Shadow rays            = 4
  Shadow kernel size     = 4
  Reflections            = disabled

ProfilingAggregator: 
Render	,	16.7908	,	15.5036	,	18.0455	,	16.4055	,	15.3713	,	16.7824	,	18.4819	,	19.8071	,	15.9956	,	15.4342	,	15.3859	,	15.2449	,	15.1698	,	15.628	,	17.4343	,	16.7517	,	15.223	,	16.8758	,	16.8843	,	16.7671	,	15.2351	,	15.9516	,	18.215	,	16.38	,	23.8969	,	16.4176	,	15.3086	,	17.3413	,	14.9098	,	17.1715	,	15.4321	,	15.905	,	16.0438	,	16.2933	,	15.6795	,	17.9342	,	17.9984	,	18.3379	,	15.6837	,	16.5924	,	17.1229	,	14.8345	,	16.6515	,	15.3464	,	15.113	,	15.2277	,	15.1042	,	15.0921	,	16.4116	,	15.9705	,	16.7461	,	15.4173	,	14.6894	,	17.1456	,	16.1058	,	17.8309	,	16.4298	,	15.1552	,	15.2269	,	15.6666	,	15.7669	,	15.258	,	15.1684	,	15.5488	,	18.7947	,	15.878	,	15.5055	,	28.2376	,	15.5707	,	15.3321	,	16.0207	,	14.8363	,	16.289	,	15.0032
Update	,	0.0251	,	0.0243	,	0.0813	,	0.0851	,	0.031	,	0.0829	,	0.0838	,	0.0867	,	0.0839	,	0.0268	,	0.0823	,	0.0817	,	0.0243	,	0.0833	,	0.0292	,	0.0293	,	0.0243	,	0.029	,	0.0242	,	0.0289	,	0.0245	,	0.0849	,	0.082	,	0.0263	,	0.1138	,	0.0837	,	0.1007	,	0.0407	,	0.0227	,	0.0288	,	0.0821	,	0.0837	,	0.0823	,	0.0291	,	0.0246	,	0.1061	,	0.0966	,	0.1064	,	0.0229	,	0.0889	,	0.0287	,	0.0826	,	0.0273	,	0.0244	,	0.0797	,	0.085	,	0.0243	,	0.0245	,	0.0295	,	0.0241	,	0.0876	,	0.0249	,	0.0241	,	0.0872	,	0.0813	,	0.0831	,	0.0821	,	0.0367	,	0.079	,	0.0856	,	0.0844	,	0.0835	,	0.0245	,	0.0241	,	0.0823	,	0.0808	,	0.0239	,	0.0295	,	0.1006	,	0.0267	,	0.029	,	0.0244	,	0.0291	,	0.0803
RayTracing	,	8.1346	,	6.9089	,	7.6994	,	7.9726	,	6.973	,	8.5562	,	7.1415	,	11.0011	,	7.1484	,	7.3233	,	6.951	,	7.0598	,	6.9234	,	6.9774	,	8.4568	,	8.2742	,	6.9059	,	7.9659	,	7.165	,	8.1711	,	6.9883	,	7.2453	,	8.6675	,	7.0583	,	12.7489	,	7.3204	,	7.0856	,	7.0827	,	6.8829	,	8.5343	,	7.2848	,	7.3293	,	7.521	,	7.7288	,	7.1148	,	8.5209	,	7.1519	,	9.4223	,	7.1076	,	7.6347	,	8.341	,	6.9835	,	8.5524	,	6.9504	,	7.0036	,	7.021	,	6.9607	,	6.9062	,	8.1247	,	7.2068	,	8.1915	,	7.0425	,	6.8846	,	8.1488	,	7.279	,	7.3123	,	8.1357	,	7.0457	,	7.0903	,	7.3399	,	7.0119	,	7.176	,	6.9397	,	7.0831	,	8.1664	,	7.4393	,	7.1115	,	17.8334	,	6.9246	,	7.0342	,	7.8339	,	6.9033	,	8.2008	,	6.9227
RayTracingGpu	,	2.13565	,	2.29978	,	2.38278	,	2.45766	,	2.57078	,	2.55075	,	2.52397	,	2.4817	,	2.89706	,	2.48368	,	2.56659	,	2.46	,	2.47805	,	2.73139	,	2.46237	,	2.48403	,	2.71958	,	2.68694	,	2.46806	,	2.70998	,	2.46211	,	2.4607	,	2.67085	,	2.46221	,	2.48128	,	2.46522	,	2.55421	,	2.47914	,	2.64819	,	2.46099	,	2.48851	,	2.78659	,	2.48515	,	2.46918	,	2.4593	,	2.71661	,	2.48752	,	2.46205	,	2.48131	,	2.4665	,	2.49574	,	2.24326	,	2.18912	,	2.55027	,	2.59613	,	2.42963	,	2.42957	,	2.41773	,	2.41635	,	2.41917	,	2.43939	,	2.63622	,	2.41571	,	2.4393	,	2.43878	,	2.41302	,	2.43382	,	2.42445	,	2.40848	,	2.41626	,	2.4185	,	2.43901	,	2.74637	,	2.42125	,	2.42982	,	2.42394	,	2.54829	,	2.52682	,	2.32144	,	2.31293	,	2.31472	,	2.32186	,	2.30573	,	2.52925
DeferredRLGpu	,	0.227232	,	0.265152	,	0.2872	,	0.302432	,	0.32928	,	0.292352	,	0.305472	,	0.28656	,	0.287168	,	0.285984	,	0.281952	,	0.281472	,	0.2872	,	0.284288	,	0.282336	,	0.284192	,	0.287872	,	0.283456	,	0.284672	,	0.283008	,	0.285536	,	0.286432	,	0.283488	,	0.28464	,	0.286176	,	0.284	,	0.283168	,	0.28624	,	0.28384	,	0.2832	,	0.284096	,	0.284864	,	0.286816	,	0.282656	,	0.283776	,	0.282144	,	0.28672	,	0.28416	,	0.285184	,	0.284384	,	0.306176	,	0.243008	,	0.241952	,	0.325248	,	0.244864	,	0.264864	,	0.264576	,	0.262656	,	0.26384	,	0.262304	,	0.266368	,	0.264896	,	0.263616	,	0.266752	,	0.26576	,	0.2656	,	0.261824	,	0.264512	,	0.262144	,	0.26384	,	0.266336	,	0.26768	,	0.262464	,	0.264224	,	0.264736	,	0.26288	,	0.244576	,	0.250336	,	0.245024	,	0.24704	,	0.247488	,	0.247488	,	0.251488	,	0.24944
RayTracingRLGpu	,	1.01392	,	1.12438	,	1.19046	,	1.24243	,	1.33027	,	1.34845	,	1.30755	,	1.2777	,	1.69213	,	1.27702	,	1.26998	,	1.26832	,	1.27686	,	1.53117	,	1.26803	,	1.27629	,	1.51645	,	1.48538	,	1.2729	,	1.51488	,	1.26755	,	1.272	,	1.4704	,	1.26835	,	1.27939	,	1.26979	,	1.26922	,	1.27715	,	1.4448	,	1.26816	,	1.27574	,	1.5969	,	1.27722	,	1.27098	,	1.2681	,	1.51565	,	1.2792	,	1.26803	,	1.27869	,	1.27088	,	1.28368	,	1.09078	,	1.04426	,	1.3136	,	1.44176	,	1.24253	,	1.25088	,	1.24422	,	1.24253	,	1.24864	,	1.25094	,	1.45229	,	1.24179	,	1.25008	,	1.24614	,	1.24288	,	1.25011	,	1.24371	,	1.24227	,	1.24189	,	1.24262	,	1.25555	,	1.56688	,	1.24154	,	1.25075	,	1.24317	,	1.39472	,	1.35827	,	1.15363	,	1.14954	,	1.1559	,	1.15693	,	1.14938	,	1.34986
ResolveRLGpu	,	0.891872	,	0.905056	,	0.901952	,	0.90848	,	0.906752	,	0.906272	,	0.906624	,	0.915392	,	0.91568	,	0.916192	,	1.00992	,	0.906848	,	0.911104	,	0.912864	,	0.90656	,	0.918848	,	0.911424	,	0.913984	,	0.908576	,	0.906944	,	0.907264	,	0.899776	,	0.91328	,	0.90592	,	0.91072	,	0.908	,	0.998336	,	0.911552	,	0.914752	,	0.904576	,	0.923648	,	0.899744	,	0.917888	,	0.912544	,	0.903328	,	0.910784	,	0.9176	,	0.906112	,	0.913792	,	0.907776	,	0.903232	,	0.906784	,	0.899296	,	0.907104	,	0.90816	,	0.917504	,	0.91184	,	0.9072	,	0.907648	,	0.905152	,	0.92	,	0.915456	,	0.905568	,	0.919584	,	0.924224	,	0.9024	,	0.916704	,	0.912576	,	0.90192	,	0.90688	,	0.90656	,	0.912416	,	0.91232	,	0.912704	,	0.910144	,	0.914336	,	0.905024	,	0.911136	,	0.91872	,	0.91392	,	0.909152	,	0.913568	,	0.903296	,	0.926176
Index	,	0	,	1	,	2	,	3	,	4	,	5	,	6	,	7	,	8	,	9	,	10	,	11	,	12	,	13	,	14	,	15	,	16	,	17	,	18	,	19	,	20	,	21	,	22	,	23	,	24	,	25	,	26	,	27	,	28	,	29	,	30	,	31	,	32	,	33	,	34	,	35	,	36	,	37	,	38	,	39	,	40	,	41	,	42	,	43	,	44	,	45	,	46	,	47	,	48	,	49	,	50	,	51	,	52	,	53	,	54	,	55	,	56	,	57	,	58	,	59	,	60	,	61	,	62	,	63	,	64	,	65	,	66	,	67	,	68	,	69	,	70	,	71	,	72	,	73

ProfilingBuildAggregator: 
BuildBottomLevelAS	,	11.8421
BuildBottomLevelASGpu	,	24.3297
BuildTopLevelAS	,	0.4317
BuildTopLevelASGpu	,	0.310816
Triangles	,	281182
Meshes	,	52
BottomLevels	,	43
TopLevelSize	,	2752
BottomLevelsSize	,	15869344
Index	,	0

FpsAggregator: 
FPS	,	24	,	34	,	38	,	38	,	40	,	40	,	41	,	39	,	35	,	30	,	32	,	35	,	36	,	36	,	34	,	32	,	35	,	32	,	33	,	30	,	34	,	33	,	35	,	41	,	41	,	41	,	41	,	38	,	39	,	41	,	39	,	41	,	41	,	38	,	42	,	38	,	41	,	42	,	42	,	41	,	37	,	40	,	38	,	40	,	39	,	39	,	39	,	39	,	39	,	39	,	40	,	38	,	38	,	38	,	40	,	39	,	39	,	40	,	41	,	39	,	40	,	41	,	39	,	38	,	40	,	40	,	41	,	33	,	29	,	38	,	39	,	39	,	37	,	41
UPS	,	182	,	60	,	61	,	61	,	61	,	59	,	60	,	60	,	52	,	369	,	61	,	61	,	61	,	59	,	61	,	62	,	62	,	60	,	56	,	652	,	62	,	59	,	61	,	62	,	59	,	62	,	60	,	61	,	61	,	61	,	59	,	62	,	61	,	61	,	61	,	61	,	61	,	62	,	62	,	60	,	61	,	60	,	61	,	61	,	60	,	62	,	61	,	62	,	60	,	61	,	61	,	61	,	59	,	62	,	61	,	60	,	61	,	62	,	59	,	62	,	61	,	61	,	60	,	61	,	60	,	62	,	61	,	49	,	578	,	62	,	61	,	61	,	56	,	67
FrameTime	,	42.5042	,	29.4833	,	26.8694	,	26.8108	,	25.0296	,	25.0342	,	24.4269	,	25.9889	,	171.381	,	33.7544	,	31.3316	,	28.9595	,	28.2474	,	27.9071	,	29.8099	,	31.9119	,	29.4645	,	31.2692	,	327.307	,	33.7376	,	29.799	,	30.4877	,	28.8356	,	24.7337	,	24.47	,	24.8169	,	24.5667	,	26.4624	,	26.0172	,	24.8758	,	25.8229	,	24.9207	,	24.8695	,	26.4098	,	24.3213	,	26.6359	,	25.3184	,	24.4331	,	24.208	,	24.6237	,	27.1271	,	25.4168	,	26.4439	,	25.3997	,	26.2819	,	26.1185	,	26.1816	,	26.1057	,	26.0632	,	25.8771	,	25.5989	,	26.317	,	26.733	,	26.5114	,	25.3383	,	25.9724	,	26.4058	,	25.3245	,	24.4175	,	26.0486	,	25.4209	,	24.7438	,	25.6955	,	26.4219	,	25.4028	,	25.4606	,	24.8575	,	286.605	,	34.7909	,	26.622	,	26.6616	,	25.6486	,	28.0713	,	24.801
GigaRays/s	,	0.284158	,	0.409652	,	0.449505	,	0.450487	,	0.482546	,	0.482456	,	0.494452	,	0.464733	,	0.0704738	,	0.357817	,	0.385487	,	0.417062	,	0.427576	,	0.43279	,	0.405164	,	0.378477	,	0.409914	,	0.386256	,	0.0369008	,	0.357996	,	0.405313	,	0.396156	,	0.418854	,	0.488317	,	0.49358	,	0.486682	,	0.491637	,	0.456418	,	0.464228	,	0.485528	,	0.46772	,	0.484654	,	0.485652	,	0.457326	,	0.496598	,	0.453444	,	0.477041	,	0.494325	,	0.498923	,	0.4905	,	0.445235	,	0.475194	,	0.456736	,	0.475513	,	0.459552	,	0.462427	,	0.461313	,	0.462653	,	0.463409	,	0.466742	,	0.471813	,	0.458939	,	0.451798	,	0.455574	,	0.476667	,	0.465028	,	0.457396	,	0.476927	,	0.494642	,	0.463669	,	0.475117	,	0.488118	,	0.47004	,	0.457117	,	0.475457	,	0.474377	,	0.485885	,	0.0421413	,	0.347157	,	0.453682	,	0.453008	,	0.470899	,	0.430258	,	0.486993
Index	,	0	,	1	,	2	,	3	,	4	,	5	,	6	,	7	,	8	,	9	,	10	,	11	,	12	,	13	,	14	,	15	,	16	,	17	,	18	,	19	,	20	,	21	,	22	,	23	,	24	,	25	,	26	,	27	,	28	,	29	,	30	,	31	,	32	,	33	,	34	,	35	,	36	,	37	,	38	,	39	,	40	,	41	,	42	,	43	,	44	,	45	,	46	,	47	,	48	,	49	,	50	,	51	,	52	,	53	,	54	,	55	,	56	,	57	,	58	,	59	,	60	,	61	,	62	,	63	,	64	,	65	,	66	,	67	,	68	,	69	,	70	,	71	,	72	,	73


AccelerationStructure: 
Ray tracing acceleration structure building statistics: 
	Bottom Level Acceleration Structure: 
		Maximum [B]: 2940416
		Minimum [B]: 6256
		Currently Allocated [B]: 15869344
		Currently Created [num]: 43
		Current Average [B]: 369054
		Maximum Triangles [num]: 52674
		Minimum Triangles [num]: 27
		Total Triangles [num]: 281182
		Maximum Meshes [num]: 2
		Minimum Meshes [num]: 1
		Total Meshes [num]: 52
	Top Level Acceleration Structure: 
		Maximum [B]: 2752
		Minimum [B]: 2752
		Currently Allocated [B]: 2752
		Total Allocated [B]: 2752
		Total Created [num]: 1
		Average Allocated [B]: 2752
		Maximum Instances [num]: 43
		Minimum Instances [num]: 43
		Total Instances [num]: 43
	Scratch Buffer: 
		Maximum [B]: 2344448
		Minimum [B]: 2344448
		Currently Allocated [B]: 2344448
		Total Allocated [B]: 2344448
		Total Created [num]: 1
		Average Allocated [B]: 2344448
ProfilingStack: 
[PROF] Profiling statistics: 
	Scopes entered : 37375
	Scopes exited : 37375
	Overhead per scope [ticks] : 162.3
	Threads entered : 3
	Threads exited : 0
	============================
		         Sum[Mt]   Parent[%]  Samples[num]       Avg[Mt]   Last/Curr[Mt]        Self[Mt]     Self[%] 	 Name

	main:

		  101008.681 Mt   100.000 %         1 x   101008.682 Mt   101008.681 Mt    54149.719 Mt    53.609 % 	 /

		      63.536 Mt     0.063 %         1 x       63.536 Mt        0.000 Mt        0.683 Mt     1.075 % 	 ./Initialize

		       2.850 Mt     4.486 %         1 x        2.850 Mt        0.000 Mt        2.850 Mt   100.000 % 	 ../TexturedRLInitialization

		       1.507 Mt     2.371 %         1 x        1.507 Mt        0.000 Mt        1.507 Mt   100.000 % 	 ../ShadowMapRLInitialization

		       7.378 Mt    11.612 %         1 x        7.378 Mt        0.000 Mt        7.378 Mt   100.000 % 	 ../AmbientOcclusionRLInitialization

		       5.424 Mt     8.537 %         1 x        5.424 Mt        0.000 Mt        5.424 Mt   100.000 % 	 ../RasterResolveRLInitialization

		       4.069 Mt     6.405 %         1 x        4.069 Mt        0.000 Mt        4.069 Mt   100.000 % 	 ../DeferredRLInitialization

		      36.678 Mt    57.729 %         1 x       36.678 Mt        0.000 Mt        1.488 Mt     4.056 % 	 ../RayTracingRLInitialization

		      35.191 Mt    95.944 %         1 x       35.191 Mt        0.000 Mt       35.191 Mt   100.000 % 	 .../PipelineBuild

		       4.947 Mt     7.786 %         1 x        4.947 Mt        0.000 Mt        4.947 Mt   100.000 % 	 ../ResolveRLInitialization

		   46795.425 Mt    46.328 %      2813 x       16.635 Mt       15.368 Mt      136.587 Mt     0.292 % 	 ./Run

		     674.672 Mt     1.442 %      6047 x        0.112 Mt        0.025 Mt      537.190 Mt    79.622 % 	 ../Update

		      62.223 Mt     9.223 %         1 x       62.223 Mt        0.000 Mt       55.200 Mt    88.713 % 	 .../ScenePrep

		       7.023 Mt    11.287 %         1 x        7.023 Mt        0.000 Mt        7.023 Mt   100.000 % 	 ..../SceneDesc-CreateScene

		      75.259 Mt    11.155 %        62 x        1.214 Mt        0.000 Mt       26.074 Mt    34.646 % 	 .../AccelerationStructureBuild

		      21.323 Mt    28.333 %        62 x        0.344 Mt        0.000 Mt       21.323 Mt   100.000 % 	 ..../BuildBottomLevelAS

		      27.862 Mt    37.021 %        62 x        0.449 Mt        0.000 Mt       27.862 Mt   100.000 % 	 ..../BuildTopLevelAS

		   45984.166 Mt    98.266 %      2813 x       16.347 Mt       15.260 Mt        3.095 Mt     0.007 % 	 ../Render

		   45981.071 Mt    99.993 %      2813 x       16.346 Mt       15.258 Mt    24491.893 Mt    53.265 % 	 .../Render

		   21489.179 Mt    46.735 %      2811 x        7.645 Mt        6.953 Mt    21454.096 Mt    99.837 % 	 ..../RayTracing

		       8.806 Mt     0.041 %      2811 x        0.003 Mt        0.001 Mt        4.140 Mt    47.012 % 	 ...../DeferredRLPrep

		       4.666 Mt    52.988 %         1 x        4.666 Mt        0.000 Mt        2.375 Mt    50.893 % 	 ....../PrepareForRendering

		       0.060 Mt     1.288 %         1 x        0.060 Mt        0.000 Mt        0.060 Mt   100.000 % 	 ......./PrepareMaterials

		       0.262 Mt     5.617 %         1 x        0.262 Mt        0.000 Mt        0.262 Mt   100.000 % 	 ......./BuildMaterialCache

		       1.969 Mt    42.203 %         1 x        1.969 Mt        0.000 Mt        1.969 Mt   100.000 % 	 ......./PrepareDrawBundle

		      26.276 Mt     0.122 %      2811 x        0.009 Mt        0.001 Mt       11.137 Mt    42.385 % 	 ...../RayTracingRLPrep

		       1.364 Mt     5.193 %         1 x        1.364 Mt        0.000 Mt        1.364 Mt   100.000 % 	 ....../PrepareAccelerationStructures

		       0.050 Mt     0.189 %         1 x        0.050 Mt        0.000 Mt        0.050 Mt   100.000 % 	 ....../PrepareCache

		       0.506 Mt     1.927 %         1 x        0.506 Mt        0.000 Mt        0.506 Mt   100.000 % 	 ....../BuildCache

		      12.843 Mt    48.876 %         1 x       12.843 Mt        0.000 Mt        0.001 Mt     0.009 % 	 ....../BuildAccelerationStructures

		      12.842 Mt    99.991 %         1 x       12.842 Mt        0.000 Mt        0.568 Mt     4.422 % 	 ......./AccelerationStructureBuild

		      11.842 Mt    92.216 %         1 x       11.842 Mt        0.000 Mt       11.842 Mt   100.000 % 	 ......../BuildBottomLevelAS

		       0.432 Mt     3.362 %         1 x        0.432 Mt        0.000 Mt        0.432 Mt   100.000 % 	 ......../BuildTopLevelAS

		       0.376 Mt     1.430 %         1 x        0.376 Mt        0.000 Mt        0.376 Mt   100.000 % 	 ....../BuildShaderTables

		       0.001 Mt     0.000 %         1 x        0.001 Mt        0.001 Mt        0.001 Mt   100.000 % 	 ./Destroy

	WindowThread:

		  101007.004 Mt   100.000 %         1 x   101007.004 Mt   101007.004 Mt   101007.004 Mt   100.000 % 	 /

	GpuThread:

		    7229.666 Mt   100.000 %      2874 x        2.516 Mt        2.309 Mt        1.264 Mt     0.017 % 	 /

		      31.239 Mt     0.432 %      2813 x        0.011 Mt        0.001 Mt       31.239 Mt   100.000 % 	 ./Present

		      52.933 Mt     0.732 %        62 x        0.854 Mt        0.000 Mt        0.122 Mt     0.230 % 	 ./AccelerationStructureBuild

		      44.701 Mt    84.449 %        62 x        0.721 Mt        0.000 Mt       44.701 Mt   100.000 % 	 ../BuildBottomLevelASGpu

		       8.110 Mt    15.321 %        62 x        0.131 Mt        0.000 Mt        8.110 Mt   100.000 % 	 ../BuildTopLevelASGpu

		    7144.231 Mt    98.818 %      2811 x        2.542 Mt        2.306 Mt       10.831 Mt     0.152 % 	 ./RayTracingGpu

		     784.763 Mt    10.985 %      2811 x        0.279 Mt        0.244 Mt      784.763 Mt   100.000 % 	 ../DeferredRLGpu

		      24.642 Mt     0.345 %         1 x       24.642 Mt        0.000 Mt        0.001 Mt     0.006 % 	 ../AccelerationStructureBuild

		      24.330 Mt    98.733 %         1 x       24.330 Mt        0.000 Mt       24.330 Mt   100.000 % 	 .../BuildBottomLevelASGpu

		       0.311 Mt     1.261 %         1 x        0.311 Mt        0.000 Mt        0.311 Mt   100.000 % 	 .../BuildTopLevelASGpu

		    3711.634 Mt    51.953 %      2811 x        1.320 Mt        1.152 Mt     3711.634 Mt   100.000 % 	 ../RayTracingRLGpu

		    2612.362 Mt    36.566 %      2811 x        0.929 Mt        0.905 Mt     2612.362 Mt   100.000 % 	 ../ResolveRLGpu


	============================


