Configuration: 
Command line parameters  = 
Window width             = 1024
Window height            = 768
Window title             = Direct3D App
Back-buffer count        = 3
Fill Triangles           = enabled
Triangles Font Clock-Wise= disabled
Fast Build AS            = disabled
Target FPS               = 0
Target UPS               = 60
Tearing                  = enabled
VSync                    = disabled
GUI rendering            = disabled
Debug layer              = enabled
GPU validation           = disabled
GPU profiling            = enabled
Render mode              = Ray Tracing
Loaded scene file        = 
Using testing scene      = disabled
BLAS duplication         = disabled
Rays per pixel           = 14
Quality preset           = High
Rasterization Quality    : 
  AO                     = enabled
  AO kernel size         = 4
  Shadows                = enabled
  Shadow map resolution  = 4096
  Shadow PCF kernel size = 4
  Reflections            = enabled
Ray Tracing Quality      : 
  AO                     = enabled
  AO rays                = 4
  AO kernel size         = 4
  Shadows                = enabled
  Shadow rays            = 4
  Shadow kernel size     = 4
  Reflections            = enabled

ProfilingAggregator: 
Update	,	585.858	,	587.714	,	589.735	,	591.817	,	594.404	,	596.381	,	598.382	,	600.773	,	602.693	,	604.541	,	606.366	,	608.104	,	609.849	,	612.252	,	614.285	,	616.373	,	618.609	,	621.588	,	623.856	,	626.258	,	628.612	,	630.847	,	632.827	,	634.532	,	636.79	,	639.037	,	641.179	,	643.051	,	644.803	,	646.544	,	648.279	,	649.951	,	651.62	,	653.876	,	655.664	,	657.653	,	659.552	,	661.182	,	662.847	,	664.451	,	666.057	,	667.909	,	669.895	,	672.093	,	674.157	,	676.21	,	678.965	,	681.548	,	683.917	,	686.397	,	689.762	,	692.476	,	695.302	,	698.59	,	701.786	,	705.431	,	708.1	,	710.888	,	713.481	,	716.171	,	718.905
Index	,	0	,	1	,	2	,	3	,	4	,	5	,	6	,	7	,	8	,	9	,	10	,	11	,	12	,	13	,	14	,	15	,	16	,	17	,	18	,	19	,	20	,	21	,	22	,	23	,	24	,	25	,	26	,	27	,	28	,	29	,	30	,	31	,	32	,	33	,	34	,	35	,	36	,	37	,	38	,	39	,	40	,	41	,	42	,	43	,	44	,	45	,	46	,	47	,	48	,	49	,	50	,	51	,	52	,	53	,	54	,	55	,	56	,	57	,	58	,	59	,	60

ProfilingBuildAggregator: 
BuildBottomLevelAS	,	0.2393	,	0.2337	,	0.2443	,	0.2766	,	0.4885	,	0.2311	,	0.2497	,	0.2981	,	0.2304	,	0.2374	,	0.2463	,	0.2533	,	0.2471	,	0.3443	,	0.2424	,	0.2797	,	0.2827	,	0.4136	,	0.2418	,	0.3726	,	0.2857	,	0.2622	,	0.2658	,	0.2203	,	0.3472	,	0.3195	,	0.2411	,	0.2285	,	0.2226	,	0.219	,	0.2335	,	0.2259	,	0.2279	,	0.3703	,	0.2316	,	0.2533	,	0.218	,	0.2224	,	0.2219	,	0.2235	,	0.211	,	0.2389	,	0.2625	,	0.2737	,	0.259	,	0.2875	,	0.3028	,	0.286	,	0.2692	,	0.2981	,	0.4729	,	0.3299	,	0.3691	,	0.4203	,	0.3926	,	0.4548	,	0.3332	,	0.3271	,	0.317	,	0.3762	,	0.2965
BuildBottomLevelASGpu	,	0.087392	,	0.227936	,	0.32512	,	0.410528	,	0.341408	,	0.237376	,	0.240064	,	0.445696	,	0.166912	,	0.1728	,	0.140672	,	0.096416	,	0.137952	,	0.097536	,	0.163936	,	0.149856	,	0.399904	,	0.458464	,	0.247776	,	0.25392	,	0.26848	,	0.231072	,	0.228448	,	0.128832	,	0.265312	,	0.308736	,	0.174208	,	0.116	,	0.1008	,	0.106144	,	0.123424	,	0.115008	,	0.115872	,	0.128096	,	0.161056	,	0.147776	,	0.170016	,	0.1	,	0.10656	,	0.112192	,	0.111776	,	0.19712	,	0.20816	,	0.42928	,	0.511776	,	0.447232	,	0.676992	,	0.491808	,	0.544	,	0.554272	,	0.64912	,	0.455712	,	0.673248	,	0.827648	,	0.933088	,	0.56128	,	0.339232	,	0.48608	,	0.555712	,	0.546912	,	0.406944
BuildTopLevelAS	,	0.3716	,	0.363	,	0.3653	,	0.3566	,	0.4385	,	0.3626	,	0.421	,	0.3978	,	0.4182	,	0.3799	,	0.4032	,	0.3689	,	0.3606	,	0.5062	,	0.428	,	0.4177	,	0.3985	,	0.4148	,	0.3898	,	0.4759	,	0.3789	,	0.5548	,	0.3668	,	0.3565	,	0.4971	,	0.4344	,	0.415	,	0.3804	,	0.3901	,	0.3933	,	0.3945	,	0.3971	,	0.3555	,	0.4951	,	0.3704	,	0.4061	,	0.364	,	0.3677	,	0.3512	,	0.3515	,	0.3694	,	0.3782	,	0.4046	,	0.3787	,	0.3782	,	0.3961	,	0.3955	,	0.422	,	0.3722	,	0.3767	,	0.4878	,	0.4998	,	0.5064	,	0.5173	,	0.4727	,	0.5958	,	0.5233	,	0.6325	,	0.469	,	0.4888	,	0.4809
BuildTopLevelASGpu	,	0.055264	,	0.055104	,	0.056576	,	0.060416	,	0.054816	,	0.055776	,	0.054976	,	0.059616	,	0.054784	,	0.055872	,	0.055776	,	0.054944	,	0.055232	,	0.055808	,	0.055776	,	0.059552	,	0.059616	,	0.060032	,	0.057504	,	0.054976	,	0.054976	,	0.05504	,	0.05584	,	0.054944	,	0.058848	,	0.056384	,	0.055328	,	0.055776	,	0.055776	,	0.055744	,	0.055648	,	0.054944	,	0.056032	,	0.05472	,	0.054944	,	0.055744	,	0.054912	,	0.054944	,	0.055648	,	0.055904	,	0.054944	,	0.05504	,	0.055296	,	0.058176	,	0.055968	,	0.055808	,	0.060736	,	0.060608	,	0.056064	,	0.0568	,	0.060896	,	0.055776	,	0.056544	,	0.079584	,	0.079552	,	0.083328	,	0.07952	,	0.079552	,	0.079552	,	0.080352	,	0.08016
Triangles	,	32	,	4120	,	15584	,	45330	,	20655	,	7167	,	5600	,	46560	,	288	,	282	,	143	,	28	,	75	,	27	,	132	,	108	,	39389	,	52674	,	1812	,	2934	,	2305	,	1290	,	1919	,	122	,	8917	,	19389	,	281	,	47	,	34	,	46	,	63	,	52	,	50	,	102	,	142	,	125	,	183	,	34	,	33	,	48	,	34	,	1658	,	1368	,	7000	,	8584	,	7794	,	37536	,	6246	,	14409	,	23123	,	23437	,	9929	,	29460	,	23399	,	29275	,	1620	,	192	,	1572	,	1362	,	1999	,	306
Meshes	,	1	,	1	,	2	,	2	,	2	,	1	,	1	,	2	,	1	,	1	,	1	,	1	,	1	,	1	,	1	,	1	,	2	,	2	,	2	,	2	,	2	,	1	,	1	,	1	,	1	,	1	,	1	,	1	,	1	,	1	,	1	,	1	,	1	,	1	,	1	,	1	,	1	,	1	,	1	,	1	,	1	,	1	,	1	,	1	,	1	,	1	,	1	,	1	,	1	,	1	,	1	,	1	,	1	,	1	,	1	,	1	,	1	,	1	,	1	,	1	,	1
BottomLevels	,	1	,	1	,	1	,	1	,	1	,	1	,	1	,	1	,	1	,	1	,	1	,	1	,	1	,	1	,	1	,	1	,	1	,	1	,	1	,	1	,	1	,	1	,	1	,	1	,	1	,	1	,	1	,	1	,	1	,	1	,	1	,	1	,	1	,	1	,	1	,	1	,	1	,	1	,	1	,	1	,	1	,	1	,	1	,	1	,	1	,	1	,	1	,	1	,	1	,	1	,	1	,	1	,	1	,	1	,	1	,	1	,	1	,	1	,	1	,	1	,	1
TopLevelSize	,	64	,	64	,	64	,	64	,	64	,	64	,	64	,	64	,	64	,	64	,	64	,	64	,	64	,	64	,	64	,	64	,	64	,	64	,	64	,	64	,	64	,	64	,	64	,	64	,	64	,	64	,	64	,	64	,	64	,	64	,	64	,	64	,	64	,	64	,	64	,	64	,	64	,	64	,	64	,	64	,	64	,	64	,	64	,	64	,	64	,	64	,	64	,	64	,	64	,	64	,	64	,	64	,	64	,	64	,	64	,	64	,	64	,	64	,	64	,	64	,	64
BottomLevelsSize	,	6528	,	233856	,	872832	,	2531072	,	1155712	,	403712	,	316672	,	2599424	,	20992	,	19840	,	12544	,	6256	,	8496	,	6256	,	12304	,	10752	,	2199808	,	2940416	,	105600	,	167936	,	132864	,	76032	,	111104	,	11392	,	501632	,	1085056	,	19840	,	7168	,	6800	,	7168	,	8320	,	7888	,	7888	,	10144	,	12544	,	11392	,	14976	,	6800	,	6800	,	7680	,	6800	,	97152	,	80896	,	498560	,	606720	,	555392	,	2637440	,	442240	,	1015680	,	1625856	,	1647488	,	700288	,	2071040	,	1646976	,	2056960	,	120832	,	18432	,	115712	,	100352	,	147456	,	26112
Index	,	0	,	1	,	2	,	3	,	4	,	5	,	6	,	7	,	8	,	9	,	10	,	11	,	12	,	13	,	14	,	15	,	16	,	17	,	18	,	19	,	20	,	21	,	22	,	23	,	24	,	25	,	26	,	27	,	28	,	29	,	30	,	31	,	32	,	33	,	34	,	35	,	36	,	37	,	38	,	39	,	40	,	41	,	42	,	43	,	44	,	45	,	46	,	47	,	48	,	49	,	50	,	51	,	52	,	53	,	54	,	55	,	56	,	57	,	58	,	59	,	60

FpsAggregator: 
FPS	,	0	,	0	,	0	,	0	,	0	,	0	,	0	,	0	,	0	,	0	,	0	,	0	,	0	,	0	,	0	,	0	,	0	,	0	,	0	,	0	,	0	,	0	,	0	,	0	,	0	,	0	,	0	,	0	,	0	,	0	,	0	,	0	,	0	,	0	,	0	,	0	,	0	,	0	,	0	,	0	,	0	,	0	,	0	,	0	,	0	,	0	,	0	,	0	,	0	,	0	,	0	,	0	,	0	,	0	,	0	,	0	,	0	,	0	,	0	,	0	,	0
UPS	,	0	,	0	,	0	,	0	,	0	,	0	,	0	,	0	,	0	,	0	,	0	,	0	,	0	,	0	,	0	,	0	,	0	,	0	,	0	,	0	,	0	,	0	,	0	,	0	,	0	,	0	,	0	,	0	,	0	,	0	,	0	,	0	,	0	,	0	,	0	,	0	,	0	,	0	,	0	,	0	,	0	,	0	,	0	,	0	,	0	,	0	,	0	,	0	,	0	,	0	,	0	,	0	,	0	,	0	,	0	,	0	,	0	,	0	,	0	,	0	,	0
FrameTime	,	0	,	0	,	0	,	0	,	0	,	0	,	0	,	0	,	0	,	0	,	0	,	0	,	0	,	0	,	0	,	0	,	0	,	0	,	0	,	0	,	0	,	0	,	0	,	0	,	0	,	0	,	0	,	0	,	0	,	0	,	0	,	0	,	0	,	0	,	0	,	0	,	0	,	0	,	0	,	0	,	0	,	0	,	0	,	0	,	0	,	0	,	0	,	0	,	0	,	0	,	0	,	0	,	0	,	0	,	0	,	0	,	0	,	0	,	0	,	0	,	0
GigaRays/s	,	0	,	0	,	0	,	0	,	0	,	0	,	0	,	0	,	0	,	0	,	0	,	0	,	0	,	0	,	0	,	0	,	0	,	0	,	0	,	0	,	0	,	0	,	0	,	0	,	0	,	0	,	0	,	0	,	0	,	0	,	0	,	0	,	0	,	0	,	0	,	0	,	0	,	0	,	0	,	0	,	0	,	0	,	0	,	0	,	0	,	0	,	0	,	0	,	0	,	0	,	0	,	0	,	0	,	0	,	0	,	0	,	0	,	0	,	0	,	0	,	0
Index	,	0	,	1	,	2	,	3	,	4	,	5	,	6	,	7	,	8	,	9	,	10	,	11	,	12	,	13	,	14	,	15	,	16	,	17	,	18	,	19	,	20	,	21	,	22	,	23	,	24	,	25	,	26	,	27	,	28	,	29	,	30	,	31	,	32	,	33	,	34	,	35	,	36	,	37	,	38	,	39	,	40	,	41	,	42	,	43	,	44	,	45	,	46	,	47	,	48	,	49	,	50	,	51	,	52	,	53	,	54	,	55	,	56	,	57	,	58	,	59	,	60


AccelerationStructure: 
Ray tracing acceleration structure building statistics: 
	Bottom Level Acceleration Structure: 
		Maximum [B]: 0
		Minimum [B]: 18446744073709551615
		Currently Allocated [B]: 0
		Currently Created [num]: 0
		Current Average [B]: 0
		Maximum Triangles [num]: 0
		Minimum Triangles [num]: 18446744073709551615
		Total Triangles [num]: 0
		Maximum Meshes [num]: 0
		Minimum Meshes [num]: 18446744073709551615
		Total Meshes [num]: 0
	Top Level Acceleration Structure: 
		Maximum [B]: 0
		Minimum [B]: 18446744073709551615
		Currently Allocated [B]: 0
		Total Allocated [B]: 0
		Total Created [num]: 0
		Average Allocated [B]: 0
		Maximum Instances [num]: 0
		Minimum Instances [num]: 18446744073709551615
		Total Instances [num]: 0
	Scratch Buffer: 
		Maximum [B]: 0
		Minimum [B]: 18446744073709551615
		Currently Allocated [B]: 0
		Total Allocated [B]: 0
		Total Created [num]: 0
		Average Allocated [B]: 0
ProfilingStack: 
[PROF] Profiling statistics: 
	Scopes entered : 385
	Scopes exited : 383
	Overhead per scope [ticks] : 163.3
	Threads entered : 3
	Threads exited : 0
	============================
		         Sum[Mt]   Parent[%]  Samples[num]       Avg[Mt]   Last/Curr[Mt]        Self[Mt]     Self[%] 	 Name

	main:

		    1703.005 Mt   100.000 %         1 x     1703.007 Mt     1703.005 Mt      911.787 Mt    53.540 % 	 /

		      71.197 Mt     4.181 %         1 x       71.197 Mt       71.197 Mt        1.084 Mt     1.523 % 	 ./Initialize

		       2.479 Mt     3.483 %         1 x        2.479 Mt        2.479 Mt        2.479 Mt   100.000 % 	 ../TexturedRLInitialization

		       1.372 Mt     1.927 %         1 x        1.372 Mt        1.372 Mt        1.372 Mt   100.000 % 	 ../ShadowMapRLInitialization

		       7.119 Mt     9.999 %         1 x        7.119 Mt        7.119 Mt        7.119 Mt   100.000 % 	 ../AmbientOcclusionRLInitialization

		       4.376 Mt     6.146 %         1 x        4.376 Mt        4.376 Mt        4.376 Mt   100.000 % 	 ../RasterResolveRLInitialization

		       3.788 Mt     5.321 %         1 x        3.788 Mt        3.788 Mt        3.788 Mt   100.000 % 	 ../DeferredRLInitialization

		      46.411 Mt    65.187 %         1 x       46.411 Mt       46.411 Mt        1.340 Mt     2.886 % 	 ../RayTracingRLInitialization

		      45.071 Mt    97.114 %         1 x       45.071 Mt       45.071 Mt       45.071 Mt   100.000 % 	 .../PipelineBuild

		       4.567 Mt     6.414 %         1 x        4.567 Mt        4.567 Mt        4.567 Mt   100.000 % 	 ../ResolveRLInitialization

		     720.127 Mt    42.286 %         1 x      720.128 Mt      720.127 Mt        0.003 Mt     0.000 % 	 ./Run

		     720.135 Mt   100.001 %         1 x      720.135 Mt      720.135 Mt       96.531 Mt    13.405 % 	 ../Update

		     555.149 Mt    77.090 %         1 x      555.149 Mt      555.149 Mt      549.976 Mt    99.068 % 	 .../ScenePrep

		       5.174 Mt     0.932 %         1 x        5.174 Mt        5.174 Mt        5.174 Mt   100.000 % 	 ..../SceneDesc-CreateScene

		      68.455 Mt     9.506 %        62 x        1.104 Mt        1.418 Mt       24.108 Mt    35.218 % 	 .../AccelerationStructureBuild

		      18.166 Mt    26.538 %        62 x        0.293 Mt        0.296 Mt       18.166 Mt   100.000 % 	 ..../BuildBottomLevelAS

		      26.180 Mt    38.244 %        62 x        0.422 Mt        0.481 Mt       26.180 Mt   100.000 % 	 ..../BuildTopLevelAS

	WindowThread:

		    1700.944 Mt   100.000 %         1 x     1700.944 Mt     1700.944 Mt     1700.944 Mt   100.000 % 	 /

	GpuThread:

		      22.302 Mt   100.000 %        61 x        0.366 Mt        0.489 Mt       -0.144 Mt    -0.644 % 	 /

		      22.446 Mt   100.644 %        62 x        0.362 Mt        0.489 Mt        0.057 Mt     0.255 % 	 ./AccelerationStructureBuild

		      18.704 Mt    83.332 %        62 x        0.302 Mt        0.407 Mt       18.704 Mt   100.000 % 	 ../BuildBottomLevelASGpu

		       3.684 Mt    16.413 %        62 x        0.059 Mt        0.080 Mt        3.684 Mt   100.000 % 	 ../BuildTopLevelASGpu


	============================


