Configuration: 
Command line parameters  = 
Window width             = 1024
Window height            = 768
Window title             = Direct3D App
Back-buffer count        = 3
Fill Triangles           = enabled
Triangles Font Clock-Wise= disabled
Fast Build AS            = disabled
Target FPS               = 0
Target UPS               = 60
Tearing                  = enabled
VSync                    = disabled
GUI rendering            = disabled
Debug layer              = enabled
GPU validation           = disabled
GPU profiling            = enabled
Render mode              = Ray Tracing
Loaded scene file        = 
Using testing scene      = disabled
BLAS duplication         = disabled
Rays per pixel           = 14
Quality preset           = High
Rasterization Quality    : 
  AO                     = enabled
  AO kernel size         = 4
  Shadows                = enabled
  Shadow map resolution  = 4096
  Shadow PCF kernel size = 4
  Reflections            = enabled
Ray Tracing Quality      : 
  AO                     = enabled
  AO rays                = 4
  AO kernel size         = 4
  Shadows                = enabled
  Shadow rays            = 4
  Shadow kernel size     = 4
  Reflections            = enabled

ProfilingAggregator: 
Update	,	435.997	,	438.019	,	440.208	,	442.582	,	445.135	,	447.656	,	449.668	,	451.856	,	453.561	,	455.265	,	456.888	,	458.471	,	460.571	,	462.207	,	464.172	,	466.286	,	468.475	,	470.717	,	472.621	,	474.513	,	476.651	,	478.574	,	480.492	,	482.243	,	484.169	,	486.107	,	487.904	,	489.645	,	491.613	,	493.365	,	495.128	,	496.832	,	498.506	,	500.208	,	502.086	,	503.875	,	505.66	,	507.283	,	509.12	,	511.12	,	512.83	,	515.063	,	516.876	,	519.036	,	521.177	,	523.575	,	526.146	,	528.306	,	530.572	,	532.847	,	535.538	,	538.338	,	541.068	,	543.517	,	546.045	,	548.311	,	550.568	,	552.696	,	554.955	,	556.853	,	558.603
Index	,	0	,	1	,	2	,	3	,	4	,	5	,	6	,	7	,	8	,	9	,	10	,	11	,	12	,	13	,	14	,	15	,	16	,	17	,	18	,	19	,	20	,	21	,	22	,	23	,	24	,	25	,	26	,	27	,	28	,	29	,	30	,	31	,	32	,	33	,	34	,	35	,	36	,	37	,	38	,	39	,	40	,	41	,	42	,	43	,	44	,	45	,	46	,	47	,	48	,	49	,	50	,	51	,	52	,	53	,	54	,	55	,	56	,	57	,	58	,	59	,	60

ProfilingBuildAggregator: 
BuildBottomLevelAS	,	0.2657	,	0.289	,	0.2833	,	0.3088	,	0.3422	,	0.2464	,	0.2501	,	0.3129	,	0.2219	,	0.2086	,	0.2086	,	0.221	,	0.291	,	0.2148	,	0.2906	,	0.2386	,	0.2878	,	0.3101	,	0.2487	,	0.2802	,	0.3169	,	0.2784	,	0.2489	,	0.2181	,	0.2416	,	0.2521	,	0.2362	,	0.2367	,	0.2603	,	0.2363	,	0.2316	,	0.2209	,	0.2275	,	0.2113	,	0.2457	,	0.228	,	0.2288	,	0.2234	,	0.2375	,	0.2396	,	0.2317	,	0.2742	,	0.2406	,	0.2817	,	0.2601	,	0.2718	,	0.3277	,	0.2496	,	0.2646	,	0.3224	,	0.3101	,	0.4101	,	0.3503	,	0.3055	,	0.3362	,	0.2734	,	0.2775	,	0.2865	,	0.2716	,	0.2657	,	0.2231
BuildBottomLevelASGpu	,	0.08512	,	0.236512	,	0.324704	,	0.441312	,	0.333312	,	0.250304	,	0.241056	,	0.43056	,	0.168768	,	0.174624	,	0.142688	,	0.097632	,	0.139552	,	0.099104	,	0.165984	,	0.151424	,	0.395808	,	0.456288	,	0.245824	,	0.258016	,	0.272384	,	0.232992	,	0.243712	,	0.13072	,	0.260608	,	0.312704	,	0.176288	,	0.117472	,	0.102368	,	0.107616	,	0.125216	,	0.116736	,	0.117408	,	0.13088	,	0.162656	,	0.143072	,	0.171584	,	0.100064	,	0.108352	,	0.125632	,	0.11344	,	0.201568	,	0.210016	,	0.438304	,	0.518048	,	0.452448	,	0.71968	,	0.476736	,	0.56992	,	0.538272	,	0.631808	,	0.461824	,	0.62368	,	0.546304	,	0.684192	,	0.380256	,	0.244608	,	0.339808	,	0.392224	,	0.381376	,	0.28528
BuildTopLevelAS	,	0.4002	,	0.4047	,	0.3911	,	0.3942	,	0.5399	,	0.6078	,	0.3776	,	0.3709	,	0.3573	,	0.3646	,	0.3533	,	0.3505	,	0.4145	,	0.358	,	0.4693	,	0.3938	,	0.39	,	0.3804	,	0.3689	,	0.3868	,	0.4044	,	0.399	,	0.4089	,	0.3569	,	0.4113	,	0.378	,	0.3925	,	0.3806	,	0.3899	,	0.36	,	0.4448	,	0.3603	,	0.3619	,	0.4152	,	0.3951	,	0.3893	,	0.3551	,	0.3611	,	0.3803	,	0.4421	,	0.3548	,	0.5468	,	0.3621	,	0.3878	,	0.3863	,	0.4273	,	0.4113	,	0.3873	,	0.3942	,	0.3919	,	0.5271	,	0.4992	,	0.3966	,	0.4149	,	0.3739	,	0.3669	,	0.4177	,	0.403	,	0.3758	,	0.3614	,	0.3475
BuildTopLevelASGpu	,	0.056384	,	0.055648	,	0.055968	,	0.061088	,	0.05552	,	0.060864	,	0.056768	,	0.060256	,	0.056416	,	0.055616	,	0.055328	,	0.055488	,	0.056416	,	0.056	,	0.056	,	0.060192	,	0.05776	,	0.060416	,	0.055296	,	0.055424	,	0.05552	,	0.055424	,	0.05648	,	0.056064	,	0.056288	,	0.055264	,	0.055456	,	0.055488	,	0.055488	,	0.055456	,	0.05616	,	0.055328	,	0.05536	,	0.05616	,	0.056128	,	0.055296	,	0.055456	,	0.055296	,	0.055328	,	0.060448	,	0.056032	,	0.060032	,	0.056736	,	0.05904	,	0.056224	,	0.056768	,	0.056896	,	0.057056	,	0.05584	,	0.055936	,	0.057056	,	0.05664	,	0.056768	,	0.056608	,	0.055936	,	0.055936	,	0.056064	,	0.056096	,	0.056512	,	0.055808	,	0.055808
Triangles	,	32	,	4120	,	15584	,	45330	,	20655	,	7167	,	5600	,	46560	,	288	,	282	,	143	,	28	,	75	,	27	,	132	,	108	,	39389	,	52674	,	1812	,	2934	,	2305	,	1290	,	1919	,	122	,	8917	,	19389	,	281	,	47	,	34	,	46	,	63	,	52	,	50	,	102	,	142	,	125	,	183	,	34	,	33	,	48	,	34	,	1658	,	1368	,	7000	,	8584	,	7794	,	37536	,	6246	,	14409	,	23123	,	23437	,	9929	,	29460	,	23399	,	29275	,	1620	,	192	,	1572	,	1362	,	1999	,	306
Meshes	,	1	,	1	,	2	,	2	,	2	,	1	,	1	,	2	,	1	,	1	,	1	,	1	,	1	,	1	,	1	,	1	,	2	,	2	,	2	,	2	,	2	,	1	,	1	,	1	,	1	,	1	,	1	,	1	,	1	,	1	,	1	,	1	,	1	,	1	,	1	,	1	,	1	,	1	,	1	,	1	,	1	,	1	,	1	,	1	,	1	,	1	,	1	,	1	,	1	,	1	,	1	,	1	,	1	,	1	,	1	,	1	,	1	,	1	,	1	,	1	,	1
BottomLevels	,	1	,	1	,	1	,	1	,	1	,	1	,	1	,	1	,	1	,	1	,	1	,	1	,	1	,	1	,	1	,	1	,	1	,	1	,	1	,	1	,	1	,	1	,	1	,	1	,	1	,	1	,	1	,	1	,	1	,	1	,	1	,	1	,	1	,	1	,	1	,	1	,	1	,	1	,	1	,	1	,	1	,	1	,	1	,	1	,	1	,	1	,	1	,	1	,	1	,	1	,	1	,	1	,	1	,	1	,	1	,	1	,	1	,	1	,	1	,	1	,	1
TopLevelSize	,	64	,	64	,	64	,	64	,	64	,	64	,	64	,	64	,	64	,	64	,	64	,	64	,	64	,	64	,	64	,	64	,	64	,	64	,	64	,	64	,	64	,	64	,	64	,	64	,	64	,	64	,	64	,	64	,	64	,	64	,	64	,	64	,	64	,	64	,	64	,	64	,	64	,	64	,	64	,	64	,	64	,	64	,	64	,	64	,	64	,	64	,	64	,	64	,	64	,	64	,	64	,	64	,	64	,	64	,	64	,	64	,	64	,	64	,	64	,	64	,	64
BottomLevelsSize	,	6528	,	233856	,	872832	,	2531072	,	1155712	,	403712	,	316672	,	2599424	,	20992	,	19840	,	12544	,	6256	,	8496	,	6256	,	12304	,	10752	,	2199808	,	2940416	,	105600	,	167936	,	132864	,	76032	,	111104	,	11392	,	501632	,	1085056	,	19840	,	7168	,	6800	,	7168	,	8320	,	7888	,	7888	,	10144	,	12544	,	11392	,	14976	,	6800	,	6800	,	7680	,	6800	,	97152	,	80896	,	498560	,	606720	,	555392	,	2637440	,	442240	,	1015680	,	1625856	,	1647488	,	700288	,	2071040	,	1646976	,	2056960	,	120832	,	18432	,	115712	,	100352	,	147456	,	26112
Index	,	0	,	1	,	2	,	3	,	4	,	5	,	6	,	7	,	8	,	9	,	10	,	11	,	12	,	13	,	14	,	15	,	16	,	17	,	18	,	19	,	20	,	21	,	22	,	23	,	24	,	25	,	26	,	27	,	28	,	29	,	30	,	31	,	32	,	33	,	34	,	35	,	36	,	37	,	38	,	39	,	40	,	41	,	42	,	43	,	44	,	45	,	46	,	47	,	48	,	49	,	50	,	51	,	52	,	53	,	54	,	55	,	56	,	57	,	58	,	59	,	60

FpsAggregator: 
FPS	,	0	,	0	,	0	,	0	,	0	,	0	,	0	,	0	,	0	,	0	,	0	,	0	,	0	,	0	,	0	,	0	,	0	,	0	,	0	,	0	,	0	,	0	,	0	,	0	,	0	,	0	,	0	,	0	,	0	,	0	,	0	,	0	,	0	,	0	,	0	,	0	,	0	,	0	,	0	,	0	,	0	,	0	,	0	,	0	,	0	,	0	,	0	,	0	,	0	,	0	,	0	,	0	,	0	,	0	,	0	,	0	,	0	,	0	,	0	,	0	,	0
UPS	,	0	,	0	,	0	,	0	,	0	,	0	,	0	,	0	,	0	,	0	,	0	,	0	,	0	,	0	,	0	,	0	,	0	,	0	,	0	,	0	,	0	,	0	,	0	,	0	,	0	,	0	,	0	,	0	,	0	,	0	,	0	,	0	,	0	,	0	,	0	,	0	,	0	,	0	,	0	,	0	,	0	,	0	,	0	,	0	,	0	,	0	,	0	,	0	,	0	,	0	,	0	,	0	,	0	,	0	,	0	,	0	,	0	,	0	,	0	,	0	,	0
FrameTime	,	0	,	0	,	0	,	0	,	0	,	0	,	0	,	0	,	0	,	0	,	0	,	0	,	0	,	0	,	0	,	0	,	0	,	0	,	0	,	0	,	0	,	0	,	0	,	0	,	0	,	0	,	0	,	0	,	0	,	0	,	0	,	0	,	0	,	0	,	0	,	0	,	0	,	0	,	0	,	0	,	0	,	0	,	0	,	0	,	0	,	0	,	0	,	0	,	0	,	0	,	0	,	0	,	0	,	0	,	0	,	0	,	0	,	0	,	0	,	0	,	0
GigaRays/s	,	0	,	0	,	0	,	0	,	0	,	0	,	0	,	0	,	0	,	0	,	0	,	0	,	0	,	0	,	0	,	0	,	0	,	0	,	0	,	0	,	0	,	0	,	0	,	0	,	0	,	0	,	0	,	0	,	0	,	0	,	0	,	0	,	0	,	0	,	0	,	0	,	0	,	0	,	0	,	0	,	0	,	0	,	0	,	0	,	0	,	0	,	0	,	0	,	0	,	0	,	0	,	0	,	0	,	0	,	0	,	0	,	0	,	0	,	0	,	0	,	0
Index	,	0	,	1	,	2	,	3	,	4	,	5	,	6	,	7	,	8	,	9	,	10	,	11	,	12	,	13	,	14	,	15	,	16	,	17	,	18	,	19	,	20	,	21	,	22	,	23	,	24	,	25	,	26	,	27	,	28	,	29	,	30	,	31	,	32	,	33	,	34	,	35	,	36	,	37	,	38	,	39	,	40	,	41	,	42	,	43	,	44	,	45	,	46	,	47	,	48	,	49	,	50	,	51	,	52	,	53	,	54	,	55	,	56	,	57	,	58	,	59	,	60


AccelerationStructure: 
Ray tracing acceleration structure building statistics: 
	Bottom Level Acceleration Structure: 
		Maximum [B]: 0
		Minimum [B]: 18446744073709551615
		Currently Allocated [B]: 0
		Currently Created [num]: 0
		Current Average [B]: 0
		Maximum Triangles [num]: 0
		Minimum Triangles [num]: 18446744073709551615
		Total Triangles [num]: 0
		Maximum Meshes [num]: 0
		Minimum Meshes [num]: 18446744073709551615
		Total Meshes [num]: 0
	Top Level Acceleration Structure: 
		Maximum [B]: 0
		Minimum [B]: 18446744073709551615
		Currently Allocated [B]: 0
		Total Allocated [B]: 0
		Total Created [num]: 0
		Average Allocated [B]: 0
		Maximum Instances [num]: 0
		Minimum Instances [num]: 18446744073709551615
		Total Instances [num]: 0
	Scratch Buffer: 
		Maximum [B]: 0
		Minimum [B]: 18446744073709551615
		Currently Allocated [B]: 0
		Total Allocated [B]: 0
		Total Created [num]: 0
		Average Allocated [B]: 0
ProfilingStack: 
[PROF] Profiling statistics: 
	Scopes entered : 385
	Scopes exited : 383
	Overhead per scope [ticks] : 162.6
	Threads entered : 3
	Threads exited : 0
	============================
		         Sum[Mt]   Parent[%]  Samples[num]       Avg[Mt]   Last/Curr[Mt]        Self[Mt]     Self[%] 	 Name

	main:

		    1586.046 Mt   100.000 %         1 x     1586.047 Mt     1586.046 Mt      966.890 Mt    60.962 % 	 /

		      59.930 Mt     3.779 %         1 x       59.930 Mt       59.930 Mt        0.624 Mt     1.041 % 	 ./Initialize

		       2.097 Mt     3.499 %         1 x        2.097 Mt        2.097 Mt        2.097 Mt   100.000 % 	 ../TexturedRLInitialization

		       1.228 Mt     2.049 %         1 x        1.228 Mt        1.228 Mt        1.228 Mt   100.000 % 	 ../ShadowMapRLInitialization

		       6.192 Mt    10.333 %         1 x        6.192 Mt        6.192 Mt        6.192 Mt   100.000 % 	 ../AmbientOcclusionRLInitialization

		       3.987 Mt     6.653 %         1 x        3.987 Mt        3.987 Mt        3.987 Mt   100.000 % 	 ../RasterResolveRLInitialization

		       3.560 Mt     5.941 %         1 x        3.560 Mt        3.560 Mt        3.560 Mt   100.000 % 	 ../DeferredRLInitialization

		      38.348 Mt    63.988 %         1 x       38.348 Mt       38.348 Mt        1.517 Mt     3.957 % 	 ../RayTracingRLInitialization

		      36.831 Mt    96.043 %         1 x       36.831 Mt       36.831 Mt       36.831 Mt   100.000 % 	 .../PipelineBuild

		       3.893 Mt     6.497 %         1 x        3.893 Mt        3.893 Mt        3.893 Mt   100.000 % 	 ../ResolveRLInitialization

		     559.294 Mt    35.263 %         1 x      559.295 Mt      559.294 Mt        0.003 Mt     0.000 % 	 ./Run

		     559.299 Mt   100.001 %         1 x      559.299 Mt      559.298 Mt       77.498 Mt    13.856 % 	 ../Update

		     417.687 Mt    74.681 %         1 x      417.687 Mt      417.687 Mt      413.068 Mt    98.894 % 	 .../ScenePrep

		       4.619 Mt     1.106 %         1 x        4.619 Mt        4.619 Mt        4.619 Mt   100.000 % 	 ..../SceneDesc-CreateScene

		      64.113 Mt    11.463 %        62 x        1.034 Mt        0.869 Mt       22.215 Mt    34.650 % 	 .../AccelerationStructureBuild

		      16.910 Mt    26.376 %        62 x        0.273 Mt        0.223 Mt       16.910 Mt   100.000 % 	 ..../BuildBottomLevelAS

		      24.988 Mt    38.974 %        62 x        0.403 Mt        0.347 Mt       24.988 Mt   100.000 % 	 ..../BuildTopLevelAS

	WindowThread:

		    1584.355 Mt   100.000 %         1 x     1584.355 Mt     1584.355 Mt     1584.355 Mt   100.000 % 	 /

	GpuThread:

		      20.819 Mt   100.000 %        61 x        0.341 Mt        0.342 Mt       -0.143 Mt    -0.685 % 	 /

		      20.962 Mt   100.685 %        62 x        0.338 Mt        0.342 Mt        0.063 Mt     0.299 % 	 ./AccelerationStructureBuild

		      17.392 Mt    82.971 %        62 x        0.281 Mt        0.285 Mt       17.392 Mt   100.000 % 	 ../BuildBottomLevelASGpu

		       3.507 Mt    16.730 %        62 x        0.057 Mt        0.056 Mt        3.507 Mt   100.000 % 	 ../BuildTopLevelASGpu


	============================


