Configuration: 
Command line parameters  = 
Window width             = 1024
Window height            = 768
Window title             = Direct3D App
Back-buffer count        = 3
Fill Triangles           = enabled
Triangles Font Clock-Wise= disabled
Fast Build AS            = disabled
Target FPS               = 0
Target UPS               = 60
Tearing                  = enabled
VSync                    = disabled
GUI rendering            = disabled
Debug layer              = enabled
GPU validation           = disabled
GPU profiling            = enabled
Render mode              = Ray Tracing
Loaded scene file        = 
Using testing scene      = disabled
BLAS duplication         = disabled
Rays per pixel           = 9
Quality preset           = Medium
Rasterization Quality    : 
  AO                     = enabled
  AO kernel size         = 4
  Shadows                = enabled
  Shadow map resolution  = 4096
  Shadow PCF kernel size = 4
  Reflections            = disabled
Ray Tracing Quality      : 
  AO                     = enabled
  AO rays                = 4
  AO kernel size         = 4
  Shadows                = enabled
  Shadow rays            = 4
  Shadow kernel size     = 4
  Reflections            = disabled

ProfilingAggregator: 
Render	,	1.366	,	1.366	,	1.366	,	1.366	,	1.366	,	1.366	,	1.366	,	1.366	,	1.366	,	1.366	,	1.366	,	1.366	,	1.366	,	1.366	,	1.366	,	1.366	,	1.366	,	1.366	,	1.366	,	1.366	,	1.366	,	1.366	,	1.366	,	1.366	,	1.366	,	1.366	,	1.366	,	1.366	,	1.366	,	1.366	,	1.366	,	1.366	,	1.366	,	1.366	,	1.366	,	1.366	,	1.366	,	1.366	,	1.366	,	1.366	,	1.366	,	1.366	,	1.366	,	1.366	,	1.366	,	1.366	,	1.366	,	1.366	,	1.366	,	1.366	,	1.366	,	1.366	,	1.366	,	1.366	,	1.366	,	1.366	,	1.366	,	1.366	,	1.366	,	1.366	,	1.366	,	1.366
Update	,	0.0193	,	64.889	,	67.3208	,	69.5975	,	72.1775	,	74.443	,	76.7725	,	79.4215	,	82.6633	,	84.6225	,	86.4791	,	88.4746	,	90.2274	,	92.0209	,	93.705	,	95.4809	,	97.4693	,	99.8257	,	102.37	,	104.591	,	106.597	,	108.547	,	110.425	,	112.303	,	114.27	,	116.739	,	119.852	,	122.474	,	125.139	,	127.604	,	129.776	,	132.096	,	134.413	,	137.002	,	139.204	,	141.205	,	143.03	,	144.851	,	146.638	,	148.658	,	150.447	,	152.413	,	154.347	,	156.687	,	158.954	,	161.393	,	163.668	,	167.427	,	170.215	,	172.709	,	175.206	,	177.909	,	180.285	,	183.817	,	186.44	,	189.105	,	191.537	,	193.853	,	196.166	,	199.552	,	202.231	,	204.284
Index	,	0	,	1	,	2	,	3	,	4	,	5	,	6	,	7	,	8	,	9	,	10	,	11	,	12	,	13	,	14	,	15	,	16	,	17	,	18	,	19	,	20	,	21	,	22	,	23	,	24	,	25	,	26	,	27	,	28	,	29	,	30	,	31	,	32	,	33	,	34	,	35	,	36	,	37	,	38	,	39	,	40	,	41	,	42	,	43	,	44	,	45	,	46	,	47	,	48	,	49	,	50	,	51	,	52	,	53	,	54	,	55	,	56	,	57	,	58	,	59	,	60	,	61

ProfilingBuildAggregator: 
BuildBottomLevelAS	,	0.2952	,	0.2743	,	0.2698	,	0.3702	,	0.2649	,	0.2968	,	0.3558	,	0.4304	,	0.2347	,	0.2373	,	0.2508	,	0.2477	,	0.236	,	0.2281	,	0.2298	,	0.32	,	0.3134	,	0.3238	,	0.274	,	0.2764	,	0.2213	,	0.2152	,	0.2222	,	0.2692	,	0.3097	,	0.3573	,	0.3034	,	0.3192	,	0.2707	,	0.2551	,	0.2924	,	0.2649	,	0.291	,	0.2615	,	0.248	,	0.2391	,	0.2312	,	0.2279	,	0.2442	,	0.2273	,	0.2327	,	0.2725	,	0.3823	,	0.2851	,	0.2931	,	0.2647	,	0.4509	,	0.2949	,	0.2663	,	0.3046	,	0.3036	,	0.2598	,	0.4975	,	0.3143	,	0.336	,	0.2648	,	0.2351	,	0.2555	,	0.4078	,	0.3857	,	0.2339
BuildBottomLevelASGpu	,	0.124864	,	0.334944	,	0.465088	,	0.577952	,	0.47024	,	0.341472	,	0.341024	,	0.613184	,	0.238688	,	0.246144	,	0.20112	,	0.136416	,	0.196224	,	0.138816	,	0.2336	,	0.197984	,	0.569312	,	0.657152	,	0.346304	,	0.372	,	0.383296	,	0.332192	,	0.337056	,	0.184032	,	0.3656	,	0.435552	,	0.248512	,	0.177824	,	0.157248	,	0.164064	,	0.176416	,	0.16368	,	0.162688	,	0.181472	,	0.229952	,	0.210304	,	0.241664	,	0.142304	,	0.150912	,	0.164864	,	0.158176	,	0.271936	,	0.293568	,	0.612832	,	0.728608	,	0.635584	,	0.97504	,	0.670976	,	0.779776	,	0.75872	,	0.915712	,	0.662976	,	0.923968	,	0.838592	,	0.912832	,	0.550816	,	0.35408	,	0.49632	,	0.551808	,	0.540608	,	0.40368
BuildTopLevelAS	,	0.4361	,	0.3855	,	0.3737	,	0.3914	,	0.373	,	0.4303	,	0.4299	,	0.4113	,	0.3723	,	0.3671	,	0.4083	,	0.3736	,	0.3787	,	0.3645	,	0.3598	,	0.4593	,	0.3692	,	0.3883	,	0.3707	,	0.3623	,	0.3595	,	0.3626	,	0.3648	,	0.4738	,	0.5058	,	0.5014	,	0.4342	,	0.4445	,	0.4794	,	0.408	,	0.4748	,	0.4493	,	0.4653	,	0.4104	,	0.4278	,	0.3695	,	0.3807	,	0.363	,	0.3783	,	0.3816	,	0.3682	,	0.3693	,	0.4688	,	0.3923	,	0.411	,	0.3712	,	0.4986	,	0.3837	,	0.3709	,	0.4077	,	0.3821	,	0.3863	,	0.4855	,	0.3742	,	0.3818	,	0.383	,	0.3978	,	0.3786	,	0.5178	,	0.3912	,	0.3617
BuildTopLevelASGpu	,	0.078272	,	0.079616	,	0.07984	,	0.083168	,	0.07808	,	0.079232	,	0.078848	,	0.084128	,	0.078272	,	0.077664	,	0.078048	,	0.078656	,	0.078464	,	0.077472	,	0.07824	,	0.078848	,	0.080384	,	0.08336	,	0.077664	,	0.078624	,	0.07824	,	0.077856	,	0.078464	,	0.077856	,	0.077856	,	0.078848	,	0.078464	,	0.083936	,	0.082752	,	0.08352	,	0.078432	,	0.077664	,	0.07824	,	0.077824	,	0.078432	,	0.077664	,	0.078432	,	0.077856	,	0.077472	,	0.078656	,	0.078848	,	0.07824	,	0.078048	,	0.082368	,	0.079616	,	0.079136	,	0.394208	,	0.07984	,	0.07984	,	0.080608	,	0.079456	,	0.080128	,	0.084896	,	0.079616	,	0.080416	,	0.085088	,	0.08336	,	0.08512	,	0.07904	,	0.079424	,	0.079424
Triangles	,	32	,	4120	,	15584	,	45330	,	20655	,	7167	,	5600	,	46560	,	288	,	282	,	143	,	28	,	75	,	27	,	132	,	108	,	39389	,	52674	,	1812	,	2934	,	2305	,	1290	,	1919	,	122	,	8917	,	19389	,	281	,	47	,	34	,	46	,	63	,	52	,	50	,	102	,	142	,	125	,	183	,	34	,	33	,	48	,	34	,	1658	,	1368	,	7000	,	8584	,	7794	,	37536	,	6246	,	14409	,	23123	,	23437	,	9929	,	29460	,	23399	,	29275	,	1620	,	192	,	1572	,	1362	,	1999	,	306
Meshes	,	1	,	1	,	2	,	2	,	2	,	1	,	1	,	2	,	1	,	1	,	1	,	1	,	1	,	1	,	1	,	1	,	2	,	2	,	2	,	2	,	2	,	1	,	1	,	1	,	1	,	1	,	1	,	1	,	1	,	1	,	1	,	1	,	1	,	1	,	1	,	1	,	1	,	1	,	1	,	1	,	1	,	1	,	1	,	1	,	1	,	1	,	1	,	1	,	1	,	1	,	1	,	1	,	1	,	1	,	1	,	1	,	1	,	1	,	1	,	1	,	1
BottomLevels	,	1	,	1	,	1	,	1	,	1	,	1	,	1	,	1	,	1	,	1	,	1	,	1	,	1	,	1	,	1	,	1	,	1	,	1	,	1	,	1	,	1	,	1	,	1	,	1	,	1	,	1	,	1	,	1	,	1	,	1	,	1	,	1	,	1	,	1	,	1	,	1	,	1	,	1	,	1	,	1	,	1	,	1	,	1	,	1	,	1	,	1	,	1	,	1	,	1	,	1	,	1	,	1	,	1	,	1	,	1	,	1	,	1	,	1	,	1	,	1	,	1
TopLevelSize	,	64	,	64	,	64	,	64	,	64	,	64	,	64	,	64	,	64	,	64	,	64	,	64	,	64	,	64	,	64	,	64	,	64	,	64	,	64	,	64	,	64	,	64	,	64	,	64	,	64	,	64	,	64	,	64	,	64	,	64	,	64	,	64	,	64	,	64	,	64	,	64	,	64	,	64	,	64	,	64	,	64	,	64	,	64	,	64	,	64	,	64	,	64	,	64	,	64	,	64	,	64	,	64	,	64	,	64	,	64	,	64	,	64	,	64	,	64	,	64	,	64
BottomLevelsSize	,	6528	,	233856	,	872832	,	2531072	,	1155712	,	403712	,	316672	,	2599424	,	20992	,	19840	,	12544	,	6256	,	8496	,	6256	,	12304	,	10752	,	2199808	,	2940416	,	105600	,	167936	,	132864	,	76032	,	111104	,	11392	,	501632	,	1085056	,	19840	,	7168	,	6800	,	7168	,	8320	,	7888	,	7888	,	10144	,	12544	,	11392	,	14976	,	6800	,	6800	,	7680	,	6800	,	97152	,	80896	,	498560	,	606720	,	555392	,	2637440	,	442240	,	1015680	,	1625856	,	1647488	,	700288	,	2071040	,	1646976	,	2056960	,	120832	,	18432	,	115712	,	100352	,	147456	,	26112
Index	,	0	,	1	,	2	,	3	,	4	,	5	,	6	,	7	,	8	,	9	,	10	,	11	,	12	,	13	,	14	,	15	,	16	,	17	,	18	,	19	,	20	,	21	,	22	,	23	,	24	,	25	,	26	,	27	,	28	,	29	,	30	,	31	,	32	,	33	,	34	,	35	,	36	,	37	,	38	,	39	,	40	,	41	,	42	,	43	,	44	,	45	,	46	,	47	,	48	,	49	,	50	,	51	,	52	,	53	,	54	,	55	,	56	,	57	,	58	,	59	,	60

FpsAggregator: 
FPS	,	2	,	2	,	2	,	2	,	2	,	2	,	2	,	2	,	2	,	2	,	2	,	2	,	2	,	2	,	2	,	2	,	2	,	2	,	2	,	2	,	2	,	2	,	2	,	2	,	2	,	2	,	2	,	2	,	2	,	2	,	2	,	2	,	2	,	2	,	2	,	2	,	2	,	2	,	2	,	2	,	2	,	2	,	2	,	2	,	2	,	2	,	2	,	2	,	2	,	2	,	2	,	2	,	2	,	2	,	2	,	2	,	2	,	2	,	2	,	2	,	2	,	2
UPS	,	14	,	14	,	14	,	14	,	14	,	14	,	14	,	14	,	14	,	14	,	14	,	14	,	14	,	14	,	14	,	14	,	14	,	14	,	14	,	14	,	14	,	14	,	14	,	14	,	14	,	14	,	14	,	14	,	14	,	14	,	14	,	14	,	14	,	14	,	14	,	14	,	14	,	14	,	14	,	14	,	14	,	14	,	14	,	14	,	14	,	14	,	14	,	14	,	14	,	14	,	14	,	14	,	14	,	14	,	14	,	14	,	14	,	14	,	14	,	14	,	14	,	14
FrameTime	,	1068.55	,	1068.55	,	1068.55	,	1068.55	,	1068.55	,	1068.55	,	1068.55	,	1068.55	,	1068.55	,	1068.55	,	1068.55	,	1068.55	,	1068.55	,	1068.55	,	1068.55	,	1068.55	,	1068.55	,	1068.55	,	1068.55	,	1068.55	,	1068.55	,	1068.55	,	1068.55	,	1068.55	,	1068.55	,	1068.55	,	1068.55	,	1068.55	,	1068.55	,	1068.55	,	1068.55	,	1068.55	,	1068.55	,	1068.55	,	1068.55	,	1068.55	,	1068.55	,	1068.55	,	1068.55	,	1068.55	,	1068.55	,	1068.55	,	1068.55	,	1068.55	,	1068.55	,	1068.55	,	1068.55	,	1068.55	,	1068.55	,	1068.55	,	1068.55	,	1068.55	,	1068.55	,	1068.55	,	1068.55	,	1068.55	,	1068.55	,	1068.55	,	1068.55	,	1068.55	,	1068.55	,	1068.55
GigaRays/s	,	0	,	0	,	0	,	0	,	0	,	0	,	0	,	0	,	0	,	0	,	0	,	0	,	0	,	0	,	0	,	0	,	0	,	0	,	0	,	0	,	0	,	0	,	0	,	0	,	0	,	0	,	0	,	0	,	0	,	0	,	0	,	0	,	0	,	0	,	0	,	0	,	0	,	0	,	0	,	0	,	0	,	0	,	0	,	0	,	0	,	0	,	0	,	0	,	0	,	0	,	0	,	0	,	0	,	0	,	0	,	0	,	0	,	0	,	0	,	0	,	0	,	0
Index	,	0	,	1	,	2	,	3	,	4	,	5	,	6	,	7	,	8	,	9	,	10	,	11	,	12	,	13	,	14	,	15	,	16	,	17	,	18	,	19	,	20	,	21	,	22	,	23	,	24	,	25	,	26	,	27	,	28	,	29	,	30	,	31	,	32	,	33	,	34	,	35	,	36	,	37	,	38	,	39	,	40	,	41	,	42	,	43	,	44	,	45	,	46	,	47	,	48	,	49	,	50	,	51	,	52	,	53	,	54	,	55	,	56	,	57	,	58	,	59	,	60	,	61


AccelerationStructure: 
Ray tracing acceleration structure building statistics: 
	Bottom Level Acceleration Structure: 
		Maximum [B]: 0
		Minimum [B]: 18446744073709551615
		Currently Allocated [B]: 0
		Currently Created [num]: 0
		Current Average [B]: 0
		Maximum Triangles [num]: 0
		Minimum Triangles [num]: 18446744073709551615
		Total Triangles [num]: 0
		Maximum Meshes [num]: 0
		Minimum Meshes [num]: 18446744073709551615
		Total Meshes [num]: 0
	Top Level Acceleration Structure: 
		Maximum [B]: 0
		Minimum [B]: 18446744073709551615
		Currently Allocated [B]: 0
		Total Allocated [B]: 0
		Total Created [num]: 0
		Average Allocated [B]: 0
		Maximum Instances [num]: 0
		Minimum Instances [num]: 18446744073709551615
		Total Instances [num]: 0
	Scratch Buffer: 
		Maximum [B]: 0
		Minimum [B]: 18446744073709551615
		Currently Allocated [B]: 0
		Total Allocated [B]: 0
		Total Created [num]: 0
		Average Allocated [B]: 0
ProfilingStack: 
[PROF] Profiling statistics: 
	Scopes entered : 407
	Scopes exited : 405
	Overhead per scope [ticks] : 161.4
	Threads entered : 3
	Threads exited : 0
	============================
		         Sum[Mt]   Parent[%]  Samples[num]       Avg[Mt]   Last/Curr[Mt]        Self[Mt]     Self[%] 	 Name

	main:

		    2517.713 Mt   100.000 %         1 x     2517.714 Mt     2517.713 Mt     2227.712 Mt    88.482 % 	 /

		      68.005 Mt     2.701 %         1 x       68.005 Mt        0.000 Mt        0.688 Mt     1.012 % 	 ./Initialize

		       3.148 Mt     4.628 %         1 x        3.148 Mt        0.000 Mt        3.148 Mt   100.000 % 	 ../TexturedRLInitialization

		       1.429 Mt     2.101 %         1 x        1.429 Mt        0.000 Mt        1.429 Mt   100.000 % 	 ../ShadowMapRLInitialization

		       7.009 Mt    10.307 %         1 x        7.009 Mt        0.000 Mt        7.009 Mt   100.000 % 	 ../AmbientOcclusionRLInitialization

		       6.389 Mt     9.395 %         1 x        6.389 Mt        0.000 Mt        6.389 Mt   100.000 % 	 ../RasterResolveRLInitialization

		       4.168 Mt     6.130 %         1 x        4.168 Mt        0.000 Mt        4.168 Mt   100.000 % 	 ../DeferredRLInitialization

		      40.892 Mt    60.131 %         1 x       40.892 Mt        0.000 Mt        1.353 Mt     3.309 % 	 ../RayTracingRLInitialization

		      39.539 Mt    96.691 %         1 x       39.539 Mt        0.000 Mt       39.539 Mt   100.000 % 	 .../PipelineBuild

		       4.281 Mt     6.295 %         1 x        4.281 Mt        0.000 Mt        4.281 Mt   100.000 % 	 ../ResolveRLInitialization

		     222.060 Mt     8.820 %         3 x       74.020 Mt      205.905 Mt        0.873 Mt     0.393 % 	 ./Run

		     213.232 Mt    96.025 %        15 x       14.215 Mt      205.050 Mt       91.635 Mt    42.974 % 	 ../Update

		      53.903 Mt    25.279 %         1 x       53.903 Mt       53.903 Mt       48.924 Mt    90.762 % 	 .../ScenePrep

		       4.980 Mt     9.238 %         1 x        4.980 Mt        4.980 Mt        4.980 Mt   100.000 % 	 ..../SceneDesc-CreateScene

		      67.694 Mt    31.747 %        62 x        1.092 Mt        0.917 Mt       23.930 Mt    35.350 % 	 .../AccelerationStructureBuild

		      18.392 Mt    27.169 %        62 x        0.297 Mt        0.234 Mt       18.392 Mt   100.000 % 	 ..../BuildBottomLevelAS

		      25.372 Mt    37.481 %        62 x        0.409 Mt        0.362 Mt       25.372 Mt   100.000 % 	 ..../BuildTopLevelAS

		       7.961 Mt     3.585 %         2 x        3.980 Mt        0.000 Mt        0.002 Mt     0.031 % 	 ../Render

		       7.958 Mt    99.969 %         2 x        3.979 Mt        0.000 Mt        7.958 Mt   100.000 % 	 .../Render

	WindowThread:

		    2515.920 Mt   100.000 %         1 x     2515.920 Mt     2515.920 Mt     2515.920 Mt   100.000 % 	 /

	GpuThread:

		      29.713 Mt   100.000 %        63 x        0.472 Mt        0.484 Mt       -0.204 Mt    -0.688 % 	 /

		       0.002 Mt     0.008 %         2 x        0.001 Mt        0.000 Mt        0.002 Mt   100.000 % 	 ./Present

		      29.915 Mt   100.679 %        62 x        0.482 Mt        0.484 Mt        0.091 Mt     0.303 % 	 ./AccelerationStructureBuild

		      24.574 Mt    82.146 %        62 x        0.396 Mt        0.404 Mt       24.574 Mt   100.000 % 	 ../BuildBottomLevelASGpu

		       5.250 Mt    17.551 %        62 x        0.085 Mt        0.079 Mt        5.250 Mt   100.000 % 	 ../BuildTopLevelASGpu


	============================


