Configuration: 
Command line parameters  = 
Window width             = 1024
Window height            = 768
Window title             = Direct3D App
Back-buffer count        = 3
Fill Triangles           = enabled
Triangles Font Clock-Wise= disabled
Fast Build AS            = disabled
Target FPS               = 0
Target UPS               = 60
Tearing                  = enabled
VSync                    = disabled
GUI rendering            = disabled
Debug layer              = enabled
GPU validation           = disabled
GPU profiling            = enabled
Render mode              = Ray Tracing
Loaded scene file        = 
Using testing scene      = disabled
BLAS duplication         = disabled
Rays per pixel           = 14
Quality preset           = Medium
Rasterization Quality    : 
  AO                     = enabled
  AO kernel size         = 4
  Shadows                = enabled
  Shadow map resolution  = 4096
  Shadow PCF kernel size = 4
  Reflections            = disabled
Ray Tracing Quality      : 
  AO                     = enabled
  AO rays                = 4
  AO kernel size         = 4
  Shadows                = enabled
  Shadow rays            = 4
  Shadow kernel size     = 4
  Reflections            = disabled

ProfilingAggregator: 
Update	,	86.8632	,	89.4104	,	91.9225	,	94.2222	,	96.2145	,	98.3853	,	100.785	,	103.107	,	105.34	,	107.646	,	109.543	,	111.382	,	113.094	,	114.842	,	116.837	,	118.702	,	121.335	,	124.127	,	126.314	,	128.434	,	131.001	,	133.578	,	135.751	,	137.356	,	139.079	,	141.966	,	143.986	,	145.949	,	148.1	,	150.444	,	152.165	,	153.897	,	155.48	,	158.129	,	160.292	,	162.39	,	164.318	,	166.29	,	168.15	,	169.959	,	171.71	,	173.447	,	175.123	,	177.041	,	178.99	,	181.495	,	185.033	,	187.307	,	189.331	,	191.447	,	193.564	,	195.488	,	197.673	,	200.41	,	202.838	,	204.86	,	207.265	,	209.219	,	211.283	,	213.193	,	215.214
Index	,	0	,	1	,	2	,	3	,	4	,	5	,	6	,	7	,	8	,	9	,	10	,	11	,	12	,	13	,	14	,	15	,	16	,	17	,	18	,	19	,	20	,	21	,	22	,	23	,	24	,	25	,	26	,	27	,	28	,	29	,	30	,	31	,	32	,	33	,	34	,	35	,	36	,	37	,	38	,	39	,	40	,	41	,	42	,	43	,	44	,	45	,	46	,	47	,	48	,	49	,	50	,	51	,	52	,	53	,	54	,	55	,	56	,	57	,	58	,	59	,	60

ProfilingBuildAggregator: 
BuildBottomLevelAS	,	0.2662	,	0.3199	,	0.3123	,	0.3103	,	0.2693	,	0.3588	,	0.3254	,	0.3023	,	0.2888	,	0.2592	,	0.2737	,	0.2956	,	0.222	,	0.2294	,	0.3296	,	0.2586	,	0.3999	,	0.4557	,	0.3061	,	0.3298	,	0.3773	,	0.3742	,	0.3236	,	0.2143	,	0.2157	,	0.9705	,	0.2389	,	0.2346	,	0.2266	,	0.5042	,	0.2216	,	0.2228	,	0.2017	,	0.336	,	0.2433	,	0.2488	,	0.2417	,	0.3247	,	0.2436	,	0.2358	,	0.2311	,	0.2681	,	0.2232	,	0.2502	,	0.2401	,	0.2414	,	0.4332	,	0.2445	,	0.2391	,	0.3351	,	0.2639	,	0.2276	,	0.2735	,	0.2999	,	0.3535	,	0.2475	,	0.3629	,	0.2557	,	0.2333	,	0.2985	,	0.2505
BuildBottomLevelASGpu	,	0.089216	,	0.234432	,	0.317792	,	0.446112	,	0.325152	,	0.244448	,	0.256224	,	0.42736	,	0.167296	,	0.182752	,	0.141056	,	0.096384	,	0.137984	,	0.09744	,	0.173184	,	0.138912	,	0.407392	,	0.463328	,	0.239872	,	0.25472	,	0.283552	,	0.238944	,	0.239776	,	0.129216	,	0.259744	,	0.304608	,	0.175936	,	0.127872	,	0.112896	,	0.116512	,	0.123968	,	0.11488	,	0.113888	,	0.129504	,	0.161408	,	0.148096	,	0.169632	,	0.103232	,	0.106752	,	0.115968	,	0.111552	,	0.190464	,	0.208448	,	0.430272	,	0.507328	,	0.457536	,	0.6728	,	0.475168	,	0.541472	,	0.541856	,	0.613152	,	0.463616	,	0.675616	,	0.590528	,	0.657664	,	0.376352	,	0.253696	,	0.33808	,	0.397248	,	0.379584	,	0.282272
BuildTopLevelAS	,	0.3863	,	0.48	,	0.4236	,	0.3753	,	0.3661	,	0.4497	,	0.4082	,	0.4063	,	0.4307	,	0.3849	,	0.4193	,	0.3944	,	0.3668	,	0.4114	,	0.3767	,	0.4178	,	0.4511	,	0.4939	,	0.4141	,	0.4318	,	0.5246	,	0.4611	,	0.4322	,	0.3484	,	0.3593	,	0.4663	,	0.3588	,	0.3549	,	0.5411	,	0.3826	,	0.3508	,	0.3593	,	0.3508	,	0.5402	,	0.4101	,	0.389	,	0.4085	,	0.3927	,	0.4801	,	0.3863	,	0.3652	,	0.3393	,	0.351	,	0.3554	,	0.3418	,	0.5015	,	0.4875	,	0.3733	,	0.3514	,	0.3708	,	0.3383	,	0.3501	,	0.3527	,	0.4227	,	0.3605	,	0.3923	,	0.4452	,	0.3564	,	0.3529	,	0.3551	,	0.4083
BuildTopLevelASGpu	,	0.05888	,	0.055296	,	0.055616	,	0.060736	,	0.055488	,	0.061376	,	0.060608	,	0.06032	,	0.055168	,	0.060032	,	0.05488	,	0.054624	,	0.055552	,	0.05472	,	0.058656	,	0.05568	,	0.060064	,	0.060224	,	0.055904	,	0.055072	,	0.061088	,	0.058944	,	0.055392	,	0.054784	,	0.055136	,	0.056032	,	0.055072	,	0.06016	,	0.059584	,	0.058912	,	0.054912	,	0.054784	,	0.055712	,	0.054912	,	0.054752	,	0.05568	,	0.054752	,	0.05744	,	0.05504	,	0.054912	,	0.054752	,	0.055008	,	0.055008	,	0.059424	,	0.057248	,	0.056608	,	0.061408	,	0.056352	,	0.05728	,	0.056896	,	0.056352	,	0.056192	,	0.057312	,	0.061216	,	0.05712	,	0.056512	,	0.061376	,	0.057184	,	0.062464	,	0.05664	,	0.056384
Triangles	,	32	,	4120	,	15584	,	45330	,	20655	,	7167	,	5600	,	46560	,	288	,	282	,	143	,	28	,	75	,	27	,	132	,	108	,	39389	,	52674	,	1812	,	2934	,	2305	,	1290	,	1919	,	122	,	8917	,	19389	,	281	,	47	,	34	,	46	,	63	,	52	,	50	,	102	,	142	,	125	,	183	,	34	,	33	,	48	,	34	,	1658	,	1368	,	7000	,	8584	,	7794	,	37536	,	6246	,	14409	,	23123	,	23437	,	9929	,	29460	,	23399	,	29275	,	1620	,	192	,	1572	,	1362	,	1999	,	306
Meshes	,	1	,	1	,	2	,	2	,	2	,	1	,	1	,	2	,	1	,	1	,	1	,	1	,	1	,	1	,	1	,	1	,	2	,	2	,	2	,	2	,	2	,	1	,	1	,	1	,	1	,	1	,	1	,	1	,	1	,	1	,	1	,	1	,	1	,	1	,	1	,	1	,	1	,	1	,	1	,	1	,	1	,	1	,	1	,	1	,	1	,	1	,	1	,	1	,	1	,	1	,	1	,	1	,	1	,	1	,	1	,	1	,	1	,	1	,	1	,	1	,	1
BottomLevels	,	1	,	1	,	1	,	1	,	1	,	1	,	1	,	1	,	1	,	1	,	1	,	1	,	1	,	1	,	1	,	1	,	1	,	1	,	1	,	1	,	1	,	1	,	1	,	1	,	1	,	1	,	1	,	1	,	1	,	1	,	1	,	1	,	1	,	1	,	1	,	1	,	1	,	1	,	1	,	1	,	1	,	1	,	1	,	1	,	1	,	1	,	1	,	1	,	1	,	1	,	1	,	1	,	1	,	1	,	1	,	1	,	1	,	1	,	1	,	1	,	1
TopLevelSize	,	64	,	64	,	64	,	64	,	64	,	64	,	64	,	64	,	64	,	64	,	64	,	64	,	64	,	64	,	64	,	64	,	64	,	64	,	64	,	64	,	64	,	64	,	64	,	64	,	64	,	64	,	64	,	64	,	64	,	64	,	64	,	64	,	64	,	64	,	64	,	64	,	64	,	64	,	64	,	64	,	64	,	64	,	64	,	64	,	64	,	64	,	64	,	64	,	64	,	64	,	64	,	64	,	64	,	64	,	64	,	64	,	64	,	64	,	64	,	64	,	64
BottomLevelsSize	,	6528	,	233856	,	872832	,	2531072	,	1155712	,	403712	,	316672	,	2599424	,	20992	,	19840	,	12544	,	6256	,	8496	,	6256	,	12304	,	10752	,	2199808	,	2940416	,	105600	,	167936	,	132864	,	76032	,	111104	,	11392	,	501632	,	1085056	,	19840	,	7168	,	6800	,	7168	,	8320	,	7888	,	7888	,	10144	,	12544	,	11392	,	14976	,	6800	,	6800	,	7680	,	6800	,	97152	,	80896	,	498560	,	606720	,	555392	,	2637440	,	442240	,	1015680	,	1625856	,	1647488	,	700288	,	2071040	,	1646976	,	2056960	,	120832	,	18432	,	115712	,	100352	,	147456	,	26112
Index	,	0	,	1	,	2	,	3	,	4	,	5	,	6	,	7	,	8	,	9	,	10	,	11	,	12	,	13	,	14	,	15	,	16	,	17	,	18	,	19	,	20	,	21	,	22	,	23	,	24	,	25	,	26	,	27	,	28	,	29	,	30	,	31	,	32	,	33	,	34	,	35	,	36	,	37	,	38	,	39	,	40	,	41	,	42	,	43	,	44	,	45	,	46	,	47	,	48	,	49	,	50	,	51	,	52	,	53	,	54	,	55	,	56	,	57	,	58	,	59	,	60

FpsAggregator: 
FPS	,	0	,	0	,	0	,	0	,	0	,	0	,	0	,	0	,	0	,	0	,	0	,	0	,	0	,	0	,	0	,	0	,	0	,	0	,	0	,	0	,	0	,	0	,	0	,	0	,	0	,	0	,	0	,	0	,	0	,	0	,	0	,	0	,	0	,	0	,	0	,	0	,	0	,	0	,	0	,	0	,	0	,	0	,	0	,	0	,	0	,	0	,	0	,	0	,	0	,	0	,	0	,	0	,	0	,	0	,	0	,	0	,	0	,	0	,	0	,	0	,	0
UPS	,	0	,	0	,	0	,	0	,	0	,	0	,	0	,	0	,	0	,	0	,	0	,	0	,	0	,	0	,	0	,	0	,	0	,	0	,	0	,	0	,	0	,	0	,	0	,	0	,	0	,	0	,	0	,	0	,	0	,	0	,	0	,	0	,	0	,	0	,	0	,	0	,	0	,	0	,	0	,	0	,	0	,	0	,	0	,	0	,	0	,	0	,	0	,	0	,	0	,	0	,	0	,	0	,	0	,	0	,	0	,	0	,	0	,	0	,	0	,	0	,	0
FrameTime	,	0	,	0	,	0	,	0	,	0	,	0	,	0	,	0	,	0	,	0	,	0	,	0	,	0	,	0	,	0	,	0	,	0	,	0	,	0	,	0	,	0	,	0	,	0	,	0	,	0	,	0	,	0	,	0	,	0	,	0	,	0	,	0	,	0	,	0	,	0	,	0	,	0	,	0	,	0	,	0	,	0	,	0	,	0	,	0	,	0	,	0	,	0	,	0	,	0	,	0	,	0	,	0	,	0	,	0	,	0	,	0	,	0	,	0	,	0	,	0	,	0
GigaRays/s	,	0	,	0	,	0	,	0	,	0	,	0	,	0	,	0	,	0	,	0	,	0	,	0	,	0	,	0	,	0	,	0	,	0	,	0	,	0	,	0	,	0	,	0	,	0	,	0	,	0	,	0	,	0	,	0	,	0	,	0	,	0	,	0	,	0	,	0	,	0	,	0	,	0	,	0	,	0	,	0	,	0	,	0	,	0	,	0	,	0	,	0	,	0	,	0	,	0	,	0	,	0	,	0	,	0	,	0	,	0	,	0	,	0	,	0	,	0	,	0	,	0
Index	,	0	,	1	,	2	,	3	,	4	,	5	,	6	,	7	,	8	,	9	,	10	,	11	,	12	,	13	,	14	,	15	,	16	,	17	,	18	,	19	,	20	,	21	,	22	,	23	,	24	,	25	,	26	,	27	,	28	,	29	,	30	,	31	,	32	,	33	,	34	,	35	,	36	,	37	,	38	,	39	,	40	,	41	,	42	,	43	,	44	,	45	,	46	,	47	,	48	,	49	,	50	,	51	,	52	,	53	,	54	,	55	,	56	,	57	,	58	,	59	,	60


AccelerationStructure: 
Ray tracing acceleration structure building statistics: 
	Bottom Level Acceleration Structure: 
		Maximum [B]: 0
		Minimum [B]: 18446744073709551615
		Currently Allocated [B]: 0
		Currently Created [num]: 0
		Current Average [B]: 0
		Maximum Triangles [num]: 0
		Minimum Triangles [num]: 18446744073709551615
		Total Triangles [num]: 0
		Maximum Meshes [num]: 0
		Minimum Meshes [num]: 18446744073709551615
		Total Meshes [num]: 0
	Top Level Acceleration Structure: 
		Maximum [B]: 0
		Minimum [B]: 18446744073709551615
		Currently Allocated [B]: 0
		Total Allocated [B]: 0
		Total Created [num]: 0
		Average Allocated [B]: 0
		Maximum Instances [num]: 0
		Minimum Instances [num]: 18446744073709551615
		Total Instances [num]: 0
	Scratch Buffer: 
		Maximum [B]: 0
		Minimum [B]: 18446744073709551615
		Currently Allocated [B]: 0
		Total Allocated [B]: 0
		Total Created [num]: 0
		Average Allocated [B]: 0
ProfilingStack: 
[PROF] Profiling statistics: 
	Scopes entered : 385
	Scopes exited : 383
	Overhead per scope [ticks] : 162.9
	Threads entered : 3
	Threads exited : 0
	============================
		         Sum[Mt]   Parent[%]  Samples[num]       Avg[Mt]   Last/Curr[Mt]        Self[Mt]     Self[%] 	 Name

	main:

		    1189.071 Mt   100.000 %         1 x     1189.072 Mt     1189.071 Mt      902.842 Mt    75.928 % 	 /

		      70.348 Mt     5.916 %         1 x       70.348 Mt       70.348 Mt        1.107 Mt     1.574 % 	 ./Initialize

		       3.024 Mt     4.298 %         1 x        3.024 Mt        3.024 Mt        3.024 Mt   100.000 % 	 ../TexturedRLInitialization

		       1.353 Mt     1.923 %         1 x        1.353 Mt        1.353 Mt        1.353 Mt   100.000 % 	 ../ShadowMapRLInitialization

		       6.475 Mt     9.204 %         1 x        6.475 Mt        6.475 Mt        6.475 Mt   100.000 % 	 ../AmbientOcclusionRLInitialization

		       5.296 Mt     7.528 %         1 x        5.296 Mt        5.296 Mt        5.296 Mt   100.000 % 	 ../RasterResolveRLInitialization

		       4.002 Mt     5.689 %         1 x        4.002 Mt        4.002 Mt        4.002 Mt   100.000 % 	 ../DeferredRLInitialization

		      43.861 Mt    62.348 %         1 x       43.861 Mt       43.861 Mt        1.445 Mt     3.295 % 	 ../RayTracingRLInitialization

		      42.415 Mt    96.705 %         1 x       42.415 Mt       42.415 Mt       42.415 Mt   100.000 % 	 .../PipelineBuild

		       5.231 Mt     7.436 %         1 x        5.231 Mt        5.231 Mt        5.231 Mt   100.000 % 	 ../ResolveRLInitialization

		     215.949 Mt    18.161 %         1 x      215.949 Mt      215.949 Mt        0.002 Mt     0.001 % 	 ./Run

		     215.953 Mt   100.002 %         1 x      215.953 Mt      215.953 Mt       83.550 Mt    38.689 % 	 ../Update

		      65.161 Mt    30.174 %         1 x       65.161 Mt       65.161 Mt       48.325 Mt    74.161 % 	 .../ScenePrep

		      16.837 Mt    25.839 %         1 x       16.837 Mt       16.837 Mt       16.837 Mt   100.000 % 	 ..../SceneDesc-CreateScene

		      67.242 Mt    31.137 %        62 x        1.085 Mt        1.020 Mt       23.146 Mt    34.422 % 	 .../AccelerationStructureBuild

		      19.008 Mt    28.268 %        62 x        0.307 Mt        0.251 Mt       19.008 Mt   100.000 % 	 ..../BuildBottomLevelAS

		      25.088 Mt    37.310 %        62 x        0.405 Mt        0.408 Mt       25.088 Mt   100.000 % 	 ..../BuildTopLevelAS

	WindowThread:

		    1187.034 Mt   100.000 %         1 x     1187.034 Mt     1187.034 Mt     1187.034 Mt   100.000 % 	 /

	GpuThread:

		      20.821 Mt   100.000 %        61 x        0.341 Mt        0.340 Mt       -0.149 Mt    -0.717 % 	 /

		      20.971 Mt   100.717 %        62 x        0.338 Mt        0.340 Mt        0.055 Mt     0.261 % 	 ./AccelerationStructureBuild

		      17.371 Mt    82.837 %        62 x        0.280 Mt        0.282 Mt       17.371 Mt   100.000 % 	 ../BuildBottomLevelASGpu

		       3.545 Mt    16.902 %        62 x        0.057 Mt        0.056 Mt        3.545 Mt   100.000 % 	 ../BuildTopLevelASGpu


	============================


