Configuration: 
Command line parameters  = 
Window width             = 1024
Window height            = 768
Window title             = Direct3D App
Back-buffer count        = 3
Fill Triangles           = enabled
Triangles Font Clock-Wise= disabled
Fast Build AS            = disabled
Target FPS               = 0
Target UPS               = 60
Tearing                  = enabled
VSync                    = disabled
GUI rendering            = disabled
Debug layer              = enabled
GPU validation           = disabled
GPU profiling            = enabled
Render mode              = Ray Tracing
Loaded scene file        = 
Using testing scene      = disabled
BLAS duplication         = disabled
Rays per pixel           = 14
Quality preset           = High
Rasterization Quality    : 
  AO                     = enabled
  AO kernel size         = 4
  Shadows                = enabled
  Shadow map resolution  = 4096
  Shadow PCF kernel size = 4
  Reflections            = enabled
Ray Tracing Quality      : 
  AO                     = enabled
  AO rays                = 4
  AO kernel size         = 4
  Shadows                = enabled
  Shadow rays            = 4
  Shadow kernel size     = 4
  Reflections            = enabled

ProfilingAggregator: 
Update	,	79.5372	,	81.5518	,	83.809	,	86.102	,	88.1075	,	90.6822	,	92.6114	,	94.8251	,	97.2456	,	99.5677	,	101.32	,	102.952	,	104.64	,	106.757	,	108.661	,	110.512	,	113.674	,	116.595	,	119.212	,	121.819	,	124.672	,	127.168	,	129.807	,	132.474	,	134.447	,	136.462	,	138.531	,	140.771	,	142.616	,	144.364	,	146.053	,	147.75	,	149.385	,	151.204	,	152.91	,	154.658	,	156.638	,	159.395	,	161.323	,	163.101	,	164.781	,	166.634	,	168.356	,	170.617	,	173.449	,	176.002	,	178.521	,	180.737	,	182.985	,	185.406	,	187.978	,	191.313	,	193.753	,	196.108	,	198.454	,	200.529	,	202.413	,	204.413	,	207.376	,	209.426	,	211.298
Index	,	0	,	1	,	2	,	3	,	4	,	5	,	6	,	7	,	8	,	9	,	10	,	11	,	12	,	13	,	14	,	15	,	16	,	17	,	18	,	19	,	20	,	21	,	22	,	23	,	24	,	25	,	26	,	27	,	28	,	29	,	30	,	31	,	32	,	33	,	34	,	35	,	36	,	37	,	38	,	39	,	40	,	41	,	42	,	43	,	44	,	45	,	46	,	47	,	48	,	49	,	50	,	51	,	52	,	53	,	54	,	55	,	56	,	57	,	58	,	59	,	60

ProfilingBuildAggregator: 
BuildBottomLevelAS	,	0.2486	,	0.303	,	0.337	,	0.3316	,	0.271	,	0.4312	,	0.2419	,	0.3031	,	0.3444	,	0.3567	,	0.2307	,	0.2242	,	0.2287	,	0.2826	,	0.2926	,	0.2552	,	0.5556	,	0.4302	,	0.3513	,	0.3667	,	0.4887	,	0.3434	,	0.3386	,	0.2547	,	0.245	,	0.282	,	0.2522	,	0.2668	,	0.2618	,	0.2527	,	0.2265	,	0.2201	,	0.2158	,	0.246	,	0.2239	,	0.2372	,	0.2415	,	0.3055	,	0.2515	,	0.244	,	0.2164	,	0.2868	,	0.2338	,	0.2593	,	0.3077	,	0.3129	,	0.327	,	0.2669	,	0.2718	,	0.3722	,	0.3184	,	0.4389	,	0.3118	,	0.2968	,	0.296	,	0.3043	,	0.2433	,	0.3006	,	0.389	,	0.2848	,	0.2306
BuildBottomLevelASGpu	,	0.08848	,	0.232864	,	0.3224	,	0.408736	,	0.32816	,	0.251808	,	0.239296	,	0.444896	,	0.167552	,	0.172288	,	0.14096	,	0.09648	,	0.137536	,	0.109568	,	0.164064	,	0.138784	,	0.397984	,	0.458848	,	0.252992	,	0.270624	,	0.284416	,	0.232608	,	0.228736	,	0.129184	,	0.257664	,	0.305888	,	0.174272	,	0.116352	,	0.100928	,	0.10624	,	0.123424	,	0.11488	,	0.115456	,	0.126816	,	0.161568	,	0.148576	,	0.16976	,	0.1072	,	0.106784	,	0.116	,	0.11152	,	0.19744	,	0.208608	,	0.434688	,	0.529472	,	0.44736	,	0.71104	,	0.45744	,	0.540864	,	0.545472	,	0.636096	,	0.471968	,	0.620416	,	0.551968	,	0.670496	,	0.377184	,	0.235648	,	0.338336	,	0.384832	,	0.375456	,	0.282336
BuildTopLevelAS	,	0.5026	,	0.3759	,	0.3796	,	0.3688	,	0.3714	,	0.5582	,	0.3736	,	0.3613	,	0.4588	,	0.4521	,	0.3799	,	0.3648	,	0.3568	,	0.4372	,	0.3906	,	0.4545	,	0.6766	,	0.4856	,	0.4655	,	0.4301	,	0.4527	,	0.5999	,	0.4237	,	0.3993	,	0.3728	,	0.3694	,	0.3698	,	0.3921	,	0.4374	,	0.3882	,	0.374	,	0.3766	,	0.362	,	0.3678	,	0.3752	,	0.3716	,	0.3931	,	0.5507	,	0.3602	,	0.353	,	0.3502	,	0.3492	,	0.3463	,	0.4254	,	0.4407	,	0.3987	,	0.3813	,	0.4013	,	0.3971	,	0.4821	,	0.3762	,	0.6036	,	0.3709	,	0.4132	,	0.4032	,	0.3838	,	0.3812	,	0.387	,	0.5672	,	0.3784	,	0.3589
BuildTopLevelASGpu	,	0.056928	,	0.054816	,	0.056288	,	0.060032	,	0.055744	,	0.05936	,	0.054816	,	0.058976	,	0.054688	,	0.055648	,	0.05552	,	0.055648	,	0.054816	,	0.05936	,	0.055616	,	0.054688	,	0.055872	,	0.059648	,	0.059648	,	0.06048	,	0.060224	,	0.055744	,	0.05504	,	0.055776	,	0.054688	,	0.055424	,	0.055616	,	0.054784	,	0.054688	,	0.05552	,	0.05552	,	0.054688	,	0.055488	,	0.05472	,	0.054816	,	0.054688	,	0.05552	,	0.058208	,	0.055712	,	0.055264	,	0.05472	,	0.055616	,	0.055904	,	0.058976	,	0.057728	,	0.056672	,	0.056608	,	0.056928	,	0.055712	,	0.05648	,	0.060672	,	0.061472	,	0.056192	,	0.055744	,	0.056672	,	0.055776	,	0.056544	,	0.056576	,	0.057632	,	0.056416	,	0.055488
Triangles	,	32	,	4120	,	15584	,	45330	,	20655	,	7167	,	5600	,	46560	,	288	,	282	,	143	,	28	,	75	,	27	,	132	,	108	,	39389	,	52674	,	1812	,	2934	,	2305	,	1290	,	1919	,	122	,	8917	,	19389	,	281	,	47	,	34	,	46	,	63	,	52	,	50	,	102	,	142	,	125	,	183	,	34	,	33	,	48	,	34	,	1658	,	1368	,	7000	,	8584	,	7794	,	37536	,	6246	,	14409	,	23123	,	23437	,	9929	,	29460	,	23399	,	29275	,	1620	,	192	,	1572	,	1362	,	1999	,	306
Meshes	,	1	,	1	,	2	,	2	,	2	,	1	,	1	,	2	,	1	,	1	,	1	,	1	,	1	,	1	,	1	,	1	,	2	,	2	,	2	,	2	,	2	,	1	,	1	,	1	,	1	,	1	,	1	,	1	,	1	,	1	,	1	,	1	,	1	,	1	,	1	,	1	,	1	,	1	,	1	,	1	,	1	,	1	,	1	,	1	,	1	,	1	,	1	,	1	,	1	,	1	,	1	,	1	,	1	,	1	,	1	,	1	,	1	,	1	,	1	,	1	,	1
BottomLevels	,	1	,	1	,	1	,	1	,	1	,	1	,	1	,	1	,	1	,	1	,	1	,	1	,	1	,	1	,	1	,	1	,	1	,	1	,	1	,	1	,	1	,	1	,	1	,	1	,	1	,	1	,	1	,	1	,	1	,	1	,	1	,	1	,	1	,	1	,	1	,	1	,	1	,	1	,	1	,	1	,	1	,	1	,	1	,	1	,	1	,	1	,	1	,	1	,	1	,	1	,	1	,	1	,	1	,	1	,	1	,	1	,	1	,	1	,	1	,	1	,	1
TopLevelSize	,	64	,	64	,	64	,	64	,	64	,	64	,	64	,	64	,	64	,	64	,	64	,	64	,	64	,	64	,	64	,	64	,	64	,	64	,	64	,	64	,	64	,	64	,	64	,	64	,	64	,	64	,	64	,	64	,	64	,	64	,	64	,	64	,	64	,	64	,	64	,	64	,	64	,	64	,	64	,	64	,	64	,	64	,	64	,	64	,	64	,	64	,	64	,	64	,	64	,	64	,	64	,	64	,	64	,	64	,	64	,	64	,	64	,	64	,	64	,	64	,	64
BottomLevelsSize	,	6528	,	233856	,	872832	,	2531072	,	1155712	,	403712	,	316672	,	2599424	,	20992	,	19840	,	12544	,	6256	,	8496	,	6256	,	12304	,	10752	,	2199808	,	2940416	,	105600	,	167936	,	132864	,	76032	,	111104	,	11392	,	501632	,	1085056	,	19840	,	7168	,	6800	,	7168	,	8320	,	7888	,	7888	,	10144	,	12544	,	11392	,	14976	,	6800	,	6800	,	7680	,	6800	,	97152	,	80896	,	498560	,	606720	,	555392	,	2637440	,	442240	,	1015680	,	1625856	,	1647488	,	700288	,	2071040	,	1646976	,	2056960	,	120832	,	18432	,	115712	,	100352	,	147456	,	26112
Index	,	0	,	1	,	2	,	3	,	4	,	5	,	6	,	7	,	8	,	9	,	10	,	11	,	12	,	13	,	14	,	15	,	16	,	17	,	18	,	19	,	20	,	21	,	22	,	23	,	24	,	25	,	26	,	27	,	28	,	29	,	30	,	31	,	32	,	33	,	34	,	35	,	36	,	37	,	38	,	39	,	40	,	41	,	42	,	43	,	44	,	45	,	46	,	47	,	48	,	49	,	50	,	51	,	52	,	53	,	54	,	55	,	56	,	57	,	58	,	59	,	60

FpsAggregator: 
FPS	,	0	,	0	,	0	,	0	,	0	,	0	,	0	,	0	,	0	,	0	,	0	,	0	,	0	,	0	,	0	,	0	,	0	,	0	,	0	,	0	,	0	,	0	,	0	,	0	,	0	,	0	,	0	,	0	,	0	,	0	,	0	,	0	,	0	,	0	,	0	,	0	,	0	,	0	,	0	,	0	,	0	,	0	,	0	,	0	,	0	,	0	,	0	,	0	,	0	,	0	,	0	,	0	,	0	,	0	,	0	,	0	,	0	,	0	,	0	,	0	,	0
UPS	,	0	,	0	,	0	,	0	,	0	,	0	,	0	,	0	,	0	,	0	,	0	,	0	,	0	,	0	,	0	,	0	,	0	,	0	,	0	,	0	,	0	,	0	,	0	,	0	,	0	,	0	,	0	,	0	,	0	,	0	,	0	,	0	,	0	,	0	,	0	,	0	,	0	,	0	,	0	,	0	,	0	,	0	,	0	,	0	,	0	,	0	,	0	,	0	,	0	,	0	,	0	,	0	,	0	,	0	,	0	,	0	,	0	,	0	,	0	,	0	,	0
FrameTime	,	0	,	0	,	0	,	0	,	0	,	0	,	0	,	0	,	0	,	0	,	0	,	0	,	0	,	0	,	0	,	0	,	0	,	0	,	0	,	0	,	0	,	0	,	0	,	0	,	0	,	0	,	0	,	0	,	0	,	0	,	0	,	0	,	0	,	0	,	0	,	0	,	0	,	0	,	0	,	0	,	0	,	0	,	0	,	0	,	0	,	0	,	0	,	0	,	0	,	0	,	0	,	0	,	0	,	0	,	0	,	0	,	0	,	0	,	0	,	0	,	0
GigaRays/s	,	0	,	0	,	0	,	0	,	0	,	0	,	0	,	0	,	0	,	0	,	0	,	0	,	0	,	0	,	0	,	0	,	0	,	0	,	0	,	0	,	0	,	0	,	0	,	0	,	0	,	0	,	0	,	0	,	0	,	0	,	0	,	0	,	0	,	0	,	0	,	0	,	0	,	0	,	0	,	0	,	0	,	0	,	0	,	0	,	0	,	0	,	0	,	0	,	0	,	0	,	0	,	0	,	0	,	0	,	0	,	0	,	0	,	0	,	0	,	0	,	0
Index	,	0	,	1	,	2	,	3	,	4	,	5	,	6	,	7	,	8	,	9	,	10	,	11	,	12	,	13	,	14	,	15	,	16	,	17	,	18	,	19	,	20	,	21	,	22	,	23	,	24	,	25	,	26	,	27	,	28	,	29	,	30	,	31	,	32	,	33	,	34	,	35	,	36	,	37	,	38	,	39	,	40	,	41	,	42	,	43	,	44	,	45	,	46	,	47	,	48	,	49	,	50	,	51	,	52	,	53	,	54	,	55	,	56	,	57	,	58	,	59	,	60


AccelerationStructure: 
Ray tracing acceleration structure building statistics: 
	Bottom Level Acceleration Structure: 
		Maximum [B]: 0
		Minimum [B]: 18446744073709551615
		Currently Allocated [B]: 0
		Currently Created [num]: 0
		Current Average [B]: 0
		Maximum Triangles [num]: 0
		Minimum Triangles [num]: 18446744073709551615
		Total Triangles [num]: 0
		Maximum Meshes [num]: 0
		Minimum Meshes [num]: 18446744073709551615
		Total Meshes [num]: 0
	Top Level Acceleration Structure: 
		Maximum [B]: 0
		Minimum [B]: 18446744073709551615
		Currently Allocated [B]: 0
		Total Allocated [B]: 0
		Total Created [num]: 0
		Average Allocated [B]: 0
		Maximum Instances [num]: 0
		Minimum Instances [num]: 18446744073709551615
		Total Instances [num]: 0
	Scratch Buffer: 
		Maximum [B]: 0
		Minimum [B]: 18446744073709551615
		Currently Allocated [B]: 0
		Total Allocated [B]: 0
		Total Created [num]: 0
		Average Allocated [B]: 0
ProfilingStack: 
[PROF] Profiling statistics: 
	Scopes entered : 385
	Scopes exited : 383
	Overhead per scope [ticks] : 163.8
	Threads entered : 3
	Threads exited : 0
	============================
		         Sum[Mt]   Parent[%]  Samples[num]       Avg[Mt]   Last/Curr[Mt]        Self[Mt]     Self[%] 	 Name

	main:

		    1414.277 Mt   100.000 %         1 x     1414.277 Mt     1414.277 Mt      905.179 Mt    64.003 % 	 /

		     297.138 Mt    21.010 %         1 x      297.138 Mt      297.138 Mt        1.114 Mt     0.375 % 	 ./Initialize

		       6.235 Mt     2.098 %         1 x        6.235 Mt        6.235 Mt        6.235 Mt   100.000 % 	 ../TexturedRLInitialization

		       2.084 Mt     0.701 %         1 x        2.084 Mt        2.084 Mt        2.084 Mt   100.000 % 	 ../ShadowMapRLInitialization

		       8.225 Mt     2.768 %         1 x        8.225 Mt        8.225 Mt        8.225 Mt   100.000 % 	 ../AmbientOcclusionRLInitialization

		      10.245 Mt     3.448 %         1 x       10.245 Mt       10.245 Mt       10.245 Mt   100.000 % 	 ../RasterResolveRLInitialization

		       4.965 Mt     1.671 %         1 x        4.965 Mt        4.965 Mt        4.965 Mt   100.000 % 	 ../DeferredRLInitialization

		     253.033 Mt    85.157 %         1 x      253.033 Mt      253.033 Mt        1.715 Mt     0.678 % 	 ../RayTracingRLInitialization

		     251.318 Mt    99.322 %         1 x      251.318 Mt      251.318 Mt      251.318 Mt   100.000 % 	 .../PipelineBuild

		      11.237 Mt     3.782 %         1 x       11.237 Mt       11.237 Mt       11.237 Mt   100.000 % 	 ../ResolveRLInitialization

		     212.027 Mt    14.992 %         1 x      212.027 Mt      212.027 Mt        0.003 Mt     0.001 % 	 ./Run

		     212.031 Mt   100.002 %         1 x      212.031 Mt      212.031 Mt       80.754 Mt    38.086 % 	 ../Update

		      62.121 Mt    29.298 %         1 x       62.121 Mt       62.121 Mt       49.881 Mt    80.297 % 	 .../ScenePrep

		      12.240 Mt    19.703 %         1 x       12.240 Mt       12.240 Mt       12.240 Mt   100.000 % 	 ..../SceneDesc-CreateScene

		      69.156 Mt    32.616 %        62 x        1.115 Mt        0.934 Mt       24.400 Mt    35.282 % 	 .../AccelerationStructureBuild

		      18.892 Mt    27.319 %        62 x        0.305 Mt        0.231 Mt       18.892 Mt   100.000 % 	 ..../BuildBottomLevelAS

		      25.864 Mt    37.399 %        62 x        0.417 Mt        0.359 Mt       25.864 Mt   100.000 % 	 ..../BuildTopLevelAS

	WindowThread:

		    1411.918 Mt   100.000 %         1 x     1411.919 Mt     1411.918 Mt     1411.918 Mt   100.000 % 	 /

	GpuThread:

		      20.680 Mt   100.000 %        61 x        0.339 Mt        0.339 Mt       -0.147 Mt    -0.709 % 	 /

		      20.827 Mt   100.709 %        62 x        0.336 Mt        0.339 Mt        0.056 Mt     0.270 % 	 ./AccelerationStructureBuild

		      17.268 Mt    82.914 %        62 x        0.279 Mt        0.282 Mt       17.268 Mt   100.000 % 	 ../BuildBottomLevelASGpu

		       3.502 Mt    16.816 %        62 x        0.056 Mt        0.055 Mt        3.502 Mt   100.000 % 	 ../BuildTopLevelASGpu


	============================


