Configuration: 
Command line parameters  = 
Window width             = 1024
Window height            = 768
Window title             = Direct3D App
Back-buffer count        = 3
Fill Triangles           = enabled
Triangles Font Clock-Wise= disabled
Fast Build AS            = disabled
Target FPS               = 0
Target UPS               = 60
Tearing                  = enabled
VSync                    = disabled
GUI rendering            = disabled
Debug layer              = enabled
GPU validation           = disabled
GPU profiling            = enabled
Render mode              = Ray Tracing
Loaded scene file        = 
Using testing scene      = disabled
BLAS duplication         = disabled
Rays per pixel           = 14
Quality preset           = Medium
Rasterization Quality    : 
  AO                     = enabled
  AO kernel size         = 4
  Shadows                = enabled
  Shadow map resolution  = 4096
  Shadow PCF kernel size = 4
  Reflections            = disabled
Ray Tracing Quality      : 
  AO                     = enabled
  AO rays                = 4
  AO kernel size         = 4
  Shadows                = enabled
  Shadow rays            = 4
  Shadow kernel size     = 4
  Reflections            = disabled

ProfilingAggregator: 
Update	,	519.671	,	521.699	,	524.117	,	526.928	,	529.432	,	531.629	,	534.098	,	537.008	,	539.496	,	541.669	,	543.738	,	545.514	,	547.252	,	549.224	,	551.465	,	553.202	,	555.412	,	557.659	,	559.676	,	561.947	,	563.854	,	566.021	,	568.414	,	570.267	,	572.302	,	574.443	,	576.296	,	577.977	,	579.734	,	581.573	,	583.684	,	585.527	,	587.341	,	589.112	,	591.229	,	593.217	,	595.054	,	596.857	,	599.251	,	601.505	,	603.504	,	605.36	,	607.179	,	609.38	,	611.529	,	613.686	,	616.422	,	620.111	,	622.322	,	624.558	,	626.861	,	628.929	,	631.281	,	633.961	,	636.477	,	638.479	,	640.386	,	642.298	,	644.268	,	646.264	,	648.96
Index	,	0	,	1	,	2	,	3	,	4	,	5	,	6	,	7	,	8	,	9	,	10	,	11	,	12	,	13	,	14	,	15	,	16	,	17	,	18	,	19	,	20	,	21	,	22	,	23	,	24	,	25	,	26	,	27	,	28	,	29	,	30	,	31	,	32	,	33	,	34	,	35	,	36	,	37	,	38	,	39	,	40	,	41	,	42	,	43	,	44	,	45	,	46	,	47	,	48	,	49	,	50	,	51	,	52	,	53	,	54	,	55	,	56	,	57	,	58	,	59	,	60

ProfilingBuildAggregator: 
BuildBottomLevelAS	,	0.3245	,	0.2789	,	0.2916	,	0.4011	,	0.3226	,	0.2825	,	0.3473	,	0.3837	,	0.2946	,	0.259	,	0.2514	,	0.2457	,	0.2413	,	0.3925	,	0.2573	,	0.2473	,	0.2984	,	0.3323	,	0.2264	,	0.3292	,	0.2532	,	0.4349	,	0.3275	,	0.2506	,	0.2951	,	0.3349	,	0.2297	,	0.2238	,	0.2254	,	0.2555	,	0.2804	,	0.2579	,	0.2433	,	0.2528	,	0.3341	,	0.2664	,	0.24	,	0.2616	,	0.2942	,	0.2745	,	0.2708	,	0.2532	,	0.2345	,	0.3327	,	0.3036	,	0.3015	,	0.3137	,	0.4315	,	0.2959	,	0.283	,	0.2815	,	0.2686	,	0.3114	,	0.2787	,	0.3618	,	0.246	,	0.2926	,	0.2431	,	0.2424	,	0.2877	,	0.3116
BuildBottomLevelASGpu	,	0.087136	,	0.230688	,	0.324224	,	0.40832	,	0.334304	,	0.266336	,	0.242016	,	0.437248	,	0.166944	,	0.171744	,	0.139744	,	0.095328	,	0.136768	,	0.09664	,	0.163168	,	0.137312	,	0.390592	,	0.458048	,	0.239168	,	0.253312	,	0.269088	,	0.230784	,	0.250272	,	0.127776	,	0.259264	,	0.304992	,	0.173184	,	0.11536	,	0.100032	,	0.114272	,	0.12256	,	0.113984	,	0.112992	,	0.1272	,	0.170848	,	0.147072	,	0.169056	,	0.099136	,	0.106624	,	0.115072	,	0.11056	,	0.189472	,	0.206656	,	0.42912	,	0.511264	,	0.440448	,	0.730144	,	0.47872	,	0.54224	,	0.527328	,	0.620288	,	0.471424	,	0.639072	,	0.58432	,	0.6536	,	0.376032	,	0.235136	,	0.337536	,	0.385792	,	0.376096	,	0.282496
BuildTopLevelAS	,	0.4397	,	0.3934	,	0.409	,	0.4081	,	0.3685	,	0.39	,	0.448	,	0.4526	,	0.4471	,	0.4158	,	0.3889	,	0.373	,	0.3594	,	0.3709	,	0.3616	,	0.3744	,	0.3733	,	0.3729	,	0.4212	,	0.3651	,	0.3581	,	0.3988	,	0.3967	,	0.3711	,	0.3875	,	0.3705	,	0.3595	,	0.3557	,	0.3554	,	0.4069	,	0.4694	,	0.4016	,	0.4158	,	0.3585	,	0.4014	,	0.392	,	0.3645	,	0.4058	,	0.5897	,	0.4987	,	0.4513	,	0.3689	,	0.3868	,	0.3984	,	0.3795	,	0.3895	,	0.5701	,	0.3991	,	0.3608	,	0.4066	,	0.368	,	0.3701	,	0.3774	,	0.3823	,	0.3779	,	0.36	,	0.4157	,	0.3872	,	0.3744	,	0.3691	,	0.4931
BuildTopLevelASGpu	,	0.055328	,	0.054912	,	0.056	,	0.059392	,	0.055296	,	0.055712	,	0.054624	,	0.058976	,	0.055296	,	0.054624	,	0.055168	,	0.055296	,	0.054912	,	0.0552	,	0.055488	,	0.054464	,	0.055616	,	0.059136	,	0.054592	,	0.054464	,	0.054432	,	0.055296	,	0.060096	,	0.054592	,	0.055584	,	0.055616	,	0.054464	,	0.055296	,	0.055584	,	0.063872	,	0.054464	,	0.054464	,	0.055296	,	0.055296	,	0.058944	,	0.054592	,	0.055328	,	0.054592	,	0.054624	,	0.054624	,	0.054432	,	0.055616	,	0.05472	,	0.057696	,	0.055744	,	0.055328	,	0.060096	,	0.060544	,	0.05616	,	0.055712	,	0.055328	,	0.055328	,	0.056576	,	0.0608	,	0.056192	,	0.055456	,	0.055616	,	0.055424	,	0.055456	,	0.05616	,	0.055328
Triangles	,	32	,	4120	,	15584	,	45330	,	20655	,	7167	,	5600	,	46560	,	288	,	282	,	143	,	28	,	75	,	27	,	132	,	108	,	39389	,	52674	,	1812	,	2934	,	2305	,	1290	,	1919	,	122	,	8917	,	19389	,	281	,	47	,	34	,	46	,	63	,	52	,	50	,	102	,	142	,	125	,	183	,	34	,	33	,	48	,	34	,	1658	,	1368	,	7000	,	8584	,	7794	,	37536	,	6246	,	14409	,	23123	,	23437	,	9929	,	29460	,	23399	,	29275	,	1620	,	192	,	1572	,	1362	,	1999	,	306
Meshes	,	1	,	1	,	2	,	2	,	2	,	1	,	1	,	2	,	1	,	1	,	1	,	1	,	1	,	1	,	1	,	1	,	2	,	2	,	2	,	2	,	2	,	1	,	1	,	1	,	1	,	1	,	1	,	1	,	1	,	1	,	1	,	1	,	1	,	1	,	1	,	1	,	1	,	1	,	1	,	1	,	1	,	1	,	1	,	1	,	1	,	1	,	1	,	1	,	1	,	1	,	1	,	1	,	1	,	1	,	1	,	1	,	1	,	1	,	1	,	1	,	1
BottomLevels	,	1	,	1	,	1	,	1	,	1	,	1	,	1	,	1	,	1	,	1	,	1	,	1	,	1	,	1	,	1	,	1	,	1	,	1	,	1	,	1	,	1	,	1	,	1	,	1	,	1	,	1	,	1	,	1	,	1	,	1	,	1	,	1	,	1	,	1	,	1	,	1	,	1	,	1	,	1	,	1	,	1	,	1	,	1	,	1	,	1	,	1	,	1	,	1	,	1	,	1	,	1	,	1	,	1	,	1	,	1	,	1	,	1	,	1	,	1	,	1	,	1
TopLevelSize	,	64	,	64	,	64	,	64	,	64	,	64	,	64	,	64	,	64	,	64	,	64	,	64	,	64	,	64	,	64	,	64	,	64	,	64	,	64	,	64	,	64	,	64	,	64	,	64	,	64	,	64	,	64	,	64	,	64	,	64	,	64	,	64	,	64	,	64	,	64	,	64	,	64	,	64	,	64	,	64	,	64	,	64	,	64	,	64	,	64	,	64	,	64	,	64	,	64	,	64	,	64	,	64	,	64	,	64	,	64	,	64	,	64	,	64	,	64	,	64	,	64
BottomLevelsSize	,	6528	,	233856	,	872832	,	2531072	,	1155712	,	403712	,	316672	,	2599424	,	20992	,	19840	,	12544	,	6256	,	8496	,	6256	,	12304	,	10752	,	2199808	,	2940416	,	105600	,	167936	,	132864	,	76032	,	111104	,	11392	,	501632	,	1085056	,	19840	,	7168	,	6800	,	7168	,	8320	,	7888	,	7888	,	10144	,	12544	,	11392	,	14976	,	6800	,	6800	,	7680	,	6800	,	97152	,	80896	,	498560	,	606720	,	555392	,	2637440	,	442240	,	1015680	,	1625856	,	1647488	,	700288	,	2071040	,	1646976	,	2056960	,	120832	,	18432	,	115712	,	100352	,	147456	,	26112
Index	,	0	,	1	,	2	,	3	,	4	,	5	,	6	,	7	,	8	,	9	,	10	,	11	,	12	,	13	,	14	,	15	,	16	,	17	,	18	,	19	,	20	,	21	,	22	,	23	,	24	,	25	,	26	,	27	,	28	,	29	,	30	,	31	,	32	,	33	,	34	,	35	,	36	,	37	,	38	,	39	,	40	,	41	,	42	,	43	,	44	,	45	,	46	,	47	,	48	,	49	,	50	,	51	,	52	,	53	,	54	,	55	,	56	,	57	,	58	,	59	,	60

FpsAggregator: 
FPS	,	0	,	0	,	0	,	0	,	0	,	0	,	0	,	0	,	0	,	0	,	0	,	0	,	0	,	0	,	0	,	0	,	0	,	0	,	0	,	0	,	0	,	0	,	0	,	0	,	0	,	0	,	0	,	0	,	0	,	0	,	0	,	0	,	0	,	0	,	0	,	0	,	0	,	0	,	0	,	0	,	0	,	0	,	0	,	0	,	0	,	0	,	0	,	0	,	0	,	0	,	0	,	0	,	0	,	0	,	0	,	0	,	0	,	0	,	0	,	0	,	0
UPS	,	0	,	0	,	0	,	0	,	0	,	0	,	0	,	0	,	0	,	0	,	0	,	0	,	0	,	0	,	0	,	0	,	0	,	0	,	0	,	0	,	0	,	0	,	0	,	0	,	0	,	0	,	0	,	0	,	0	,	0	,	0	,	0	,	0	,	0	,	0	,	0	,	0	,	0	,	0	,	0	,	0	,	0	,	0	,	0	,	0	,	0	,	0	,	0	,	0	,	0	,	0	,	0	,	0	,	0	,	0	,	0	,	0	,	0	,	0	,	0	,	0
FrameTime	,	0	,	0	,	0	,	0	,	0	,	0	,	0	,	0	,	0	,	0	,	0	,	0	,	0	,	0	,	0	,	0	,	0	,	0	,	0	,	0	,	0	,	0	,	0	,	0	,	0	,	0	,	0	,	0	,	0	,	0	,	0	,	0	,	0	,	0	,	0	,	0	,	0	,	0	,	0	,	0	,	0	,	0	,	0	,	0	,	0	,	0	,	0	,	0	,	0	,	0	,	0	,	0	,	0	,	0	,	0	,	0	,	0	,	0	,	0	,	0	,	0
GigaRays/s	,	0	,	0	,	0	,	0	,	0	,	0	,	0	,	0	,	0	,	0	,	0	,	0	,	0	,	0	,	0	,	0	,	0	,	0	,	0	,	0	,	0	,	0	,	0	,	0	,	0	,	0	,	0	,	0	,	0	,	0	,	0	,	0	,	0	,	0	,	0	,	0	,	0	,	0	,	0	,	0	,	0	,	0	,	0	,	0	,	0	,	0	,	0	,	0	,	0	,	0	,	0	,	0	,	0	,	0	,	0	,	0	,	0	,	0	,	0	,	0	,	0
Index	,	0	,	1	,	2	,	3	,	4	,	5	,	6	,	7	,	8	,	9	,	10	,	11	,	12	,	13	,	14	,	15	,	16	,	17	,	18	,	19	,	20	,	21	,	22	,	23	,	24	,	25	,	26	,	27	,	28	,	29	,	30	,	31	,	32	,	33	,	34	,	35	,	36	,	37	,	38	,	39	,	40	,	41	,	42	,	43	,	44	,	45	,	46	,	47	,	48	,	49	,	50	,	51	,	52	,	53	,	54	,	55	,	56	,	57	,	58	,	59	,	60


AccelerationStructure: 
Ray tracing acceleration structure building statistics: 
	Bottom Level Acceleration Structure: 
		Maximum [B]: 0
		Minimum [B]: 18446744073709551615
		Currently Allocated [B]: 0
		Currently Created [num]: 0
		Current Average [B]: 0
		Maximum Triangles [num]: 0
		Minimum Triangles [num]: 18446744073709551615
		Total Triangles [num]: 0
		Maximum Meshes [num]: 0
		Minimum Meshes [num]: 18446744073709551615
		Total Meshes [num]: 0
	Top Level Acceleration Structure: 
		Maximum [B]: 0
		Minimum [B]: 18446744073709551615
		Currently Allocated [B]: 0
		Total Allocated [B]: 0
		Total Created [num]: 0
		Average Allocated [B]: 0
		Maximum Instances [num]: 0
		Minimum Instances [num]: 18446744073709551615
		Total Instances [num]: 0
	Scratch Buffer: 
		Maximum [B]: 0
		Minimum [B]: 18446744073709551615
		Currently Allocated [B]: 0
		Total Allocated [B]: 0
		Total Created [num]: 0
		Average Allocated [B]: 0
ProfilingStack: 
[PROF] Profiling statistics: 
	Scopes entered : 385
	Scopes exited : 383
	Overhead per scope [ticks] : 164.1
	Threads entered : 3
	Threads exited : 0
	============================
		         Sum[Mt]   Parent[%]  Samples[num]       Avg[Mt]   Last/Curr[Mt]        Self[Mt]     Self[%] 	 Name

	main:

		    1658.881 Mt   100.000 %         1 x     1658.882 Mt     1658.881 Mt      936.173 Mt    56.434 % 	 /

		      72.980 Mt     4.399 %         1 x       72.980 Mt       72.980 Mt        1.190 Mt     1.630 % 	 ./Initialize

		       3.328 Mt     4.560 %         1 x        3.328 Mt        3.328 Mt        3.328 Mt   100.000 % 	 ../TexturedRLInitialization

		       1.541 Mt     2.112 %         1 x        1.541 Mt        1.541 Mt        1.541 Mt   100.000 % 	 ../ShadowMapRLInitialization

		       7.730 Mt    10.592 %         1 x        7.730 Mt        7.730 Mt        7.730 Mt   100.000 % 	 ../AmbientOcclusionRLInitialization

		       5.227 Mt     7.162 %         1 x        5.227 Mt        5.227 Mt        5.227 Mt   100.000 % 	 ../RasterResolveRLInitialization

		       4.392 Mt     6.019 %         1 x        4.392 Mt        4.392 Mt        4.392 Mt   100.000 % 	 ../DeferredRLInitialization

		      44.488 Mt    60.960 %         1 x       44.488 Mt       44.488 Mt        1.554 Mt     3.494 % 	 ../RayTracingRLInitialization

		      42.934 Mt    96.506 %         1 x       42.934 Mt       42.934 Mt       42.934 Mt   100.000 % 	 .../PipelineBuild

		       5.083 Mt     6.965 %         1 x        5.083 Mt        5.083 Mt        5.083 Mt   100.000 % 	 ../ResolveRLInitialization

		     649.797 Mt    39.171 %         1 x      649.797 Mt      649.797 Mt        0.003 Mt     0.000 % 	 ./Run

		     649.801 Mt   100.001 %         1 x      649.801 Mt      649.801 Mt       89.802 Mt    13.820 % 	 ../Update

		     491.062 Mt    75.571 %         1 x      491.062 Mt      491.062 Mt      485.754 Mt    98.919 % 	 .../ScenePrep

		       5.307 Mt     1.081 %         1 x        5.307 Mt        5.307 Mt        5.307 Mt   100.000 % 	 ..../SceneDesc-CreateScene

		      68.937 Mt    10.609 %        62 x        1.112 Mt        1.514 Mt       25.099 Mt    36.408 % 	 .../AccelerationStructureBuild

		      18.759 Mt    27.212 %        62 x        0.303 Mt        0.312 Mt       18.759 Mt   100.000 % 	 ..../BuildBottomLevelAS

		      25.079 Mt    36.380 %        62 x        0.405 Mt        0.493 Mt       25.079 Mt   100.000 % 	 ..../BuildTopLevelAS

	WindowThread:

		    1656.727 Mt   100.000 %         1 x     1656.727 Mt     1656.727 Mt     1656.727 Mt   100.000 % 	 /

	GpuThread:

		      20.607 Mt   100.000 %        61 x        0.338 Mt        0.339 Mt       -0.143 Mt    -0.696 % 	 /

		      20.751 Mt   100.696 %        62 x        0.335 Mt        0.339 Mt        0.057 Mt     0.272 % 	 ./AccelerationStructureBuild

		      17.223 Mt    83.002 %        62 x        0.278 Mt        0.282 Mt       17.223 Mt   100.000 % 	 ../BuildBottomLevelASGpu

		       3.471 Mt    16.725 %        62 x        0.056 Mt        0.055 Mt        3.471 Mt   100.000 % 	 ../BuildTopLevelASGpu


	============================


