Configuration: 
Command line parameters  = 
Window width             = 1024
Window height            = 768
Window title             = Direct3D App
Back-buffer count        = 3
Fill Triangles           = enabled
Triangles Font Clock-Wise= disabled
Fast Build AS            = disabled
Target FPS               = 0
Target UPS               = 60
Tearing                  = enabled
VSync                    = disabled
GUI rendering            = disabled
Debug layer              = enabled
GPU validation           = disabled
GPU profiling            = enabled
Render mode              = Ray Tracing
Loaded scene file        = 
Using testing scene      = disabled
BLAS duplication         = disabled
Rays per pixel           = 14
Quality preset           = Unknown
Rasterization Quality    : 
  AO                     = enabled
  AO kernel size         = 4
  Shadows                = enabled
  Shadow map resolution  = 4096
  Shadow PCF kernel size = 4
  Reflections            = disabled
Ray Tracing Quality      : 
  AO                     = enabled
  AO rays                = 4
  AO kernel size         = 4
  Shadows                = enabled
  Shadow rays            = 4
  Shadow kernel size     = 4
  Reflections            = disabled

ProfilingAggregator: 
Update	,	537.528	,	539.477	,	541.581	,	544.563	,	546.895	,	549.209	,	551.157	,	553.522	,	555.305	,	557.004	,	558.707	,	561.425	,	563.892	,	566.359	,	569.301	,	571.092	,	573.271	,	576.401	,	578.959	,	581.396	,	584.584	,	586.636	,	588.464	,	590.227	,	593.013	,	595.294	,	597.556	,	600.736	,	602.628	,	604.402	,	606.21	,	608.207	,	610.143	,	611.852	,	613.818	,	616.075	,	617.857	,	619.452	,	620.999	,	622.54	,	624.34	,	626.373	,	628.405	,	633.245	,	635.506	,	637.507	,	639.808	,	642.098	,	644.313	,	646.843	,	650.137	,	652.257	,	654.648	,	657.819	,	660.506	,	662.796	,	665.753	,	667.975	,	670.416	,	673.396	,	675.548
Index	,	0	,	1	,	2	,	3	,	4	,	5	,	6	,	7	,	8	,	9	,	10	,	11	,	12	,	13	,	14	,	15	,	16	,	17	,	18	,	19	,	20	,	21	,	22	,	23	,	24	,	25	,	26	,	27	,	28	,	29	,	30	,	31	,	32	,	33	,	34	,	35	,	36	,	37	,	38	,	39	,	40	,	41	,	42	,	43	,	44	,	45	,	46	,	47	,	48	,	49	,	50	,	51	,	52	,	53	,	54	,	55	,	56	,	57	,	58	,	59	,	60

ProfilingBuildAggregator: 
BuildBottomLevelAS	,	0.29	,	0.2843	,	0.286	,	0.3082	,	0.2924	,	0.3078	,	0.2516	,	0.3642	,	0.26	,	0.2261	,	0.2425	,	0.2456	,	0.2715	,	0.2882	,	0.2652	,	0.2317	,	0.306	,	0.321	,	0.4071	,	0.3148	,	0.2721	,	0.2644	,	0.2206	,	0.2285	,	0.3592	,	0.3337	,	0.263	,	0.2713	,	0.2708	,	0.2411	,	0.2282	,	0.3024	,	0.2435	,	0.221	,	0.2817	,	0.2736	,	0.2345	,	0.2083	,	0.22	,	0.2061	,	0.2436	,	0.2997	,	0.3103	,	0.408	,	0.2979	,	0.2472	,	0.3251	,	0.2667	,	0.3147	,	0.3551	,	0.4145	,	0.2511	,	0.3607	,	0.3257	,	0.3267	,	0.2528	,	0.2901	,	0.268	,	0.2864	,	0.8674	,	0.2794
BuildBottomLevelASGpu	,	0.088288	,	0.229696	,	0.31936	,	0.403232	,	0.335488	,	0.249248	,	0.24704	,	0.421632	,	0.168352	,	0.172832	,	0.141376	,	0.096	,	0.149056	,	0.1096	,	0.165376	,	0.13888	,	0.384	,	0.462976	,	0.241888	,	0.267968	,	0.281792	,	0.23328	,	0.23568	,	0.128864	,	0.256512	,	0.30944	,	0.187296	,	0.122912	,	0.100832	,	0.105632	,	0.123456	,	0.115008	,	0.11568	,	0.126464	,	0.161376	,	0.158368	,	0.170464	,	0.098112	,	0.106368	,	0.115872	,	0.111488	,	0.19088	,	0.207552	,	0.441536	,	0.519712	,	0.454752	,	0.667936	,	0.464544	,	0.559296	,	0.544064	,	0.697408	,	0.464096	,	0.634016	,	0.856576	,	0.961344	,	0.544384	,	0.358592	,	0.488032	,	0.557888	,	0.553728	,	0.406656
BuildTopLevelAS	,	0.4649	,	0.3709	,	0.367	,	0.4594	,	0.3566	,	0.3862	,	0.3717	,	0.3626	,	0.3713	,	0.3552	,	0.3586	,	0.4254	,	0.433	,	0.4889	,	0.4218	,	0.3724	,	0.3652	,	0.3614	,	0.4995	,	0.435	,	0.4393	,	0.392	,	0.3962	,	0.3798	,	0.4467	,	0.3813	,	0.4318	,	0.4402	,	0.4059	,	0.3634	,	0.3612	,	0.4069	,	0.3772	,	0.3823	,	0.4331	,	0.4461	,	0.3641	,	0.3611	,	0.3565	,	0.3568	,	0.4358	,	0.442	,	0.4412	,	0.6397	,	0.3697	,	0.369	,	0.395	,	0.3942	,	0.37	,	0.506	,	0.3938	,	0.3729	,	0.3633	,	0.3984	,	0.384	,	0.385	,	0.4545	,	0.3962	,	0.3913	,	0.4308	,	0.4218
BuildTopLevelASGpu	,	0.056032	,	0.055552	,	0.055712	,	0.060224	,	0.054944	,	0.059616	,	0.055104	,	0.05984	,	0.055104	,	0.056032	,	0.055072	,	0.054944	,	0.060704	,	0.059424	,	0.055936	,	0.056032	,	0.057152	,	0.05984	,	0.05584	,	0.06064	,	0.060128	,	0.05504	,	0.05568	,	0.056352	,	0.056032	,	0.054976	,	0.061248	,	0.058016	,	0.055904	,	0.055904	,	0.055296	,	0.055936	,	0.056416	,	0.055168	,	0.055296	,	0.060288	,	0.05504	,	0.055072	,	0.0552	,	0.055072	,	0.055072	,	0.05504	,	0.055008	,	0.061088	,	0.056864	,	0.056288	,	0.056448	,	0.05632	,	0.055456	,	0.055584	,	0.061376	,	0.056576	,	0.055456	,	0.080576	,	0.079648	,	0.07936	,	0.084512	,	0.079456	,	0.079232	,	0.080224	,	0.0792
Triangles	,	32	,	4120	,	15584	,	45330	,	20655	,	7167	,	5600	,	46560	,	288	,	282	,	143	,	28	,	75	,	27	,	132	,	108	,	39389	,	52674	,	1812	,	2934	,	2305	,	1290	,	1919	,	122	,	8917	,	19389	,	281	,	47	,	34	,	46	,	63	,	52	,	50	,	102	,	142	,	125	,	183	,	34	,	33	,	48	,	34	,	1658	,	1368	,	7000	,	8584	,	7794	,	37536	,	6246	,	14409	,	23123	,	23437	,	9929	,	29460	,	23399	,	29275	,	1620	,	192	,	1572	,	1362	,	1999	,	306
Meshes	,	1	,	1	,	2	,	2	,	2	,	1	,	1	,	2	,	1	,	1	,	1	,	1	,	1	,	1	,	1	,	1	,	2	,	2	,	2	,	2	,	2	,	1	,	1	,	1	,	1	,	1	,	1	,	1	,	1	,	1	,	1	,	1	,	1	,	1	,	1	,	1	,	1	,	1	,	1	,	1	,	1	,	1	,	1	,	1	,	1	,	1	,	1	,	1	,	1	,	1	,	1	,	1	,	1	,	1	,	1	,	1	,	1	,	1	,	1	,	1	,	1
BottomLevels	,	1	,	1	,	1	,	1	,	1	,	1	,	1	,	1	,	1	,	1	,	1	,	1	,	1	,	1	,	1	,	1	,	1	,	1	,	1	,	1	,	1	,	1	,	1	,	1	,	1	,	1	,	1	,	1	,	1	,	1	,	1	,	1	,	1	,	1	,	1	,	1	,	1	,	1	,	1	,	1	,	1	,	1	,	1	,	1	,	1	,	1	,	1	,	1	,	1	,	1	,	1	,	1	,	1	,	1	,	1	,	1	,	1	,	1	,	1	,	1	,	1
TopLevelSize	,	64	,	64	,	64	,	64	,	64	,	64	,	64	,	64	,	64	,	64	,	64	,	64	,	64	,	64	,	64	,	64	,	64	,	64	,	64	,	64	,	64	,	64	,	64	,	64	,	64	,	64	,	64	,	64	,	64	,	64	,	64	,	64	,	64	,	64	,	64	,	64	,	64	,	64	,	64	,	64	,	64	,	64	,	64	,	64	,	64	,	64	,	64	,	64	,	64	,	64	,	64	,	64	,	64	,	64	,	64	,	64	,	64	,	64	,	64	,	64	,	64
BottomLevelsSize	,	6528	,	233856	,	872832	,	2531072	,	1155712	,	403712	,	316672	,	2599424	,	20992	,	19840	,	12544	,	6256	,	8496	,	6256	,	12304	,	10752	,	2199808	,	2940416	,	105600	,	167936	,	132864	,	76032	,	111104	,	11392	,	501632	,	1085056	,	19840	,	7168	,	6800	,	7168	,	8320	,	7888	,	7888	,	10144	,	12544	,	11392	,	14976	,	6800	,	6800	,	7680	,	6800	,	97152	,	80896	,	498560	,	606720	,	555392	,	2637440	,	442240	,	1015680	,	1625856	,	1647488	,	700288	,	2071040	,	1646976	,	2056960	,	120832	,	18432	,	115712	,	100352	,	147456	,	26112
Index	,	0	,	1	,	2	,	3	,	4	,	5	,	6	,	7	,	8	,	9	,	10	,	11	,	12	,	13	,	14	,	15	,	16	,	17	,	18	,	19	,	20	,	21	,	22	,	23	,	24	,	25	,	26	,	27	,	28	,	29	,	30	,	31	,	32	,	33	,	34	,	35	,	36	,	37	,	38	,	39	,	40	,	41	,	42	,	43	,	44	,	45	,	46	,	47	,	48	,	49	,	50	,	51	,	52	,	53	,	54	,	55	,	56	,	57	,	58	,	59	,	60

FpsAggregator: 
FPS	,	0	,	0	,	0	,	0	,	0	,	0	,	0	,	0	,	0	,	0	,	0	,	0	,	0	,	0	,	0	,	0	,	0	,	0	,	0	,	0	,	0	,	0	,	0	,	0	,	0	,	0	,	0	,	0	,	0	,	0	,	0	,	0	,	0	,	0	,	0	,	0	,	0	,	0	,	0	,	0	,	0	,	0	,	0	,	0	,	0	,	0	,	0	,	0	,	0	,	0	,	0	,	0	,	0	,	0	,	0	,	0	,	0	,	0	,	0	,	0	,	0
UPS	,	0	,	0	,	0	,	0	,	0	,	0	,	0	,	0	,	0	,	0	,	0	,	0	,	0	,	0	,	0	,	0	,	0	,	0	,	0	,	0	,	0	,	0	,	0	,	0	,	0	,	0	,	0	,	0	,	0	,	0	,	0	,	0	,	0	,	0	,	0	,	0	,	0	,	0	,	0	,	0	,	0	,	0	,	0	,	0	,	0	,	0	,	0	,	0	,	0	,	0	,	0	,	0	,	0	,	0	,	0	,	0	,	0	,	0	,	0	,	0	,	0
FrameTime	,	0	,	0	,	0	,	0	,	0	,	0	,	0	,	0	,	0	,	0	,	0	,	0	,	0	,	0	,	0	,	0	,	0	,	0	,	0	,	0	,	0	,	0	,	0	,	0	,	0	,	0	,	0	,	0	,	0	,	0	,	0	,	0	,	0	,	0	,	0	,	0	,	0	,	0	,	0	,	0	,	0	,	0	,	0	,	0	,	0	,	0	,	0	,	0	,	0	,	0	,	0	,	0	,	0	,	0	,	0	,	0	,	0	,	0	,	0	,	0	,	0
GigaRays/s	,	0	,	0	,	0	,	0	,	0	,	0	,	0	,	0	,	0	,	0	,	0	,	0	,	0	,	0	,	0	,	0	,	0	,	0	,	0	,	0	,	0	,	0	,	0	,	0	,	0	,	0	,	0	,	0	,	0	,	0	,	0	,	0	,	0	,	0	,	0	,	0	,	0	,	0	,	0	,	0	,	0	,	0	,	0	,	0	,	0	,	0	,	0	,	0	,	0	,	0	,	0	,	0	,	0	,	0	,	0	,	0	,	0	,	0	,	0	,	0	,	0
Index	,	0	,	1	,	2	,	3	,	4	,	5	,	6	,	7	,	8	,	9	,	10	,	11	,	12	,	13	,	14	,	15	,	16	,	17	,	18	,	19	,	20	,	21	,	22	,	23	,	24	,	25	,	26	,	27	,	28	,	29	,	30	,	31	,	32	,	33	,	34	,	35	,	36	,	37	,	38	,	39	,	40	,	41	,	42	,	43	,	44	,	45	,	46	,	47	,	48	,	49	,	50	,	51	,	52	,	53	,	54	,	55	,	56	,	57	,	58	,	59	,	60


AccelerationStructure: 
Ray tracing acceleration structure building statistics: 
	Bottom Level Acceleration Structure: 
		Maximum [B]: 0
		Minimum [B]: 18446744073709551615
		Currently Allocated [B]: 0
		Currently Created [num]: 0
		Current Average [B]: 0
		Maximum Triangles [num]: 0
		Minimum Triangles [num]: 18446744073709551615
		Total Triangles [num]: 0
		Maximum Meshes [num]: 0
		Minimum Meshes [num]: 18446744073709551615
		Total Meshes [num]: 0
	Top Level Acceleration Structure: 
		Maximum [B]: 0
		Minimum [B]: 18446744073709551615
		Currently Allocated [B]: 0
		Total Allocated [B]: 0
		Total Created [num]: 0
		Average Allocated [B]: 0
		Maximum Instances [num]: 0
		Minimum Instances [num]: 18446744073709551615
		Total Instances [num]: 0
	Scratch Buffer: 
		Maximum [B]: 0
		Minimum [B]: 18446744073709551615
		Currently Allocated [B]: 0
		Total Allocated [B]: 0
		Total Created [num]: 0
		Average Allocated [B]: 0
ProfilingStack: 
[PROF] Profiling statistics: 
	Scopes entered : 385
	Scopes exited : 383
	Overhead per scope [ticks] : 162.4
	Threads entered : 3
	Threads exited : 0
	============================
		         Sum[Mt]   Parent[%]  Samples[num]       Avg[Mt]   Last/Curr[Mt]        Self[Mt]     Self[%] 	 Name

	main:

		    1738.789 Mt   100.000 %         1 x     1738.790 Mt     1738.789 Mt      986.660 Mt    56.744 % 	 /

		      75.922 Mt     4.366 %         1 x       75.922 Mt       75.922 Mt        1.267 Mt     1.669 % 	 ./Initialize

		       3.040 Mt     4.004 %         1 x        3.040 Mt        3.040 Mt        3.040 Mt   100.000 % 	 ../TexturedRLInitialization

		       1.474 Mt     1.941 %         1 x        1.474 Mt        1.474 Mt        1.474 Mt   100.000 % 	 ../ShadowMapRLInitialization

		       7.321 Mt     9.643 %         1 x        7.321 Mt        7.321 Mt        7.321 Mt   100.000 % 	 ../AmbientOcclusionRLInitialization

		       5.713 Mt     7.525 %         1 x        5.713 Mt        5.713 Mt        5.713 Mt   100.000 % 	 ../RasterResolveRLInitialization

		       3.981 Mt     5.243 %         1 x        3.981 Mt        3.981 Mt        3.981 Mt   100.000 % 	 ../DeferredRLInitialization

		      48.241 Mt    63.540 %         1 x       48.241 Mt       48.241 Mt        1.390 Mt     2.882 % 	 ../RayTracingRLInitialization

		      46.851 Mt    97.118 %         1 x       46.851 Mt       46.851 Mt       46.851 Mt   100.000 % 	 .../PipelineBuild

		       4.886 Mt     6.435 %         1 x        4.886 Mt        4.886 Mt        4.886 Mt   100.000 % 	 ../ResolveRLInitialization

		     676.285 Mt    38.894 %         1 x      676.285 Mt      676.285 Mt        0.002 Mt     0.000 % 	 ./Run

		     676.290 Mt   100.001 %         1 x      676.290 Mt      676.290 Mt       93.447 Mt    13.818 % 	 ../Update

		     506.973 Mt    74.964 %         1 x      506.973 Mt      506.973 Mt      501.805 Mt    98.981 % 	 .../ScenePrep

		       5.168 Mt     1.019 %         1 x        5.168 Mt        5.168 Mt        5.168 Mt   100.000 % 	 ..../SceneDesc-CreateScene

		      75.870 Mt    11.219 %        62 x        1.224 Mt        1.033 Mt       31.664 Mt    41.735 % 	 .../AccelerationStructureBuild

		      18.863 Mt    24.862 %        62 x        0.304 Mt        0.279 Mt       18.863 Mt   100.000 % 	 ..../BuildBottomLevelAS

		      25.343 Mt    33.403 %        62 x        0.409 Mt        0.422 Mt       25.343 Mt   100.000 % 	 ..../BuildTopLevelAS

	WindowThread:

		    1736.615 Mt   100.000 %         1 x     1736.615 Mt     1736.614 Mt     1736.615 Mt   100.000 % 	 /

	GpuThread:

		      22.443 Mt   100.000 %        61 x        0.368 Mt        0.487 Mt       -0.146 Mt    -0.649 % 	 /

		      22.589 Mt   100.649 %        62 x        0.364 Mt        0.487 Mt        0.064 Mt     0.283 % 	 ./AccelerationStructureBuild

		      18.818 Mt    83.308 %        62 x        0.304 Mt        0.407 Mt       18.818 Mt   100.000 % 	 ../BuildBottomLevelASGpu

		       3.707 Mt    16.409 %        62 x        0.060 Mt        0.079 Mt        3.707 Mt   100.000 % 	 ../BuildTopLevelASGpu


	============================


