Configuration: 
Command line parameters  = E:\programming\FIT-DIP\Masters-DXR-Main-git\build\Measurement\x64\Debug\Measurement.exe --scene Sponza/Sponza.gltf --duplication-cube --duplication-offset 0 --profile-triangles --profile-camera-track Sponza/SponzaFast.trk --profile-max-duplication 6 --rt-mode-pure --width 2560 --height 1440 --profile-output TrianglesSponzaNoOffset1440Rp 
Window width             = 2560
Window height            = 1421
Window title             = Direct3D App
Back-buffer count        = 3
Fill Triangles           = enabled
Triangles Font Clock-Wise= enabled
Fast Build AS            = disabled
Target FPS               = 0
Target UPS               = 60
Tearing                  = enabled
VSync                    = disabled
GUI rendering            = disabled
Debug layer              = enabled
GPU validation           = disabled
GPU profiling            = enabled
Render mode              = Ray Tracing
Loaded scene file        = Sponza/Sponza.gltf
Using testing scene      = disabled
Duplication              = 6
Duplication in cube      = enabled
Duplication offset       = 0
BLAS duplication         = enabled
Rays per pixel           = 9

ProfilingAggregator: 
Render	,	8.3508	,	8.3508	,	9.2013	,	9.2013	,	8.9346	,	8.9346	,	9.206	,	9.206	,	10.0763	,	10.0763	,	9.0893	,	42.1673	,	42.1673	,	46.5219	,	46.5219	,	46.6973	,	46.6973	,	56.8666	,	56.8666	,	54.0858	,	54.0858	,	41.3076	,	137.851	,	137.851	,	147.99	,	147.99	,	147.082	,	147.082	,	220.468	,	220.468	,	132.703	,	132.703	,	137.431	,	452.327	,	452.327	,	397.944	,	397.944	,	477.274	,	477.274	,	467.626	,	467.626	,	369.682	,	969.377	,	969.377	,	759	,	759	,	1112.97	,	1112.97	,	809.883	,	1400.88	,	1400.88	,	1617.68	,	1617.68	,	1532.48
Update	,	0.4466	,	0.4466	,	0.3635	,	0.3635	,	0.5848	,	0.5848	,	0.479	,	0.479	,	0.338	,	0.338	,	0.347	,	0.2683	,	0.2683	,	0.2775	,	0.2775	,	0.2662	,	0.2662	,	0.3257	,	0.3257	,	0.261	,	0.261	,	0.2756	,	0.2793	,	0.2793	,	0.2835	,	0.2835	,	0.2805	,	0.2805	,	0.28	,	0.28	,	0.2841	,	0.2841	,	0.2714	,	0.3276	,	0.3276	,	0.3248	,	0.3248	,	0.3266	,	0.3266	,	0.3262	,	0.3262	,	0.3156	,	0.3789	,	0.3789	,	0.3955	,	0.3955	,	0.3957	,	0.3957	,	0.3874	,	0.4128	,	0.4128	,	0.4663	,	0.4663	,	0.418
RayTracing	,	1.3368	,	1.3368	,	1.3823	,	1.3823	,	1.3546	,	1.3546	,	1.4559	,	1.4559	,	1.4635	,	1.4635	,	1.3269	,	1.5292	,	1.5292	,	1.5359	,	1.5359	,	1.4983	,	1.4983	,	1.5377	,	1.5377	,	1.4927	,	1.4927	,	1.5365	,	1.5306	,	1.5306	,	1.5494	,	1.5494	,	1.5746	,	1.5746	,	1.5728	,	1.5728	,	1.5847	,	1.5847	,	1.5373	,	1.588	,	1.588	,	1.5841	,	1.5841	,	1.5794	,	1.5794	,	1.5981	,	1.5981	,	1.6035	,	1.4887	,	1.4887	,	1.5735	,	1.5735	,	1.5414	,	1.5414	,	1.4124	,	1.2949	,	1.2949	,	1.2516	,	1.2516	,	1.2325
RayTracingGpu	,	5.6784	,	5.6784	,	6.44256	,	6.44256	,	6.1545	,	6.1545	,	6.15686	,	6.15686	,	7.17277	,	7.17277	,	6.59254	,	38.9748	,	38.9748	,	43.3068	,	43.3068	,	43.6102	,	43.6102	,	53.6675	,	53.6675	,	51.1172	,	51.1172	,	38.0682	,	134.558	,	134.558	,	144.702	,	144.702	,	143.684	,	143.684	,	217.109	,	217.109	,	129.293	,	129.293	,	134.252	,	449.12	,	449.12	,	394.485	,	394.485	,	473.98	,	473.98	,	464.18	,	464.18	,	366.276	,	966.188	,	966.188	,	755.538	,	755.538	,	1109.7	,	1109.7	,	806.961	,	1398.14	,	1398.14	,	1614.91	,	1614.91	,	1529.7
RayTracingRLGpu	,	5.40426	,	5.40426	,	6.16922	,	6.16922	,	5.89136	,	5.89136	,	5.88275	,	5.88275	,	6.9079	,	6.9079	,	6.31024	,	38.7109	,	38.7109	,	43.0204	,	43.0204	,	43.33	,	43.33	,	53.3804	,	53.3804	,	50.8312	,	50.8312	,	37.7816	,	134.269	,	134.269	,	144.415	,	144.415	,	143.411	,	143.411	,	216.82	,	216.82	,	129.02	,	129.02	,	133.965	,	448.857	,	448.857	,	394.198	,	394.198	,	473.693	,	473.693	,	463.917	,	463.917	,	365.988	,	965.898	,	965.898	,	755.275	,	755.275	,	1109.42	,	1109.42	,	806.699	,	1397.89	,	1397.89	,	1614.64	,	1614.64	,	1529.44
ResolveRLGpu	,	0.273344	,	0.273344	,	0.272608	,	0.272608	,	0.2624	,	0.2624	,	0.273184	,	0.273184	,	0.264192	,	0.264192	,	0.281664	,	0.263104	,	0.263104	,	0.285696	,	0.285696	,	0.278848	,	0.278848	,	0.286368	,	0.286368	,	0.285248	,	0.285248	,	0.285376	,	0.287968	,	0.287968	,	0.285728	,	0.285728	,	0.27168	,	0.27168	,	0.287936	,	0.287936	,	0.271936	,	0.271936	,	0.28608	,	0.262208	,	0.262208	,	0.285856	,	0.285856	,	0.286944	,	0.286944	,	0.261856	,	0.261856	,	0.287552	,	0.288608	,	0.288608	,	0.26192	,	0.26192	,	0.283488	,	0.283488	,	0.261184	,	0.258272	,	0.258272	,	0.268512	,	0.268512	,	0.25984
Index	,	0	,	1	,	2	,	3	,	4	,	5	,	6	,	7	,	8	,	9	,	10	,	11	,	12	,	13	,	14	,	15	,	16	,	17	,	18	,	19	,	20	,	21	,	22	,	23	,	24	,	25	,	26	,	27	,	28	,	29	,	30	,	31	,	32	,	33	,	34	,	35	,	36	,	37	,	38	,	39	,	40	,	41	,	42	,	43	,	44	,	45	,	46	,	47	,	48	,	49	,	50	,	51	,	52	,	53

ProfilingBuildAggregator: 
BuildBottomLevelAS	,	5.2081	,	34.1424	,	76.7666	,	154.182	,	271.254
BuildBottomLevelASGpu	,	15.9227	,	31.2764	,	72.268	,	141.581	,	243.249
BuildTopLevelAS	,	2.1363	,	0.733	,	0.7987	,	0.6837	,	0.7869
BuildTopLevelASGpu	,	0.616576	,	0.163424	,	0.28992	,	0.368544	,	0.41536
Duplication	,	1	,	3	,	4	,	5	,	6
Triangles	,	262267	,	7081209	,	16785088	,	32783375	,	56649672
Meshes	,	103	,	2781	,	6592	,	12875	,	22248
BottomLevels	,	1	,	27	,	64	,	125	,	216
Index	,	0	,	1	,	2	,	3	,	4

FpsAggregator: 
FPS	,	115	,	115	,	107	,	107	,	107	,	107	,	108	,	108	,	89	,	89	,	104	,	25	,	25	,	21	,	21	,	22	,	22	,	23	,	23	,	16	,	16	,	23	,	8	,	8	,	7	,	7	,	7	,	7	,	7	,	7	,	6	,	6	,	8	,	3	,	3	,	3	,	3	,	3	,	3	,	2	,	2	,	3	,	1	,	1	,	2	,	2	,	1	,	1	,	2	,	1	,	1	,	1	,	1	,	1
UPS	,	61	,	61	,	60	,	60	,	60	,	60	,	60	,	60	,	60	,	60	,	61	,	61	,	61	,	60	,	60	,	62	,	62	,	62	,	62	,	63	,	63	,	61	,	64	,	64	,	67	,	67	,	65	,	65	,	67	,	67	,	70	,	70	,	67	,	62	,	62	,	78	,	78	,	74	,	74	,	64	,	64	,	74	,	50	,	50	,	115	,	115	,	46	,	46	,	120	,	117	,	117	,	88	,	88	,	101
FrameTime	,	8.72206	,	8.72206	,	9.39358	,	9.39358	,	9.35784	,	9.35784	,	9.27144	,	9.27144	,	11.2892	,	11.2892	,	9.66069	,	40.6934	,	40.6934	,	47.6326	,	47.6326	,	46.9093	,	46.9093	,	45.8961	,	45.8961	,	64.6726	,	64.6726	,	44.2967	,	132.096	,	132.096	,	161.796	,	161.796	,	153.354	,	153.354	,	170.913	,	170.913	,	178.595	,	178.595	,	141.337	,	397.767	,	397.767	,	415.858	,	415.858	,	437.234	,	437.234	,	529.011	,	529.011	,	378.166	,	1004.72	,	1004.72	,	839.968	,	839.968	,	1147.99	,	1147.99	,	837.425	,	1471.03	,	1471.03	,	1671.15	,	1671.15	,	1592.33
GigaRays/s	,	3.75368	,	3.75368	,	3.48534	,	3.48534	,	3.49865	,	3.49865	,	3.53126	,	3.53126	,	2.90012	,	2.90012	,	3.38898	,	0.804549	,	0.804549	,	0.687341	,	0.687341	,	0.697939	,	0.697939	,	0.713347	,	0.713347	,	0.50624	,	0.50624	,	0.739104	,	0.247848	,	0.247848	,	0.202353	,	0.202353	,	0.213492	,	0.213492	,	0.191558	,	0.191558	,	0.183318	,	0.183318	,	0.231643	,	0.0823091	,	0.0823091	,	0.0787284	,	0.0787284	,	0.0748795	,	0.0748795	,	0.0618888	,	0.0618888	,	0.0865752	,	0.0325859	,	0.0325859	,	0.0389775	,	0.0389775	,	0.0285192	,	0.0285192	,	0.0390959	,	0.0222564	,	0.0222564	,	0.0195912	,	0.0195912	,	0.020561
Duplication	,	1	,	1	,	1	,	1	,	1	,	1	,	1	,	1	,	1	,	1	,	1	,	2	,	2	,	2	,	2	,	2	,	2	,	2	,	2	,	2	,	2	,	2	,	3	,	3	,	3	,	3	,	3	,	3	,	3	,	3	,	3	,	3	,	3	,	4	,	4	,	4	,	4	,	4	,	4	,	4	,	4	,	4	,	5	,	5	,	5	,	5	,	5	,	5	,	5	,	6	,	6	,	6	,	6	,	6
Index	,	0	,	1	,	2	,	3	,	4	,	5	,	6	,	7	,	8	,	9	,	10	,	11	,	12	,	13	,	14	,	15	,	16	,	17	,	18	,	19	,	20	,	21	,	22	,	23	,	24	,	25	,	26	,	27	,	28	,	29	,	30	,	31	,	32	,	33	,	34	,	35	,	36	,	37	,	38	,	39	,	40	,	41	,	42	,	43	,	44	,	45	,	46	,	47	,	48	,	49	,	50	,	51	,	52	,	53


AccelerationStructure: 
Ray tracing acceleration structure building statistics: 
	Bottom Level Acceleration Structure: 
		Maximum [B]: 14623872
		Minimum [B]: 14623872
		Currently Allocated [B]: 3158756352
		Currently Created [num]: 216
		Current Average [B]: 14623872
		Maximum Triangles [num]: 262267
		Minimum Triangles [num]: 262267
		Total Triangles [num]: 56649672
		Maximum Meshes [num]: 103
		Minimum Meshes [num]: 103
		Total Meshes [num]: 22248
	Top Level Acceleration Structure: 
		Maximum [B]: 13824
		Minimum [B]: 13824
		Currently Allocated [B]: 13824
		Total Allocated [B]: 13824
		Total Created [num]: 1
		Average Allocated [B]: 13824
		Maximum Instances [num]: 216
		Minimum Instances [num]: 216
		Total Instances [num]: 216
	Scratch Buffer: 
		Maximum [B]: 11660800
		Minimum [B]: 11660800
		Currently Allocated [B]: 11660800
		Total Allocated [B]: 11660800
		Total Created [num]: 1
		Average Allocated [B]: 11660800
ProfilingStack: 
[PROF] Profiling statistics: 
	Scopes entered : 18007
	Scopes exited : 18006
	Overhead per scope [ticks] : 997.4
	Threads entered : 3
	Threads exited : 0
	============================
		         Sum[Mt]   Parent[%]  Samples[num]       Avg[Mt]   Last/Curr[Mt]        Self[Mt]     Self[%] 	 Name

	main:

		   69388.990 Mt   100.000 %         1 x    69388.995 Mt    69388.988 Mt        0.723 Mt     0.001 % 	 /

		   69388.420 Mt    99.999 %         1 x    69388.426 Mt    69388.419 Mt      352.202 Mt     0.508 % 	 ./Main application loop

		       2.911 Mt     0.004 %         1 x        2.911 Mt        0.000 Mt        2.911 Mt   100.000 % 	 ../TexturedRLInitialization

		       6.387 Mt     0.009 %         1 x        6.387 Mt        0.000 Mt        6.387 Mt   100.000 % 	 ../DeferredRLInitialization

		      54.630 Mt     0.079 %         1 x       54.630 Mt        0.000 Mt        2.120 Mt     3.881 % 	 ../RayTracingRLInitialization

		      52.510 Mt    96.119 %         1 x       52.510 Mt        0.000 Mt       52.510 Mt   100.000 % 	 .../PipelineBuild

		       3.418 Mt     0.005 %         1 x        3.418 Mt        0.000 Mt        3.418 Mt   100.000 % 	 ../ResolveRLInitialization

		    9409.074 Mt    13.560 %         1 x     9409.074 Mt        0.000 Mt        8.351 Mt     0.089 % 	 ../Initialization

		    9400.723 Mt    99.911 %         1 x     9400.723 Mt        0.000 Mt        3.269 Mt     0.035 % 	 .../ScenePrep

		    9281.609 Mt    98.733 %         1 x     9281.609 Mt        0.000 Mt      355.870 Mt     3.834 % 	 ..../SceneLoad

		    8132.824 Mt    87.623 %         1 x     8132.824 Mt        0.000 Mt     1114.364 Mt    13.702 % 	 ...../glTF-LoadScene

		    7018.459 Mt    86.298 %        69 x      101.717 Mt        0.000 Mt     7018.459 Mt   100.000 % 	 ....../glTF-LoadImageData

		     512.510 Mt     5.522 %         1 x      512.510 Mt        0.000 Mt      512.510 Mt   100.000 % 	 ...../glTF-CreateScene

		     280.405 Mt     3.021 %         1 x      280.405 Mt        0.000 Mt      280.405 Mt   100.000 % 	 ...../SceneDesc-CreateScene

		       7.963 Mt     0.085 %         1 x        7.963 Mt        0.000 Mt        0.005 Mt     0.069 % 	 ..../TexturedRLPrep

		       7.957 Mt    99.931 %         1 x        7.957 Mt        0.000 Mt        2.701 Mt    33.947 % 	 ...../PrepareForRendering

		       2.911 Mt    36.580 %         1 x        2.911 Mt        0.000 Mt        2.911 Mt   100.000 % 	 ....../PrepareMaterials

		       2.345 Mt    29.472 %         1 x        2.345 Mt        0.000 Mt        2.345 Mt   100.000 % 	 ....../PrepareDrawBundle

		       9.543 Mt     0.102 %         1 x        9.543 Mt        0.000 Mt        0.005 Mt     0.056 % 	 ..../DeferredRLPrep

		       9.537 Mt    99.944 %         1 x        9.537 Mt        0.000 Mt        4.393 Mt    46.062 % 	 ...../PrepareForRendering

		       0.021 Mt     0.221 %         1 x        0.021 Mt        0.000 Mt        0.021 Mt   100.000 % 	 ....../PrepareMaterials

		       2.448 Mt    25.667 %         1 x        2.448 Mt        0.000 Mt        2.448 Mt   100.000 % 	 ....../BuildMaterialCache

		       2.675 Mt    28.050 %         1 x        2.675 Mt        0.000 Mt        2.675 Mt   100.000 % 	 ....../PrepareDrawBundle

		      35.057 Mt     0.373 %         1 x       35.057 Mt        0.000 Mt        8.007 Mt    22.840 % 	 ..../RayTracingRLPrep

		       0.589 Mt     1.680 %         1 x        0.589 Mt        0.000 Mt        0.589 Mt   100.000 % 	 ...../PrepareAccelerationStructures

		       0.028 Mt     0.078 %         1 x        0.028 Mt        0.000 Mt        0.028 Mt   100.000 % 	 ...../PrepareCache

		       5.524 Mt    15.757 %         1 x        5.524 Mt        0.000 Mt        5.524 Mt   100.000 % 	 ...../BuildCache

		      14.516 Mt    41.407 %         1 x       14.516 Mt        0.000 Mt        0.004 Mt     0.028 % 	 ...../BuildAccelerationStructures

		      14.512 Mt    99.972 %         1 x       14.512 Mt        0.000 Mt        7.168 Mt    49.391 % 	 ....../AccelerationStructureBuild

		       5.208 Mt    35.888 %         1 x        5.208 Mt        0.000 Mt        5.208 Mt   100.000 % 	 ......./BuildBottomLevelAS

		       2.136 Mt    14.721 %         1 x        2.136 Mt        0.000 Mt        2.136 Mt   100.000 % 	 ......./BuildTopLevelAS

		       6.394 Mt    18.238 %         1 x        6.394 Mt        0.000 Mt        6.394 Mt   100.000 % 	 ...../BuildShaderTables

		      63.283 Mt     0.673 %         1 x       63.283 Mt        0.000 Mt       63.283 Mt   100.000 % 	 ..../GpuSidePrep

		   59559.798 Mt    85.835 %      5753 x       10.353 Mt     1615.024 Mt      822.192 Mt     1.380 % 	 ../MainLoop

		    1584.961 Mt     2.661 %      3477 x        0.456 Mt        0.416 Mt     1584.105 Mt    99.946 % 	 .../Update

		       0.856 Mt     0.054 %         1 x        0.856 Mt        0.000 Mt        0.856 Mt   100.000 % 	 ..../GuiModelApply

		   57152.644 Mt    95.958 %      1231 x       46.428 Mt     1530.307 Mt    53813.455 Mt    94.157 % 	 .../Render

		    3339.189 Mt     5.843 %      1231 x        2.713 Mt        1.319 Mt     1705.290 Mt    51.069 % 	 ..../RayTracing

		    1633.900 Mt    48.931 %      1231 x        1.327 Mt        0.004 Mt       14.334 Mt     0.877 % 	 ...../RayTracingRLPrep

		     262.088 Mt    16.041 %         5 x       52.418 Mt        0.000 Mt      262.088 Mt   100.000 % 	 ....../PrepareAccelerationStructures

		       1.205 Mt     0.074 %         5 x        0.241 Mt        0.000 Mt        1.205 Mt   100.000 % 	 ....../PrepareCache

		       0.004 Mt     0.000 %         5 x        0.001 Mt        0.000 Mt        0.004 Mt   100.000 % 	 ....../BuildCache

		     569.429 Mt    34.851 %         5 x      113.886 Mt        0.000 Mt        0.016 Mt     0.003 % 	 ....../BuildAccelerationStructures

		     569.413 Mt    99.997 %         5 x      113.883 Mt        0.000 Mt       18.710 Mt     3.286 % 	 ......./AccelerationStructureBuild

		     546.733 Mt    96.017 %         5 x      109.347 Mt        0.000 Mt      546.733 Mt   100.000 % 	 ......../BuildBottomLevelAS

		       3.969 Mt     0.697 %         5 x        0.794 Mt        0.000 Mt        3.969 Mt   100.000 % 	 ......../BuildTopLevelAS

		     786.840 Mt    48.157 %         5 x      157.368 Mt        0.000 Mt      786.840 Mt   100.000 % 	 ....../BuildShaderTables

	WindowThread:

		   69388.317 Mt   100.000 %         1 x    69388.319 Mt    69388.316 Mt    69388.317 Mt   100.000 % 	 /

	GpuThread:

		   52303.083 Mt   100.000 %      1231 x       42.488 Mt     1527.380 Mt      169.586 Mt     0.324 % 	 /

		      16.593 Mt     0.032 %         1 x       16.593 Mt        0.000 Mt        0.051 Mt     0.306 % 	 ./ScenePrep

		      16.542 Mt    99.694 %         1 x       16.542 Mt        0.000 Mt        0.003 Mt     0.019 % 	 ../AccelerationStructureBuild

		      15.923 Mt    96.254 %         1 x       15.923 Mt        0.000 Mt       15.923 Mt   100.000 % 	 .../BuildBottomLevelASGpu

		       0.617 Mt     3.727 %         1 x        0.617 Mt        0.000 Mt        0.617 Mt   100.000 % 	 .../BuildTopLevelASGpu

		   52112.266 Mt    99.635 %      1231 x       42.333 Mt     1527.376 Mt        1.140 Mt     0.002 % 	 ./RayTracingGpu

		   51272.503 Mt    98.389 %      1231 x       41.651 Mt     1527.110 Mt    51272.503 Mt   100.000 % 	 ../RayTracingRLGpu

		     340.106 Mt     0.653 %      1231 x        0.276 Mt        0.265 Mt      340.106 Mt   100.000 % 	 ../ResolveRLGpu

		     498.517 Mt     0.957 %         5 x       99.703 Mt        0.000 Mt        0.004 Mt     0.001 % 	 ../AccelerationStructureBuild

		     497.196 Mt    99.735 %         5 x       99.439 Mt        0.000 Mt      497.196 Mt   100.000 % 	 .../BuildBottomLevelASGpu

		       1.317 Mt     0.264 %         5 x        0.263 Mt        0.000 Mt        1.317 Mt   100.000 % 	 .../BuildTopLevelASGpu

		       4.638 Mt     0.009 %      1231 x        0.004 Mt        0.002 Mt        4.638 Mt   100.000 % 	 ./Present


	============================


