Configuration: 
Command line parameters  = E:\programming\FIT-DIP\Masters-DXR-Main-git\build\Measurement\x64\Release\Measurement.exe --scene Sponza/Sponza.gltf --duplication-cube --duplication-offset 25 --profile-triangles --profile-camera-track Sponza/SponzaFast.trk --profile-max-duplication 7 --rt-mode --width 1024 --height 768 --profile-output TrianglesSponza768Rt 
Build type               = Release
Device name              = NVIDIA GeForce RTX 2080 Ti
Device memory MB         = 11049
Ray Tracing backend      = Hardware
Window width             = 1024
Window height            = 768
Window title             = Direct3D App
Back-buffer count        = 3
Fill Triangles           = enabled
Triangles Font Clock-Wise= enabled
Fast Build AS            = disabled
Target FPS               = 0
Target UPS               = 60
Tearing                  = enabled
VSync                    = disabled
GUI rendering            = disabled
Debug layer              = disabled
GPU validation           = disabled
GPU profiling            = enabled
Render mode              = Ray Tracing
Loaded scene file        = Sponza/Sponza.gltf
Using testing scene      = disabled
Duplication              = 7
Duplication in cube      = enabled
Duplication offset       = 25
BLAS duplication         = enabled
Rays per pixel           = 13
Quality preset           = High
Rasterization Quality    : 
  AO                     = enabled
  AO kernel size         = 4
  Shadows                = enabled
  Shadow map resolution  = 4096
  Shadow PCF kernel size = 4
  Reflections            = enabled
Ray Tracing Quality      : 
  AO                     = enabled
  AO rays                = 4
  AO kernel size         = 4
  Shadows                = enabled
  Shadow rays            = 4
  Shadow kernel size     = 4
  Reflections            = enabled

ProfilingAggregator: 
Render	,	3.1544	,	3.1544	,	3.5793	,	3.5793	,	3.3173	,	3.3173	,	3.516	,	3.516	,	4.1973	,	4.1973	,	3.5736	,	3.0722	,	3.0722	,	3.1812	,	3.1812	,	3.2359	,	3.2359	,	3.8694	,	3.8694	,	5.1581	,	5.1581	,	3.8823	,	5.4735	,	5.4735	,	5.8247	,	5.8247	,	4.1078	,	4.1078	,	5.6814	,	5.6814	,	7.8955	,	7.8955	,	5.1144	,	5.8663	,	5.8663	,	6.6953	,	6.6953	,	5.7092	,	5.7092	,	7.5842	,	7.5842	,	9.1812	,	9.1812	,	7.0514	,	8.5561	,	8.5561	,	8.5559	,	8.5559	,	8.4205	,	8.4205	,	11.1234	,	11.1234	,	13.0554	,	13.0554	,	10.4965	,	12.2839	,	12.2839	,	10.1624	,	10.1624	,	11.143	,	11.143	,	16.1119	,	16.1119	,	12.6197	,	12.6197	,	12.8352	,	14.9718	,	14.9718	,	13.6872	,	13.6872	,	18.6259	,	18.6259	,	19.1083	,	19.1083	,	16.875
Update	,	0.0701	,	0.0701	,	0.0685	,	0.0685	,	0.027	,	0.027	,	0.0705	,	0.0705	,	0.0676	,	0.0676	,	0.0698	,	0.0692	,	0.0692	,	0.0898	,	0.0898	,	0.0711	,	0.0711	,	0.0726	,	0.0726	,	0.0627	,	0.0627	,	0.0769	,	0.0706	,	0.0706	,	0.0692	,	0.0692	,	0.0658	,	0.0658	,	0.0672	,	0.0672	,	0.0669	,	0.0669	,	0.0671	,	0.0658	,	0.0658	,	0.0634	,	0.0634	,	0.0657	,	0.0657	,	0.073	,	0.073	,	0.073	,	0.073	,	0.0721	,	0.0739	,	0.0739	,	0.0683	,	0.0683	,	0.0746	,	0.0746	,	0.0742	,	0.0742	,	0.0774	,	0.0774	,	0.0743	,	0.0829	,	0.0829	,	0.0837	,	0.0837	,	0.08	,	0.08	,	0.0781	,	0.0781	,	0.0786	,	0.0786	,	0.075	,	0.0821	,	0.0821	,	0.0806	,	0.0806	,	0.0834	,	0.0834	,	0.0806	,	0.0806	,	0.0808
RayTracing	,	0.1744	,	0.1744	,	0.1848	,	0.1848	,	0.1544	,	0.1544	,	0.1785	,	0.1785	,	0.1793	,	0.1793	,	0.1872	,	0.1659	,	0.1659	,	0.1367	,	0.1367	,	0.197	,	0.197	,	0.1972	,	0.1972	,	0.1978	,	0.1978	,	0.1743	,	0.174	,	0.174	,	0.1408	,	0.1408	,	0.1466	,	0.1466	,	0.1445	,	0.1445	,	0.1429	,	0.1429	,	0.1637	,	0.1689	,	0.1689	,	0.1762	,	0.1762	,	0.168	,	0.168	,	0.1678	,	0.1678	,	0.169	,	0.169	,	0.1729	,	0.1985	,	0.1985	,	0.199	,	0.199	,	0.1725	,	0.1725	,	0.175	,	0.175	,	0.1733	,	0.1733	,	0.1743	,	0.1885	,	0.1885	,	0.2067	,	0.2067	,	0.2055	,	0.2055	,	0.2082	,	0.2082	,	0.1749	,	0.1749	,	0.1867	,	0.1786	,	0.1786	,	0.183	,	0.183	,	0.1806	,	0.1806	,	0.1853	,	0.1853	,	0.1831
RayTracingGpu	,	2.3704	,	2.3704	,	2.7425	,	2.7425	,	2.66272	,	2.66272	,	2.75866	,	2.75866	,	3.3671	,	3.3671	,	2.84643	,	2.28426	,	2.28426	,	2.55315	,	2.55315	,	2.31245	,	2.31245	,	2.98499	,	2.98499	,	4.39728	,	4.39728	,	3.09315	,	4.77558	,	4.77558	,	5.27834	,	5.27834	,	3.41722	,	3.41722	,	5.05101	,	5.05101	,	7.20746	,	7.20746	,	4.48534	,	5.03706	,	5.03706	,	5.87744	,	5.87744	,	4.91936	,	4.91936	,	6.86902	,	6.86902	,	8.29203	,	8.29203	,	6.26886	,	7.72883	,	7.72883	,	7.73226	,	7.73226	,	7.55584	,	7.55584	,	10.1956	,	10.1956	,	12.2163	,	12.2163	,	9.68749	,	11.6515	,	11.6515	,	9.396	,	9.396	,	10.3318	,	10.3318	,	15.2671	,	15.2671	,	11.7863	,	11.7863	,	11.9985	,	14.1429	,	14.1429	,	12.9254	,	12.9254	,	17.7904	,	17.7904	,	18.2618	,	18.2618	,	16.0554
DeferredRLGpu	,	0.867488	,	0.867488	,	1.23306	,	1.23306	,	1.08547	,	1.08547	,	1.16269	,	1.16269	,	1.32912	,	1.32912	,	1.19594	,	1.19834	,	1.19834	,	1.5232	,	1.5232	,	0.943712	,	0.943712	,	1.6825	,	1.6825	,	2.78093	,	2.78093	,	1.61942	,	2.81587	,	2.81587	,	3.21232	,	3.21232	,	1.91984	,	1.91984	,	3.43283	,	3.43283	,	4.80256	,	4.80256	,	2.82144	,	3.85677	,	3.85677	,	4.53315	,	4.53315	,	3.6097	,	3.6097	,	4.93194	,	4.93194	,	6.75699	,	6.75699	,	4.6417	,	6.29987	,	6.29987	,	6.37274	,	6.37274	,	5.92458	,	5.92458	,	7.94304	,	7.94304	,	10.1854	,	10.1854	,	7.63405	,	10.3414	,	10.3414	,	7.84966	,	7.84966	,	8.78291	,	8.78291	,	13.4314	,	13.4314	,	9.97318	,	9.97318	,	10.6599	,	12.5923	,	12.5923	,	10.9444	,	10.9444	,	16.0278	,	16.0278	,	16.3311	,	16.3311	,	14.348
RayTracingRLGpu	,	0.94224	,	0.94224	,	0.957312	,	0.957312	,	1.01776	,	1.01776	,	1.03936	,	1.03936	,	1.47645	,	1.47645	,	1.08451	,	0.564448	,	0.564448	,	0.50976	,	0.50976	,	0.829472	,	0.829472	,	0.75904	,	0.75904	,	0.85808	,	0.85808	,	0.931648	,	1.38486	,	1.38486	,	1.5049	,	1.5049	,	0.963648	,	0.963648	,	1.06118	,	1.06118	,	1.8423	,	1.8423	,	1.11437	,	0.645728	,	0.645728	,	0.790208	,	0.790208	,	0.765408	,	0.765408	,	1.36608	,	1.36608	,	0.977344	,	0.977344	,	1.0831	,	0.873792	,	0.873792	,	0.810368	,	0.810368	,	1.06605	,	1.06605	,	1.69008	,	1.69008	,	1.46896	,	1.46896	,	1.51325	,	0.757952	,	0.757952	,	1.00093	,	1.00093	,	0.996704	,	0.996704	,	1.2785	,	1.2785	,	1.27085	,	1.27085	,	0.79376	,	0.990464	,	0.990464	,	1.41482	,	1.41482	,	1.20064	,	1.20064	,	1.38758	,	1.38758	,	1.16586
ResolveRLGpu	,	0.557376	,	0.557376	,	0.549152	,	0.549152	,	0.556256	,	0.556256	,	0.552768	,	0.552768	,	0.557792	,	0.557792	,	0.561024	,	0.518816	,	0.518816	,	0.517312	,	0.517312	,	0.536	,	0.536	,	0.541376	,	0.541376	,	0.754176	,	0.754176	,	0.540096	,	0.571712	,	0.571712	,	0.558208	,	0.558208	,	0.530048	,	0.530048	,	0.554304	,	0.554304	,	0.559712	,	0.559712	,	0.54672	,	0.53248	,	0.53248	,	0.549088	,	0.549088	,	0.539968	,	0.539968	,	0.5672	,	0.5672	,	0.551488	,	0.551488	,	0.54128	,	0.549984	,	0.549984	,	0.546464	,	0.546464	,	0.560448	,	0.560448	,	0.55872	,	0.55872	,	0.558624	,	0.558624	,	0.536128	,	0.547008	,	0.547008	,	0.541504	,	0.541504	,	0.548032	,	0.548032	,	0.554304	,	0.554304	,	0.540128	,	0.540128	,	0.542656	,	0.555168	,	0.555168	,	0.563424	,	0.563424	,	0.55824	,	0.55824	,	0.54112	,	0.54112	,	0.53952
Index	,	0	,	1	,	2	,	3	,	4	,	5	,	6	,	7	,	8	,	9	,	10	,	11	,	12	,	13	,	14	,	15	,	16	,	17	,	18	,	19	,	20	,	21	,	22	,	23	,	24	,	25	,	26	,	27	,	28	,	29	,	30	,	31	,	32	,	33	,	34	,	35	,	36	,	37	,	38	,	39	,	40	,	41	,	42	,	43	,	44	,	45	,	46	,	47	,	48	,	49	,	50	,	51	,	52	,	53	,	54	,	55	,	56	,	57	,	58	,	59	,	60	,	61	,	62	,	63	,	64	,	65	,	66	,	67	,	68	,	69	,	70	,	71	,	72	,	73	,	74

ProfilingBuildAggregator: 
BuildBottomLevelAS	,	1.4977	,	9.2707	,	31.0743	,	56.1146	,	156.78	,	255.735	,	442.164
BuildBottomLevelASGpu	,	1.54797	,	9.20938	,	31.3777	,	73.0755	,	142.331	,	245.281	,	389.536
BuildTopLevelAS	,	0.881	,	1.1583	,	1.6709	,	0.9012	,	1.7367	,	1.645	,	1.9392
BuildTopLevelASGpu	,	0.087904	,	0.072832	,	0.100608	,	0.104192	,	0.132928	,	0.142208	,	0.172416
Duplication	,	1	,	2	,	3	,	4	,	5	,	6	,	7
Triangles	,	262267	,	2098136	,	7081209	,	16785088	,	32783375	,	56649672	,	89957581
Meshes	,	103	,	824	,	2781	,	6592	,	12875	,	22248	,	35329
BottomLevels	,	1	,	8	,	27	,	64	,	125	,	216	,	343
TopLevelSize	,	64	,	512	,	1728	,	4096	,	8000	,	13824	,	21952
BottomLevelsSize	,	14622208	,	116977664	,	394799616	,	935821312	,	1827776000	,	3158396928	,	5015417344
Index	,	0	,	1	,	2	,	3	,	4	,	5	,	6

FpsAggregator: 
FPS	,	300	,	300	,	283	,	283	,	284	,	284	,	291	,	291	,	224	,	224	,	259	,	430	,	430	,	289	,	289	,	321	,	321	,	329	,	329	,	211	,	211	,	232	,	223	,	223	,	174	,	174	,	221	,	221	,	216	,	216	,	141	,	141	,	148	,	214	,	214	,	146	,	146	,	158	,	158	,	150	,	150	,	108	,	108	,	125	,	139	,	139	,	107	,	107	,	118	,	118	,	105	,	105	,	81	,	81	,	91	,	89	,	89	,	90	,	90	,	95	,	95	,	70	,	70	,	69	,	69	,	78	,	65	,	65	,	71	,	71	,	63	,	63	,	50	,	50	,	57
UPS	,	60	,	60	,	60	,	60	,	60	,	60	,	60	,	60	,	60	,	60	,	60	,	60	,	60	,	60	,	60	,	60	,	60	,	60	,	60	,	60	,	60	,	60	,	60	,	60	,	60	,	60	,	60	,	60	,	60	,	60	,	61	,	61	,	60	,	60	,	60	,	60	,	60	,	60	,	60	,	61	,	61	,	60	,	60	,	60	,	61	,	61	,	60	,	60	,	60	,	60	,	60	,	60	,	61	,	61	,	60	,	60	,	60	,	61	,	61	,	60	,	60	,	60	,	60	,	61	,	61	,	60	,	60	,	60	,	60	,	60	,	61	,	61	,	60	,	60	,	60
FrameTime	,	3.33476	,	3.33476	,	3.53771	,	3.53771	,	3.52681	,	3.52681	,	3.44317	,	3.44317	,	4.47913	,	4.47913	,	3.86754	,	2.32793	,	2.32793	,	3.47019	,	3.47019	,	3.12297	,	3.12297	,	3.04819	,	3.04819	,	4.74055	,	4.74055	,	4.31977	,	4.50791	,	4.50791	,	5.75677	,	5.75677	,	4.53242	,	4.53242	,	4.64078	,	4.64078	,	7.11593	,	7.11593	,	6.78186	,	4.69883	,	4.69883	,	6.8874	,	6.8874	,	6.33472	,	6.33472	,	6.71728	,	6.71728	,	9.34371	,	9.34371	,	8.03941	,	7.24613	,	7.24613	,	9.36994	,	9.36994	,	8.54192	,	8.54192	,	9.55735	,	9.55735	,	12.5018	,	12.5018	,	11.027	,	11.3017	,	11.3017	,	11.2241	,	11.2241	,	10.5437	,	10.5437	,	14.4267	,	14.4267	,	14.5588	,	14.5588	,	12.9397	,	15.4172	,	15.4172	,	14.1785	,	14.1785	,	16.0266	,	16.0266	,	20.0753	,	20.0753	,	17.6144
GigaRays/s	,	3.06577	,	3.06577	,	2.8899	,	2.8899	,	2.89883	,	2.89883	,	2.96924	,	2.96924	,	2.2825	,	2.2825	,	2.64344	,	4.39172	,	4.39172	,	2.94612	,	2.94612	,	3.27369	,	3.27369	,	3.354	,	3.354	,	2.15663	,	2.15663	,	2.3667	,	2.26793	,	2.26793	,	1.77593	,	1.77593	,	2.25567	,	2.25567	,	2.20299	,	2.20299	,	1.43672	,	1.43672	,	1.50749	,	2.17578	,	2.17578	,	1.48439	,	1.48439	,	1.6139	,	1.6139	,	1.52199	,	1.52199	,	1.09417	,	1.09417	,	1.27169	,	1.41091	,	1.41091	,	1.09111	,	1.09111	,	1.19688	,	1.19688	,	1.06971	,	1.06971	,	0.817769	,	0.817769	,	0.927146	,	0.904611	,	0.904611	,	0.910864	,	0.910864	,	0.969642	,	0.969642	,	0.70866	,	0.70866	,	0.702228	,	0.702228	,	0.790097	,	0.663129	,	0.663129	,	0.721067	,	0.721067	,	0.637917	,	0.637917	,	0.509264	,	0.509264	,	0.580411
Duplication	,	1	,	1	,	1	,	1	,	1	,	1	,	1	,	1	,	1	,	1	,	1	,	2	,	2	,	2	,	2	,	2	,	2	,	2	,	2	,	2	,	2	,	2	,	3	,	3	,	3	,	3	,	3	,	3	,	3	,	3	,	3	,	3	,	3	,	4	,	4	,	4	,	4	,	4	,	4	,	4	,	4	,	4	,	4	,	4	,	5	,	5	,	5	,	5	,	5	,	5	,	5	,	5	,	5	,	5	,	5	,	6	,	6	,	6	,	6	,	6	,	6	,	6	,	6	,	6	,	6	,	6	,	7	,	7	,	7	,	7	,	7	,	7	,	7	,	7	,	7
Index	,	0	,	1	,	2	,	3	,	4	,	5	,	6	,	7	,	8	,	9	,	10	,	11	,	12	,	13	,	14	,	15	,	16	,	17	,	18	,	19	,	20	,	21	,	22	,	23	,	24	,	25	,	26	,	27	,	28	,	29	,	30	,	31	,	32	,	33	,	34	,	35	,	36	,	37	,	38	,	39	,	40	,	41	,	42	,	43	,	44	,	45	,	46	,	47	,	48	,	49	,	50	,	51	,	52	,	53	,	54	,	55	,	56	,	57	,	58	,	59	,	60	,	61	,	62	,	63	,	64	,	65	,	66	,	67	,	68	,	69	,	70	,	71	,	72	,	73	,	74


AccelerationStructure: 
Ray tracing acceleration structure building statistics: 
	Bottom Level Acceleration Structure: 
		Maximum [B]: 14622208
		Minimum [B]: 14622208
		Currently Allocated [B]: 5015417344
		Currently Created [num]: 343
		Current Average [B]: 14622208
		Maximum Triangles [num]: 262267
		Minimum Triangles [num]: 262267
		Total Triangles [num]: 89957581
		Maximum Meshes [num]: 103
		Minimum Meshes [num]: 103
		Total Meshes [num]: 35329
	Top Level Acceleration Structure: 
		Maximum [B]: 21952
		Minimum [B]: 21952
		Currently Allocated [B]: 21952
		Total Allocated [B]: 21952
		Total Created [num]: 1
		Average Allocated [B]: 21952
		Maximum Instances [num]: 343
		Minimum Instances [num]: 343
		Total Instances [num]: 343
	Scratch Buffer: 
		Maximum [B]: 11657856
		Minimum [B]: 11657856
		Currently Allocated [B]: 11657856
		Total Allocated [B]: 11657856
		Total Created [num]: 1
		Average Allocated [B]: 11657856
ProfilingStack: 
[PROF] Profiling statistics: 
	Scopes entered : 223380
	Scopes exited : 223379
	Overhead per scope [ticks] : 101.8
	Threads entered : 3
	Threads exited : 0
	============================
		         Sum[Mt]   Parent[%]  Samples[num]       Avg[Mt]   Last/Curr[Mt]        Self[Mt]     Self[%] 	 Name

	main:

		   65717.054 Mt   100.000 %         1 x    65717.055 Mt    65717.054 Mt        0.469 Mt     0.001 % 	 /

		   65716.616 Mt    99.999 %         1 x    65716.618 Mt    65716.616 Mt      291.450 Mt     0.443 % 	 ./Main application loop

		       2.660 Mt     0.004 %         1 x        2.660 Mt        0.000 Mt        2.660 Mt   100.000 % 	 ../TexturedRLInitialization

		       1.269 Mt     0.002 %         1 x        1.269 Mt        0.000 Mt        1.269 Mt   100.000 % 	 ../ShadowMapRLInitialization

		       4.759 Mt     0.007 %         1 x        4.759 Mt        0.000 Mt        4.759 Mt   100.000 % 	 ../RasterResolveRLInitialization

		       2.580 Mt     0.004 %         1 x        2.580 Mt        0.000 Mt        2.580 Mt   100.000 % 	 ../AmbientOcclusionRLInitialization

		       4.842 Mt     0.007 %         1 x        4.842 Mt        0.000 Mt        4.842 Mt   100.000 % 	 ../DeferredRLInitialization

		      52.090 Mt     0.079 %         1 x       52.090 Mt        0.000 Mt        2.731 Mt     5.243 % 	 ../RayTracingRLInitialization

		      49.359 Mt    94.757 %         1 x       49.359 Mt        0.000 Mt       49.359 Mt   100.000 % 	 .../PipelineBuild

		       3.785 Mt     0.006 %         1 x        3.785 Mt        0.000 Mt        3.785 Mt   100.000 % 	 ../ResolveRLInitialization

		    2477.485 Mt     3.770 %         1 x     2477.485 Mt        0.000 Mt        0.500 Mt     0.020 % 	 ../Initialization

		    2476.986 Mt    99.980 %         1 x     2476.986 Mt        0.000 Mt        2.023 Mt     0.082 % 	 .../ScenePrep

		    2409.925 Mt    97.293 %         1 x     2409.925 Mt        0.000 Mt      262.087 Mt    10.875 % 	 ..../SceneLoad

		    1893.838 Mt    78.585 %         1 x     1893.838 Mt        0.000 Mt      563.379 Mt    29.748 % 	 ...../glTF-LoadScene

		    1330.459 Mt    70.252 %        69 x       19.282 Mt        0.000 Mt     1330.459 Mt   100.000 % 	 ....../glTF-LoadImageData

		     202.350 Mt     8.397 %         1 x      202.350 Mt        0.000 Mt      202.350 Mt   100.000 % 	 ...../glTF-CreateScene

		      51.650 Mt     2.143 %         1 x       51.650 Mt        0.000 Mt       51.650 Mt   100.000 % 	 ...../SceneDesc-CreateScene

		       1.181 Mt     0.048 %         1 x        1.181 Mt        0.000 Mt        0.000 Mt     0.034 % 	 ..../ShadowMapRLPrep

		       1.181 Mt    99.966 %         1 x        1.181 Mt        0.000 Mt        1.144 Mt    96.867 % 	 ...../PrepareForRendering

		       0.037 Mt     3.133 %         1 x        0.037 Mt        0.000 Mt        0.037 Mt   100.000 % 	 ....../PrepareDrawBundle

		       3.725 Mt     0.150 %         1 x        3.725 Mt        0.000 Mt        0.000 Mt     0.013 % 	 ..../TexturedRLPrep

		       3.725 Mt    99.987 %         1 x        3.725 Mt        0.000 Mt        3.686 Mt    98.974 % 	 ...../PrepareForRendering

		       0.001 Mt     0.038 %         1 x        0.001 Mt        0.000 Mt        0.001 Mt   100.000 % 	 ....../PrepareMaterials

		       0.037 Mt     0.988 %         1 x        0.037 Mt        0.000 Mt        0.037 Mt   100.000 % 	 ....../PrepareDrawBundle

		       4.392 Mt     0.177 %         1 x        4.392 Mt        0.000 Mt        0.000 Mt     0.007 % 	 ..../DeferredRLPrep

		       4.391 Mt    99.993 %         1 x        4.391 Mt        0.000 Mt        3.833 Mt    87.284 % 	 ...../PrepareForRendering

		       0.001 Mt     0.018 %         1 x        0.001 Mt        0.000 Mt        0.001 Mt   100.000 % 	 ....../PrepareMaterials

		       0.487 Mt    11.090 %         1 x        0.487 Mt        0.000 Mt        0.487 Mt   100.000 % 	 ....../BuildMaterialCache

		       0.071 Mt     1.608 %         1 x        0.071 Mt        0.000 Mt        0.071 Mt   100.000 % 	 ....../PrepareDrawBundle

		      25.654 Mt     1.036 %         1 x       25.654 Mt        0.000 Mt        2.720 Mt    10.602 % 	 ..../RayTracingRLPrep

		       0.060 Mt     0.236 %         1 x        0.060 Mt        0.000 Mt        0.060 Mt   100.000 % 	 ...../PrepareAccelerationStructures

		       0.001 Mt     0.005 %         1 x        0.001 Mt        0.000 Mt        0.001 Mt   100.000 % 	 ...../PrepareCache

		      13.559 Mt    52.855 %         1 x       13.559 Mt        0.000 Mt       13.559 Mt   100.000 % 	 ...../PipelineBuild

		       0.716 Mt     2.789 %         1 x        0.716 Mt        0.000 Mt        0.716 Mt   100.000 % 	 ...../BuildCache

		       6.976 Mt    27.191 %         1 x        6.976 Mt        0.000 Mt        0.000 Mt     0.006 % 	 ...../BuildAccelerationStructures

		       6.975 Mt    99.994 %         1 x        6.975 Mt        0.000 Mt        4.596 Mt    65.897 % 	 ....../AccelerationStructureBuild

		       1.498 Mt    21.472 %         1 x        1.498 Mt        0.000 Mt        1.498 Mt   100.000 % 	 ......./BuildBottomLevelAS

		       0.881 Mt    12.631 %         1 x        0.881 Mt        0.000 Mt        0.881 Mt   100.000 % 	 ......./BuildTopLevelAS

		       1.622 Mt     6.321 %         1 x        1.622 Mt        0.000 Mt        1.622 Mt   100.000 % 	 ...../BuildShaderTables

		      30.085 Mt     1.215 %         1 x       30.085 Mt        0.000 Mt       30.085 Mt   100.000 % 	 ..../GpuSidePrep

		   62875.698 Mt    95.677 %     91230 x        0.689 Mt       37.533 Mt      786.812 Mt     1.251 % 	 ../MainLoop

		     338.405 Mt     0.538 %      3770 x        0.090 Mt        0.114 Mt      337.978 Mt    99.874 % 	 .../Update

		       0.427 Mt     0.126 %         1 x        0.427 Mt        0.000 Mt        0.427 Mt   100.000 % 	 ..../GuiModelApply

		   61750.480 Mt    98.210 %      9852 x        6.268 Mt       17.843 Mt     1071.671 Mt     1.735 % 	 .../Render

		    5051.611 Mt     8.181 %      9852 x        0.513 Mt        0.286 Mt       64.476 Mt     1.276 % 	 ..../RayTracing

		    1069.142 Mt    21.164 %      9852 x        0.109 Mt        0.141 Mt      723.872 Mt    67.706 % 	 ...../Deferred

		     345.270 Mt    32.294 %      9852 x        0.035 Mt        0.001 Mt       10.060 Mt     2.914 % 	 ....../DeferredRLPrep

		     335.210 Mt    97.086 %        12 x       27.934 Mt        0.000 Mt      125.092 Mt    37.317 % 	 ......./PrepareForRendering

		       0.188 Mt     0.056 %        12 x        0.016 Mt        0.000 Mt        0.188 Mt   100.000 % 	 ......../PrepareMaterials

		       0.002 Mt     0.001 %        12 x        0.000 Mt        0.000 Mt        0.002 Mt   100.000 % 	 ......../BuildMaterialCache

		     209.928 Mt    62.626 %        12 x       17.494 Mt        0.000 Mt      209.928 Mt   100.000 % 	 ......../PrepareDrawBundle

		    3613.945 Mt    71.540 %      9852 x        0.367 Mt        0.094 Mt      588.341 Mt    16.280 % 	 ...../RayCasting

		    3025.604 Mt    83.720 %      9852 x        0.307 Mt        0.001 Mt       37.382 Mt     1.236 % 	 ....../RayTracingRLPrep

		     450.416 Mt    14.887 %        12 x       37.535 Mt        0.000 Mt      450.416 Mt   100.000 % 	 ......./PrepareAccelerationStructures

		       0.067 Mt     0.002 %        12 x        0.006 Mt        0.000 Mt        0.067 Mt   100.000 % 	 ......./PrepareCache

		     210.347 Mt     6.952 %        12 x       17.529 Mt        0.000 Mt      210.347 Mt   100.000 % 	 ......./PipelineBuild

		       0.003 Mt     0.000 %        12 x        0.000 Mt        0.000 Mt        0.003 Mt   100.000 % 	 ......./BuildCache

		    2026.166 Mt    66.967 %        12 x      168.847 Mt        0.000 Mt        0.013 Mt     0.001 % 	 ......./BuildAccelerationStructures

		    2026.153 Mt    99.999 %        12 x      168.846 Mt        0.000 Mt       54.847 Mt     2.707 % 	 ......../AccelerationStructureBuild

		    1953.178 Mt    96.398 %        12 x      162.765 Mt        0.000 Mt     1953.178 Mt   100.000 % 	 ........./BuildBottomLevelAS

		      18.128 Mt     0.895 %        12 x        1.511 Mt        0.000 Mt       18.128 Mt   100.000 % 	 ........./BuildTopLevelAS

		     301.224 Mt     9.956 %        12 x       25.102 Mt        0.000 Mt      301.224 Mt   100.000 % 	 ......./BuildShaderTables

		     304.049 Mt     6.019 %      9852 x        0.031 Mt        0.041 Mt      304.049 Mt   100.000 % 	 ...../Resolve

		   55627.198 Mt    90.084 %      9852 x        5.646 Mt       17.373 Mt    55627.198 Mt   100.000 % 	 ..../Present

	WindowThread:

		   65713.841 Mt   100.000 %         1 x    65713.841 Mt    65713.841 Mt    65713.841 Mt   100.000 % 	 /

	GpuThread:

		   51021.058 Mt   100.000 %      9852 x        5.179 Mt       16.848 Mt      125.244 Mt     0.245 % 	 /

		       1.644 Mt     0.003 %         1 x        1.644 Mt        0.000 Mt        0.007 Mt     0.405 % 	 ./ScenePrep

		       1.637 Mt    99.595 %         1 x        1.637 Mt        0.000 Mt        0.002 Mt     0.098 % 	 ../AccelerationStructureBuild

		       1.548 Mt    94.534 %         1 x        1.548 Mt        0.000 Mt        1.548 Mt   100.000 % 	 .../BuildBottomLevelASGpu

		       0.088 Mt     5.368 %         1 x        0.088 Mt        0.000 Mt        0.088 Mt   100.000 % 	 .../BuildTopLevelASGpu

		   50854.590 Mt    99.674 %      9852 x        5.162 Mt       16.844 Mt       34.281 Mt     0.067 % 	 ./RayTracingGpu

		   33686.446 Mt    66.241 %      9852 x        3.419 Mt       14.958 Mt    33686.446 Mt   100.000 % 	 ../DeferredRLGpu

		    9937.532 Mt    19.541 %      9852 x        1.009 Mt        1.345 Mt     9937.532 Mt   100.000 % 	 ../RayTracingRLGpu

		    5412.237 Mt    10.643 %      9852 x        0.549 Mt        0.538 Mt     5412.237 Mt   100.000 % 	 ../ResolveRLGpu

		    1784.095 Mt     3.508 %        12 x      148.675 Mt        0.000 Mt        0.024 Mt     0.001 % 	 ../AccelerationStructureBuild

		    1782.633 Mt    99.918 %        12 x      148.553 Mt        0.000 Mt     1782.633 Mt   100.000 % 	 .../BuildBottomLevelASGpu

		       1.438 Mt     0.081 %        12 x        0.120 Mt        0.000 Mt        1.438 Mt   100.000 % 	 .../BuildTopLevelASGpu

		      39.580 Mt     0.078 %      9852 x        0.004 Mt        0.002 Mt       39.580 Mt   100.000 % 	 ./Present


	============================


