Configuration: 
Command line parameters  = E:\programming\FIT-DIP\Masters-DXR-Main-git\build\Measurement\x64\Debug\Measurement.exe --scene Sponza/Sponza.gltf --profile-builds --profile-output BuildsSponza 
Window width             = 1024
Window height            = 768
Window title             = Direct3D App
Back-buffer count        = 3
Fill Triangles           = enabled
Triangles Font Clock-Wise= enabled
Fast Build AS            = disabled
Target FPS               = 60
Target UPS               = 60
Tearing                  = disabled
VSync                    = disabled
GUI rendering            = enabled
Debug layer              = enabled
GPU validation           = disabled
GPU profiling            = enabled
Render mode              = Rasterization
Loaded scene file        = Sponza/Sponza.gltf
Using testing scene      = disabled
Duplication              = 1
Duplication in cube      = disabled
Duplication offset       = 10
BLAS duplication         = disabled
Rays per pixel           = 10

ProfilingAggregator: 

ProfilingBuildAggregator: 
BuildBottomLevelAS	,	1.4891	,	0.6906	,	0.7348	,	0.5835	,	2.1796	,	0.5386	,	0.5291	,	0.6001	,	0.6524	,	0.6365	,	0.5403	,	0.472	,	0.5074	,	0.636	,	0.4951	,	0.6887	,	0.4646	,	0.4901	,	0.5004	,	0.4776	,	0.3723	,	0.4707	,	1.5767	,	0.4963	,	0.4269	,	0.4929	,	0.4505	,	0.6439	,	0.4133	,	0.4944	,	0.4709	,	0.4791	,	0.3982	,	0.4658	,	0.415	,	0.491	,	0.4169	,	0.4824	,	0.5973	,	0.5083	,	0.5625	,	0.5009	,	0.4801	,	0.4477	,	0.4526	,	0.4831	,	0.439	,	0.4635	,	0.5253	,	0.6078	,	0.6643	,	2.0466	,	0.4956	,	0.5588	,	0.6145	,	0.5424	,	0.5834	,	0.6331	,	0.5322	,	0.5699	,	0.5477	,	2.0453	,	0.6322	,	0.6778	,	0.7933	,	0.6765	,	0.7118	,	0.6697	,	0.7567	,	0.6196	,	0.6629	,	0.621	,	0.5543	,	0.6162	,	0.4944	,	1.9661	,	0.5181	,	0.6235	,	0.4499	,	0.5912	,	0.4646	,	0.6432	,	0.5117	,	0.5706	,	0.5217	,	0.5414	,	0.5324	,	0.4906	,	0.5602	,	0.5135	,	0.4887	,	0.5242	,	0.4666	,	0.73	,	0.5014	,	0.511	,	0.6561	,	0.5627	,	0.5411	,	0.5967	,	0.5787	,	0.4759	,	0.5784	,	0.4962
BuildBottomLevelASGpu	,	1.53744	,	0.61984	,	0.413824	,	0.483712	,	0.432352	,	0.25008	,	0.290112	,	0.456576	,	0.435232	,	0.523264	,	0.164096	,	0.44304	,	0.39744	,	0.497376	,	0.295104	,	0.304864	,	0.278176	,	0.265408	,	0.25152	,	0.25888	,	0.249696	,	0.258464	,	0.2304	,	0.256864	,	0.249504	,	0.259872	,	0.259712	,	0.279136	,	0.232576	,	0.260672	,	0.248128	,	0.25904	,	0.231616	,	0.27696	,	0.233568	,	0.305792	,	0.210496	,	0.308256	,	0.235168	,	0.341504	,	0.204672	,	0.24336	,	0.184576	,	0.391712	,	0.210272	,	0.51712	,	0.218912	,	0.160128	,	0.419584	,	0.537472	,	0.665984	,	0.168064	,	0.26208	,	0.5512	,	0.74176	,	0.567552	,	0.545056	,	0.559552	,	0.572864	,	0.556352	,	0.53664	,	0.562528	,	0.534304	,	0.593408	,	0.51536	,	0.53088	,	0.48832	,	0.519136	,	0.531264	,	0.514368	,	0.527264	,	0.493056	,	0.511936	,	0.516256	,	0.144192	,	0.598528	,	0.16272	,	0.583808	,	0.145376	,	0.602912	,	0.144384	,	0.584672	,	0.397824	,	0.445216	,	0.39648	,	0.461344	,	0.383712	,	0.483904	,	0.375904	,	0.4584	,	0.391904	,	0.476288	,	0.372576	,	0.480064	,	0.376768	,	0.471104	,	0.590944	,	0.436704	,	0.408352	,	0.469728	,	0.399232	,	0.189376	,	0.620064	,	0.144416
BuildTopLevelAS	,	1.9489	,	1.8874	,	0.7967	,	0.7337	,	1.0931	,	1.9528	,	0.704	,	0.7253	,	1.7297	,	0.7193	,	0.7357	,	0.6416	,	0.7998	,	0.7257	,	0.7179	,	1.5191	,	0.6681	,	0.6237	,	0.9305	,	0.608	,	0.5617	,	0.6608	,	0.6761	,	0.6409	,	0.6033	,	0.5965	,	0.6026	,	0.625	,	0.6058	,	0.5898	,	0.6717	,	0.5926	,	0.6035	,	0.5845	,	0.63	,	0.6023	,	0.7089	,	0.5965	,	0.633	,	0.606	,	0.6415	,	0.6548	,	0.5945	,	0.6003	,	0.6022	,	0.6142	,	0.6319	,	0.6652	,	0.6816	,	0.632	,	0.6301	,	0.6568	,	0.7019	,	0.6618	,	0.6265	,	0.7346	,	0.6354	,	0.6433	,	0.6303	,	0.7004	,	0.6208	,	0.8074	,	0.7168	,	0.7412	,	0.8394	,	0.7503	,	0.7042	,	0.6989	,	0.7038	,	0.7124	,	0.665	,	0.6514	,	0.6401	,	1.7335	,	0.6429	,	0.6882	,	0.6599	,	0.6234	,	1.7191	,	0.6497	,	0.7265	,	0.7172	,	0.6594	,	0.6941	,	0.65	,	1.7429	,	0.7331	,	0.717	,	0.634	,	0.6677	,	0.6191	,	0.6572	,	1.9055	,	0.8217	,	0.7717	,	0.6406	,	0.7213	,	0.6968	,	0.6945	,	0.673	,	0.6654	,	0.6384	,	0.6521	,	0.636
BuildTopLevelASGpu	,	0.087904	,	0.081504	,	0.085888	,	0.08032	,	0.08448	,	0.08032	,	0.079904	,	0.084288	,	0.079328	,	0.08448	,	0.079712	,	0.079904	,	0.08448	,	0.07968	,	0.079104	,	0.08448	,	0.079296	,	0.081696	,	0.084288	,	0.079328	,	0.084704	,	0.08032	,	0.078912	,	0.079904	,	0.084288	,	0.080128	,	0.081312	,	0.084512	,	0.07952	,	0.079936	,	0.084896	,	0.079296	,	0.079936	,	0.084704	,	0.080096	,	0.07888	,	0.08176	,	0.085088	,	0.07952	,	0.080128	,	0.084096	,	0.078912	,	0.079136	,	0.085248	,	0.07872	,	0.080288	,	0.082496	,	0.084064	,	0.079136	,	0.084512	,	0.083872	,	0.078912	,	0.085312	,	0.08032	,	0.07952	,	0.085504	,	0.079296	,	0.079136	,	0.085312	,	0.079328	,	0.079104	,	0.08432	,	0.079296	,	0.08432	,	0.080288	,	0.085472	,	0.079328	,	0.079904	,	0.085088	,	0.079904	,	0.084672	,	0.08032	,	0.079104	,	0.085248	,	0.079136	,	0.078944	,	0.084704	,	0.08032	,	0.079552	,	0.084096	,	0.079936	,	0.080544	,	0.083904	,	0.080512	,	0.084672	,	0.079712	,	0.079328	,	0.084704	,	0.079136	,	0.079328	,	0.085088	,	0.080512	,	0.079712	,	0.08432	,	0.079104	,	0.079328	,	0.08512	,	0.080288	,	0.079104	,	0.084288	,	0.079296	,	0.078912	,	0.084672	,	0.079712
Duplication	,	1	,	1	,	1	,	1	,	1	,	1	,	1	,	1	,	1	,	1	,	1	,	1	,	1	,	1	,	1	,	1	,	1	,	1	,	1	,	1	,	1	,	1	,	1	,	1	,	1	,	1	,	1	,	1	,	1	,	1	,	1	,	1	,	1	,	1	,	1	,	1	,	1	,	1	,	1	,	1	,	1	,	1	,	1	,	1	,	1	,	1	,	1	,	1	,	1	,	1	,	1	,	1	,	1	,	1	,	1	,	1	,	1	,	1	,	1	,	1	,	1	,	1	,	1	,	1	,	1	,	1	,	1	,	1	,	1	,	1	,	1	,	1	,	1	,	1	,	1	,	1	,	1	,	1	,	1	,	1	,	1	,	1	,	1	,	1	,	1	,	1	,	1	,	1	,	1	,	1	,	1	,	1	,	1	,	1	,	1	,	1	,	1	,	1	,	1	,	1	,	1	,	1	,	1	,	1
Triangles	,	262267	,	3640	,	468	,	2211	,	1362	,	108	,	280	,	2332	,	1456	,	2896	,	16	,	2332	,	1096	,	3680	,	204	,	204	,	148	,	160	,	112	,	160	,	112	,	160	,	112	,	160	,	112	,	160	,	112	,	160	,	112	,	160	,	112	,	160	,	112	,	160	,	112	,	440	,	32	,	280	,	54	,	242	,	24	,	82	,	24	,	556	,	50	,	3408	,	50	,	5	,	1360	,	3736	,	23208	,	18	,	64	,	5456	,	27796	,	5504	,	5504	,	5504	,	5504	,	5504	,	5504	,	5504	,	5504	,	11040	,	4864	,	4608	,	4864	,	4864	,	4608	,	4864	,	4608	,	4864	,	4608	,	4864	,	8	,	4957	,	8	,	4957	,	8	,	4957	,	8	,	4957	,	468	,	2211	,	468	,	2211	,	468	,	2211	,	400	,	2211	,	400	,	2211	,	400	,	2211	,	400	,	2211	,	9184	,	1521	,	1362	,	1521	,	1362	,	28	,	14484	,	10
Meshes	,	103	,	1	,	1	,	1	,	1	,	1	,	1	,	1	,	1	,	1	,	1	,	1	,	1	,	1	,	1	,	1	,	1	,	1	,	1	,	1	,	1	,	1	,	1	,	1	,	1	,	1	,	1	,	1	,	1	,	1	,	1	,	1	,	1	,	1	,	1	,	1	,	1	,	1	,	1	,	1	,	1	,	1	,	1	,	1	,	1	,	1	,	1	,	1	,	1	,	1	,	1	,	1	,	1	,	1	,	1	,	1	,	1	,	1	,	1	,	1	,	1	,	1	,	1	,	1	,	1	,	1	,	1	,	1	,	1	,	1	,	1	,	1	,	1	,	1	,	1	,	1	,	1	,	1	,	1	,	1	,	1	,	1	,	1	,	1	,	1	,	1	,	1	,	1	,	1	,	1	,	1	,	1	,	1	,	1	,	1	,	1	,	1	,	1	,	1	,	1	,	1	,	1	,	1	,	1
BottomLevels	,	1	,	1	,	1	,	1	,	1	,	1	,	1	,	1	,	1	,	1	,	1	,	1	,	1	,	1	,	1	,	1	,	1	,	1	,	1	,	1	,	1	,	1	,	1	,	1	,	1	,	1	,	1	,	1	,	1	,	1	,	1	,	1	,	1	,	1	,	1	,	1	,	1	,	1	,	1	,	1	,	1	,	1	,	1	,	1	,	1	,	1	,	1	,	1	,	1	,	1	,	1	,	1	,	1	,	1	,	1	,	1	,	1	,	1	,	1	,	1	,	1	,	1	,	1	,	1	,	1	,	1	,	1	,	1	,	1	,	1	,	1	,	1	,	1	,	1	,	1	,	1	,	1	,	1	,	1	,	1	,	1	,	1	,	1	,	1	,	1	,	1	,	1	,	1	,	1	,	1	,	1	,	1	,	1	,	1	,	1	,	1	,	1	,	1	,	1	,	1	,	1	,	1	,	1	,	1
Index	,	0	,	1	,	2	,	3	,	4	,	5	,	6	,	7	,	8	,	9	,	10	,	11	,	12	,	13	,	14	,	15	,	16	,	17	,	18	,	19	,	20	,	21	,	22	,	23	,	24	,	25	,	26	,	27	,	28	,	29	,	30	,	31	,	32	,	33	,	34	,	35	,	36	,	37	,	38	,	39	,	40	,	41	,	42	,	43	,	44	,	45	,	46	,	47	,	48	,	49	,	50	,	51	,	52	,	53	,	54	,	55	,	56	,	57	,	58	,	59	,	60	,	61	,	62	,	63	,	64	,	65	,	66	,	67	,	68	,	69	,	70	,	71	,	72	,	73	,	74	,	75	,	76	,	77	,	78	,	79	,	80	,	81	,	82	,	83	,	84	,	85	,	86	,	87	,	88	,	89	,	90	,	91	,	92	,	93	,	94	,	95	,	96	,	97	,	98	,	99	,	100	,	101	,	102	,	103

FpsAggregator: 
FPS	,	0	,	0	,	0	,	0	,	0	,	0	,	0	,	0	,	0	,	0	,	0	,	0	,	0	,	0	,	0	,	0	,	0	,	0	,	0	,	0	,	0	,	0	,	0	,	0	,	0	,	0	,	0	,	0	,	0	,	0	,	0	,	0	,	0	,	0	,	0	,	0	,	0	,	0	,	0	,	0	,	0	,	0	,	0	,	0	,	0	,	0	,	0	,	0	,	0	,	0	,	0	,	0	,	0	,	0	,	0	,	0	,	0	,	0	,	0	,	0	,	0	,	0	,	0	,	0	,	0	,	0	,	0	,	0	,	0	,	0	,	0	,	0	,	0	,	0	,	0	,	0	,	0	,	0	,	0	,	0	,	0	,	0	,	0	,	0	,	0	,	0	,	0	,	0	,	0	,	0	,	0	,	0	,	0	,	0	,	0	,	0	,	0	,	0	,	0	,	0	,	0	,	0	,	0	,	0
UPS	,	0	,	0	,	0	,	0	,	0	,	0	,	0	,	0	,	0	,	0	,	0	,	0	,	0	,	0	,	0	,	0	,	0	,	0	,	0	,	0	,	0	,	0	,	0	,	0	,	0	,	0	,	0	,	0	,	0	,	0	,	0	,	0	,	0	,	0	,	0	,	0	,	0	,	0	,	0	,	0	,	0	,	0	,	0	,	0	,	0	,	0	,	0	,	0	,	0	,	0	,	0	,	0	,	0	,	0	,	0	,	0	,	0	,	0	,	0	,	0	,	0	,	0	,	0	,	0	,	0	,	0	,	0	,	0	,	0	,	0	,	0	,	0	,	0	,	0	,	0	,	0	,	0	,	0	,	0	,	0	,	0	,	0	,	0	,	0	,	0	,	0	,	0	,	0	,	0	,	0	,	0	,	0	,	0	,	0	,	0	,	0	,	0	,	0	,	0	,	0	,	0	,	0	,	0	,	0
FrameTime	,	0	,	0	,	0	,	0	,	0	,	0	,	0	,	0	,	0	,	0	,	0	,	0	,	0	,	0	,	0	,	0	,	0	,	0	,	0	,	0	,	0	,	0	,	0	,	0	,	0	,	0	,	0	,	0	,	0	,	0	,	0	,	0	,	0	,	0	,	0	,	0	,	0	,	0	,	0	,	0	,	0	,	0	,	0	,	0	,	0	,	0	,	0	,	0	,	0	,	0	,	0	,	0	,	0	,	0	,	0	,	0	,	0	,	0	,	0	,	0	,	0	,	0	,	0	,	0	,	0	,	0	,	0	,	0	,	0	,	0	,	0	,	0	,	0	,	0	,	0	,	0	,	0	,	0	,	0	,	0	,	0	,	0	,	0	,	0	,	0	,	0	,	0	,	0	,	0	,	0	,	0	,	0	,	0	,	0	,	0	,	0	,	0	,	0	,	0	,	0	,	0	,	0	,	0	,	0
GigaRays/s	,	0	,	0	,	0	,	0	,	0	,	0	,	0	,	0	,	0	,	0	,	0	,	0	,	0	,	0	,	0	,	0	,	0	,	0	,	0	,	0	,	0	,	0	,	0	,	0	,	0	,	0	,	0	,	0	,	0	,	0	,	0	,	0	,	0	,	0	,	0	,	0	,	0	,	0	,	0	,	0	,	0	,	0	,	0	,	0	,	0	,	0	,	0	,	0	,	0	,	0	,	0	,	0	,	0	,	0	,	0	,	0	,	0	,	0	,	0	,	0	,	0	,	0	,	0	,	0	,	0	,	0	,	0	,	0	,	0	,	0	,	0	,	0	,	0	,	0	,	0	,	0	,	0	,	0	,	0	,	0	,	0	,	0	,	0	,	0	,	0	,	0	,	0	,	0	,	0	,	0	,	0	,	0	,	0	,	0	,	0	,	0	,	0	,	0	,	0	,	0	,	0	,	0	,	0	,	0
Index	,	0	,	1	,	2	,	3	,	4	,	5	,	6	,	7	,	8	,	9	,	10	,	11	,	12	,	13	,	14	,	15	,	16	,	17	,	18	,	19	,	20	,	21	,	22	,	23	,	24	,	25	,	26	,	27	,	28	,	29	,	30	,	31	,	32	,	33	,	34	,	35	,	36	,	37	,	38	,	39	,	40	,	41	,	42	,	43	,	44	,	45	,	46	,	47	,	48	,	49	,	50	,	51	,	52	,	53	,	54	,	55	,	56	,	57	,	58	,	59	,	60	,	61	,	62	,	63	,	64	,	65	,	66	,	67	,	68	,	69	,	70	,	71	,	72	,	73	,	74	,	75	,	76	,	77	,	78	,	79	,	80	,	81	,	82	,	83	,	84	,	85	,	86	,	87	,	88	,	89	,	90	,	91	,	92	,	93	,	94	,	95	,	96	,	97	,	98	,	99	,	100	,	101	,	102	,	103


AccelerationStructure: 
Ray tracing acceleration structure building statistics: 
	Bottom Level Acceleration Structure: 
		Maximum [B]: 14623872
		Minimum [B]: 14623872
		Currently Allocated [B]: 14623872
		Currently Created [num]: 1
		Current Average [B]: 14623872
		Maximum Triangles [num]: 262267
		Minimum Triangles [num]: 262267
		Total Triangles [num]: 262267
		Maximum Meshes [num]: 103
		Minimum Meshes [num]: 103
		Total Meshes [num]: 103
	Top Level Acceleration Structure: 
		Maximum [B]: 64
		Minimum [B]: 64
		Currently Allocated [B]: 64
		Total Allocated [B]: 64
		Total Created [num]: 1
		Average Allocated [B]: 64
		Maximum Instances [num]: 1
		Minimum Instances [num]: 1
		Total Instances [num]: 1
	Scratch Buffer: 
		Maximum [B]: 11660800
		Minimum [B]: 11660800
		Currently Allocated [B]: 11660800
		Total Allocated [B]: 11660800
		Total Created [num]: 1
		Average Allocated [B]: 11660800
ProfilingStack: 
[PROF] Profiling statistics: 
	Scopes entered : 734
	Scopes exited : 733
	Overhead per scope [ticks] : 1010.9
	Threads entered : 3
	Threads exited : 0
	============================
		         Sum[Mt]   Parent[%]  Samples[num]       Avg[Mt]   Last/Curr[Mt]        Self[Mt]     Self[%] 	 Name

	main:

		   10717.052 Mt   100.000 %         1 x    10717.054 Mt    10717.051 Mt        0.843 Mt     0.008 % 	 /

		   10716.276 Mt    99.993 %         1 x    10716.278 Mt    10716.276 Mt      558.974 Mt     5.216 % 	 ./Main application loop

		       2.881 Mt     0.027 %         1 x        2.881 Mt        2.881 Mt        2.881 Mt   100.000 % 	 ../TexturedRLInitialization

		       6.093 Mt     0.057 %         1 x        6.093 Mt        6.093 Mt        6.093 Mt   100.000 % 	 ../DeferredRLInitialization

		      54.234 Mt     0.506 %         1 x       54.234 Mt       54.234 Mt        2.458 Mt     4.532 % 	 ../RayTracingRLInitialization

		      51.776 Mt    95.468 %         1 x       51.776 Mt       51.776 Mt       51.776 Mt   100.000 % 	 .../PipelineBuild

		       3.254 Mt     0.030 %         1 x        3.254 Mt        3.254 Mt        3.254 Mt   100.000 % 	 ../ResolveRLInitialization

		    9657.858 Mt    90.123 %         1 x     9657.858 Mt     9657.858 Mt        2.788 Mt     0.029 % 	 ../Initialization

		    9655.070 Mt    99.971 %         1 x     9655.070 Mt     9655.070 Mt        4.213 Mt     0.044 % 	 .../ScenePrep

		    9567.681 Mt    99.095 %         1 x     9567.681 Mt     9567.681 Mt      369.382 Mt     3.861 % 	 ..../SceneLoad

		    8315.523 Mt    86.913 %         1 x     8315.523 Mt     8315.523 Mt     1131.615 Mt    13.608 % 	 ...../glTF-LoadScene

		    7183.908 Mt    86.392 %        69 x      104.115 Mt        0.034 Mt     7183.908 Mt   100.000 % 	 ....../glTF-LoadImageData

		     563.673 Mt     5.891 %         1 x      563.673 Mt      563.673 Mt      563.673 Mt   100.000 % 	 ...../glTF-CreateScene

		     319.102 Mt     3.335 %         1 x      319.102 Mt      319.102 Mt      319.102 Mt   100.000 % 	 ...../SceneDesc-CreateScene

		       8.294 Mt     0.086 %         1 x        8.294 Mt        8.294 Mt        0.007 Mt     0.083 % 	 ..../TexturedRLPrep

		       8.287 Mt    99.917 %         1 x        8.287 Mt        8.287 Mt        3.039 Mt    36.676 % 	 ...../PrepareForRendering

		       2.894 Mt    34.922 %         1 x        2.894 Mt        2.894 Mt        2.894 Mt   100.000 % 	 ....../PrepareMaterials

		       2.354 Mt    28.402 %         1 x        2.354 Mt        2.354 Mt        2.354 Mt   100.000 % 	 ....../PrepareDrawBundle

		      10.234 Mt     0.106 %         1 x       10.234 Mt       10.234 Mt        0.005 Mt     0.049 % 	 ..../DeferredRLPrep

		      10.229 Mt    99.951 %         1 x       10.229 Mt       10.229 Mt        5.083 Mt    49.693 % 	 ...../PrepareForRendering

		       0.026 Mt     0.255 %         1 x        0.026 Mt        0.026 Mt        0.026 Mt   100.000 % 	 ....../PrepareMaterials

		       2.646 Mt    25.862 %         1 x        2.646 Mt        2.646 Mt        2.646 Mt   100.000 % 	 ....../BuildMaterialCache

		       2.474 Mt    24.190 %         1 x        2.474 Mt        2.474 Mt        2.474 Mt   100.000 % 	 ....../PrepareDrawBundle

		      41.269 Mt     0.427 %         1 x       41.269 Mt       41.269 Mt       11.676 Mt    28.292 % 	 ..../RayTracingRLPrep

		       0.597 Mt     1.447 %         1 x        0.597 Mt        0.597 Mt        0.597 Mt   100.000 % 	 ...../PrepareAccelerationStructures

		       0.027 Mt     0.066 %         1 x        0.027 Mt        0.027 Mt        0.027 Mt   100.000 % 	 ...../PrepareCache

		       8.699 Mt    21.078 %         1 x        8.699 Mt        8.699 Mt        8.699 Mt   100.000 % 	 ...../BuildCache

		      14.977 Mt    36.292 %         1 x       14.977 Mt       14.977 Mt        0.005 Mt     0.030 % 	 ...../BuildAccelerationStructures

		      14.973 Mt    99.970 %         1 x       14.973 Mt       14.973 Mt        8.129 Mt    54.294 % 	 ....../AccelerationStructureBuild

		       4.667 Mt    31.169 %         1 x        4.667 Mt        4.667 Mt        4.667 Mt   100.000 % 	 ......./BuildBottomLevelAS

		       2.177 Mt    14.537 %         1 x        2.177 Mt        2.177 Mt        2.177 Mt   100.000 % 	 ......./BuildTopLevelAS

		       5.293 Mt    12.825 %         1 x        5.293 Mt        5.293 Mt        5.293 Mt   100.000 % 	 ...../BuildShaderTables

		      23.379 Mt     0.242 %         1 x       23.379 Mt       23.379 Mt       23.379 Mt   100.000 % 	 ..../GpuSidePrep

		     432.982 Mt     4.040 %       105 x        4.124 Mt        3.278 Mt      284.351 Mt    65.673 % 	 ../AccelerationStructureBuild

		      67.417 Mt    15.570 %       105 x        0.642 Mt        0.496 Mt       67.417 Mt   100.000 % 	 .../BuildBottomLevelAS

		      81.214 Mt    18.757 %       105 x        0.773 Mt        0.636 Mt       81.214 Mt   100.000 % 	 .../BuildTopLevelAS

	WindowThread:

		   10701.167 Mt   100.000 %         1 x    10701.167 Mt    10701.167 Mt    10701.167 Mt   100.000 % 	 /

	GpuThread:

		     109.821 Mt   100.000 %       104 x        1.056 Mt        0.226 Mt       56.233 Mt    51.204 % 	 /

		       1.706 Mt     1.554 %         1 x        1.706 Mt        1.706 Mt        0.007 Mt     0.405 % 	 ./ScenePrep

		       1.700 Mt    99.595 %         1 x        1.700 Mt        1.700 Mt        0.002 Mt     0.090 % 	 ../AccelerationStructureBuild

		       1.608 Mt    94.636 %         1 x        1.608 Mt        1.608 Mt        1.608 Mt   100.000 % 	 .../BuildBottomLevelASGpu

		       0.090 Mt     5.274 %         1 x        0.090 Mt        0.090 Mt        0.090 Mt   100.000 % 	 .../BuildTopLevelASGpu

		      51.881 Mt    47.242 %       105 x        0.494 Mt        0.226 Mt        0.135 Mt     0.259 % 	 ./AccelerationStructureBuild

		      43.173 Mt    83.215 %       105 x        0.411 Mt        0.144 Mt       43.173 Mt   100.000 % 	 ../BuildBottomLevelASGpu

		       8.574 Mt    16.525 %       105 x        0.082 Mt        0.080 Mt        8.574 Mt   100.000 % 	 ../BuildTopLevelASGpu


	============================


