Configuration: 
Command line parameters  = E:\programming\FIT-DIP\Masters-DXR-Main-git\build\Measurement\x64\Debug\Measurement.exe --scene Sponza/Sponza.gltf --profile-builds --profile-output BuildsSponza 
Window width             = 1024
Window height            = 768
Window title             = Direct3D App
Back-buffer count        = 3
Fill Triangles           = enabled
Triangles Font Clock-Wise= enabled
Fast Build AS            = disabled
Target FPS               = 60
Target UPS               = 60
Tearing                  = disabled
VSync                    = disabled
GUI rendering            = enabled
Debug layer              = enabled
GPU validation           = disabled
GPU profiling            = enabled
Render mode              = Rasterization
Loaded scene file        = Sponza/Sponza.gltf
Using testing scene      = disabled
Duplication              = 1
Duplication in cube      = disabled
Duplication offset       = 10
BLAS duplication         = disabled
Rays per pixel           = 10

ProfilingAggregator: 

ProfilingBuildAggregator: 
BuildBottomLevelAS	,	1.3495	,	0.6079	,	0.4971	,	2.3854	,	0.5743	,	0.5642	,	0.6588	,	0.9155	,	0.5046	,	1.8412	,	0.4705	,	0.4568	,	0.429	,	0.5412	,	0.4789	,	0.5292	,	0.5019	,	0.4856	,	0.4906	,	0.5636	,	0.5803	,	0.447	,	0.3681	,	0.4777	,	0.4004	,	0.4504	,	0.435	,	0.5015	,	0.4065	,	0.4471	,	0.4031	,	0.4394	,	0.4038	,	0.4536	,	0.4168	,	0.4409	,	0.4912	,	0.4822	,	0.5721	,	0.4692	,	0.499	,	0.4805	,	0.4652	,	0.4328	,	0.4652	,	0.4541	,	0.4819	,	0.4683	,	0.5301	,	0.5485	,	0.5531	,	0.4544	,	0.4499	,	0.5266	,	0.5777	,	0.5207	,	0.549	,	0.4948	,	2.1896	,	0.5315	,	0.5243	,	0.4961	,	0.4705	,	0.5122	,	0.6075	,	0.5239	,	0.6251	,	0.5612	,	0.5579	,	0.5622	,	0.5472	,	0.5716	,	0.5349	,	0.5551	,	0.4646	,	0.5535	,	0.4452	,	0.532	,	0.4611	,	0.5488	,	0.4188	,	0.5416	,	0.4227	,	0.4487	,	0.4651	,	0.4472	,	0.4471	,	0.4482	,	0.4515	,	0.4656	,	0.4384	,	0.4706	,	0.4298	,	0.4335	,	0.5016	,	0.456	,	0.5139	,	0.6316	,	0.4789	,	0.5017	,	0.4791	,	0.4522	,	0.4995	,	0.4446
BuildBottomLevelASGpu	,	1.92906	,	0.618144	,	0.385408	,	0.50288	,	0.41184	,	0.269184	,	0.29264	,	0.46688	,	0.433504	,	0.510912	,	0.186592	,	0.451328	,	0.381184	,	0.511008	,	0.316192	,	0.279968	,	0.277568	,	0.277184	,	0.23328	,	0.25792	,	0.24992	,	0.258304	,	0.230656	,	0.256992	,	0.248928	,	0.260064	,	0.249312	,	0.279552	,	0.232864	,	0.26032	,	0.248352	,	0.261536	,	0.231968	,	0.257472	,	0.251136	,	0.306432	,	0.2024	,	0.310624	,	0.23488	,	0.340864	,	0.205632	,	0.24368	,	0.184768	,	0.392768	,	0.230496	,	0.51584	,	0.209024	,	0.160736	,	0.420256	,	0.52224	,	0.723008	,	0.168576	,	0.237472	,	0.55104	,	0.78496	,	0.548064	,	0.564768	,	0.567936	,	0.555712	,	0.568576	,	0.553504	,	0.555488	,	0.55216	,	0.601728	,	0.510624	,	0.504832	,	0.510336	,	0.504064	,	0.510048	,	0.526144	,	0.503168	,	0.528448	,	0.499936	,	0.516928	,	0.144288	,	0.602688	,	0.144128	,	0.585792	,	0.164576	,	0.59056	,	0.144096	,	0.581984	,	0.396576	,	0.446272	,	0.396608	,	0.45632	,	0.378752	,	0.495808	,	0.37472	,	0.443456	,	0.37376	,	0.477536	,	0.374304	,	0.46992	,	0.392608	,	0.451264	,	0.577728	,	0.445472	,	0.406592	,	0.45008	,	0.417472	,	0.189376	,	0.619712	,	0.163552
BuildTopLevelAS	,	2.2354	,	0.7218	,	0.7024	,	0.925	,	2.1917	,	0.7405	,	0.8449	,	0.822	,	0.6831	,	0.6502	,	0.7453	,	0.6386	,	0.5878	,	0.653	,	0.6901	,	0.6698	,	0.6125	,	0.6794	,	0.661	,	0.6479	,	0.6887	,	0.6867	,	0.6045	,	0.7122	,	0.6626	,	0.6153	,	0.6174	,	0.6524	,	0.6404	,	0.621	,	0.7236	,	0.6382	,	0.6161	,	0.6635	,	0.6445	,	0.6205	,	0.6613	,	0.6577	,	0.6926	,	0.6529	,	0.7045	,	0.6204	,	0.6117	,	0.6405	,	0.6511	,	0.6345	,	0.69	,	0.7159	,	0.6104	,	0.6445	,	0.7063	,	0.6515	,	0.6745	,	0.6804	,	0.6318	,	0.6637	,	0.6536	,	0.6515	,	0.7171	,	0.7064	,	0.6353	,	0.6378	,	0.6104	,	0.6413	,	0.6674	,	0.6659	,	0.6485	,	0.7058	,	0.5976	,	0.6699	,	0.6645	,	0.6164	,	0.6323	,	0.6615	,	0.6527	,	1.586	,	0.6407	,	0.6511	,	0.7202	,	0.6526	,	0.6455	,	0.6217	,	0.6194	,	0.6133	,	1.6245	,	0.6573	,	0.6111	,	0.6968	,	0.6717	,	0.656	,	0.6136	,	0.6318	,	0.6099	,	0.6463	,	0.6651	,	0.6566	,	0.626	,	0.704	,	0.5854	,	1.9186	,	0.6343	,	0.6506	,	0.6221	,	0.6771
BuildTopLevelASGpu	,	0.088864	,	0.082048	,	0.07904	,	0.083776	,	0.07904	,	0.08384	,	0.079008	,	0.084832	,	0.080224	,	0.078848	,	0.084064	,	0.080064	,	0.079232	,	0.079616	,	0.084416	,	0.078432	,	0.079424	,	0.083264	,	0.078432	,	0.078432	,	0.083456	,	0.079232	,	0.079232	,	0.079232	,	0.083232	,	0.078784	,	0.078432	,	0.08384	,	0.07904	,	0.078624	,	0.083648	,	0.0792	,	0.078432	,	0.0792	,	0.083232	,	0.079616	,	0.079008	,	0.084032	,	0.078432	,	0.079232	,	0.084032	,	0.079008	,	0.07824	,	0.07984	,	0.08384	,	0.078624	,	0.078432	,	0.08304	,	0.078432	,	0.078816	,	0.083616	,	0.078816	,	0.079616	,	0.080032	,	0.084224	,	0.078848	,	0.083264	,	0.082208	,	0.078432	,	0.083264	,	0.078464	,	0.078432	,	0.07872	,	0.083232	,	0.078432	,	0.078432	,	0.08384	,	0.079424	,	0.078432	,	0.084224	,	0.07904	,	0.079232	,	0.079232	,	0.083232	,	0.0784	,	0.083456	,	0.078624	,	0.07824	,	0.083872	,	0.079616	,	0.078432	,	0.079648	,	0.08304	,	0.078816	,	0.083456	,	0.078848	,	0.078624	,	0.084064	,	0.079616	,	0.078432	,	0.07904	,	0.083008	,	0.078624	,	0.078432	,	0.084032	,	0.078848	,	0.079424	,	0.084032	,	0.078624	,	0.078432	,	0.083872	,	0.078208	,	0.079424	,	0.082848
Duplication	,	1	,	1	,	1	,	1	,	1	,	1	,	1	,	1	,	1	,	1	,	1	,	1	,	1	,	1	,	1	,	1	,	1	,	1	,	1	,	1	,	1	,	1	,	1	,	1	,	1	,	1	,	1	,	1	,	1	,	1	,	1	,	1	,	1	,	1	,	1	,	1	,	1	,	1	,	1	,	1	,	1	,	1	,	1	,	1	,	1	,	1	,	1	,	1	,	1	,	1	,	1	,	1	,	1	,	1	,	1	,	1	,	1	,	1	,	1	,	1	,	1	,	1	,	1	,	1	,	1	,	1	,	1	,	1	,	1	,	1	,	1	,	1	,	1	,	1	,	1	,	1	,	1	,	1	,	1	,	1	,	1	,	1	,	1	,	1	,	1	,	1	,	1	,	1	,	1	,	1	,	1	,	1	,	1	,	1	,	1	,	1	,	1	,	1	,	1	,	1	,	1	,	1	,	1	,	1
Triangles	,	262267	,	3640	,	468	,	2211	,	1362	,	108	,	280	,	2332	,	1456	,	2896	,	16	,	2332	,	1096	,	3680	,	204	,	204	,	148	,	160	,	112	,	160	,	112	,	160	,	112	,	160	,	112	,	160	,	112	,	160	,	112	,	160	,	112	,	160	,	112	,	160	,	112	,	440	,	32	,	280	,	54	,	242	,	24	,	82	,	24	,	556	,	50	,	3408	,	50	,	5	,	1360	,	3736	,	23208	,	18	,	64	,	5456	,	27796	,	5504	,	5504	,	5504	,	5504	,	5504	,	5504	,	5504	,	5504	,	11040	,	4864	,	4608	,	4864	,	4864	,	4608	,	4864	,	4608	,	4864	,	4608	,	4864	,	8	,	4957	,	8	,	4957	,	8	,	4957	,	8	,	4957	,	468	,	2211	,	468	,	2211	,	468	,	2211	,	400	,	2211	,	400	,	2211	,	400	,	2211	,	400	,	2211	,	9184	,	1521	,	1362	,	1521	,	1362	,	28	,	14484	,	10
Meshes	,	103	,	1	,	1	,	1	,	1	,	1	,	1	,	1	,	1	,	1	,	1	,	1	,	1	,	1	,	1	,	1	,	1	,	1	,	1	,	1	,	1	,	1	,	1	,	1	,	1	,	1	,	1	,	1	,	1	,	1	,	1	,	1	,	1	,	1	,	1	,	1	,	1	,	1	,	1	,	1	,	1	,	1	,	1	,	1	,	1	,	1	,	1	,	1	,	1	,	1	,	1	,	1	,	1	,	1	,	1	,	1	,	1	,	1	,	1	,	1	,	1	,	1	,	1	,	1	,	1	,	1	,	1	,	1	,	1	,	1	,	1	,	1	,	1	,	1	,	1	,	1	,	1	,	1	,	1	,	1	,	1	,	1	,	1	,	1	,	1	,	1	,	1	,	1	,	1	,	1	,	1	,	1	,	1	,	1	,	1	,	1	,	1	,	1	,	1	,	1	,	1	,	1	,	1	,	1
BottomLevels	,	1	,	1	,	1	,	1	,	1	,	1	,	1	,	1	,	1	,	1	,	1	,	1	,	1	,	1	,	1	,	1	,	1	,	1	,	1	,	1	,	1	,	1	,	1	,	1	,	1	,	1	,	1	,	1	,	1	,	1	,	1	,	1	,	1	,	1	,	1	,	1	,	1	,	1	,	1	,	1	,	1	,	1	,	1	,	1	,	1	,	1	,	1	,	1	,	1	,	1	,	1	,	1	,	1	,	1	,	1	,	1	,	1	,	1	,	1	,	1	,	1	,	1	,	1	,	1	,	1	,	1	,	1	,	1	,	1	,	1	,	1	,	1	,	1	,	1	,	1	,	1	,	1	,	1	,	1	,	1	,	1	,	1	,	1	,	1	,	1	,	1	,	1	,	1	,	1	,	1	,	1	,	1	,	1	,	1	,	1	,	1	,	1	,	1	,	1	,	1	,	1	,	1	,	1	,	1
Index	,	0	,	1	,	2	,	3	,	4	,	5	,	6	,	7	,	8	,	9	,	10	,	11	,	12	,	13	,	14	,	15	,	16	,	17	,	18	,	19	,	20	,	21	,	22	,	23	,	24	,	25	,	26	,	27	,	28	,	29	,	30	,	31	,	32	,	33	,	34	,	35	,	36	,	37	,	38	,	39	,	40	,	41	,	42	,	43	,	44	,	45	,	46	,	47	,	48	,	49	,	50	,	51	,	52	,	53	,	54	,	55	,	56	,	57	,	58	,	59	,	60	,	61	,	62	,	63	,	64	,	65	,	66	,	67	,	68	,	69	,	70	,	71	,	72	,	73	,	74	,	75	,	76	,	77	,	78	,	79	,	80	,	81	,	82	,	83	,	84	,	85	,	86	,	87	,	88	,	89	,	90	,	91	,	92	,	93	,	94	,	95	,	96	,	97	,	98	,	99	,	100	,	101	,	102	,	103

FpsAggregator: 
FPS	,	0	,	0	,	0	,	0	,	0	,	0	,	0	,	0	,	0	,	0	,	0	,	0	,	0	,	0	,	0	,	0	,	0	,	0	,	0	,	0	,	0	,	0	,	0	,	0	,	0	,	0	,	0	,	0	,	0	,	0	,	0	,	0	,	0	,	0	,	0	,	0	,	0	,	0	,	0	,	0	,	0	,	0	,	0	,	0	,	0	,	0	,	0	,	0	,	0	,	0	,	0	,	0	,	0	,	0	,	0	,	0	,	0	,	0	,	0	,	0	,	0	,	0	,	0	,	0	,	0	,	0	,	0	,	0	,	0	,	0	,	0	,	0	,	0	,	0	,	0	,	0	,	0	,	0	,	0	,	0	,	0	,	0	,	0	,	0	,	0	,	0	,	0	,	0	,	0	,	0	,	0	,	0	,	0	,	0	,	0	,	0	,	0	,	0	,	0	,	0	,	0	,	0	,	0	,	0
UPS	,	0	,	0	,	0	,	0	,	0	,	0	,	0	,	0	,	0	,	0	,	0	,	0	,	0	,	0	,	0	,	0	,	0	,	0	,	0	,	0	,	0	,	0	,	0	,	0	,	0	,	0	,	0	,	0	,	0	,	0	,	0	,	0	,	0	,	0	,	0	,	0	,	0	,	0	,	0	,	0	,	0	,	0	,	0	,	0	,	0	,	0	,	0	,	0	,	0	,	0	,	0	,	0	,	0	,	0	,	0	,	0	,	0	,	0	,	0	,	0	,	0	,	0	,	0	,	0	,	0	,	0	,	0	,	0	,	0	,	0	,	0	,	0	,	0	,	0	,	0	,	0	,	0	,	0	,	0	,	0	,	0	,	0	,	0	,	0	,	0	,	0	,	0	,	0	,	0	,	0	,	0	,	0	,	0	,	0	,	0	,	0	,	0	,	0	,	0	,	0	,	0	,	0	,	0	,	0
FrameTime	,	0	,	0	,	0	,	0	,	0	,	0	,	0	,	0	,	0	,	0	,	0	,	0	,	0	,	0	,	0	,	0	,	0	,	0	,	0	,	0	,	0	,	0	,	0	,	0	,	0	,	0	,	0	,	0	,	0	,	0	,	0	,	0	,	0	,	0	,	0	,	0	,	0	,	0	,	0	,	0	,	0	,	0	,	0	,	0	,	0	,	0	,	0	,	0	,	0	,	0	,	0	,	0	,	0	,	0	,	0	,	0	,	0	,	0	,	0	,	0	,	0	,	0	,	0	,	0	,	0	,	0	,	0	,	0	,	0	,	0	,	0	,	0	,	0	,	0	,	0	,	0	,	0	,	0	,	0	,	0	,	0	,	0	,	0	,	0	,	0	,	0	,	0	,	0	,	0	,	0	,	0	,	0	,	0	,	0	,	0	,	0	,	0	,	0	,	0	,	0	,	0	,	0	,	0	,	0
GigaRays/s	,	0	,	0	,	0	,	0	,	0	,	0	,	0	,	0	,	0	,	0	,	0	,	0	,	0	,	0	,	0	,	0	,	0	,	0	,	0	,	0	,	0	,	0	,	0	,	0	,	0	,	0	,	0	,	0	,	0	,	0	,	0	,	0	,	0	,	0	,	0	,	0	,	0	,	0	,	0	,	0	,	0	,	0	,	0	,	0	,	0	,	0	,	0	,	0	,	0	,	0	,	0	,	0	,	0	,	0	,	0	,	0	,	0	,	0	,	0	,	0	,	0	,	0	,	0	,	0	,	0	,	0	,	0	,	0	,	0	,	0	,	0	,	0	,	0	,	0	,	0	,	0	,	0	,	0	,	0	,	0	,	0	,	0	,	0	,	0	,	0	,	0	,	0	,	0	,	0	,	0	,	0	,	0	,	0	,	0	,	0	,	0	,	0	,	0	,	0	,	0	,	0	,	0	,	0	,	0
Index	,	0	,	1	,	2	,	3	,	4	,	5	,	6	,	7	,	8	,	9	,	10	,	11	,	12	,	13	,	14	,	15	,	16	,	17	,	18	,	19	,	20	,	21	,	22	,	23	,	24	,	25	,	26	,	27	,	28	,	29	,	30	,	31	,	32	,	33	,	34	,	35	,	36	,	37	,	38	,	39	,	40	,	41	,	42	,	43	,	44	,	45	,	46	,	47	,	48	,	49	,	50	,	51	,	52	,	53	,	54	,	55	,	56	,	57	,	58	,	59	,	60	,	61	,	62	,	63	,	64	,	65	,	66	,	67	,	68	,	69	,	70	,	71	,	72	,	73	,	74	,	75	,	76	,	77	,	78	,	79	,	80	,	81	,	82	,	83	,	84	,	85	,	86	,	87	,	88	,	89	,	90	,	91	,	92	,	93	,	94	,	95	,	96	,	97	,	98	,	99	,	100	,	101	,	102	,	103


AccelerationStructure: 
Ray tracing acceleration structure building statistics: 
	Bottom Level Acceleration Structure: 
		Maximum [B]: 14623872
		Minimum [B]: 14623872
		Currently Allocated [B]: 14623872
		Currently Created [num]: 1
		Current Average [B]: 14623872
		Maximum Triangles [num]: 262267
		Minimum Triangles [num]: 262267
		Total Triangles [num]: 262267
		Maximum Meshes [num]: 103
		Minimum Meshes [num]: 103
		Total Meshes [num]: 103
	Top Level Acceleration Structure: 
		Maximum [B]: 64
		Minimum [B]: 64
		Currently Allocated [B]: 64
		Total Allocated [B]: 64
		Total Created [num]: 1
		Average Allocated [B]: 64
		Maximum Instances [num]: 1
		Minimum Instances [num]: 1
		Total Instances [num]: 1
	Scratch Buffer: 
		Maximum [B]: 11660800
		Minimum [B]: 11660800
		Currently Allocated [B]: 11660800
		Total Allocated [B]: 11660800
		Total Created [num]: 1
		Average Allocated [B]: 11660800
ProfilingStack: 
[PROF] Profiling statistics: 
	Scopes entered : 734
	Scopes exited : 733
	Overhead per scope [ticks] : 1043.9
	Threads entered : 3
	Threads exited : 0
	============================
		         Sum[Mt]   Parent[%]  Samples[num]       Avg[Mt]   Last/Curr[Mt]        Self[Mt]     Self[%] 	 Name

	main:

		   10621.841 Mt   100.000 %         1 x    10621.843 Mt    10621.840 Mt        0.918 Mt     0.009 % 	 /

		   10620.985 Mt    99.992 %         1 x    10620.987 Mt    10620.985 Mt      584.054 Mt     5.499 % 	 ./Main application loop

		       2.706 Mt     0.025 %         1 x        2.706 Mt        2.706 Mt        2.706 Mt   100.000 % 	 ../TexturedRLInitialization

		       6.932 Mt     0.065 %         1 x        6.932 Mt        6.932 Mt        6.932 Mt   100.000 % 	 ../DeferredRLInitialization

		      69.269 Mt     0.652 %         1 x       69.269 Mt       69.269 Mt        2.671 Mt     3.856 % 	 ../RayTracingRLInitialization

		      66.598 Mt    96.144 %         1 x       66.598 Mt       66.598 Mt       66.598 Mt   100.000 % 	 .../PipelineBuild

		       3.163 Mt     0.030 %         1 x        3.163 Mt        3.163 Mt        3.163 Mt   100.000 % 	 ../ResolveRLInitialization

		    9584.611 Mt    90.242 %         1 x     9584.611 Mt     9584.611 Mt        8.662 Mt     0.090 % 	 ../Initialization

		    9575.950 Mt    99.910 %         1 x     9575.950 Mt     9575.950 Mt        3.233 Mt     0.034 % 	 .../ScenePrep

		    9441.583 Mt    98.597 %         1 x     9441.583 Mt     9441.583 Mt      386.018 Mt     4.088 % 	 ..../SceneLoad

		    8171.484 Mt    86.548 %         1 x     8171.484 Mt     8171.484 Mt     1135.740 Mt    13.899 % 	 ...../glTF-LoadScene

		    7035.744 Mt    86.101 %        69 x      101.967 Mt        0.033 Mt     7035.744 Mt   100.000 % 	 ....../glTF-LoadImageData

		     557.617 Mt     5.906 %         1 x      557.617 Mt      557.617 Mt      557.617 Mt   100.000 % 	 ...../glTF-CreateScene

		     326.465 Mt     3.458 %         1 x      326.465 Mt      326.465 Mt      326.465 Mt   100.000 % 	 ...../SceneDesc-CreateScene

		      20.052 Mt     0.209 %         1 x       20.052 Mt       20.052 Mt        0.006 Mt     0.029 % 	 ..../TexturedRLPrep

		      20.046 Mt    99.971 %         1 x       20.046 Mt       20.046 Mt        2.907 Mt    14.499 % 	 ...../PrepareForRendering

		       9.064 Mt    45.218 %         1 x        9.064 Mt        9.064 Mt        9.064 Mt   100.000 % 	 ....../PrepareMaterials

		       8.075 Mt    40.283 %         1 x        8.075 Mt        8.075 Mt        8.075 Mt   100.000 % 	 ....../PrepareDrawBundle

		      15.569 Mt     0.163 %         1 x       15.569 Mt       15.569 Mt        0.006 Mt     0.035 % 	 ..../DeferredRLPrep

		      15.564 Mt    99.965 %         1 x       15.564 Mt       15.564 Mt        5.188 Mt    33.332 % 	 ...../PrepareForRendering

		       0.025 Mt     0.159 %         1 x        0.025 Mt        0.025 Mt        0.025 Mt   100.000 % 	 ....../PrepareMaterials

		       4.801 Mt    30.846 %         1 x        4.801 Mt        4.801 Mt        4.801 Mt   100.000 % 	 ....../BuildMaterialCache

		       5.551 Mt    35.664 %         1 x        5.551 Mt        5.551 Mt        5.551 Mt   100.000 % 	 ....../PrepareDrawBundle

		      31.993 Mt     0.334 %         1 x       31.993 Mt       31.993 Mt        8.345 Mt    26.085 % 	 ..../RayTracingRLPrep

		       0.596 Mt     1.861 %         1 x        0.596 Mt        0.596 Mt        0.596 Mt   100.000 % 	 ...../PrepareAccelerationStructures

		       0.027 Mt     0.085 %         1 x        0.027 Mt        0.027 Mt        0.027 Mt   100.000 % 	 ...../PrepareCache

		       7.848 Mt    24.532 %         1 x        7.848 Mt        7.848 Mt        7.848 Mt   100.000 % 	 ...../BuildCache

		      10.472 Mt    32.731 %         1 x       10.472 Mt       10.472 Mt        0.004 Mt     0.042 % 	 ...../BuildAccelerationStructures

		      10.467 Mt    99.958 %         1 x       10.467 Mt       10.467 Mt        5.633 Mt    53.815 % 	 ....../AccelerationStructureBuild

		       3.456 Mt    33.017 %         1 x        3.456 Mt        3.456 Mt        3.456 Mt   100.000 % 	 ......./BuildBottomLevelAS

		       1.378 Mt    13.168 %         1 x        1.378 Mt        1.378 Mt        1.378 Mt   100.000 % 	 ......./BuildTopLevelAS

		       4.705 Mt    14.705 %         1 x        4.705 Mt        4.705 Mt        4.705 Mt   100.000 % 	 ...../BuildShaderTables

		      63.521 Mt     0.663 %         1 x       63.521 Mt       63.521 Mt       63.521 Mt   100.000 % 	 ..../GpuSidePrep

		     370.250 Mt     3.486 %       105 x        3.526 Mt        3.033 Mt      233.623 Mt    63.099 % 	 ../AccelerationStructureBuild

		      59.919 Mt    16.183 %       105 x        0.571 Mt        0.445 Mt       59.919 Mt   100.000 % 	 .../BuildBottomLevelAS

		      76.708 Mt    20.718 %       105 x        0.731 Mt        0.677 Mt       76.708 Mt   100.000 % 	 .../BuildTopLevelAS

	WindowThread:

		   10609.500 Mt   100.000 %         1 x    10609.500 Mt    10609.499 Mt    10609.500 Mt   100.000 % 	 /

	GpuThread:

		     156.077 Mt   100.000 %       104 x        1.501 Mt        0.248 Mt       87.266 Mt    55.912 % 	 /

		      16.222 Mt    10.394 %         1 x       16.222 Mt       16.222 Mt        0.051 Mt     0.315 % 	 ./ScenePrep

		      16.171 Mt    99.685 %         1 x       16.171 Mt       16.171 Mt        0.002 Mt     0.013 % 	 ../AccelerationStructureBuild

		      15.546 Mt    96.134 %         1 x       15.546 Mt       15.546 Mt       15.546 Mt   100.000 % 	 .../BuildBottomLevelASGpu

		       0.623 Mt     3.853 %         1 x        0.623 Mt        0.623 Mt        0.623 Mt   100.000 % 	 .../BuildTopLevelASGpu

		      52.589 Mt    33.695 %       105 x        0.501 Mt        0.248 Mt        0.136 Mt     0.259 % 	 ./AccelerationStructureBuild

		      43.983 Mt    83.635 %       105 x        0.419 Mt        0.164 Mt       43.983 Mt   100.000 % 	 ../BuildBottomLevelASGpu

		       8.470 Mt    16.106 %       105 x        0.081 Mt        0.083 Mt        8.470 Mt   100.000 % 	 ../BuildTopLevelASGpu


	============================


