Configuration: 
Command line parameters  = E:\programming\FIT-DIP\Masters-DXR-Main-git\build\Measurement\x64\Debug\Measurement.exe --scene Sponza/Sponza.gltf --profile-builds --profile-output BuildsSponza 
Window width             = 1024
Window height            = 768
Window title             = Direct3D App
Back-buffer count        = 3
Fill Triangles           = enabled
Triangles Font Clock-Wise= enabled
Fast Build AS            = disabled
Target FPS               = 60
Target UPS               = 60
Tearing                  = disabled
VSync                    = disabled
GUI rendering            = enabled
Debug layer              = enabled
GPU validation           = disabled
GPU profiling            = enabled
Render mode              = Rasterization
Loaded scene file        = Sponza/Sponza.gltf
Using testing scene      = disabled
Duplication              = 1
Duplication in cube      = disabled
Duplication offset       = 10
BLAS duplication         = disabled
Rays per pixel           = 10

ProfilingAggregator: 

ProfilingBuildAggregator: 
BuildBottomLevelAS	,	2.1003	,	1.4247	,	0.5522	,	0.5157	,	1.023	,	0.6048	,	2.3743	,	0.5346	,	0.5929	,	0.5273	,	0.7845	,	1.602	,	0.5492	,	0.9361	,	0.7844	,	0.5469	,	0.8862	,	0.5113	,	0.519	,	0.8339	,	0.4414	,	0.4866	,	1.903	,	0.5936	,	0.4203	,	0.4839	,	0.4173	,	0.4774	,	0.4654	,	0.4575	,	0.4431	,	0.4287	,	0.4475	,	0.4835	,	0.4296	,	0.4494	,	0.4355	,	0.434	,	0.4221	,	0.4208	,	0.4425	,	0.4263	,	0.8874	,	0.4597	,	0.4298	,	0.4388	,	0.4507	,	0.4379	,	0.6913	,	0.527	,	2.1899	,	0.422	,	0.4358	,	0.5068	,	0.6324	,	0.4884	,	0.5394	,	0.5174	,	0.5386	,	0.5979	,	0.4976	,	0.4747	,	0.5771	,	0.5413	,	0.6306	,	0.5608	,	0.6187	,	0.6142	,	0.5849	,	0.6157	,	0.5458	,	0.6652	,	0.5489	,	0.5867	,	0.4734	,	2.3222	,	0.5221	,	0.5398	,	0.4824	,	0.6168	,	0.4707	,	0.5676	,	0.4544	,	0.4742	,	0.4468	,	0.4574	,	0.4498	,	0.495	,	0.442	,	0.4988	,	1.9927	,	0.488	,	0.4607	,	0.4855	,	0.4757	,	0.5043	,	0.5195	,	0.4351	,	0.4552	,	0.495	,	0.4529	,	0.4567	,	0.5594	,	2.0984
BuildBottomLevelASGpu	,	12.461	,	2.17955	,	2.3161	,	1.59242	,	2.42	,	1.01869	,	1.19155	,	1.99552	,	1.64282	,	2.96045	,	0.758624	,	1.7072	,	1.25555	,	1.85562	,	2.39171	,	1.16333	,	2.17206	,	0.997856	,	0.773824	,	0.546624	,	0.251968	,	0.260928	,	0.242208	,	0.278592	,	0.233952	,	0.263424	,	0.280928	,	0.264192	,	0.23424	,	0.282432	,	0.231968	,	0.2712	,	0.25328	,	0.26128	,	0.234848	,	0.355776	,	0.204256	,	0.292576	,	0.23584	,	0.357344	,	0.184992	,	0.25136	,	0.20608	,	0.390944	,	0.210528	,	0.51408	,	0.208832	,	0.141952	,	0.437088	,	0.522592	,	0.709824	,	0.188608	,	0.24304	,	0.546688	,	0.762592	,	0.552512	,	0.54848	,	0.576512	,	0.557312	,	0.57568	,	0.54048	,	0.5592	,	0.543232	,	0.594112	,	0.536672	,	0.495136	,	0.531904	,	0.524352	,	0.49824	,	0.528832	,	0.501952	,	0.54464	,	0.500736	,	0.511872	,	0.16352	,	0.587488	,	0.164512	,	0.585344	,	0.145024	,	0.598464	,	0.144832	,	0.598784	,	0.396576	,	0.445376	,	0.395104	,	0.463872	,	0.379872	,	0.494752	,	0.375744	,	0.472192	,	0.39296	,	0.457472	,	0.363424	,	0.47792	,	0.37712	,	0.487232	,	0.572544	,	0.447328	,	0.425792	,	0.456288	,	0.422912	,	0.189536	,	0.653472	,	0.163872
BuildTopLevelAS	,	1.3072	,	1.1032	,	0.923	,	0.7597	,	0.9221	,	0.8	,	0.8939	,	1.6622	,	1.917	,	0.8798	,	0.9159	,	0.8201	,	1.4606	,	1.186	,	0.7824	,	0.74	,	0.8299	,	0.7515	,	0.9867	,	0.7763	,	0.6089	,	0.6326	,	0.5763	,	0.6008	,	0.5852	,	0.6043	,	0.6213	,	0.7455	,	0.651	,	0.7687	,	0.6092	,	0.6077	,	0.6039	,	0.634	,	0.6596	,	0.6911	,	0.6307	,	0.6443	,	0.599	,	0.607	,	0.5744	,	0.6275	,	0.677	,	0.6142	,	0.6033	,	0.7887	,	0.6573	,	0.6258	,	0.6086	,	0.6639	,	0.6575	,	0.6149	,	0.5987	,	0.6779	,	0.6167	,	2.0531	,	0.6382	,	0.6295	,	0.6826	,	0.7138	,	0.7162	,	0.6181	,	0.6474	,	0.6409	,	0.6613	,	0.6905	,	0.8154	,	0.7788	,	0.6706	,	0.6637	,	0.7296	,	0.7615	,	0.7654	,	0.6904	,	0.7494	,	0.7015	,	0.8794	,	0.6749	,	1.7768	,	0.6324	,	0.6398	,	0.6161	,	0.6267	,	0.614	,	0.722	,	0.623	,	0.6062	,	0.7789	,	0.6037	,	0.6122	,	0.6751	,	0.6228	,	0.6327	,	0.6115	,	0.6028	,	0.6141	,	0.6197	,	0.6318	,	1.8686	,	0.6241	,	0.6227	,	0.7001	,	0.6623	,	0.6607
BuildTopLevelASGpu	,	0.41696	,	0.3552	,	0.375936	,	0.31072	,	0.359264	,	0.354656	,	0.354624	,	0.315776	,	0.373504	,	0.37872	,	0.350464	,	0.354528	,	0.29872	,	0.374464	,	0.65664	,	0.373664	,	0.405376	,	0.303456	,	1.66512	,	0.134848	,	0.085024	,	0.079232	,	0.081728	,	0.084064	,	0.079008	,	0.079744	,	0.084064	,	0.0792	,	0.079168	,	0.08464	,	0.079744	,	0.081888	,	0.084448	,	0.079008	,	0.079552	,	0.084832	,	0.078816	,	0.079008	,	0.078208	,	0.084064	,	0.079584	,	0.081344	,	0.083296	,	0.079584	,	0.079008	,	0.084224	,	0.0784	,	0.078208	,	0.083456	,	0.079008	,	0.083552	,	0.08384	,	0.07824	,	0.079584	,	0.083456	,	0.079168	,	0.079584	,	0.083296	,	0.078624	,	0.095072	,	0.078656	,	0.083648	,	0.079584	,	0.07936	,	0.084064	,	0.0792	,	0.08368	,	0.079584	,	0.078432	,	0.084064	,	0.079552	,	0.084224	,	0.078624	,	0.078976	,	0.08384	,	0.078816	,	0.083456	,	0.079584	,	0.078976	,	0.083296	,	0.078432	,	0.079744	,	0.083104	,	0.078976	,	0.084256	,	0.078816	,	0.0784	,	0.083456	,	0.078816	,	0.0784	,	0.083264	,	0.078816	,	0.0792	,	0.084288	,	0.078816	,	0.083264	,	0.079008	,	0.078528	,	0.083264	,	0.079168	,	0.083456	,	0.078208	,	0.079008	,	0.083072
Duplication	,	1	,	1	,	1	,	1	,	1	,	1	,	1	,	1	,	1	,	1	,	1	,	1	,	1	,	1	,	1	,	1	,	1	,	1	,	1	,	1	,	1	,	1	,	1	,	1	,	1	,	1	,	1	,	1	,	1	,	1	,	1	,	1	,	1	,	1	,	1	,	1	,	1	,	1	,	1	,	1	,	1	,	1	,	1	,	1	,	1	,	1	,	1	,	1	,	1	,	1	,	1	,	1	,	1	,	1	,	1	,	1	,	1	,	1	,	1	,	1	,	1	,	1	,	1	,	1	,	1	,	1	,	1	,	1	,	1	,	1	,	1	,	1	,	1	,	1	,	1	,	1	,	1	,	1	,	1	,	1	,	1	,	1	,	1	,	1	,	1	,	1	,	1	,	1	,	1	,	1	,	1	,	1	,	1	,	1	,	1	,	1	,	1	,	1	,	1	,	1	,	1	,	1	,	1	,	1
Triangles	,	262267	,	3640	,	468	,	2211	,	1362	,	108	,	280	,	2332	,	1456	,	2896	,	16	,	2332	,	1096	,	3680	,	204	,	204	,	148	,	160	,	112	,	160	,	112	,	160	,	112	,	160	,	112	,	160	,	112	,	160	,	112	,	160	,	112	,	160	,	112	,	160	,	112	,	440	,	32	,	280	,	54	,	242	,	24	,	82	,	24	,	556	,	50	,	3408	,	50	,	5	,	1360	,	3736	,	23208	,	18	,	64	,	5456	,	27796	,	5504	,	5504	,	5504	,	5504	,	5504	,	5504	,	5504	,	5504	,	11040	,	4864	,	4608	,	4864	,	4864	,	4608	,	4864	,	4608	,	4864	,	4608	,	4864	,	8	,	4957	,	8	,	4957	,	8	,	4957	,	8	,	4957	,	468	,	2211	,	468	,	2211	,	468	,	2211	,	400	,	2211	,	400	,	2211	,	400	,	2211	,	400	,	2211	,	9184	,	1521	,	1362	,	1521	,	1362	,	28	,	14484	,	10
Meshes	,	103	,	1	,	1	,	1	,	1	,	1	,	1	,	1	,	1	,	1	,	1	,	1	,	1	,	1	,	1	,	1	,	1	,	1	,	1	,	1	,	1	,	1	,	1	,	1	,	1	,	1	,	1	,	1	,	1	,	1	,	1	,	1	,	1	,	1	,	1	,	1	,	1	,	1	,	1	,	1	,	1	,	1	,	1	,	1	,	1	,	1	,	1	,	1	,	1	,	1	,	1	,	1	,	1	,	1	,	1	,	1	,	1	,	1	,	1	,	1	,	1	,	1	,	1	,	1	,	1	,	1	,	1	,	1	,	1	,	1	,	1	,	1	,	1	,	1	,	1	,	1	,	1	,	1	,	1	,	1	,	1	,	1	,	1	,	1	,	1	,	1	,	1	,	1	,	1	,	1	,	1	,	1	,	1	,	1	,	1	,	1	,	1	,	1	,	1	,	1	,	1	,	1	,	1	,	1
BottomLevels	,	1	,	1	,	1	,	1	,	1	,	1	,	1	,	1	,	1	,	1	,	1	,	1	,	1	,	1	,	1	,	1	,	1	,	1	,	1	,	1	,	1	,	1	,	1	,	1	,	1	,	1	,	1	,	1	,	1	,	1	,	1	,	1	,	1	,	1	,	1	,	1	,	1	,	1	,	1	,	1	,	1	,	1	,	1	,	1	,	1	,	1	,	1	,	1	,	1	,	1	,	1	,	1	,	1	,	1	,	1	,	1	,	1	,	1	,	1	,	1	,	1	,	1	,	1	,	1	,	1	,	1	,	1	,	1	,	1	,	1	,	1	,	1	,	1	,	1	,	1	,	1	,	1	,	1	,	1	,	1	,	1	,	1	,	1	,	1	,	1	,	1	,	1	,	1	,	1	,	1	,	1	,	1	,	1	,	1	,	1	,	1	,	1	,	1	,	1	,	1	,	1	,	1	,	1	,	1
Index	,	0	,	1	,	2	,	3	,	4	,	5	,	6	,	7	,	8	,	9	,	10	,	11	,	12	,	13	,	14	,	15	,	16	,	17	,	18	,	19	,	20	,	21	,	22	,	23	,	24	,	25	,	26	,	27	,	28	,	29	,	30	,	31	,	32	,	33	,	34	,	35	,	36	,	37	,	38	,	39	,	40	,	41	,	42	,	43	,	44	,	45	,	46	,	47	,	48	,	49	,	50	,	51	,	52	,	53	,	54	,	55	,	56	,	57	,	58	,	59	,	60	,	61	,	62	,	63	,	64	,	65	,	66	,	67	,	68	,	69	,	70	,	71	,	72	,	73	,	74	,	75	,	76	,	77	,	78	,	79	,	80	,	81	,	82	,	83	,	84	,	85	,	86	,	87	,	88	,	89	,	90	,	91	,	92	,	93	,	94	,	95	,	96	,	97	,	98	,	99	,	100	,	101	,	102	,	103

FpsAggregator: 
FPS	,	0	,	0	,	0	,	0	,	0	,	0	,	0	,	0	,	0	,	0	,	0	,	0	,	0	,	0	,	0	,	0	,	0	,	0	,	0	,	0	,	0	,	0	,	0	,	0	,	0	,	0	,	0	,	0	,	0	,	0	,	0	,	0	,	0	,	0	,	0	,	0	,	0	,	0	,	0	,	0	,	0	,	0	,	0	,	0	,	0	,	0	,	0	,	0	,	0	,	0	,	0	,	0	,	0	,	0	,	0	,	0	,	0	,	0	,	0	,	0	,	0	,	0	,	0	,	0	,	0	,	0	,	0	,	0	,	0	,	0	,	0	,	0	,	0	,	0	,	0	,	0	,	0	,	0	,	0	,	0	,	0	,	0	,	0	,	0	,	0	,	0	,	0	,	0	,	0	,	0	,	0	,	0	,	0	,	0	,	0	,	0	,	0	,	0	,	0	,	0	,	0	,	0	,	0	,	0
UPS	,	0	,	0	,	0	,	0	,	0	,	0	,	0	,	0	,	0	,	0	,	0	,	0	,	0	,	0	,	0	,	0	,	0	,	0	,	0	,	0	,	0	,	0	,	0	,	0	,	0	,	0	,	0	,	0	,	0	,	0	,	0	,	0	,	0	,	0	,	0	,	0	,	0	,	0	,	0	,	0	,	0	,	0	,	0	,	0	,	0	,	0	,	0	,	0	,	0	,	0	,	0	,	0	,	0	,	0	,	0	,	0	,	0	,	0	,	0	,	0	,	0	,	0	,	0	,	0	,	0	,	0	,	0	,	0	,	0	,	0	,	0	,	0	,	0	,	0	,	0	,	0	,	0	,	0	,	0	,	0	,	0	,	0	,	0	,	0	,	0	,	0	,	0	,	0	,	0	,	0	,	0	,	0	,	0	,	0	,	0	,	0	,	0	,	0	,	0	,	0	,	0	,	0	,	0	,	0
FrameTime	,	0	,	0	,	0	,	0	,	0	,	0	,	0	,	0	,	0	,	0	,	0	,	0	,	0	,	0	,	0	,	0	,	0	,	0	,	0	,	0	,	0	,	0	,	0	,	0	,	0	,	0	,	0	,	0	,	0	,	0	,	0	,	0	,	0	,	0	,	0	,	0	,	0	,	0	,	0	,	0	,	0	,	0	,	0	,	0	,	0	,	0	,	0	,	0	,	0	,	0	,	0	,	0	,	0	,	0	,	0	,	0	,	0	,	0	,	0	,	0	,	0	,	0	,	0	,	0	,	0	,	0	,	0	,	0	,	0	,	0	,	0	,	0	,	0	,	0	,	0	,	0	,	0	,	0	,	0	,	0	,	0	,	0	,	0	,	0	,	0	,	0	,	0	,	0	,	0	,	0	,	0	,	0	,	0	,	0	,	0	,	0	,	0	,	0	,	0	,	0	,	0	,	0	,	0	,	0
GigaRays/s	,	0	,	0	,	0	,	0	,	0	,	0	,	0	,	0	,	0	,	0	,	0	,	0	,	0	,	0	,	0	,	0	,	0	,	0	,	0	,	0	,	0	,	0	,	0	,	0	,	0	,	0	,	0	,	0	,	0	,	0	,	0	,	0	,	0	,	0	,	0	,	0	,	0	,	0	,	0	,	0	,	0	,	0	,	0	,	0	,	0	,	0	,	0	,	0	,	0	,	0	,	0	,	0	,	0	,	0	,	0	,	0	,	0	,	0	,	0	,	0	,	0	,	0	,	0	,	0	,	0	,	0	,	0	,	0	,	0	,	0	,	0	,	0	,	0	,	0	,	0	,	0	,	0	,	0	,	0	,	0	,	0	,	0	,	0	,	0	,	0	,	0	,	0	,	0	,	0	,	0	,	0	,	0	,	0	,	0	,	0	,	0	,	0	,	0	,	0	,	0	,	0	,	0	,	0	,	0
Index	,	0	,	1	,	2	,	3	,	4	,	5	,	6	,	7	,	8	,	9	,	10	,	11	,	12	,	13	,	14	,	15	,	16	,	17	,	18	,	19	,	20	,	21	,	22	,	23	,	24	,	25	,	26	,	27	,	28	,	29	,	30	,	31	,	32	,	33	,	34	,	35	,	36	,	37	,	38	,	39	,	40	,	41	,	42	,	43	,	44	,	45	,	46	,	47	,	48	,	49	,	50	,	51	,	52	,	53	,	54	,	55	,	56	,	57	,	58	,	59	,	60	,	61	,	62	,	63	,	64	,	65	,	66	,	67	,	68	,	69	,	70	,	71	,	72	,	73	,	74	,	75	,	76	,	77	,	78	,	79	,	80	,	81	,	82	,	83	,	84	,	85	,	86	,	87	,	88	,	89	,	90	,	91	,	92	,	93	,	94	,	95	,	96	,	97	,	98	,	99	,	100	,	101	,	102	,	103


AccelerationStructure: 
Ray tracing acceleration structure building statistics: 
	Bottom Level Acceleration Structure: 
		Maximum [B]: 14623872
		Minimum [B]: 14623872
		Currently Allocated [B]: 14623872
		Currently Created [num]: 1
		Current Average [B]: 14623872
		Maximum Triangles [num]: 262267
		Minimum Triangles [num]: 262267
		Total Triangles [num]: 262267
		Maximum Meshes [num]: 103
		Minimum Meshes [num]: 103
		Total Meshes [num]: 103
	Top Level Acceleration Structure: 
		Maximum [B]: 64
		Minimum [B]: 64
		Currently Allocated [B]: 64
		Total Allocated [B]: 64
		Total Created [num]: 1
		Average Allocated [B]: 64
		Maximum Instances [num]: 1
		Minimum Instances [num]: 1
		Total Instances [num]: 1
	Scratch Buffer: 
		Maximum [B]: 11660800
		Minimum [B]: 11660800
		Currently Allocated [B]: 11660800
		Total Allocated [B]: 11660800
		Total Created [num]: 1
		Average Allocated [B]: 11660800
ProfilingStack: 
[PROF] Profiling statistics: 
	Scopes entered : 734
	Scopes exited : 733
	Overhead per scope [ticks] : 1012.2
	Threads entered : 3
	Threads exited : 0
	============================
		         Sum[Mt]   Parent[%]  Samples[num]       Avg[Mt]   Last/Curr[Mt]        Self[Mt]     Self[%] 	 Name

	main:

		   10858.362 Mt   100.000 %         1 x    10858.364 Mt    10858.361 Mt        1.237 Mt     0.011 % 	 /

		   10857.220 Mt    99.989 %         1 x    10857.224 Mt    10857.220 Mt      686.670 Mt     6.325 % 	 ./Main application loop

		       2.916 Mt     0.027 %         1 x        2.916 Mt        2.916 Mt        2.916 Mt   100.000 % 	 ../TexturedRLInitialization

		       6.303 Mt     0.058 %         1 x        6.303 Mt        6.303 Mt        6.303 Mt   100.000 % 	 ../DeferredRLInitialization

		      71.788 Mt     0.661 %         1 x       71.788 Mt       71.788 Mt        2.656 Mt     3.699 % 	 ../RayTracingRLInitialization

		      69.132 Mt    96.301 %         1 x       69.132 Mt       69.132 Mt       69.132 Mt   100.000 % 	 .../PipelineBuild

		       3.563 Mt     0.033 %         1 x        3.563 Mt        3.563 Mt        3.563 Mt   100.000 % 	 ../ResolveRLInitialization

		    9636.351 Mt    88.755 %         1 x     9636.351 Mt     9636.351 Mt        8.274 Mt     0.086 % 	 ../Initialization

		    9628.077 Mt    99.914 %         1 x     9628.077 Mt     9628.077 Mt        4.393 Mt     0.046 % 	 .../ScenePrep

		    9492.036 Mt    98.587 %         1 x     9492.036 Mt     9492.036 Mt      392.449 Mt     4.135 % 	 ..../SceneLoad

		    8246.798 Mt    86.881 %         1 x     8246.798 Mt     8246.798 Mt     1133.918 Mt    13.750 % 	 ...../glTF-LoadScene

		    7112.880 Mt    86.250 %        69 x      103.085 Mt        0.033 Mt     7112.880 Mt   100.000 % 	 ....../glTF-LoadImageData

		     509.943 Mt     5.372 %         1 x      509.943 Mt      509.943 Mt      509.943 Mt   100.000 % 	 ...../glTF-CreateScene

		     342.845 Mt     3.612 %         1 x      342.845 Mt      342.845 Mt      342.845 Mt   100.000 % 	 ...../SceneDesc-CreateScene

		      19.832 Mt     0.206 %         1 x       19.832 Mt       19.832 Mt        0.007 Mt     0.033 % 	 ..../TexturedRLPrep

		      19.825 Mt    99.967 %         1 x       19.825 Mt       19.825 Mt        3.075 Mt    15.512 % 	 ...../PrepareForRendering

		       8.632 Mt    43.543 %         1 x        8.632 Mt        8.632 Mt        8.632 Mt   100.000 % 	 ....../PrepareMaterials

		       8.117 Mt    40.945 %         1 x        8.117 Mt        8.117 Mt        8.117 Mt   100.000 % 	 ....../PrepareDrawBundle

		      11.884 Mt     0.123 %         1 x       11.884 Mt       11.884 Mt        0.005 Mt     0.043 % 	 ..../DeferredRLPrep

		      11.879 Mt    99.957 %         1 x       11.879 Mt       11.879 Mt        4.451 Mt    37.469 % 	 ...../PrepareForRendering

		       0.026 Mt     0.218 %         1 x        0.026 Mt        0.026 Mt        0.026 Mt   100.000 % 	 ....../PrepareMaterials

		       4.899 Mt    41.240 %         1 x        4.899 Mt        4.899 Mt        4.899 Mt   100.000 % 	 ....../BuildMaterialCache

		       2.503 Mt    21.072 %         1 x        2.503 Mt        2.503 Mt        2.503 Mt   100.000 % 	 ....../PrepareDrawBundle

		      36.283 Mt     0.377 %         1 x       36.283 Mt       36.283 Mt        9.010 Mt    24.832 % 	 ..../RayTracingRLPrep

		       0.620 Mt     1.708 %         1 x        0.620 Mt        0.620 Mt        0.620 Mt   100.000 % 	 ...../PrepareAccelerationStructures

		       0.028 Mt     0.077 %         1 x        0.028 Mt        0.028 Mt        0.028 Mt   100.000 % 	 ...../PrepareCache

		       5.328 Mt    14.684 %         1 x        5.328 Mt        5.328 Mt        5.328 Mt   100.000 % 	 ...../BuildCache

		      12.408 Mt    34.197 %         1 x       12.408 Mt       12.408 Mt        0.006 Mt     0.047 % 	 ...../BuildAccelerationStructures

		      12.402 Mt    99.953 %         1 x       12.402 Mt       12.402 Mt        7.405 Mt    59.705 % 	 ....../AccelerationStructureBuild

		       3.887 Mt    31.344 %         1 x        3.887 Mt        3.887 Mt        3.887 Mt   100.000 % 	 ......./BuildBottomLevelAS

		       1.110 Mt     8.950 %         1 x        1.110 Mt        1.110 Mt        1.110 Mt   100.000 % 	 ......./BuildTopLevelAS

		       8.889 Mt    24.500 %         1 x        8.889 Mt        8.889 Mt        8.889 Mt   100.000 % 	 ...../BuildShaderTables

		      63.650 Mt     0.661 %         1 x       63.650 Mt       63.650 Mt       63.650 Mt   100.000 % 	 ..../GpuSidePrep

		     449.630 Mt     4.141 %       105 x        4.282 Mt        5.072 Mt      297.382 Mt    66.139 % 	 ../AccelerationStructureBuild

		      71.710 Mt    15.949 %       105 x        0.683 Mt        2.098 Mt       71.710 Mt   100.000 % 	 .../BuildBottomLevelAS

		      80.537 Mt    17.912 %       105 x        0.767 Mt        0.661 Mt       80.537 Mt   100.000 % 	 .../BuildTopLevelAS

	WindowThread:

		   10830.243 Mt   100.000 %         1 x    10830.244 Mt    10830.243 Mt    10830.243 Mt   100.000 % 	 /

	GpuThread:

		     226.894 Mt   100.000 %       104 x        2.182 Mt        0.248 Mt      105.225 Mt    46.376 % 	 /

		      16.549 Mt     7.294 %         1 x       16.549 Mt       16.549 Mt        0.050 Mt     0.304 % 	 ./ScenePrep

		      16.499 Mt    99.696 %         1 x       16.499 Mt       16.499 Mt        0.003 Mt     0.018 % 	 ../AccelerationStructureBuild

		      15.862 Mt    96.139 %         1 x       15.862 Mt       15.862 Mt       15.862 Mt   100.000 % 	 .../BuildBottomLevelASGpu

		       0.634 Mt     3.844 %         1 x        0.634 Mt        0.634 Mt        0.634 Mt   100.000 % 	 .../BuildTopLevelASGpu

		     105.120 Mt    46.330 %       105 x        1.001 Mt        0.248 Mt        0.188 Mt     0.179 % 	 ./AccelerationStructureBuild

		      89.193 Mt    84.849 %       105 x        0.849 Mt        0.164 Mt       89.193 Mt   100.000 % 	 ../BuildBottomLevelASGpu

		      15.739 Mt    14.972 %       105 x        0.150 Mt        0.083 Mt       15.739 Mt   100.000 % 	 ../BuildTopLevelASGpu


	============================


