Configuration: 
Command line parameters  = E:\programming\FIT-DIP\Masters-DXR-Main-git\build\Measurement\x64\Debug\Measurement.exe --scene Sponza/Sponza.gltf --profile-builds --profile-output BuildsSponza 
Window width             = 1024
Window height            = 768
Window title             = Direct3D App
Back-buffer count        = 3
Fill Triangles           = enabled
Triangles Font Clock-Wise= enabled
Fast Build AS            = disabled
Target FPS               = 60
Target UPS               = 60
Tearing                  = disabled
VSync                    = disabled
GUI rendering            = enabled
Debug layer              = enabled
GPU validation           = disabled
GPU profiling            = enabled
Render mode              = Rasterization
Loaded scene file        = Sponza/Sponza.gltf
Using testing scene      = disabled
Duplication              = 1
Duplication in cube      = disabled
Duplication offset       = 10
BLAS duplication         = disabled
Rays per pixel           = 10

ProfilingAggregator: 

ProfilingBuildAggregator: 
BuildBottomLevelAS	,	1.6614	,	0.9689	,	0.9685	,	0.8289	,	1.189	,	1.1161	,	1.3046	,	0.9668	,	1.1709	,	1.1008	,	1.4634	,	0.9387	,	1.1902	,	1.3243	,	0.9895	,	0.8934	,	0.9267	,	0.8296	,	4.567	,	1.6533	,	0.9552	,	1.0105	,	0.902	,	1.3165	,	1.0419	,	0.9213	,	1.0627	,	0.8427	,	1.2564	,	1.325	,	1.4584	,	6.0078	,	1.2402	,	1.1784	,	1.1436	,	1.6053	,	1.1022	,	1.4421	,	1.405	,	1.3058	,	1.2493	,	1.1828	,	1.0056	,	4.8774	,	1.0719	,	2.5548	,	2.5841	,	1.2254	,	1.1547	,	1.6919	,	1.7495	,	1.1751	,	1.3276	,	2.0315	,	1.8099	,	1.4597	,	1.9286	,	1.9782	,	1.4822	,	1.2712	,	1.7018	,	1.6396	,	1.6241	,	1.8244	,	1.7895	,	2.6624	,	1.5989	,	1.3818	,	1.2661	,	1.4654	,	1.5469	,	1.4375	,	1.6945	,	1.5216	,	1.855	,	1.4985	,	1.0839	,	1.5978	,	1.5466	,	1.432	,	0.9925	,	1.148	,	0.9387	,	1.168	,	1.0097	,	1.145	,	1.3829	,	0.8959	,	0.8986	,	0.9048	,	1.4966	,	0.9095	,	0.8563	,	0.9707	,	0.9027	,	0.9381	,	1.1822	,	1.0121	,	1.0266	,	1.2514	,	0.9879	,	0.9157	,	1.254	,	0.9516
BuildBottomLevelASGpu	,	1.54851	,	0.611552	,	0.4016	,	0.464672	,	0.427328	,	0.267424	,	0.29056	,	0.442656	,	0.444416	,	0.491776	,	0.163936	,	0.442048	,	0.391712	,	0.513728	,	0.313408	,	0.285952	,	0.2776	,	0.258496	,	0.242752	,	0.258528	,	0.2304	,	0.257856	,	0.248896	,	0.276416	,	0.232224	,	0.260832	,	0.259872	,	0.26128	,	0.240128	,	0.260672	,	0.228928	,	0.26128	,	0.250496	,	0.258688	,	0.23376	,	0.338912	,	0.204288	,	0.289312	,	0.235584	,	0.35728	,	0.184864	,	0.244544	,	0.185376	,	0.398816	,	0.211872	,	0.516256	,	0.21488	,	0.144384	,	0.421568	,	0.510496	,	0.70832	,	0.172864	,	0.257312	,	0.563584	,	0.779936	,	0.576096	,	0.565696	,	0.566752	,	0.560896	,	0.540512	,	0.551072	,	0.538848	,	0.558944	,	0.611776	,	0.536096	,	0.512352	,	0.530016	,	0.494496	,	0.506176	,	0.526176	,	0.514752	,	0.543168	,	0.50256	,	0.527712	,	0.150976	,	0.598368	,	0.16192	,	0.585632	,	0.155936	,	0.600992	,	0.145376	,	0.602496	,	0.38112	,	0.47296	,	0.38064	,	0.48368	,	0.396672	,	0.476896	,	0.364128	,	0.44944	,	0.391488	,	0.490688	,	0.374336	,	0.461344	,	0.386112	,	0.474528	,	0.602752	,	0.430144	,	0.41664	,	0.47792	,	0.401056	,	0.208288	,	0.66112	,	0.156704
BuildTopLevelAS	,	0.9393	,	1.5031	,	1.1983	,	1.175	,	1.2312	,	1.5013	,	1.8073	,	1.4661	,	1.526	,	1.5634	,	1.5059	,	1.8678	,	1.4051	,	1.4726	,	4.2124	,	3.9342	,	4.0105	,	4.0269	,	1.2132	,	1.3932	,	1.4978	,	1.2877	,	1.4226	,	1.6416	,	1.5203	,	1.4981	,	1.3849	,	1.3417	,	1.7644	,	1.9404	,	1.8174	,	2.0863	,	1.9095	,	2.3961	,	1.6895	,	1.781	,	3.0735	,	2.0505	,	2.7267	,	1.708	,	1.8337	,	1.8692	,	1.7695	,	1.8658	,	2.1535	,	1.9745	,	2.2205	,	2.1078	,	1.6109	,	1.5078	,	1.7145	,	1.7261	,	2.0142	,	1.7382	,	1.9103	,	1.9663	,	1.8268	,	2.1521	,	1.5493	,	1.6272	,	1.7845	,	2.0114	,	2.0355	,	2.359	,	1.7877	,	1.7605	,	1.6848	,	1.6906	,	1.6553	,	1.5447	,	1.6452	,	1.7498	,	2.0549	,	2.1083	,	2.3684	,	2.0936	,	1.6052	,	1.6986	,	1.6637	,	2.02	,	1.4713	,	1.4411	,	1.4757	,	1.9048	,	1.3586	,	1.361	,	1.518	,	1.4151	,	1.3517	,	1.422	,	1.2804	,	1.5767	,	1.2591	,	1.297	,	1.3662	,	1.404	,	1.3946	,	1.4145	,	1.7066	,	1.8033	,	1.4141	,	1.4935	,	1.441	,	1.4771
BuildTopLevelASGpu	,	0.088512	,	0.085888	,	0.081312	,	0.080096	,	0.085504	,	0.086048	,	0.080544	,	0.080096	,	0.084864	,	0.084864	,	0.080896	,	0.079712	,	0.083104	,	0.085088	,	0.085856	,	0.07968	,	0.079712	,	0.079904	,	0.083072	,	0.08112	,	0.08032	,	0.079904	,	0.085888	,	0.085088	,	0.081312	,	0.081312	,	0.082528	,	0.081312	,	0.084064	,	0.082496	,	0.08208	,	0.081888	,	0.085472	,	0.081888	,	0.08112	,	0.082112	,	0.080512	,	0.081504	,	0.079936	,	0.086496	,	0.081312	,	0.081664	,	0.081472	,	0.088256	,	0.081888	,	0.082688	,	0.08272	,	0.08192	,	0.081312	,	0.080928	,	0.087264	,	0.080512	,	0.08448	,	0.084704	,	0.08608	,	0.086688	,	0.085664	,	0.086272	,	0.084864	,	0.081888	,	0.083456	,	0.080896	,	0.086912	,	0.087072	,	0.085472	,	0.084512	,	0.08448	,	0.083104	,	0.08368	,	0.08608	,	0.085472	,	0.085056	,	0.084128	,	0.082272	,	0.082496	,	0.08208	,	0.086112	,	0.081888	,	0.082304	,	0.084928	,	0.080736	,	0.094784	,	0.080352	,	0.086496	,	0.08032	,	0.084288	,	0.083104	,	0.080512	,	0.08032	,	0.08032	,	0.086464	,	0.085312	,	0.080288	,	0.084096	,	0.08432	,	0.081312	,	0.085312	,	0.08032	,	0.084096	,	0.084064	,	0.080096	,	0.084896	,	0.084672	,	0.083072
Duplication	,	1	,	1	,	1	,	1	,	1	,	1	,	1	,	1	,	1	,	1	,	1	,	1	,	1	,	1	,	1	,	1	,	1	,	1	,	1	,	1	,	1	,	1	,	1	,	1	,	1	,	1	,	1	,	1	,	1	,	1	,	1	,	1	,	1	,	1	,	1	,	1	,	1	,	1	,	1	,	1	,	1	,	1	,	1	,	1	,	1	,	1	,	1	,	1	,	1	,	1	,	1	,	1	,	1	,	1	,	1	,	1	,	1	,	1	,	1	,	1	,	1	,	1	,	1	,	1	,	1	,	1	,	1	,	1	,	1	,	1	,	1	,	1	,	1	,	1	,	1	,	1	,	1	,	1	,	1	,	1	,	1	,	1	,	1	,	1	,	1	,	1	,	1	,	1	,	1	,	1	,	1	,	1	,	1	,	1	,	1	,	1	,	1	,	1	,	1	,	1	,	1	,	1	,	1	,	1
Triangles	,	262267	,	3640	,	468	,	2211	,	1362	,	108	,	280	,	2332	,	1456	,	2896	,	16	,	2332	,	1096	,	3680	,	204	,	204	,	148	,	160	,	112	,	160	,	112	,	160	,	112	,	160	,	112	,	160	,	112	,	160	,	112	,	160	,	112	,	160	,	112	,	160	,	112	,	440	,	32	,	280	,	54	,	242	,	24	,	82	,	24	,	556	,	50	,	3408	,	50	,	5	,	1360	,	3736	,	23208	,	18	,	64	,	5456	,	27796	,	5504	,	5504	,	5504	,	5504	,	5504	,	5504	,	5504	,	5504	,	11040	,	4864	,	4608	,	4864	,	4864	,	4608	,	4864	,	4608	,	4864	,	4608	,	4864	,	8	,	4957	,	8	,	4957	,	8	,	4957	,	8	,	4957	,	468	,	2211	,	468	,	2211	,	468	,	2211	,	400	,	2211	,	400	,	2211	,	400	,	2211	,	400	,	2211	,	9184	,	1521	,	1362	,	1521	,	1362	,	28	,	14484	,	10
Meshes	,	103	,	1	,	1	,	1	,	1	,	1	,	1	,	1	,	1	,	1	,	1	,	1	,	1	,	1	,	1	,	1	,	1	,	1	,	1	,	1	,	1	,	1	,	1	,	1	,	1	,	1	,	1	,	1	,	1	,	1	,	1	,	1	,	1	,	1	,	1	,	1	,	1	,	1	,	1	,	1	,	1	,	1	,	1	,	1	,	1	,	1	,	1	,	1	,	1	,	1	,	1	,	1	,	1	,	1	,	1	,	1	,	1	,	1	,	1	,	1	,	1	,	1	,	1	,	1	,	1	,	1	,	1	,	1	,	1	,	1	,	1	,	1	,	1	,	1	,	1	,	1	,	1	,	1	,	1	,	1	,	1	,	1	,	1	,	1	,	1	,	1	,	1	,	1	,	1	,	1	,	1	,	1	,	1	,	1	,	1	,	1	,	1	,	1	,	1	,	1	,	1	,	1	,	1	,	1
BottomLevels	,	1	,	1	,	1	,	1	,	1	,	1	,	1	,	1	,	1	,	1	,	1	,	1	,	1	,	1	,	1	,	1	,	1	,	1	,	1	,	1	,	1	,	1	,	1	,	1	,	1	,	1	,	1	,	1	,	1	,	1	,	1	,	1	,	1	,	1	,	1	,	1	,	1	,	1	,	1	,	1	,	1	,	1	,	1	,	1	,	1	,	1	,	1	,	1	,	1	,	1	,	1	,	1	,	1	,	1	,	1	,	1	,	1	,	1	,	1	,	1	,	1	,	1	,	1	,	1	,	1	,	1	,	1	,	1	,	1	,	1	,	1	,	1	,	1	,	1	,	1	,	1	,	1	,	1	,	1	,	1	,	1	,	1	,	1	,	1	,	1	,	1	,	1	,	1	,	1	,	1	,	1	,	1	,	1	,	1	,	1	,	1	,	1	,	1	,	1	,	1	,	1	,	1	,	1	,	1
Index	,	0	,	1	,	2	,	3	,	4	,	5	,	6	,	7	,	8	,	9	,	10	,	11	,	12	,	13	,	14	,	15	,	16	,	17	,	18	,	19	,	20	,	21	,	22	,	23	,	24	,	25	,	26	,	27	,	28	,	29	,	30	,	31	,	32	,	33	,	34	,	35	,	36	,	37	,	38	,	39	,	40	,	41	,	42	,	43	,	44	,	45	,	46	,	47	,	48	,	49	,	50	,	51	,	52	,	53	,	54	,	55	,	56	,	57	,	58	,	59	,	60	,	61	,	62	,	63	,	64	,	65	,	66	,	67	,	68	,	69	,	70	,	71	,	72	,	73	,	74	,	75	,	76	,	77	,	78	,	79	,	80	,	81	,	82	,	83	,	84	,	85	,	86	,	87	,	88	,	89	,	90	,	91	,	92	,	93	,	94	,	95	,	96	,	97	,	98	,	99	,	100	,	101	,	102	,	103

FpsAggregator: 
FPS	,	0	,	0	,	0	,	0	,	0	,	0	,	0	,	0	,	0	,	0	,	0	,	0	,	0	,	0	,	0	,	0	,	0	,	0	,	0	,	0	,	0	,	0	,	0	,	0	,	0	,	0	,	0	,	0	,	0	,	0	,	0	,	0	,	0	,	0	,	0	,	0	,	0	,	0	,	0	,	0	,	0	,	0	,	0	,	0	,	0	,	0	,	0	,	0	,	0	,	0	,	0	,	0	,	0	,	0	,	0	,	0	,	0	,	0	,	0	,	0	,	0	,	0	,	0	,	0	,	0	,	0	,	0	,	0	,	0	,	0	,	0	,	0	,	0	,	0	,	0	,	0	,	0	,	0	,	0	,	0	,	0	,	0	,	0	,	0	,	0	,	0	,	0	,	0	,	0	,	0	,	0	,	0	,	0	,	0	,	0	,	0	,	0	,	0	,	0	,	0	,	0	,	0	,	0	,	0
UPS	,	0	,	0	,	0	,	0	,	0	,	0	,	0	,	0	,	0	,	0	,	0	,	0	,	0	,	0	,	0	,	0	,	0	,	0	,	0	,	0	,	0	,	0	,	0	,	0	,	0	,	0	,	0	,	0	,	0	,	0	,	0	,	0	,	0	,	0	,	0	,	0	,	0	,	0	,	0	,	0	,	0	,	0	,	0	,	0	,	0	,	0	,	0	,	0	,	0	,	0	,	0	,	0	,	0	,	0	,	0	,	0	,	0	,	0	,	0	,	0	,	0	,	0	,	0	,	0	,	0	,	0	,	0	,	0	,	0	,	0	,	0	,	0	,	0	,	0	,	0	,	0	,	0	,	0	,	0	,	0	,	0	,	0	,	0	,	0	,	0	,	0	,	0	,	0	,	0	,	0	,	0	,	0	,	0	,	0	,	0	,	0	,	0	,	0	,	0	,	0	,	0	,	0	,	0	,	0
FrameTime	,	0	,	0	,	0	,	0	,	0	,	0	,	0	,	0	,	0	,	0	,	0	,	0	,	0	,	0	,	0	,	0	,	0	,	0	,	0	,	0	,	0	,	0	,	0	,	0	,	0	,	0	,	0	,	0	,	0	,	0	,	0	,	0	,	0	,	0	,	0	,	0	,	0	,	0	,	0	,	0	,	0	,	0	,	0	,	0	,	0	,	0	,	0	,	0	,	0	,	0	,	0	,	0	,	0	,	0	,	0	,	0	,	0	,	0	,	0	,	0	,	0	,	0	,	0	,	0	,	0	,	0	,	0	,	0	,	0	,	0	,	0	,	0	,	0	,	0	,	0	,	0	,	0	,	0	,	0	,	0	,	0	,	0	,	0	,	0	,	0	,	0	,	0	,	0	,	0	,	0	,	0	,	0	,	0	,	0	,	0	,	0	,	0	,	0	,	0	,	0	,	0	,	0	,	0	,	0
GigaRays/s	,	0	,	0	,	0	,	0	,	0	,	0	,	0	,	0	,	0	,	0	,	0	,	0	,	0	,	0	,	0	,	0	,	0	,	0	,	0	,	0	,	0	,	0	,	0	,	0	,	0	,	0	,	0	,	0	,	0	,	0	,	0	,	0	,	0	,	0	,	0	,	0	,	0	,	0	,	0	,	0	,	0	,	0	,	0	,	0	,	0	,	0	,	0	,	0	,	0	,	0	,	0	,	0	,	0	,	0	,	0	,	0	,	0	,	0	,	0	,	0	,	0	,	0	,	0	,	0	,	0	,	0	,	0	,	0	,	0	,	0	,	0	,	0	,	0	,	0	,	0	,	0	,	0	,	0	,	0	,	0	,	0	,	0	,	0	,	0	,	0	,	0	,	0	,	0	,	0	,	0	,	0	,	0	,	0	,	0	,	0	,	0	,	0	,	0	,	0	,	0	,	0	,	0	,	0	,	0
Index	,	0	,	1	,	2	,	3	,	4	,	5	,	6	,	7	,	8	,	9	,	10	,	11	,	12	,	13	,	14	,	15	,	16	,	17	,	18	,	19	,	20	,	21	,	22	,	23	,	24	,	25	,	26	,	27	,	28	,	29	,	30	,	31	,	32	,	33	,	34	,	35	,	36	,	37	,	38	,	39	,	40	,	41	,	42	,	43	,	44	,	45	,	46	,	47	,	48	,	49	,	50	,	51	,	52	,	53	,	54	,	55	,	56	,	57	,	58	,	59	,	60	,	61	,	62	,	63	,	64	,	65	,	66	,	67	,	68	,	69	,	70	,	71	,	72	,	73	,	74	,	75	,	76	,	77	,	78	,	79	,	80	,	81	,	82	,	83	,	84	,	85	,	86	,	87	,	88	,	89	,	90	,	91	,	92	,	93	,	94	,	95	,	96	,	97	,	98	,	99	,	100	,	101	,	102	,	103


AccelerationStructure: 
Ray tracing acceleration structure building statistics: 
	Bottom Level Acceleration Structure: 
		Maximum [B]: 14623872
		Minimum [B]: 14623872
		Currently Allocated [B]: 14623872
		Currently Created [num]: 1
		Current Average [B]: 14623872
		Maximum Triangles [num]: 262267
		Minimum Triangles [num]: 262267
		Total Triangles [num]: 262267
		Maximum Meshes [num]: 103
		Minimum Meshes [num]: 103
		Total Meshes [num]: 103
	Top Level Acceleration Structure: 
		Maximum [B]: 64
		Minimum [B]: 64
		Currently Allocated [B]: 64
		Total Allocated [B]: 64
		Total Created [num]: 1
		Average Allocated [B]: 64
		Maximum Instances [num]: 1
		Minimum Instances [num]: 1
		Total Instances [num]: 1
	Scratch Buffer: 
		Maximum [B]: 11660800
		Minimum [B]: 11660800
		Currently Allocated [B]: 11660800
		Total Allocated [B]: 11660800
		Total Created [num]: 1
		Average Allocated [B]: 11660800
ProfilingStack: 
[PROF] Profiling statistics: 
	Scopes entered : 734
	Scopes exited : 733
	Overhead per scope [ticks] : 1027.7
	Threads entered : 3
	Threads exited : 0
	============================
		         Sum[Mt]   Parent[%]  Samples[num]       Avg[Mt]   Last/Curr[Mt]        Self[Mt]     Self[%] 	 Name

	main:

		   11475.906 Mt   100.000 %         1 x    11475.908 Mt    11475.904 Mt        0.745 Mt     0.006 % 	 /

		   11475.234 Mt    99.994 %         1 x    11475.237 Mt    11475.233 Mt      706.580 Mt     6.157 % 	 ./Main application loop

		       2.804 Mt     0.024 %         1 x        2.804 Mt        2.804 Mt        2.804 Mt   100.000 % 	 ../TexturedRLInitialization

		       6.328 Mt     0.055 %         1 x        6.328 Mt        6.328 Mt        6.328 Mt   100.000 % 	 ../DeferredRLInitialization

		      60.835 Mt     0.530 %         1 x       60.835 Mt       60.835 Mt        2.102 Mt     3.455 % 	 ../RayTracingRLInitialization

		      58.733 Mt    96.545 %         1 x       58.733 Mt       58.733 Mt       58.733 Mt   100.000 % 	 .../PipelineBuild

		       3.160 Mt     0.028 %         1 x        3.160 Mt        3.160 Mt        3.160 Mt   100.000 % 	 ../ResolveRLInitialization

		    9538.800 Mt    83.125 %         1 x     9538.800 Mt     9538.800 Mt        4.099 Mt     0.043 % 	 ../Initialization

		    9534.701 Mt    99.957 %         1 x     9534.701 Mt     9534.701 Mt        4.827 Mt     0.051 % 	 .../ScenePrep

		    9439.410 Mt    99.001 %         1 x     9439.410 Mt     9439.410 Mt      350.609 Mt     3.714 % 	 ..../SceneLoad

		    8234.149 Mt    87.232 %         1 x     8234.149 Mt     8234.149 Mt     1128.575 Mt    13.706 % 	 ...../glTF-LoadScene

		    7105.574 Mt    86.294 %        69 x      102.979 Mt        0.035 Mt     7105.574 Mt   100.000 % 	 ....../glTF-LoadImageData

		     534.229 Mt     5.660 %         1 x      534.229 Mt      534.229 Mt      534.229 Mt   100.000 % 	 ...../glTF-CreateScene

		     320.423 Mt     3.395 %         1 x      320.423 Mt      320.423 Mt      320.423 Mt   100.000 % 	 ...../SceneDesc-CreateScene

		       8.557 Mt     0.090 %         1 x        8.557 Mt        8.557 Mt        0.015 Mt     0.178 % 	 ..../TexturedRLPrep

		       8.542 Mt    99.822 %         1 x        8.542 Mt        8.542 Mt        3.242 Mt    37.959 % 	 ...../PrepareForRendering

		       2.930 Mt    34.301 %         1 x        2.930 Mt        2.930 Mt        2.930 Mt   100.000 % 	 ....../PrepareMaterials

		       2.370 Mt    27.740 %         1 x        2.370 Mt        2.370 Mt        2.370 Mt   100.000 % 	 ....../PrepareDrawBundle

		       9.942 Mt     0.104 %         1 x        9.942 Mt        9.942 Mt        0.005 Mt     0.052 % 	 ..../DeferredRLPrep

		       9.937 Mt    99.948 %         1 x        9.937 Mt        9.937 Mt        4.846 Mt    48.769 % 	 ...../PrepareForRendering

		       0.025 Mt     0.253 %         1 x        0.025 Mt        0.025 Mt        0.025 Mt   100.000 % 	 ....../PrepareMaterials

		       2.439 Mt    24.543 %         1 x        2.439 Mt        2.439 Mt        2.439 Mt   100.000 % 	 ....../BuildMaterialCache

		       2.627 Mt    26.435 %         1 x        2.627 Mt        2.627 Mt        2.627 Mt   100.000 % 	 ....../PrepareDrawBundle

		      37.763 Mt     0.396 %         1 x       37.763 Mt       37.763 Mt        7.184 Mt    19.023 % 	 ..../RayTracingRLPrep

		       0.601 Mt     1.592 %         1 x        0.601 Mt        0.601 Mt        0.601 Mt   100.000 % 	 ...../PrepareAccelerationStructures

		       0.027 Mt     0.071 %         1 x        0.027 Mt        0.027 Mt        0.027 Mt   100.000 % 	 ...../PrepareCache

		       5.791 Mt    15.336 %         1 x        5.791 Mt        5.791 Mt        5.791 Mt   100.000 % 	 ...../BuildCache

		      15.079 Mt    39.932 %         1 x       15.079 Mt       15.079 Mt        0.006 Mt     0.038 % 	 ...../BuildAccelerationStructures

		      15.074 Mt    99.962 %         1 x       15.074 Mt       15.074 Mt        7.580 Mt    50.289 % 	 ....../AccelerationStructureBuild

		       5.074 Mt    33.659 %         1 x        5.074 Mt        5.074 Mt        5.074 Mt   100.000 % 	 ......./BuildBottomLevelAS

		       2.420 Mt    16.052 %         1 x        2.420 Mt        2.420 Mt        2.420 Mt   100.000 % 	 ......./BuildTopLevelAS

		       9.080 Mt    24.045 %         1 x        9.080 Mt        9.080 Mt        9.080 Mt   100.000 % 	 ...../BuildShaderTables

		      34.202 Mt     0.359 %         1 x       34.202 Mt       34.202 Mt       34.202 Mt   100.000 % 	 ..../GpuSidePrep

		    1156.726 Mt    10.080 %       105 x       11.016 Mt        9.151 Mt      819.651 Mt    70.860 % 	 ../AccelerationStructureBuild

		     150.690 Mt    13.027 %       105 x        1.435 Mt        0.952 Mt      150.690 Mt   100.000 % 	 .../BuildBottomLevelAS

		     186.385 Mt    16.113 %       105 x        1.775 Mt        1.477 Mt      186.385 Mt   100.000 % 	 .../BuildTopLevelAS

	WindowThread:

		   11466.176 Mt   100.000 %         1 x    11466.176 Mt    11466.175 Mt    11466.176 Mt   100.000 % 	 /

	GpuThread:

		     114.656 Mt   100.000 %       104 x        1.102 Mt        0.241 Mt       60.690 Mt    52.933 % 	 /

		       1.690 Mt     1.474 %         1 x        1.690 Mt        1.690 Mt        0.007 Mt     0.441 % 	 ./ScenePrep

		       1.682 Mt    99.559 %         1 x        1.682 Mt        1.682 Mt        0.002 Mt     0.095 % 	 ../AccelerationStructureBuild

		       1.591 Mt    94.567 %         1 x        1.591 Mt        1.591 Mt        1.591 Mt   100.000 % 	 .../BuildBottomLevelASGpu

		       0.090 Mt     5.338 %         1 x        0.090 Mt        0.090 Mt        0.090 Mt   100.000 % 	 .../BuildTopLevelASGpu

		      52.276 Mt    45.594 %       105 x        0.498 Mt        0.241 Mt        0.136 Mt     0.260 % 	 ./AccelerationStructureBuild

		      43.394 Mt    83.009 %       105 x        0.413 Mt        0.157 Mt       43.394 Mt   100.000 % 	 ../BuildBottomLevelASGpu

		       8.746 Mt    16.731 %       105 x        0.083 Mt        0.083 Mt        8.746 Mt   100.000 % 	 ../BuildTopLevelASGpu


	============================


