Configuration: 
Command line parameters  = E:\programming\FIT-DIP\Masters-DXR-Main-git\build\Measurement\x64\Release\Measurement.exe --scene Suzanne/Suzanne.gltf --duplication-cube --duplication-offset 3 --profile-triangles --profile-camera-track Suzanne/SuzanneFast.trk --profile-max-duplication 10 --rt-mode --width 2560 --height 1440 --profile-output TrianglesSuzanne1440Rt 
Build type               = Release
Device name              = NVIDIA GeForce RTX 2080 Ti
Device memory MB         = 11049
Ray Tracing backend      = Hardware
Window width             = 2560
Window height            = 1421
Window title             = Direct3D App
Back-buffer count        = 3
Fill Triangles           = enabled
Triangles Font Clock-Wise= enabled
Fast Build AS            = disabled
Target FPS               = 0
Target UPS               = 60
Tearing                  = enabled
VSync                    = disabled
GUI rendering            = disabled
Debug layer              = disabled
GPU validation           = disabled
GPU profiling            = enabled
Render mode              = Ray Tracing
Loaded scene file        = Suzanne/Suzanne.gltf
Using testing scene      = disabled
Duplication              = 10
Duplication in cube      = enabled
Duplication offset       = 3
BLAS duplication         = enabled
Rays per pixel           = 13
Quality preset           = High
Rasterization Quality    : 
  AO                     = enabled
  AO kernel size         = 4
  Shadows                = enabled
  Shadow map resolution  = 4096
  Shadow PCF kernel size = 4
  Reflections            = enabled
Ray Tracing Quality      : 
  AO                     = enabled
  AO rays                = 4
  AO kernel size         = 4
  Shadows                = enabled
  Shadow rays            = 4
  Shadow kernel size     = 4
  Reflections            = enabled

ProfilingAggregator: 
Render	,	3.1547	,	3.1547	,	2.935	,	2.935	,	3.7486	,	3.7486	,	5.3358	,	5.3358	,	3.7773	,	3.7773	,	2.9476	,	3.6481	,	3.6481	,	2.9943	,	2.9943	,	3.9367	,	3.9367	,	4.5096	,	4.5096	,	4.3976	,	4.3976	,	3.0929	,	4.5029	,	4.5029	,	3.2362	,	3.2362	,	4.7198	,	4.7198	,	5.0779	,	5.0779	,	5.8004	,	5.8004	,	3.5109	,	4.858	,	4.858	,	3.4633	,	3.4633	,	4.9445	,	4.9445	,	6.497	,	6.497	,	6.1711	,	6.1711	,	3.7636	,	5.3187	,	5.3187	,	3.6094	,	3.6094	,	5.5076	,	5.5076	,	7.4273	,	7.4273	,	6.9224	,	6.9224	,	4.0397	,	5.6874	,	5.6874	,	3.8293	,	3.8293	,	5.7688	,	5.7688	,	7.782	,	7.782	,	7.3283	,	7.3283	,	4.2986	,	5.9126	,	5.9126	,	3.6104	,	3.6104	,	6.0825	,	6.0825	,	8.1676	,	8.1676	,	8.0141	,	8.0141	,	4.4607	,	6.2505	,	6.2505	,	4.0169	,	4.0169	,	6.3367	,	6.3367	,	9.0246	,	9.0246	,	8.5387	,	8.5387	,	4.7394	,	6.1253	,	6.1253	,	6.1136	,	6.1136	,	9.127	,	9.127	,	9.713	,	9.713	,	6.3515	,	6.3515	,	5.008	,	5.064	,	5.064	,	6.7107	,	6.7107	,	10.0597	,	10.0597	,	10.4352	,	10.4352	,	5.9962	,	5.9962	,	5.6743
Update	,	0.0762	,	0.0762	,	0.0655	,	0.0655	,	0.0687	,	0.0687	,	0.073	,	0.073	,	0.0325	,	0.0325	,	0.0696	,	0.0375	,	0.0375	,	0.0469	,	0.0469	,	0.0673	,	0.0673	,	0.0685	,	0.0685	,	0.0678	,	0.0678	,	0.0337	,	0.0689	,	0.0689	,	0.0696	,	0.0696	,	0.0677	,	0.0677	,	0.0683	,	0.0683	,	0.0695	,	0.0695	,	0.0676	,	0.0547	,	0.0547	,	0.0693	,	0.0693	,	0.068	,	0.068	,	0.0684	,	0.0684	,	0.0707	,	0.0707	,	0.0674	,	0.0713	,	0.0713	,	0.0613	,	0.0613	,	0.0701	,	0.0701	,	0.0625	,	0.0625	,	0.0708	,	0.0708	,	0.057	,	0.0729	,	0.0729	,	0.0728	,	0.0728	,	0.0723	,	0.0723	,	0.072	,	0.072	,	0.0449	,	0.0449	,	0.0722	,	0.049	,	0.049	,	0.0419	,	0.0419	,	0.0759	,	0.0759	,	0.0806	,	0.0806	,	0.0736	,	0.0736	,	0.0747	,	0.0817	,	0.0817	,	0.0813	,	0.0813	,	0.1013	,	0.1013	,	0.079	,	0.079	,	0.0815	,	0.0815	,	0.0803	,	0.0805	,	0.0805	,	0.0809	,	0.0809	,	0.0842	,	0.0842	,	0.0872	,	0.0872	,	0.0843	,	0.0843	,	0.0473	,	0.094	,	0.094	,	0.093	,	0.093	,	0.0915	,	0.0915	,	0.0926	,	0.0926	,	0.0918	,	0.0918	,	0.09
RayTracing	,	0.1493	,	0.1493	,	0.1425	,	0.1425	,	0.1431	,	0.1431	,	0.1428	,	0.1428	,	0.0594	,	0.0594	,	0.1552	,	0.0702	,	0.0702	,	0.0949	,	0.0949	,	0.1384	,	0.1384	,	0.1391	,	0.1391	,	0.1398	,	0.1398	,	0.07	,	0.1388	,	0.1388	,	0.1368	,	0.1368	,	0.1386	,	0.1386	,	0.1379	,	0.1379	,	0.1365	,	0.1365	,	0.1587	,	0.1394	,	0.1394	,	0.1409	,	0.1409	,	0.1415	,	0.1415	,	0.1406	,	0.1406	,	0.1419	,	0.1419	,	0.1429	,	0.1404	,	0.1404	,	0.1453	,	0.1453	,	0.1397	,	0.1397	,	0.1401	,	0.1401	,	0.1399	,	0.1399	,	0.1411	,	0.1467	,	0.1467	,	0.145	,	0.145	,	0.1397	,	0.1397	,	0.1391	,	0.1391	,	0.0782	,	0.0782	,	0.1615	,	0.1206	,	0.1206	,	0.0444	,	0.0444	,	0.1465	,	0.1465	,	0.1399	,	0.1399	,	0.14	,	0.14	,	0.1611	,	0.1397	,	0.1397	,	0.1405	,	0.1405	,	0.1492	,	0.1492	,	0.1411	,	0.1411	,	0.1626	,	0.1626	,	0.1035	,	0.1401	,	0.1401	,	0.1402	,	0.1402	,	0.1393	,	0.1393	,	0.1626	,	0.1626	,	0.1463	,	0.1463	,	0.0726	,	0.1579	,	0.1579	,	0.1593	,	0.1593	,	0.1583	,	0.1583	,	0.1402	,	0.1402	,	0.1386	,	0.1386	,	0.1388
RayTracingGpu	,	2.60589	,	2.60589	,	2.3473	,	2.3473	,	3.14042	,	3.14042	,	4.75558	,	4.75558	,	3.48938	,	3.48938	,	2.42349	,	3.22573	,	3.22573	,	2.50902	,	2.50902	,	3.37146	,	3.37146	,	3.95274	,	3.95274	,	3.84435	,	3.84435	,	2.67037	,	3.8448	,	3.8448	,	2.68224	,	2.68224	,	4.088	,	4.088	,	4.49232	,	4.49232	,	5.17088	,	5.17088	,	2.92461	,	4.31968	,	4.31968	,	2.84448	,	2.84448	,	4.32355	,	4.32355	,	5.8855	,	5.8855	,	5.56698	,	5.56698	,	3.14758	,	4.70883	,	4.70883	,	2.99363	,	2.99363	,	4.88819	,	4.88819	,	6.82198	,	6.82198	,	6.37709	,	6.37709	,	3.4175	,	5.13674	,	5.13674	,	3.16669	,	3.16669	,	5.22768	,	5.22768	,	7.17293	,	7.17293	,	7.0073	,	7.0073	,	3.66294	,	5.42362	,	5.42362	,	3.32502	,	3.32502	,	5.45651	,	5.45651	,	7.62336	,	7.62336	,	7.48534	,	7.48534	,	3.95882	,	5.71702	,	5.71702	,	3.4952	,	3.4952	,	5.7743	,	5.7743	,	8.41638	,	8.41638	,	7.98637	,	7.98637	,	4.30128	,	5.50426	,	5.50426	,	5.50826	,	5.50826	,	8.51482	,	8.51482	,	9.11859	,	9.11859	,	5.73523	,	5.73523	,	4.65661	,	4.51066	,	4.51066	,	6.16602	,	6.16602	,	9.51466	,	9.51466	,	9.84006	,	9.84006	,	5.38397	,	5.38397	,	5.10806
DeferredRLGpu	,	0.08912	,	0.08912	,	0.047648	,	0.047648	,	0.179808	,	0.179808	,	0.316544	,	0.316544	,	0.26544	,	0.26544	,	0.070304	,	0.200256	,	0.200256	,	0.086784	,	0.086784	,	0.238976	,	0.238976	,	0.303008	,	0.303008	,	0.386336	,	0.386336	,	0.155712	,	0.332992	,	0.332992	,	0.132576	,	0.132576	,	0.402784	,	0.402784	,	0.440032	,	0.440032	,	0.706336	,	0.706336	,	0.2264	,	0.465056	,	0.465056	,	0.181216	,	0.181216	,	0.495488	,	0.495488	,	0.804864	,	0.804864	,	0.89024	,	0.89024	,	0.301792	,	0.587008	,	0.587008	,	0.228128	,	0.228128	,	0.70176	,	0.70176	,	1.00704	,	1.00704	,	1.20198	,	1.20198	,	0.39536	,	0.74	,	0.74	,	0.291104	,	0.291104	,	0.821344	,	0.821344	,	1.12147	,	1.12147	,	1.41466	,	1.41466	,	0.510112	,	0.880512	,	0.880512	,	0.357344	,	0.357344	,	1.03206	,	1.03206	,	1.32502	,	1.32502	,	1.71494	,	1.71494	,	0.64176	,	1.03136	,	1.03136	,	0.42448	,	0.42448	,	1.19632	,	1.19632	,	1.70563	,	1.70563	,	1.96845	,	1.96845	,	0.80176	,	0.971456	,	0.971456	,	1.09491	,	1.09491	,	1.87373	,	1.87373	,	2.33798	,	2.33798	,	1.27149	,	1.27149	,	0.975552	,	0.813696	,	0.813696	,	1.45296	,	1.45296	,	2.20285	,	2.20285	,	2.88643	,	2.88643	,	1.29059	,	1.29059	,	1.196
RayTracingRLGpu	,	0.37312	,	0.37312	,	0.18256	,	0.18256	,	0.743488	,	0.743488	,	2.07872	,	2.07872	,	0.989632	,	0.989632	,	0.223712	,	0.829344	,	0.829344	,	0.295776	,	0.295776	,	0.92048	,	0.92048	,	1.38378	,	1.38378	,	1.2295	,	1.2295	,	0.384224	,	1.31354	,	1.31354	,	0.414752	,	0.414752	,	1.44112	,	1.44112	,	1.7808	,	1.7808	,	2.18861	,	2.18861	,	0.553792	,	1.63254	,	1.63254	,	0.531328	,	0.531328	,	1.58342	,	1.58342	,	2.74074	,	2.74074	,	2.4033	,	2.4033	,	0.70688	,	1.9129	,	1.9129	,	0.628352	,	0.628352	,	1.9145	,	1.9145	,	3.4751	,	3.4751	,	2.8848	,	2.8848	,	0.864448	,	2.18477	,	2.18477	,	0.725664	,	0.725664	,	2.15888	,	2.15888	,	3.72208	,	3.72208	,	3.32134	,	3.32134	,	1.00669	,	2.33136	,	2.33136	,	0.823488	,	0.823488	,	2.15827	,	2.15827	,	3.98109	,	3.98109	,	3.48326	,	3.48326	,	1.16227	,	2.45466	,	2.45466	,	0.926272	,	0.926272	,	2.31238	,	2.31238	,	4.33706	,	4.33706	,	3.73792	,	3.73792	,	1.32918	,	2.31894	,	2.31894	,	2.1999	,	2.1999	,	4.24086	,	4.24086	,	4.43914	,	4.43914	,	2.25654	,	2.25654	,	1.50912	,	1.52851	,	1.52851	,	2.48646	,	2.48646	,	4.94899	,	4.94899	,	4.6065	,	4.6065	,	1.91574	,	1.91574	,	1.72099
ResolveRLGpu	,	2.14202	,	2.14202	,	2.11478	,	2.11478	,	2.21536	,	2.21536	,	2.35674	,	2.35674	,	2.23187	,	2.23187	,	2.1281	,	2.19376	,	2.19376	,	2.12403	,	2.12403	,	2.21046	,	2.21046	,	2.26355	,	2.26355	,	2.22598	,	2.22598	,	2.12858	,	2.19571	,	2.19571	,	2.13267	,	2.13267	,	2.24243	,	2.24243	,	2.2697	,	2.2697	,	2.27437	,	2.27437	,	2.14208	,	2.21955	,	2.21955	,	2.1295	,	2.1295	,	2.24205	,	2.24205	,	2.33658	,	2.33658	,	2.27078	,	2.27078	,	2.13728	,	2.2073	,	2.2073	,	2.13549	,	2.13549	,	2.26941	,	2.26941	,	2.33811	,	2.33811	,	2.28851	,	2.28851	,	2.15446	,	2.21037	,	2.21037	,	2.14733	,	2.14733	,	2.24403	,	2.24403	,	2.32659	,	2.32659	,	2.26877	,	2.26877	,	2.14352	,	2.21008	,	2.21008	,	2.14138	,	2.14138	,	2.26438	,	2.26438	,	2.31488	,	2.31488	,	2.2855	,	2.2855	,	2.1513	,	2.22813	,	2.22813	,	2.14173	,	2.14173	,	2.2639	,	2.2639	,	2.37094	,	2.37094	,	2.27763	,	2.27763	,	2.16874	,	2.21146	,	2.21146	,	2.21171	,	2.21171	,	2.39779	,	2.39779	,	2.3399	,	2.3399	,	2.20381	,	2.20381	,	2.17024	,	2.16592	,	2.16592	,	2.22317	,	2.22317	,	2.36118	,	2.36118	,	2.34461	,	2.34461	,	2.17587	,	2.17587	,	2.18864
Index	,	0	,	1	,	2	,	3	,	4	,	5	,	6	,	7	,	8	,	9	,	10	,	11	,	12	,	13	,	14	,	15	,	16	,	17	,	18	,	19	,	20	,	21	,	22	,	23	,	24	,	25	,	26	,	27	,	28	,	29	,	30	,	31	,	32	,	33	,	34	,	35	,	36	,	37	,	38	,	39	,	40	,	41	,	42	,	43	,	44	,	45	,	46	,	47	,	48	,	49	,	50	,	51	,	52	,	53	,	54	,	55	,	56	,	57	,	58	,	59	,	60	,	61	,	62	,	63	,	64	,	65	,	66	,	67	,	68	,	69	,	70	,	71	,	72	,	73	,	74	,	75	,	76	,	77	,	78	,	79	,	80	,	81	,	82	,	83	,	84	,	85	,	86	,	87	,	88	,	89	,	90	,	91	,	92	,	93	,	94	,	95	,	96	,	97	,	98	,	99	,	100	,	101	,	102	,	103	,	104	,	105	,	106	,	107	,	108	,	109

ProfilingBuildAggregator: 
BuildBottomLevelAS	,	0.7765	,	1.9673	,	6.8706	,	17.9145	,	30.0701	,	55.3163	,	111.098	,	124.651	,	168.862	,	226.709
BuildBottomLevelASGpu	,	0.443488	,	3.65203	,	11.7784	,	27.848	,	53.5906	,	92.7698	,	147.194	,	219.361	,	312.38	,	428.689
BuildTopLevelAS	,	0.7748	,	0.6102	,	0.4969	,	0.7775	,	0.7188	,	0.6174	,	0.6927	,	0.7244	,	0.6212	,	0.6952
BuildTopLevelASGpu	,	0.06368	,	0.068544	,	0.093888	,	0.101216	,	0.129504	,	0.178048	,	0.168736	,	0.1344	,	0.185376	,	0.192192
Duplication	,	1	,	2	,	3	,	4	,	5	,	6	,	7	,	8	,	9	,	10
Triangles	,	3936	,	31488	,	106272	,	251904	,	492000	,	850176	,	1350048	,	2015232	,	2869344	,	3936000
Meshes	,	1	,	8	,	27	,	64	,	125	,	216	,	343	,	512	,	729	,	1000
BottomLevels	,	1	,	8	,	27	,	64	,	125	,	216	,	343	,	512	,	729	,	1000
TopLevelSize	,	64	,	512	,	1728	,	4096	,	8000	,	13824	,	21952	,	32768	,	46656	,	64000
BottomLevelsSize	,	282112	,	2256896	,	7617024	,	18055168	,	35264000	,	60936192	,	96764416	,	144441344	,	205659648	,	282112000
Index	,	0	,	1	,	2	,	3	,	4	,	5	,	6	,	7	,	8	,	9

FpsAggregator: 
FPS	,	336	,	336	,	312	,	312	,	317	,	317	,	236	,	236	,	205	,	205	,	321	,	309	,	309	,	270	,	270	,	285	,	285	,	220	,	220	,	208	,	208	,	262	,	286	,	286	,	236	,	236	,	257	,	257	,	196	,	196	,	175	,	175	,	230	,	268	,	268	,	217	,	217	,	240	,	240	,	167	,	167	,	143	,	143	,	207	,	251	,	251	,	203	,	203	,	227	,	227	,	151	,	151	,	135	,	135	,	192	,	237	,	237	,	189	,	189	,	212	,	212	,	133	,	133	,	125	,	125	,	181	,	225	,	225	,	178	,	178	,	204	,	204	,	131	,	131	,	117	,	117	,	166	,	214	,	214	,	168	,	168	,	193	,	193	,	121	,	121	,	110	,	110	,	157	,	150	,	150	,	202	,	202	,	133	,	133	,	104	,	104	,	119	,	119	,	186	,	142	,	142	,	185	,	185	,	115	,	115	,	98	,	98	,	124	,	124	,	174
UPS	,	60	,	60	,	60	,	60	,	60	,	60	,	60	,	60	,	60	,	60	,	60	,	60	,	60	,	61	,	61	,	60	,	60	,	60	,	60	,	60	,	60	,	60	,	60	,	60	,	61	,	61	,	60	,	60	,	60	,	60	,	60	,	60	,	60	,	60	,	60	,	60	,	60	,	61	,	61	,	60	,	60	,	60	,	60	,	60	,	61	,	61	,	60	,	60	,	60	,	60	,	60	,	60	,	60	,	60	,	60	,	60	,	60	,	60	,	60	,	60	,	60	,	60	,	60	,	61	,	61	,	60	,	60	,	60	,	60	,	60	,	60	,	60	,	60	,	60	,	60	,	60	,	61	,	60	,	60	,	61	,	61	,	60	,	60	,	60	,	60	,	61	,	61	,	60	,	60	,	60	,	60	,	60	,	60	,	60	,	61	,	61	,	60	,	60	,	60	,	60	,	60	,	61	,	61	,	60	,	60	,	60	,	60	,	61	,	61	,	60
FrameTime	,	2.97904	,	2.97904	,	3.20939	,	3.20939	,	3.16548	,	3.16548	,	4.23899	,	4.23899	,	4.88338	,	4.88338	,	3.11823	,	3.24314	,	3.24314	,	3.71129	,	3.71129	,	3.51428	,	3.51428	,	4.54898	,	4.54898	,	4.82152	,	4.82152	,	3.82484	,	3.50138	,	3.50138	,	4.2463	,	4.2463	,	3.89406	,	3.89406	,	5.12374	,	5.12374	,	5.73915	,	5.73915	,	4.3548	,	3.73253	,	3.73253	,	4.61798	,	4.61798	,	4.18501	,	4.18501	,	6.00943	,	6.00943	,	6.99912	,	6.99912	,	4.83131	,	4.00254	,	4.00254	,	4.94273	,	4.94273	,	4.40585	,	4.40585	,	6.62946	,	6.62946	,	7.43639	,	7.43639	,	5.20904	,	4.2316	,	4.2316	,	5.30273	,	5.30273	,	4.73985	,	4.73985	,	7.5498	,	7.5498	,	8.05604	,	8.05604	,	5.54702	,	4.46968	,	4.46968	,	5.61945	,	5.61945	,	4.91668	,	4.91668	,	7.68053	,	7.68053	,	8.56395	,	8.56395	,	6.04712	,	4.67954	,	4.67954	,	5.95546	,	5.95546	,	5.21086	,	5.21086	,	8.33661	,	8.33661	,	9.16404	,	9.16404	,	6.39859	,	6.68605	,	6.68605	,	4.97527	,	4.97527	,	7.53234	,	7.53234	,	9.68867	,	9.68867	,	8.44192	,	8.44192	,	5.38427	,	7.07789	,	7.07789	,	5.43031	,	5.43031	,	8.76905	,	8.76905	,	10.259	,	10.259	,	8.08135	,	8.08135	,	5.75519
GigaRays/s	,	15.8745	,	15.8745	,	14.7352	,	14.7352	,	14.9396	,	14.9396	,	11.1562	,	11.1562	,	9.68405	,	9.68405	,	15.1659	,	14.5818	,	14.5818	,	12.7424	,	12.7424	,	13.4568	,	13.4568	,	10.3959	,	10.3959	,	9.80829	,	9.80829	,	12.3642	,	13.5063	,	13.5063	,	11.137	,	11.137	,	12.1444	,	12.1444	,	9.22976	,	9.22976	,	8.24004	,	8.24004	,	10.8595	,	12.6699	,	12.6699	,	10.2406	,	10.2406	,	11.3001	,	11.3001	,	7.86945	,	7.86945	,	6.75669	,	6.75669	,	9.78842	,	11.8152	,	11.8152	,	9.56776	,	9.56776	,	10.7337	,	10.7337	,	7.13344	,	7.13344	,	6.35939	,	6.35939	,	9.07861	,	11.1756	,	11.1756	,	8.91821	,	8.91821	,	9.97729	,	9.97729	,	6.26386	,	6.26386	,	5.87024	,	5.87024	,	8.52545	,	10.5804	,	10.5804	,	8.41557	,	8.41557	,	9.61846	,	9.61846	,	6.15724	,	6.15724	,	5.52209	,	5.52209	,	7.82039	,	10.1059	,	10.1059	,	7.94076	,	7.94076	,	9.07545	,	9.07545	,	5.67267	,	5.67267	,	5.16048	,	5.16048	,	7.39083	,	7.07307	,	7.07307	,	9.50519	,	9.50519	,	6.27838	,	6.27838	,	4.88105	,	4.88105	,	5.60191	,	5.60191	,	8.78316	,	6.6815	,	6.6815	,	8.70868	,	8.70868	,	5.39293	,	5.39293	,	4.60969	,	4.60969	,	5.85186	,	5.85186	,	8.21708
Duplication	,	1	,	1	,	1	,	1	,	1	,	1	,	1	,	1	,	1	,	1	,	1	,	2	,	2	,	2	,	2	,	2	,	2	,	2	,	2	,	2	,	2	,	2	,	3	,	3	,	3	,	3	,	3	,	3	,	3	,	3	,	3	,	3	,	3	,	4	,	4	,	4	,	4	,	4	,	4	,	4	,	4	,	4	,	4	,	4	,	5	,	5	,	5	,	5	,	5	,	5	,	5	,	5	,	5	,	5	,	5	,	6	,	6	,	6	,	6	,	6	,	6	,	6	,	6	,	6	,	6	,	6	,	7	,	7	,	7	,	7	,	7	,	7	,	7	,	7	,	7	,	7	,	7	,	8	,	8	,	8	,	8	,	8	,	8	,	8	,	8	,	8	,	8	,	8	,	9	,	9	,	9	,	9	,	9	,	9	,	9	,	9	,	9	,	9	,	9	,	10	,	10	,	10	,	10	,	10	,	10	,	10	,	10	,	10	,	10	,	10
Index	,	0	,	1	,	2	,	3	,	4	,	5	,	6	,	7	,	8	,	9	,	10	,	11	,	12	,	13	,	14	,	15	,	16	,	17	,	18	,	19	,	20	,	21	,	22	,	23	,	24	,	25	,	26	,	27	,	28	,	29	,	30	,	31	,	32	,	33	,	34	,	35	,	36	,	37	,	38	,	39	,	40	,	41	,	42	,	43	,	44	,	45	,	46	,	47	,	48	,	49	,	50	,	51	,	52	,	53	,	54	,	55	,	56	,	57	,	58	,	59	,	60	,	61	,	62	,	63	,	64	,	65	,	66	,	67	,	68	,	69	,	70	,	71	,	72	,	73	,	74	,	75	,	76	,	77	,	78	,	79	,	80	,	81	,	82	,	83	,	84	,	85	,	86	,	87	,	88	,	89	,	90	,	91	,	92	,	93	,	94	,	95	,	96	,	97	,	98	,	99	,	100	,	101	,	102	,	103	,	104	,	105	,	106	,	107	,	108	,	109


AccelerationStructure: 
Ray tracing acceleration structure building statistics: 
	Bottom Level Acceleration Structure: 
		Maximum [B]: 282112
		Minimum [B]: 282112
		Currently Allocated [B]: 282112000
		Currently Created [num]: 1000
		Current Average [B]: 282112
		Maximum Triangles [num]: 3936
		Minimum Triangles [num]: 3936
		Total Triangles [num]: 3936000
		Maximum Meshes [num]: 1
		Minimum Meshes [num]: 1
		Total Meshes [num]: 1000
	Top Level Acceleration Structure: 
		Maximum [B]: 64000
		Minimum [B]: 64000
		Currently Allocated [B]: 64000
		Total Allocated [B]: 64000
		Total Created [num]: 1
		Average Allocated [B]: 64000
		Maximum Instances [num]: 1000
		Minimum Instances [num]: 1000
		Total Instances [num]: 1000
	Scratch Buffer: 
		Maximum [B]: 82944
		Minimum [B]: 82944
		Currently Allocated [B]: 82944
		Total Allocated [B]: 82944
		Total Created [num]: 1
		Average Allocated [B]: 82944
ProfilingStack: 
[PROF] Profiling statistics: 
	Scopes entered : 327786
	Scopes exited : 327785
	Overhead per scope [ticks] : 102.7
	Threads entered : 3
	Threads exited : 0
	============================
		         Sum[Mt]   Parent[%]  Samples[num]       Avg[Mt]   Last/Curr[Mt]        Self[Mt]     Self[%] 	 Name

	main:

		   91733.630 Mt   100.000 %         1 x    91733.630 Mt    91733.630 Mt        0.338 Mt     0.000 % 	 /

		   91733.322 Mt   100.000 %         1 x    91733.323 Mt    91733.322 Mt      314.211 Mt     0.343 % 	 ./Main application loop

		       2.292 Mt     0.002 %         1 x        2.292 Mt        0.000 Mt        2.292 Mt   100.000 % 	 ../TexturedRLInitialization

		       1.287 Mt     0.001 %         1 x        1.287 Mt        0.000 Mt        1.287 Mt   100.000 % 	 ../ShadowMapRLInitialization

		       4.569 Mt     0.005 %         1 x        4.569 Mt        0.000 Mt        4.569 Mt   100.000 % 	 ../RasterResolveRLInitialization

		       3.486 Mt     0.004 %         1 x        3.486 Mt        0.000 Mt        3.486 Mt   100.000 % 	 ../ResolveRLInitialization

		   91241.186 Mt    99.464 %    105867 x        0.862 Mt        5.717 Mt     1045.131 Mt     1.145 % 	 ../MainLoop

		     506.754 Mt     0.555 %      5474 x        0.093 Mt        0.110 Mt      506.482 Mt    99.946 % 	 .../Update

		       0.272 Mt     0.054 %         1 x        0.272 Mt        0.000 Mt        0.272 Mt   100.000 % 	 ..../GuiModelApply

		   89689.300 Mt    98.299 %     16624 x        5.395 Mt        5.605 Mt     1316.524 Mt     1.468 % 	 .../Render

		    5255.386 Mt     5.860 %     16624 x        0.316 Mt        0.151 Mt       85.296 Mt     1.623 % 	 ..../RayTracing

		     984.775 Mt    18.738 %     16624 x        0.059 Mt        0.063 Mt      952.134 Mt    96.685 % 	 ...../Deferred

		      32.641 Mt     3.315 %     16624 x        0.002 Mt        0.000 Mt       10.322 Mt    31.623 % 	 ....../DeferredRLPrep

		      22.319 Mt    68.377 %        18 x        1.240 Mt        0.000 Mt       13.319 Mt    59.679 % 	 ......./PrepareForRendering

		       0.627 Mt     2.808 %        18 x        0.035 Mt        0.000 Mt        0.627 Mt   100.000 % 	 ......../PrepareMaterials

		       0.004 Mt     0.017 %        18 x        0.000 Mt        0.000 Mt        0.004 Mt   100.000 % 	 ......../BuildMaterialCache

		       8.369 Mt    37.497 %        18 x        0.465 Mt        0.000 Mt        8.369 Mt   100.000 % 	 ......../PrepareDrawBundle

		    3763.153 Mt    71.606 %     16624 x        0.226 Mt        0.053 Mt      789.799 Mt    20.988 % 	 ...../RayCasting

		    2973.354 Mt    79.012 %     16624 x        0.179 Mt        0.000 Mt       34.899 Mt     1.174 % 	 ....../RayTracingRLPrep

		     957.432 Mt    32.200 %        18 x       53.191 Mt        0.000 Mt      957.432 Mt   100.000 % 	 ......./PrepareAccelerationStructures

		       0.272 Mt     0.009 %        18 x        0.015 Mt        0.000 Mt        0.272 Mt   100.000 % 	 ......./PrepareCache

		     335.468 Mt    11.282 %        18 x       18.637 Mt        0.000 Mt      335.468 Mt   100.000 % 	 ......./PipelineBuild

		       0.003 Mt     0.000 %        18 x        0.000 Mt        0.000 Mt        0.003 Mt   100.000 % 	 ......./BuildCache

		    1613.319 Mt    54.259 %        18 x       89.629 Mt        0.000 Mt        0.012 Mt     0.001 % 	 ......./BuildAccelerationStructures

		    1613.307 Mt    99.999 %        18 x       89.628 Mt        0.000 Mt       78.622 Mt     4.873 % 	 ......../AccelerationStructureBuild

		    1521.111 Mt    94.285 %        18 x       84.506 Mt        0.000 Mt     1521.111 Mt   100.000 % 	 ........./BuildBottomLevelAS

		      13.574 Mt     0.841 %        18 x        0.754 Mt        0.000 Mt       13.574 Mt   100.000 % 	 ........./BuildTopLevelAS

		      31.961 Mt     1.075 %        18 x        1.776 Mt        0.000 Mt       31.961 Mt   100.000 % 	 ......./BuildShaderTables

		     422.162 Mt     8.033 %     16624 x        0.025 Mt        0.029 Mt      422.162 Mt   100.000 % 	 ...../Resolve

		   83117.391 Mt    92.673 %     16624 x        5.000 Mt        5.366 Mt    83117.391 Mt   100.000 % 	 ..../Present

		       2.745 Mt     0.003 %         1 x        2.745 Mt        0.000 Mt        2.745 Mt   100.000 % 	 ../AmbientOcclusionRLInitialization

		       4.938 Mt     0.005 %         1 x        4.938 Mt        0.000 Mt        4.938 Mt   100.000 % 	 ../DeferredRLInitialization

		      50.074 Mt     0.055 %         1 x       50.074 Mt        0.000 Mt        2.254 Mt     4.501 % 	 ../RayTracingRLInitialization

		      47.820 Mt    95.499 %         1 x       47.820 Mt        0.000 Mt       47.820 Mt   100.000 % 	 .../PipelineBuild

		     108.535 Mt     0.118 %         1 x      108.535 Mt        0.000 Mt        0.509 Mt     0.469 % 	 ../Initialization

		     108.026 Mt    99.531 %         1 x      108.026 Mt        0.000 Mt        1.076 Mt     0.996 % 	 .../ScenePrep

		      62.720 Mt    58.059 %         1 x       62.720 Mt        0.000 Mt       15.357 Mt    24.485 % 	 ..../SceneLoad

		      39.452 Mt    62.902 %         1 x       39.452 Mt        0.000 Mt        8.765 Mt    22.217 % 	 ...../glTF-LoadScene

		      30.687 Mt    77.783 %         2 x       15.343 Mt        0.000 Mt       30.687 Mt   100.000 % 	 ....../glTF-LoadImageData

		       5.961 Mt     9.504 %         1 x        5.961 Mt        0.000 Mt        5.961 Mt   100.000 % 	 ...../glTF-CreateScene

		       1.950 Mt     3.110 %         1 x        1.950 Mt        0.000 Mt        1.950 Mt   100.000 % 	 ...../SceneDesc-CreateScene

		       0.306 Mt     0.283 %         1 x        0.306 Mt        0.000 Mt        0.000 Mt     0.131 % 	 ..../ShadowMapRLPrep

		       0.306 Mt    99.869 %         1 x        0.306 Mt        0.000 Mt        0.297 Mt    97.188 % 	 ...../PrepareForRendering

		       0.009 Mt     2.812 %         1 x        0.009 Mt        0.000 Mt        0.009 Mt   100.000 % 	 ....../PrepareDrawBundle

		       1.450 Mt     1.342 %         1 x        1.450 Mt        0.000 Mt        0.000 Mt     0.021 % 	 ..../TexturedRLPrep

		       1.450 Mt    99.979 %         1 x        1.450 Mt        0.000 Mt        1.445 Mt    99.717 % 	 ...../PrepareForRendering

		       0.001 Mt     0.062 %         1 x        0.001 Mt        0.000 Mt        0.001 Mt   100.000 % 	 ....../PrepareMaterials

		       0.003 Mt     0.221 %         1 x        0.003 Mt        0.000 Mt        0.003 Mt   100.000 % 	 ....../PrepareDrawBundle

		       1.374 Mt     1.272 %         1 x        1.374 Mt        0.000 Mt        0.001 Mt     0.036 % 	 ..../DeferredRLPrep

		       1.374 Mt    99.964 %         1 x        1.374 Mt        0.000 Mt        1.007 Mt    73.306 % 	 ...../PrepareForRendering

		       0.001 Mt     0.036 %         1 x        0.001 Mt        0.000 Mt        0.001 Mt   100.000 % 	 ....../PrepareMaterials

		       0.363 Mt    26.461 %         1 x        0.363 Mt        0.000 Mt        0.363 Mt   100.000 % 	 ....../BuildMaterialCache

		       0.003 Mt     0.197 %         1 x        0.003 Mt        0.000 Mt        0.003 Mt   100.000 % 	 ....../PrepareDrawBundle

		      26.200 Mt    24.253 %         1 x       26.200 Mt        0.000 Mt        2.844 Mt    10.855 % 	 ..../RayTracingRLPrep

		       0.045 Mt     0.170 %         1 x        0.045 Mt        0.000 Mt        0.045 Mt   100.000 % 	 ...../PrepareAccelerationStructures

		       0.001 Mt     0.003 %         1 x        0.001 Mt        0.000 Mt        0.001 Mt   100.000 % 	 ...../PrepareCache

		      17.184 Mt    65.590 %         1 x       17.184 Mt        0.000 Mt       17.184 Mt   100.000 % 	 ...../PipelineBuild

		       0.375 Mt     1.432 %         1 x        0.375 Mt        0.000 Mt        0.375 Mt   100.000 % 	 ...../BuildCache

		       4.256 Mt    16.243 %         1 x        4.256 Mt        0.000 Mt        0.000 Mt     0.009 % 	 ...../BuildAccelerationStructures

		       4.255 Mt    99.991 %         1 x        4.255 Mt        0.000 Mt        2.704 Mt    63.544 % 	 ....../AccelerationStructureBuild

		       0.776 Mt    18.248 %         1 x        0.776 Mt        0.000 Mt        0.776 Mt   100.000 % 	 ......./BuildBottomLevelAS

		       0.775 Mt    18.208 %         1 x        0.775 Mt        0.000 Mt        0.775 Mt   100.000 % 	 ......./BuildTopLevelAS

		       1.495 Mt     5.707 %         1 x        1.495 Mt        0.000 Mt        1.495 Mt   100.000 % 	 ...../BuildShaderTables

		      14.901 Mt    13.794 %         1 x       14.901 Mt        0.000 Mt       14.901 Mt   100.000 % 	 ..../GpuSidePrep

	WindowThread:

		   91732.872 Mt   100.000 %         1 x    91732.872 Mt    91732.872 Mt    91732.872 Mt   100.000 % 	 /

	GpuThread:

		   77653.955 Mt   100.000 %     16624 x        4.671 Mt        5.081 Mt      117.895 Mt     0.152 % 	 /

		       0.513 Mt     0.001 %         1 x        0.513 Mt        0.000 Mt        0.005 Mt     1.016 % 	 ./ScenePrep

		       0.508 Mt    98.984 %         1 x        0.508 Mt        0.000 Mt        0.001 Mt     0.214 % 	 ../AccelerationStructureBuild

		       0.443 Mt    87.257 %         1 x        0.443 Mt        0.000 Mt        0.443 Mt   100.000 % 	 .../BuildBottomLevelASGpu

		       0.064 Mt    12.529 %         1 x        0.064 Mt        0.000 Mt        0.064 Mt   100.000 % 	 .../BuildTopLevelASGpu

		   77499.717 Mt    99.801 %     16624 x        4.662 Mt        5.079 Mt       37.462 Mt     0.048 % 	 ./RayTracingGpu

		   10714.661 Mt    13.825 %     16624 x        0.645 Mt        1.189 Mt    10714.661 Mt   100.000 % 	 ../DeferredRLGpu

		   27364.000 Mt    35.309 %     16624 x        1.646 Mt        1.713 Mt    27364.000 Mt   100.000 % 	 ../RayTracingRLGpu

		   36786.454 Mt    47.467 %     16624 x        2.213 Mt        2.176 Mt    36786.454 Mt   100.000 % 	 ../ResolveRLGpu

		    2597.140 Mt     3.351 %        18 x      144.286 Mt        0.000 Mt        0.038 Mt     0.001 % 	 ../AccelerationStructureBuild

		    2594.601 Mt    99.902 %        18 x      144.145 Mt        0.000 Mt     2594.601 Mt   100.000 % 	 .../BuildBottomLevelASGpu

		       2.500 Mt     0.096 %        18 x        0.139 Mt        0.000 Mt        2.500 Mt   100.000 % 	 .../BuildTopLevelASGpu

		      35.829 Mt     0.046 %     16624 x        0.002 Mt        0.002 Mt       35.829 Mt   100.000 % 	 ./Present


	============================


