Configuration: 
Command line parameters  = E:\programming\FIT-DIP\Masters-DXR-Main-git\build\Measurement\x64\Release\Measurement.exe --scene Sponza/Sponza.gltf --duplication-cube --duplication-offset 0 --profile-triangles --profile-camera-track Sponza/SponzaFast.trk --profile-max-duplication 7 --rt-mode-pure --width 1024 --height 768 --profile-output TrianglesSponzaNoOffset768Rp 
Build type               = Release
Device name              = NVIDIA GeForce RTX 2080 Ti
Device memory MB         = 11049
Ray Tracing backend      = Hardware
Window width             = 1024
Window height            = 768
Window title             = Direct3D App
Back-buffer count        = 3
Fill Triangles           = enabled
Triangles Font Clock-Wise= enabled
Fast Build AS            = disabled
Target FPS               = 0
Target UPS               = 60
Tearing                  = enabled
VSync                    = disabled
GUI rendering            = disabled
Debug layer              = disabled
GPU validation           = disabled
GPU profiling            = enabled
Render mode              = Ray Tracing
Loaded scene file        = Sponza/Sponza.gltf
Using testing scene      = disabled
Duplication              = 7
Duplication in cube      = enabled
Duplication offset       = 0
BLAS duplication         = enabled
Rays per pixel           = 14
Quality preset           = High
Rasterization Quality    : 
  AO                     = enabled
  AO kernel size         = 4
  Shadows                = enabled
  Shadow map resolution  = 4096
  Shadow PCF kernel size = 4
  Reflections            = enabled
Ray Tracing Quality      : 
  AO                     = enabled
  AO rays                = 4
  AO kernel size         = 4
  Shadows                = enabled
  Shadow rays            = 4
  Shadow kernel size     = 4
  Reflections            = enabled

ProfilingAggregator: 
Render	,	1.4286	,	1.4286	,	1.7423	,	1.7423	,	1.5682	,	1.5682	,	1.6345	,	1.6345	,	1.9833	,	1.9833	,	1.9213	,	5.4969	,	5.4969	,	5.5032	,	5.5032	,	4.7914	,	4.7914	,	4.4744	,	4.4744	,	6.3665	,	6.3665	,	5.85	,	17.3472	,	17.3472	,	17.0371	,	17.0371	,	14.5717	,	14.5717	,	13.8927	,	13.8927	,	21.8355	,	21.8355	,	19.0817	,	39.9672	,	39.9672	,	44.3644	,	44.3644	,	35.7708	,	35.7708	,	34.7673	,	34.7673	,	57.1116	,	57.1116	,	48.6691	,	94.1728	,	94.1728	,	96.8677	,	96.8677	,	74.6581	,	74.6581	,	119.627	,	119.627	,	119.127	,	119.127	,	110.67	,	180.694	,	180.694	,	147.466	,	147.466	,	132.821	,	132.821	,	281.733	,	281.733	,	218.398	,	218.398	,	209.724	,	262.396	,	262.396	,	229.99	,	229.99	,	430.582	,	430.582	,	364.107
Update	,	0.0576	,	0.0576	,	0.0646	,	0.0646	,	0.0605	,	0.0605	,	0.0666	,	0.0666	,	0.0657	,	0.0657	,	0.0636	,	0.0666	,	0.0666	,	0.0679	,	0.0679	,	0.0643	,	0.0643	,	0.0663	,	0.0663	,	0.0643	,	0.0643	,	0.0637	,	0.0663	,	0.0663	,	0.0665	,	0.0665	,	0.0646	,	0.0646	,	0.0669	,	0.0669	,	0.0466	,	0.0466	,	0.0664	,	0.0492	,	0.0492	,	0.0365	,	0.0365	,	0.0371	,	0.0371	,	0.0484	,	0.0484	,	0.0375	,	0.0375	,	0.0372	,	0.0081	,	0.0081	,	0.0364	,	0.0364	,	0.0369	,	0.0369	,	0.0365	,	0.0365	,	0.0364	,	0.0364	,	0.037	,	0.0378	,	0.0378	,	0.0371	,	0.0371	,	0.0251	,	0.0251	,	0.0356	,	0.0356	,	0.0368	,	0.0368	,	0.0366	,	0.0391	,	0.0391	,	0.038	,	0.038	,	0.0377	,	0.0377	,	0.038
RayTracing	,	0.0555	,	0.0555	,	0.1032	,	0.1032	,	0.0416	,	0.0416	,	0.0681	,	0.0681	,	0.0717	,	0.0717	,	0.0762	,	0.0695	,	0.0695	,	0.0725	,	0.0725	,	0.0717	,	0.0717	,	0.0722	,	0.0722	,	0.0597	,	0.0597	,	0.0724	,	0.0726	,	0.0726	,	0.0722	,	0.0722	,	0.076	,	0.076	,	0.0723	,	0.0723	,	0.0731	,	0.0731	,	0.07	,	0.0731	,	0.0731	,	0.0708	,	0.0708	,	0.0691	,	0.0691	,	0.0693	,	0.0693	,	0.071	,	0.071	,	0.0714	,	0.0592	,	0.0592	,	0.0726	,	0.0726	,	0.0958	,	0.0958	,	0.0719	,	0.0719	,	0.0873	,	0.0873	,	0.0825	,	0.0807	,	0.0807	,	0.0898	,	0.0898	,	0.0847	,	0.0847	,	0.108	,	0.108	,	0.1001	,	0.1001	,	0.1021	,	0.0964	,	0.0964	,	0.0964	,	0.0964	,	0.1007	,	0.1007	,	0.0995
RayTracingGpu	,	1.12576	,	1.12576	,	1.28189	,	1.28189	,	1.31658	,	1.31658	,	1.24403	,	1.24403	,	1.51392	,	1.51392	,	1.46925	,	5.01789	,	5.01789	,	4.99638	,	4.99638	,	4.34048	,	4.34048	,	4.0353	,	4.0353	,	6.02019	,	6.02019	,	5.47197	,	16.8967	,	16.8967	,	16.5997	,	16.5997	,	14.1383	,	14.1383	,	13.4876	,	13.4876	,	21.3895	,	21.3895	,	18.649	,	39.5189	,	39.5189	,	43.8746	,	43.8746	,	35.3659	,	35.3659	,	34.3295	,	34.3295	,	56.6714	,	56.6714	,	48.1782	,	93.7756	,	93.7756	,	96.4107	,	96.4107	,	74.1222	,	74.1222	,	119.214	,	119.214	,	118.575	,	118.575	,	110.189	,	180.202	,	180.202	,	146.911	,	146.911	,	132.277	,	132.277	,	281.062	,	281.062	,	217.74	,	217.74	,	209.003	,	261.815	,	261.815	,	229.481	,	229.481	,	430.003	,	430.003	,	363.41
RayTracingRLGpu	,	1.12486	,	1.12486	,	1.28042	,	1.28042	,	1.31587	,	1.31587	,	1.2433	,	1.2433	,	1.51325	,	1.51325	,	1.46774	,	5.01642	,	5.01642	,	4.99488	,	4.99488	,	4.33984	,	4.33984	,	4.03443	,	4.03443	,	6.01853	,	6.01853	,	5.47037	,	16.8951	,	16.8951	,	16.5991	,	16.5991	,	14.1374	,	14.1374	,	13.4868	,	13.4868	,	21.3889	,	21.3889	,	18.6483	,	39.5182	,	39.5182	,	43.8731	,	43.8731	,	35.365	,	35.365	,	34.3288	,	34.3288	,	56.6705	,	56.6705	,	48.1765	,	93.7739	,	93.7739	,	96.41	,	96.41	,	74.1215	,	74.1215	,	119.214	,	119.214	,	118.574	,	118.574	,	110.188	,	180.201	,	180.201	,	146.91	,	146.91	,	132.276	,	132.276	,	281.061	,	281.061	,	217.739	,	217.739	,	209.002	,	261.814	,	261.814	,	229.479	,	229.479	,	430.002	,	430.002	,	363.41
Index	,	0	,	1	,	2	,	3	,	4	,	5	,	6	,	7	,	8	,	9	,	10	,	11	,	12	,	13	,	14	,	15	,	16	,	17	,	18	,	19	,	20	,	21	,	22	,	23	,	24	,	25	,	26	,	27	,	28	,	29	,	30	,	31	,	32	,	33	,	34	,	35	,	36	,	37	,	38	,	39	,	40	,	41	,	42	,	43	,	44	,	45	,	46	,	47	,	48	,	49	,	50	,	51	,	52	,	53	,	54	,	55	,	56	,	57	,	58	,	59	,	60	,	61	,	62	,	63	,	64	,	65	,	66	,	67	,	68	,	69	,	70	,	71	,	72

ProfilingBuildAggregator: 
BuildBottomLevelAS	,	1.5813	,	8.855	,	28.3836	,	69.3951	,	148.641	,	235.327	,	406.799
BuildBottomLevelASGpu	,	2.5095	,	14.2313	,	47.8808	,	113.264	,	221.646	,	382.067	,	606.909
BuildTopLevelAS	,	0.6707	,	0.8597	,	0.919	,	1.0996	,	1.1355	,	0.5942	,	1.6304
BuildTopLevelASGpu	,	0.21264	,	0.081024	,	0.166976	,	0.274688	,	0.349056	,	0.394432	,	0.47728
Duplication	,	1	,	2	,	3	,	4	,	5	,	6	,	7
Triangles	,	262267	,	2098136	,	7081209	,	16785088	,	32783375	,	56649672	,	89957581
Meshes	,	103	,	824	,	2781	,	6592	,	12875	,	22248	,	35329
BottomLevels	,	1	,	8	,	27	,	64	,	125	,	216	,	343
TopLevelSize	,	64	,	512	,	1728	,	4096	,	8000	,	13824	,	21952
BottomLevelsSize	,	18390656	,	147125248	,	496547712	,	1177001984	,	2298832000	,	3972381696	,	6307995008
Index	,	0	,	1	,	2	,	3	,	4	,	5	,	6

FpsAggregator: 
FPS	,	572	,	572	,	619	,	619	,	586	,	586	,	564	,	564	,	557	,	557	,	517	,	167	,	167	,	182	,	182	,	206	,	206	,	208	,	208	,	154	,	154	,	164	,	54	,	54	,	58	,	58	,	68	,	68	,	69	,	69	,	46	,	46	,	51	,	23	,	23	,	23	,	23	,	28	,	28	,	29	,	29	,	17	,	17	,	20	,	11	,	11	,	10	,	10	,	13	,	13	,	13	,	13	,	8	,	8	,	10	,	6	,	6	,	6	,	6	,	7	,	7	,	6	,	6	,	4	,	4	,	5	,	4	,	4	,	4	,	4	,	3	,	3	,	3
UPS	,	60	,	60	,	60	,	60	,	60	,	60	,	60	,	60	,	60	,	60	,	60	,	60	,	60	,	61	,	61	,	60	,	60	,	60	,	60	,	60	,	60	,	60	,	61	,	61	,	61	,	61	,	60	,	60	,	60	,	60	,	61	,	61	,	60	,	61	,	61	,	63	,	63	,	62	,	62	,	60	,	60	,	60	,	60	,	61	,	63	,	63	,	62	,	62	,	62	,	62	,	58	,	58	,	65	,	65	,	67	,	66	,	66	,	70	,	70	,	63	,	63	,	55	,	55	,	64	,	64	,	63	,	75	,	75	,	62	,	62	,	68	,	68	,	69
FrameTime	,	1.75015	,	1.75015	,	1.61702	,	1.61702	,	1.70896	,	1.70896	,	1.77338	,	1.77338	,	1.79655	,	1.79655	,	1.93586	,	6.0093	,	6.0093	,	5.52117	,	5.52117	,	4.867	,	4.867	,	4.82189	,	4.82189	,	6.51464	,	6.51464	,	6.12114	,	18.7545	,	18.7545	,	17.4013	,	17.4013	,	14.7877	,	14.7877	,	14.5381	,	14.5381	,	22.0092	,	22.0092	,	19.8031	,	43.7621	,	43.7621	,	45.3609	,	45.3609	,	36.5917	,	36.5917	,	34.5585	,	34.5585	,	60.7577	,	60.7577	,	50.3736	,	93.0608	,	93.0608	,	102.956	,	102.956	,	77.5373	,	77.5373	,	78.5344	,	78.5344	,	135.326	,	135.326	,	110.382	,	174.317	,	174.317	,	190.733	,	190.733	,	146.175	,	146.175	,	177.505	,	177.505	,	251.304	,	251.304	,	209.104	,	285.338	,	285.338	,	251.639	,	251.639	,	442.025	,	442.025	,	361.281
GigaRays/s	,	6.29093	,	6.29093	,	6.80884	,	6.80884	,	6.44253	,	6.44253	,	6.20851	,	6.20851	,	6.12843	,	6.12843	,	5.68743	,	1.83217	,	1.83217	,	1.99415	,	1.99415	,	2.26218	,	2.26218	,	2.28335	,	2.28335	,	1.69005	,	1.69005	,	1.79869	,	0.587061	,	0.587061	,	0.632715	,	0.632715	,	0.744541	,	0.744541	,	0.757324	,	0.757324	,	0.500248	,	0.500248	,	0.555975	,	0.251589	,	0.251589	,	0.242721	,	0.242721	,	0.300889	,	0.300889	,	0.318591	,	0.318591	,	0.181212	,	0.181212	,	0.218568	,	0.11831	,	0.11831	,	0.10694	,	0.10694	,	0.141997	,	0.141997	,	0.140194	,	0.140194	,	0.0813592	,	0.0813592	,	0.0997447	,	0.0631612	,	0.0631612	,	0.057725	,	0.057725	,	0.0753209	,	0.0753209	,	0.0620267	,	0.0620267	,	0.0438117	,	0.0438117	,	0.0526535	,	0.0385859	,	0.0385859	,	0.0437534	,	0.0437534	,	0.0249082	,	0.0249082	,	0.0304751
Duplication	,	1	,	1	,	1	,	1	,	1	,	1	,	1	,	1	,	1	,	1	,	1	,	2	,	2	,	2	,	2	,	2	,	2	,	2	,	2	,	2	,	2	,	2	,	3	,	3	,	3	,	3	,	3	,	3	,	3	,	3	,	3	,	3	,	3	,	4	,	4	,	4	,	4	,	4	,	4	,	4	,	4	,	4	,	4	,	4	,	5	,	5	,	5	,	5	,	5	,	5	,	5	,	5	,	5	,	5	,	5	,	6	,	6	,	6	,	6	,	6	,	6	,	6	,	6	,	6	,	6	,	6	,	7	,	7	,	7	,	7	,	7	,	7	,	7
Index	,	0	,	1	,	2	,	3	,	4	,	5	,	6	,	7	,	8	,	9	,	10	,	11	,	12	,	13	,	14	,	15	,	16	,	17	,	18	,	19	,	20	,	21	,	22	,	23	,	24	,	25	,	26	,	27	,	28	,	29	,	30	,	31	,	32	,	33	,	34	,	35	,	36	,	37	,	38	,	39	,	40	,	41	,	42	,	43	,	44	,	45	,	46	,	47	,	48	,	49	,	50	,	51	,	52	,	53	,	54	,	55	,	56	,	57	,	58	,	59	,	60	,	61	,	62	,	63	,	64	,	65	,	66	,	67	,	68	,	69	,	70	,	71	,	72


AccelerationStructure: 
Ray tracing acceleration structure building statistics: 
	Bottom Level Acceleration Structure: 
		Maximum [B]: 18390656
		Minimum [B]: 18390656
		Currently Allocated [B]: 6307995008
		Currently Created [num]: 343
		Current Average [B]: 18390656
		Maximum Triangles [num]: 262267
		Minimum Triangles [num]: 262267
		Total Triangles [num]: 89957581
		Maximum Meshes [num]: 103
		Minimum Meshes [num]: 103
		Total Meshes [num]: 35329
	Top Level Acceleration Structure: 
		Maximum [B]: 21952
		Minimum [B]: 21952
		Currently Allocated [B]: 21952
		Total Allocated [B]: 21952
		Total Created [num]: 1
		Average Allocated [B]: 21952
		Maximum Instances [num]: 343
		Minimum Instances [num]: 343
		Total Instances [num]: 343
	Scratch Buffer: 
		Maximum [B]: 14995072
		Minimum [B]: 14995072
		Currently Allocated [B]: 14995072
		Total Allocated [B]: 14995072
		Total Created [num]: 1
		Average Allocated [B]: 14995072
ProfilingStack: 
[PROF] Profiling statistics: 
	Scopes entered : 151155
	Scopes exited : 151154
	Overhead per scope [ticks] : 103.2
	Threads entered : 3
	Threads exited : 0
	============================
		         Sum[Mt]   Parent[%]  Samples[num]       Avg[Mt]   Last/Curr[Mt]        Self[Mt]     Self[%] 	 Name

	main:

		   67334.252 Mt   100.000 %         1 x    67334.253 Mt    67334.252 Mt        0.390 Mt     0.001 % 	 /

		   67333.894 Mt    99.999 %         1 x    67333.895 Mt    67333.893 Mt      261.733 Mt     0.389 % 	 ./Main application loop

		       1.965 Mt     0.003 %         1 x        1.965 Mt        0.000 Mt        1.965 Mt   100.000 % 	 ../TexturedRLInitialization

		       1.166 Mt     0.002 %         1 x        1.166 Mt        0.000 Mt        1.166 Mt   100.000 % 	 ../ShadowMapRLInitialization

		       4.441 Mt     0.007 %         1 x        4.441 Mt        0.000 Mt        4.441 Mt   100.000 % 	 ../RasterResolveRLInitialization

		       3.606 Mt     0.005 %         1 x        3.606 Mt        0.000 Mt        3.606 Mt   100.000 % 	 ../ResolveRLInitialization

		   64456.594 Mt    95.727 %     90406 x        0.713 Mt      376.729 Mt      608.474 Mt     0.944 % 	 ../MainLoop

		     269.617 Mt     0.418 %      3845 x        0.070 Mt        0.026 Mt      269.355 Mt    99.903 % 	 .../Update

		       0.262 Mt     0.097 %         1 x        0.262 Mt        0.000 Mt        0.262 Mt   100.000 % 	 ..../GuiModelApply

		   63578.503 Mt    98.638 %      7087 x        8.971 Mt      363.683 Mt      532.918 Mt     0.838 % 	 .../Render

		    2126.220 Mt     3.344 %      7087 x        0.300 Mt        0.104 Mt       31.262 Mt     1.470 % 	 ..../RayTracing

		    2094.958 Mt    98.530 %      7087 x        0.296 Mt        0.098 Mt      456.975 Mt    21.813 % 	 ...../RayCasting

		    1637.983 Mt    78.187 %      7087 x        0.231 Mt        0.000 Mt       18.941 Mt     1.156 % 	 ....../RayTracingRLPrep

		     299.347 Mt    18.275 %         8 x       37.418 Mt        0.000 Mt      299.347 Mt   100.000 % 	 ......./PrepareAccelerationStructures

		       0.043 Mt     0.003 %         8 x        0.005 Mt        0.000 Mt        0.043 Mt   100.000 % 	 ......./PrepareCache

		     181.383 Mt    11.074 %         8 x       22.673 Mt        0.000 Mt      181.383 Mt   100.000 % 	 ......./PipelineBuild

		       0.005 Mt     0.000 %         8 x        0.001 Mt        0.000 Mt        0.005 Mt   100.000 % 	 ......./BuildCache

		     988.289 Mt    60.336 %         8 x      123.536 Mt        0.000 Mt        0.006 Mt     0.001 % 	 ......./BuildAccelerationStructures

		     988.283 Mt    99.999 %         8 x      123.535 Mt        0.000 Mt       41.869 Mt     4.237 % 	 ......../AccelerationStructureBuild

		     938.524 Mt    94.965 %         8 x      117.315 Mt        0.000 Mt      938.524 Mt   100.000 % 	 ........./BuildBottomLevelAS

		       7.890 Mt     0.798 %         8 x        0.986 Mt        0.000 Mt        7.890 Mt   100.000 % 	 ........./BuildTopLevelAS

		     149.975 Mt     9.156 %         8 x       18.747 Mt        0.000 Mt      149.975 Mt   100.000 % 	 ......./BuildShaderTables

		   60919.364 Mt    95.818 %      7087 x        8.596 Mt      363.459 Mt    60919.364 Mt   100.000 % 	 ..../Present

		       2.629 Mt     0.004 %         1 x        2.629 Mt        0.000 Mt        2.629 Mt   100.000 % 	 ../AmbientOcclusionRLInitialization

		       5.040 Mt     0.007 %         1 x        5.040 Mt        0.000 Mt        5.040 Mt   100.000 % 	 ../DeferredRLInitialization

		      50.916 Mt     0.076 %         1 x       50.916 Mt        0.000 Mt        2.396 Mt     4.706 % 	 ../RayTracingRLInitialization

		      48.520 Mt    95.294 %         1 x       48.520 Mt        0.000 Mt       48.520 Mt   100.000 % 	 .../PipelineBuild

		    2545.804 Mt     3.781 %         1 x     2545.804 Mt        0.000 Mt        0.194 Mt     0.008 % 	 ../Initialization

		    2545.610 Mt    99.992 %         1 x     2545.610 Mt        0.000 Mt        1.900 Mt     0.075 % 	 .../ScenePrep

		    2485.527 Mt    97.640 %         1 x     2485.527 Mt        0.000 Mt      234.308 Mt     9.427 % 	 ..../SceneLoad

		    1982.719 Mt    79.771 %         1 x     1982.719 Mt        0.000 Mt      566.628 Mt    28.578 % 	 ...../glTF-LoadScene

		    1416.091 Mt    71.422 %        69 x       20.523 Mt        0.000 Mt     1416.091 Mt   100.000 % 	 ....../glTF-LoadImageData

		     240.296 Mt     9.668 %         1 x      240.296 Mt        0.000 Mt      240.296 Mt   100.000 % 	 ...../glTF-CreateScene

		      28.203 Mt     1.135 %         1 x       28.203 Mt        0.000 Mt       28.203 Mt   100.000 % 	 ...../SceneDesc-CreateScene

		       0.977 Mt     0.038 %         1 x        0.977 Mt        0.000 Mt        0.001 Mt     0.051 % 	 ..../ShadowMapRLPrep

		       0.977 Mt    99.949 %         1 x        0.977 Mt        0.000 Mt        0.933 Mt    95.537 % 	 ...../PrepareForRendering

		       0.044 Mt     4.463 %         1 x        0.044 Mt        0.000 Mt        0.044 Mt   100.000 % 	 ....../PrepareDrawBundle

		       3.208 Mt     0.126 %         1 x        3.208 Mt        0.000 Mt        0.001 Mt     0.016 % 	 ..../TexturedRLPrep

		       3.208 Mt    99.984 %         1 x        3.208 Mt        0.000 Mt        3.172 Mt    98.887 % 	 ...../PrepareForRendering

		       0.002 Mt     0.053 %         1 x        0.002 Mt        0.000 Mt        0.002 Mt   100.000 % 	 ....../PrepareMaterials

		       0.034 Mt     1.060 %         1 x        0.034 Mt        0.000 Mt        0.034 Mt   100.000 % 	 ....../PrepareDrawBundle

		       2.783 Mt     0.109 %         1 x        2.783 Mt        0.000 Mt        0.001 Mt     0.025 % 	 ..../DeferredRLPrep

		       2.782 Mt    99.975 %         1 x        2.782 Mt        0.000 Mt        2.280 Mt    81.961 % 	 ...../PrepareForRendering

		       0.001 Mt     0.022 %         1 x        0.001 Mt        0.000 Mt        0.001 Mt   100.000 % 	 ....../PrepareMaterials

		       0.338 Mt    12.152 %         1 x        0.338 Mt        0.000 Mt        0.338 Mt   100.000 % 	 ....../BuildMaterialCache

		       0.163 Mt     5.866 %         1 x        0.163 Mt        0.000 Mt        0.163 Mt   100.000 % 	 ....../PrepareDrawBundle

		      23.215 Mt     0.912 %         1 x       23.215 Mt        0.000 Mt        2.394 Mt    10.311 % 	 ..../RayTracingRLPrep

		       0.174 Mt     0.748 %         1 x        0.174 Mt        0.000 Mt        0.174 Mt   100.000 % 	 ...../PrepareAccelerationStructures

		       0.003 Mt     0.011 %         1 x        0.003 Mt        0.000 Mt        0.003 Mt   100.000 % 	 ...../PrepareCache

		      12.184 Mt    52.482 %         1 x       12.184 Mt        0.000 Mt       12.184 Mt   100.000 % 	 ...../PipelineBuild

		       0.649 Mt     2.794 %         1 x        0.649 Mt        0.000 Mt        0.649 Mt   100.000 % 	 ...../BuildCache

		       6.471 Mt    27.875 %         1 x        6.471 Mt        0.000 Mt        0.001 Mt     0.011 % 	 ...../BuildAccelerationStructures

		       6.470 Mt    99.989 %         1 x        6.470 Mt        0.000 Mt        4.218 Mt    65.195 % 	 ....../AccelerationStructureBuild

		       1.581 Mt    24.439 %         1 x        1.581 Mt        0.000 Mt        1.581 Mt   100.000 % 	 ......./BuildBottomLevelAS

		       0.671 Mt    10.366 %         1 x        0.671 Mt        0.000 Mt        0.671 Mt   100.000 % 	 ......./BuildTopLevelAS

		       1.341 Mt     5.779 %         1 x        1.341 Mt        0.000 Mt        1.341 Mt   100.000 % 	 ...../BuildShaderTables

		      28.001 Mt     1.100 %         1 x       28.001 Mt        0.000 Mt       28.001 Mt   100.000 % 	 ..../GpuSidePrep

	WindowThread:

		   67332.986 Mt   100.000 %         1 x    67332.986 Mt    67332.986 Mt    67332.986 Mt   100.000 % 	 /

	GpuThread:

		   58980.705 Mt   100.000 %      7087 x        8.322 Mt      363.067 Mt      110.006 Mt     0.187 % 	 /

		       2.730 Mt     0.005 %         1 x        2.730 Mt        0.000 Mt        0.007 Mt     0.243 % 	 ./ScenePrep

		       2.724 Mt    99.757 %         1 x        2.724 Mt        0.000 Mt        0.002 Mt     0.061 % 	 ../AccelerationStructureBuild

		       2.510 Mt    92.132 %         1 x        2.510 Mt        0.000 Mt        2.510 Mt   100.000 % 	 .../BuildBottomLevelASGpu

		       0.213 Mt     7.807 %         1 x        0.213 Mt        0.000 Mt        0.213 Mt   100.000 % 	 .../BuildTopLevelASGpu

		   58856.082 Mt    99.789 %      7087 x        8.305 Mt      363.065 Mt        7.713 Mt     0.013 % 	 ./RayTracingGpu

		   57398.417 Mt    97.523 %      7087 x        8.099 Mt      363.064 Mt    57398.417 Mt   100.000 % 	 ../RayTracingRLGpu

		    1449.952 Mt     2.464 %         8 x      181.244 Mt        0.000 Mt        0.016 Mt     0.001 % 	 ../AccelerationStructureBuild

		    1447.943 Mt    99.861 %         8 x      180.993 Mt        0.000 Mt     1447.943 Mt   100.000 % 	 .../BuildBottomLevelASGpu

		       1.994 Mt     0.137 %         8 x        0.249 Mt        0.000 Mt        1.994 Mt   100.000 % 	 .../BuildTopLevelASGpu

		      11.887 Mt     0.020 %      7087 x        0.002 Mt        0.002 Mt       11.887 Mt   100.000 % 	 ./Present


	============================


