Configuration: 
Command line parameters  = E:\programming\FIT-DIP\Masters-DXR-Main-git\build\Measurement\x64\Release\Measurement.exe --scene Suzanne/Suzanne.gltf --duplication-cube --duplication-offset 3 --profile-triangles --profile-camera-track Suzanne/SuzanneFast.trk --profile-max-duplication 10 --rt-mode --width 1024 --height 768 --profile-output TrianglesSuzanne768Rt 
Build type               = Release
Device name              = NVIDIA GeForce RTX 2080 Ti
Device memory MB         = 11049
Ray Tracing backend      = Hardware
Window width             = 1024
Window height            = 768
Window title             = Direct3D App
Back-buffer count        = 3
Fill Triangles           = enabled
Triangles Font Clock-Wise= enabled
Fast Build AS            = disabled
Target FPS               = 0
Target UPS               = 60
Tearing                  = enabled
VSync                    = disabled
GUI rendering            = disabled
Debug layer              = disabled
GPU validation           = disabled
GPU profiling            = enabled
Render mode              = Ray Tracing
Loaded scene file        = Suzanne/Suzanne.gltf
Using testing scene      = disabled
Duplication              = 10
Duplication in cube      = enabled
Duplication offset       = 3
BLAS duplication         = enabled
Rays per pixel           = 13
Quality preset           = High
Rasterization Quality    : 
  AO                     = enabled
  AO kernel size         = 4
  Shadows                = enabled
  Shadow map resolution  = 4096
  Shadow PCF kernel size = 4
  Reflections            = enabled
Ray Tracing Quality      : 
  AO                     = enabled
  AO rays                = 4
  AO kernel size         = 4
  Shadows                = enabled
  Shadow rays            = 4
  Shadow kernel size     = 4
  Reflections            = enabled

ProfilingAggregator: 
Render	,	0.9036	,	0.9036	,	0.8097	,	0.8097	,	1.0533	,	1.0533	,	1.3941	,	1.3941	,	1.1484	,	1.1484	,	0.7569	,	1.0905	,	1.0905	,	0.791	,	0.791	,	1.0856	,	1.0856	,	1.1332	,	1.1332	,	1.0806	,	1.0806	,	0.9198	,	1.3245	,	1.3245	,	0.9379	,	0.9379	,	1.4435	,	1.4435	,	1.2924	,	1.2924	,	1.7809	,	1.7809	,	1.0291	,	1.3242	,	1.3242	,	1.1438	,	1.1438	,	1.3849	,	1.3849	,	1.7934	,	1.7934	,	1.8626	,	1.8626	,	1.1426	,	1.5714	,	1.5714	,	1.1052	,	1.1052	,	1.5426	,	1.5426	,	1.9408	,	1.9408	,	2.0429	,	2.0429	,	1.3488	,	6.9613	,	6.9613	,	1.2807	,	1.2807	,	1.8088	,	1.8088	,	2.1484	,	2.1484	,	2.2724	,	2.2724	,	7.4511	,	1.8616	,	1.8616	,	1.4302	,	1.4302	,	1.8561	,	1.8561	,	2.3335	,	2.3335	,	2.4444	,	2.4444	,	1.783	,	1.9982	,	1.9982	,	1.7021	,	1.7021	,	1.9619	,	1.9619	,	2.6711	,	2.6711	,	2.6923	,	2.6923	,	2.0229	,	2.4544	,	2.4544	,	2.1279	,	2.1279	,	2.7484	,	2.7484	,	2.9436	,	2.9436	,	2.6298	,	2.6298	,	2.3394	,	2.3186	,	2.3186	,	2.411	,	2.411	,	3.0905	,	3.0905	,	3.1141	,	3.1141	,	2.6459	,	2.6459	,	2.53
Update	,	0.0397	,	0.0397	,	0.0345	,	0.0345	,	0.0419	,	0.0419	,	0.0503	,	0.0503	,	0.042	,	0.042	,	0.0182	,	0.039	,	0.039	,	0.0191	,	0.0191	,	0.0435	,	0.0435	,	0.0346	,	0.0346	,	0.0177	,	0.0177	,	0.0366	,	0.0507	,	0.0507	,	0.0356	,	0.0356	,	0.0836	,	0.0836	,	0.0567	,	0.0567	,	0.067	,	0.067	,	0.0369	,	0.0566	,	0.0566	,	0.0524	,	0.0524	,	0.0561	,	0.0561	,	0.0579	,	0.0579	,	0.0696	,	0.0696	,	0.0478	,	0.0589	,	0.0589	,	0.044	,	0.044	,	0.0579	,	0.0579	,	0.0712	,	0.0712	,	0.0611	,	0.0611	,	0.0536	,	0.0731	,	0.0731	,	0.0544	,	0.0544	,	0.0728	,	0.0728	,	0.0721	,	0.0721	,	0.0744	,	0.0744	,	0.0612	,	0.076	,	0.076	,	0.0632	,	0.0632	,	0.0754	,	0.0754	,	0.066	,	0.066	,	0.0756	,	0.0756	,	0.0762	,	0.0801	,	0.0801	,	0.0806	,	0.0806	,	0.0815	,	0.0815	,	0.081	,	0.081	,	0.0823	,	0.0823	,	0.0788	,	0.0865	,	0.0865	,	0.0864	,	0.0864	,	0.0859	,	0.0859	,	0.0851	,	0.0851	,	0.0846	,	0.0846	,	0.0847	,	0.0938	,	0.0938	,	0.0924	,	0.0924	,	0.0909	,	0.0909	,	0.1147	,	0.1147	,	0.0908	,	0.0908	,	0.0461
RayTracing	,	0.0796	,	0.0796	,	0.0719	,	0.0719	,	0.0929	,	0.0929	,	0.1071	,	0.1071	,	0.0872	,	0.0872	,	0.0404	,	0.0824	,	0.0824	,	0.0406	,	0.0406	,	0.0826	,	0.0826	,	0.0872	,	0.0872	,	0.0396	,	0.0396	,	0.0748	,	0.0941	,	0.0941	,	0.0723	,	0.0723	,	0.1552	,	0.1552	,	0.0549	,	0.0549	,	0.1394	,	0.1394	,	0.0738	,	0.0464	,	0.0464	,	0.1252	,	0.1252	,	0.1151	,	0.1151	,	0.1243	,	0.1243	,	0.1384	,	0.1384	,	0.0866	,	0.119	,	0.119	,	0.0862	,	0.0862	,	0.1181	,	0.1181	,	0.1254	,	0.1254	,	0.1268	,	0.1268	,	0.1098	,	0.1421	,	0.1421	,	0.1254	,	0.1254	,	0.1425	,	0.1425	,	0.1452	,	0.1452	,	0.142	,	0.142	,	0.1144	,	0.1421	,	0.1421	,	0.108	,	0.108	,	0.1428	,	0.1428	,	0.143	,	0.143	,	0.1501	,	0.1501	,	0.1482	,	0.1276	,	0.1276	,	0.1218	,	0.1218	,	0.1234	,	0.1234	,	0.1427	,	0.1427	,	0.1433	,	0.1433	,	0.1421	,	0.1459	,	0.1459	,	0.144	,	0.144	,	0.1422	,	0.1422	,	0.1388	,	0.1388	,	0.1384	,	0.1384	,	0.1424	,	0.1429	,	0.1429	,	0.142	,	0.142	,	0.1377	,	0.1377	,	0.1377	,	0.1377	,	0.1615	,	0.1615	,	0.1076
RayTracingGpu	,	0.622816	,	0.622816	,	0.540512	,	0.540512	,	0.722208	,	0.722208	,	1.04509	,	1.04509	,	0.839776	,	0.839776	,	0.567616	,	0.7968	,	0.7968	,	0.60224	,	0.60224	,	0.785344	,	0.785344	,	0.824576	,	0.824576	,	0.905824	,	0.905824	,	0.645824	,	0.955232	,	0.955232	,	0.67312	,	0.67312	,	0.949088	,	0.949088	,	1.02659	,	1.02659	,	1.30365	,	1.30365	,	0.742048	,	1.06541	,	1.06541	,	0.718176	,	0.718176	,	1.00592	,	1.00592	,	1.35904	,	1.35904	,	1.34768	,	1.34768	,	0.8384	,	1.14307	,	1.14307	,	0.798752	,	0.798752	,	1.15974	,	1.15974	,	1.48973	,	1.48973	,	1.60544	,	1.60544	,	0.992384	,	1.27686	,	1.27686	,	0.907232	,	0.907232	,	1.24218	,	1.24218	,	1.62547	,	1.62547	,	1.77302	,	1.77302	,	1.11107	,	1.38982	,	1.38982	,	1.05917	,	1.05917	,	1.32909	,	1.32909	,	1.8207	,	1.8207	,	1.92515	,	1.92515	,	1.30397	,	1.54294	,	1.54294	,	1.23357	,	1.23357	,	1.50195	,	1.50195	,	2.08211	,	2.08211	,	2.14317	,	2.14317	,	1.51738	,	1.94496	,	1.94496	,	1.62362	,	1.62362	,	2.19037	,	2.19037	,	2.37875	,	2.37875	,	2.09926	,	2.09926	,	1.7761	,	1.77171	,	1.77171	,	1.83904	,	1.83904	,	2.50426	,	2.50426	,	2.60685	,	2.60685	,	2.15702	,	2.15702	,	2.07949
DeferredRLGpu	,	0.025952	,	0.025952	,	0.014976	,	0.014976	,	0.04288	,	0.04288	,	0.071168	,	0.071168	,	0.073536	,	0.073536	,	0.019136	,	0.059008	,	0.059008	,	0.028672	,	0.028672	,	0.0656	,	0.0656	,	0.064032	,	0.064032	,	0.100992	,	0.100992	,	0.046912	,	0.094944	,	0.094944	,	0.04432	,	0.04432	,	0.105408	,	0.105408	,	0.10112	,	0.10112	,	0.201888	,	0.201888	,	0.080704	,	0.134368	,	0.134368	,	0.063168	,	0.063168	,	0.134496	,	0.134496	,	0.196032	,	0.196032	,	0.23552	,	0.23552	,	0.11712	,	0.1736	,	0.1736	,	0.09472	,	0.09472	,	0.185312	,	0.185312	,	0.224192	,	0.224192	,	0.338272	,	0.338272	,	0.17136	,	0.227392	,	0.227392	,	0.149792	,	0.149792	,	0.231136	,	0.231136	,	0.284576	,	0.284576	,	0.390432	,	0.390432	,	0.23024	,	0.290336	,	0.290336	,	0.235392	,	0.235392	,	0.311392	,	0.311392	,	0.392448	,	0.392448	,	0.4984	,	0.4984	,	0.299104	,	0.38272	,	0.38272	,	0.345344	,	0.345344	,	0.41616	,	0.41616	,	0.547232	,	0.547232	,	0.618912	,	0.618912	,	0.408416	,	0.517536	,	0.517536	,	0.495392	,	0.495392	,	0.657856	,	0.657856	,	0.772384	,	0.772384	,	0.654304	,	0.654304	,	0.542784	,	0.670112	,	0.670112	,	0.690976	,	0.690976	,	0.859968	,	0.859968	,	0.9688	,	0.9688	,	0.736384	,	0.736384	,	0.716896
RayTracingRLGpu	,	0.129856	,	0.129856	,	0.069472	,	0.069472	,	0.20128	,	0.20128	,	0.472384	,	0.472384	,	0.278144	,	0.278144	,	0.086656	,	0.258048	,	0.258048	,	0.112704	,	0.112704	,	0.23968	,	0.23968	,	0.274688	,	0.274688	,	0.318688	,	0.318688	,	0.136352	,	0.376672	,	0.376672	,	0.151904	,	0.151904	,	0.356384	,	0.356384	,	0.437312	,	0.437312	,	0.596512	,	0.596512	,	0.197632	,	0.445184	,	0.445184	,	0.191968	,	0.191968	,	0.385152	,	0.385152	,	0.656896	,	0.656896	,	0.61696	,	0.61696	,	0.253568	,	0.48672	,	0.48672	,	0.23888	,	0.23888	,	0.471808	,	0.471808	,	0.75952	,	0.75952	,	0.76416	,	0.76416	,	0.333952	,	0.564096	,	0.564096	,	0.291776	,	0.291776	,	0.524032	,	0.524032	,	0.836256	,	0.836256	,	0.878208	,	0.878208	,	0.409824	,	0.615968	,	0.615968	,	0.355168	,	0.355168	,	0.527552	,	0.527552	,	0.92096	,	0.92096	,	0.920384	,	0.920384	,	0.52784	,	0.674432	,	0.674432	,	0.418656	,	0.418656	,	0.594688	,	0.594688	,	1.01667	,	1.01667	,	1.01805	,	1.01805	,	0.633664	,	0.932416	,	0.932416	,	0.64432	,	0.64432	,	1.01578	,	1.01578	,	1.08429	,	1.08429	,	0.95776	,	0.95776	,	0.760608	,	0.630848	,	0.630848	,	0.66416	,	0.66416	,	1.13158	,	1.13158	,	1.12701	,	1.12701	,	0.940512	,	0.940512	,	0.8856
ResolveRLGpu	,	0.464064	,	0.464064	,	0.453472	,	0.453472	,	0.474944	,	0.474944	,	0.499552	,	0.499552	,	0.485024	,	0.485024	,	0.45856	,	0.477024	,	0.477024	,	0.45856	,	0.45856	,	0.477344	,	0.477344	,	0.483872	,	0.483872	,	0.482944	,	0.482944	,	0.460352	,	0.48064	,	0.48064	,	0.475008	,	0.475008	,	0.484608	,	0.484608	,	0.484608	,	0.484608	,	0.50224	,	0.50224	,	0.46224	,	0.484288	,	0.484288	,	0.461248	,	0.461248	,	0.481984	,	0.481984	,	0.502336	,	0.502336	,	0.491488	,	0.491488	,	0.464736	,	0.480992	,	0.480992	,	0.462112	,	0.462112	,	0.498816	,	0.498816	,	0.504	,	0.504	,	0.49968	,	0.49968	,	0.483328	,	0.481408	,	0.481408	,	0.462176	,	0.462176	,	0.483328	,	0.483328	,	0.501664	,	0.501664	,	0.500576	,	0.500576	,	0.46816	,	0.481728	,	0.481728	,	0.466176	,	0.466176	,	0.48688	,	0.48688	,	0.50352	,	0.50352	,	0.501696	,	0.501696	,	0.47328	,	0.482784	,	0.482784	,	0.466592	,	0.466592	,	0.48768	,	0.48768	,	0.515648	,	0.515648	,	0.502496	,	0.502496	,	0.472576	,	0.491488	,	0.491488	,	0.48	,	0.48	,	0.514112	,	0.514112	,	0.517504	,	0.517504	,	0.483392	,	0.483392	,	0.469536	,	0.468928	,	0.468928	,	0.481504	,	0.481504	,	0.511072	,	0.511072	,	0.509376	,	0.509376	,	0.478528	,	0.478528	,	0.474112
Index	,	0	,	1	,	2	,	3	,	4	,	5	,	6	,	7	,	8	,	9	,	10	,	11	,	12	,	13	,	14	,	15	,	16	,	17	,	18	,	19	,	20	,	21	,	22	,	23	,	24	,	25	,	26	,	27	,	28	,	29	,	30	,	31	,	32	,	33	,	34	,	35	,	36	,	37	,	38	,	39	,	40	,	41	,	42	,	43	,	44	,	45	,	46	,	47	,	48	,	49	,	50	,	51	,	52	,	53	,	54	,	55	,	56	,	57	,	58	,	59	,	60	,	61	,	62	,	63	,	64	,	65	,	66	,	67	,	68	,	69	,	70	,	71	,	72	,	73	,	74	,	75	,	76	,	77	,	78	,	79	,	80	,	81	,	82	,	83	,	84	,	85	,	86	,	87	,	88	,	89	,	90	,	91	,	92	,	93	,	94	,	95	,	96	,	97	,	98	,	99	,	100	,	101	,	102	,	103	,	104	,	105	,	106	,	107	,	108	,	109

ProfilingBuildAggregator: 
BuildBottomLevelAS	,	0.7954	,	2.4863	,	7.7465	,	18.3377	,	39.1609	,	57.5679	,	73.4318	,	107.434	,	151.992	,	230.069
BuildBottomLevelASGpu	,	0.446464	,	3.44189	,	11.7632	,	27.6923	,	53.697	,	92.8774	,	147.229	,	219.607	,	312.321	,	428.492
BuildTopLevelAS	,	0.7765	,	0.7879	,	1.0419	,	0.8283	,	0.7735	,	0.5156	,	0.5162	,	0.849	,	0.5908	,	0.5141
BuildTopLevelASGpu	,	0.064032	,	0.069792	,	0.093632	,	0.10224	,	0.131008	,	0.16656	,	0.166944	,	0.1352	,	0.1824	,	0.190848
Duplication	,	1	,	2	,	3	,	4	,	5	,	6	,	7	,	8	,	9	,	10
Triangles	,	3936	,	31488	,	106272	,	251904	,	492000	,	850176	,	1350048	,	2015232	,	2869344	,	3936000
Meshes	,	1	,	8	,	27	,	64	,	125	,	216	,	343	,	512	,	729	,	1000
BottomLevels	,	1	,	8	,	27	,	64	,	125	,	216	,	343	,	512	,	729	,	1000
TopLevelSize	,	64	,	512	,	1728	,	4096	,	8000	,	13824	,	21952	,	32768	,	46656	,	64000
BottomLevelsSize	,	282112	,	2256896	,	7617024	,	18055168	,	35264000	,	60936192	,	96764416	,	144441344	,	205659648	,	282112000
Index	,	0	,	1	,	2	,	3	,	4	,	5	,	6	,	7	,	8	,	9

FpsAggregator: 
FPS	,	1217	,	1217	,	1127	,	1127	,	1150	,	1150	,	900	,	900	,	697	,	697	,	1021	,	1097	,	1097	,	899	,	899	,	1016	,	1016	,	817	,	817	,	781	,	781	,	922	,	976	,	976	,	792	,	792	,	897	,	897	,	719	,	719	,	627	,	627	,	769	,	871	,	871	,	704	,	704	,	817	,	817	,	601	,	601	,	512	,	512	,	666	,	819	,	819	,	627	,	627	,	734	,	734	,	534	,	534	,	483	,	483	,	582	,	712	,	712	,	583	,	583	,	671	,	671	,	475	,	475	,	442	,	442	,	522	,	627	,	627	,	522	,	522	,	592	,	592	,	449	,	449	,	407	,	407	,	466	,	538	,	538	,	469	,	469	,	536	,	536	,	406	,	406	,	381	,	381	,	419	,	416	,	416	,	474	,	474	,	414	,	414	,	354	,	354	,	349	,	349	,	428	,	371	,	371	,	419	,	419	,	351	,	351	,	317	,	317	,	331	,	331	,	376
UPS	,	60	,	60	,	61	,	61	,	60	,	60	,	60	,	60	,	60	,	60	,	60	,	60	,	60	,	60	,	60	,	60	,	60	,	60	,	60	,	60	,	60	,	60	,	60	,	60	,	60	,	60	,	60	,	60	,	60	,	60	,	60	,	60	,	60	,	60	,	60	,	60	,	60	,	61	,	61	,	60	,	60	,	60	,	60	,	60	,	60	,	60	,	60	,	60	,	60	,	60	,	60	,	60	,	60	,	60	,	60	,	60	,	60	,	60	,	60	,	60	,	60	,	60	,	60	,	60	,	60	,	61	,	60	,	60	,	60	,	60	,	60	,	60	,	60	,	60	,	60	,	60	,	60	,	60	,	60	,	60	,	60	,	60	,	60	,	60	,	60	,	60	,	60	,	60	,	60	,	60	,	60	,	60	,	60	,	60	,	60	,	60	,	60	,	60	,	60	,	60	,	60	,	60	,	60	,	61	,	61	,	60	,	60	,	60	,	60	,	60
FrameTime	,	0.821786	,	0.821786	,	0.887496	,	0.887496	,	0.870067	,	0.870067	,	1.11266	,	1.11266	,	1.43551	,	1.43551	,	0.980006	,	0.91217	,	0.91217	,	1.11238	,	1.11238	,	0.984783	,	0.984783	,	1.22493	,	1.22493	,	1.28136	,	1.28136	,	1.08484	,	1.02558	,	1.02558	,	1.2638	,	1.2638	,	1.11617	,	1.11617	,	1.39247	,	1.39247	,	1.59542	,	1.59542	,	1.30082	,	1.14884	,	1.14884	,	1.421	,	1.421	,	1.22461	,	1.22461	,	1.66464	,	1.66464	,	1.95421	,	1.95421	,	1.5027	,	1.22129	,	1.22129	,	1.59505	,	1.59505	,	1.36412	,	1.36412	,	1.87597	,	1.87597	,	2.07151	,	2.07151	,	1.71889	,	1.40866	,	1.40866	,	1.71669	,	1.71669	,	1.49159	,	1.49159	,	2.10604	,	2.10604	,	2.26301	,	2.26301	,	1.92955	,	1.59494	,	1.59494	,	1.91729	,	1.91729	,	1.69216	,	1.69216	,	2.2287	,	2.2287	,	2.4624	,	2.4624	,	2.14835	,	1.86099	,	1.86099	,	2.13577	,	2.13577	,	1.8678	,	1.8678	,	2.46737	,	2.46737	,	2.62754	,	2.62754	,	2.38948	,	2.40587	,	2.40587	,	2.1098	,	2.1098	,	2.41667	,	2.41667	,	2.83249	,	2.83249	,	2.86889	,	2.86889	,	2.33803	,	2.69915	,	2.69915	,	2.38954	,	2.38954	,	2.85375	,	2.85375	,	3.16195	,	3.16195	,	3.02478	,	3.02478	,	2.66284
GigaRays/s	,	12.4407	,	12.4407	,	11.5196	,	11.5196	,	11.7504	,	11.7504	,	9.18848	,	9.18848	,	7.12195	,	7.12195	,	10.4322	,	11.208	,	11.208	,	9.19073	,	9.19073	,	10.3816	,	10.3816	,	8.34631	,	8.34631	,	7.97872	,	7.97872	,	9.42412	,	9.96865	,	9.96865	,	8.08955	,	8.08955	,	9.15952	,	9.15952	,	7.34206	,	7.34206	,	6.40809	,	6.40809	,	7.85938	,	8.89908	,	8.89908	,	7.19464	,	7.19464	,	8.34847	,	8.34847	,	6.14165	,	6.14165	,	5.23159	,	5.23159	,	6.80349	,	8.37117	,	8.37117	,	6.40957	,	6.40957	,	7.49465	,	7.49465	,	5.44976	,	5.44976	,	4.93534	,	4.93534	,	5.9478	,	7.25769	,	7.25769	,	5.95544	,	5.95544	,	6.85417	,	6.85417	,	4.85442	,	4.85442	,	4.51771	,	4.51771	,	5.29845	,	6.41002	,	6.41002	,	5.33232	,	5.33232	,	6.04174	,	6.04174	,	4.58725	,	4.58725	,	4.1519	,	4.1519	,	4.75883	,	5.49365	,	5.49365	,	4.78686	,	4.78686	,	5.47362	,	5.47362	,	4.14353	,	4.14353	,	3.89095	,	3.89095	,	4.27859	,	4.24945	,	4.24945	,	4.84578	,	4.84578	,	4.23045	,	4.23045	,	3.60941	,	3.60941	,	3.56362	,	3.56362	,	4.37274	,	3.78772	,	3.78772	,	4.27848	,	4.27848	,	3.58252	,	3.58252	,	3.23333	,	3.23333	,	3.37995	,	3.37995	,	3.83937
Duplication	,	1	,	1	,	1	,	1	,	1	,	1	,	1	,	1	,	1	,	1	,	1	,	2	,	2	,	2	,	2	,	2	,	2	,	2	,	2	,	2	,	2	,	2	,	3	,	3	,	3	,	3	,	3	,	3	,	3	,	3	,	3	,	3	,	3	,	4	,	4	,	4	,	4	,	4	,	4	,	4	,	4	,	4	,	4	,	4	,	5	,	5	,	5	,	5	,	5	,	5	,	5	,	5	,	5	,	5	,	5	,	6	,	6	,	6	,	6	,	6	,	6	,	6	,	6	,	6	,	6	,	6	,	7	,	7	,	7	,	7	,	7	,	7	,	7	,	7	,	7	,	7	,	7	,	8	,	8	,	8	,	8	,	8	,	8	,	8	,	8	,	8	,	8	,	8	,	9	,	9	,	9	,	9	,	9	,	9	,	9	,	9	,	9	,	9	,	9	,	10	,	10	,	10	,	10	,	10	,	10	,	10	,	10	,	10	,	10	,	10
Index	,	0	,	1	,	2	,	3	,	4	,	5	,	6	,	7	,	8	,	9	,	10	,	11	,	12	,	13	,	14	,	15	,	16	,	17	,	18	,	19	,	20	,	21	,	22	,	23	,	24	,	25	,	26	,	27	,	28	,	29	,	30	,	31	,	32	,	33	,	34	,	35	,	36	,	37	,	38	,	39	,	40	,	41	,	42	,	43	,	44	,	45	,	46	,	47	,	48	,	49	,	50	,	51	,	52	,	53	,	54	,	55	,	56	,	57	,	58	,	59	,	60	,	61	,	62	,	63	,	64	,	65	,	66	,	67	,	68	,	69	,	70	,	71	,	72	,	73	,	74	,	75	,	76	,	77	,	78	,	79	,	80	,	81	,	82	,	83	,	84	,	85	,	86	,	87	,	88	,	89	,	90	,	91	,	92	,	93	,	94	,	95	,	96	,	97	,	98	,	99	,	100	,	101	,	102	,	103	,	104	,	105	,	106	,	107	,	108	,	109


AccelerationStructure: 
Ray tracing acceleration structure building statistics: 
	Bottom Level Acceleration Structure: 
		Maximum [B]: 282112
		Minimum [B]: 282112
		Currently Allocated [B]: 282112000
		Currently Created [num]: 1000
		Current Average [B]: 282112
		Maximum Triangles [num]: 3936
		Minimum Triangles [num]: 3936
		Total Triangles [num]: 3936000
		Maximum Meshes [num]: 1
		Minimum Meshes [num]: 1
		Total Meshes [num]: 1000
	Top Level Acceleration Structure: 
		Maximum [B]: 64000
		Minimum [B]: 64000
		Currently Allocated [B]: 64000
		Total Allocated [B]: 64000
		Total Created [num]: 1
		Average Allocated [B]: 64000
		Maximum Instances [num]: 1000
		Minimum Instances [num]: 1000
		Total Instances [num]: 1000
	Scratch Buffer: 
		Maximum [B]: 82944
		Minimum [B]: 82944
		Currently Allocated [B]: 82944
		Total Allocated [B]: 82944
		Total Created [num]: 1
		Average Allocated [B]: 82944
ProfilingStack: 
[PROF] Profiling statistics: 
	Scopes entered : 778425
	Scopes exited : 778424
	Overhead per scope [ticks] : 100.6
	Threads entered : 3
	Threads exited : 0
	============================
		         Sum[Mt]   Parent[%]  Samples[num]       Avg[Mt]   Last/Curr[Mt]        Self[Mt]     Self[%] 	 Name

	main:

		   91601.400 Mt   100.000 %         1 x    91601.400 Mt    91601.400 Mt        0.454 Mt     0.000 % 	 /

		   91600.959 Mt   100.000 %         1 x    91600.960 Mt    91600.959 Mt      270.936 Mt     0.296 % 	 ./Main application loop

		       2.279 Mt     0.002 %         1 x        2.279 Mt        0.000 Mt        2.279 Mt   100.000 % 	 ../TexturedRLInitialization

		       1.250 Mt     0.001 %         1 x        1.250 Mt        0.000 Mt        1.250 Mt   100.000 % 	 ../ShadowMapRLInitialization

		       6.253 Mt     0.007 %         1 x        6.253 Mt        0.000 Mt        6.253 Mt   100.000 % 	 ../RasterResolveRLInitialization

		       3.685 Mt     0.004 %         1 x        3.685 Mt        0.000 Mt        3.685 Mt   100.000 % 	 ../ResolveRLInitialization

		   91119.139 Mt    99.474 %     78879 x        1.155 Mt        2.563 Mt      985.688 Mt     1.082 % 	 ../MainLoop

		     455.363 Mt     0.500 %      5468 x        0.083 Mt        0.071 Mt      454.780 Mt    99.872 % 	 .../Update

		       0.583 Mt     0.128 %         1 x        0.583 Mt        0.000 Mt        0.583 Mt   100.000 % 	 ..../GuiModelApply

		   89678.088 Mt    98.418 %     53365 x        1.680 Mt        2.490 Mt     3087.941 Mt     3.443 % 	 .../Render

		    8922.587 Mt     9.950 %     53365 x        0.167 Mt        0.075 Mt      201.579 Mt     2.259 % 	 ..../RayTracing

		    2492.313 Mt    27.933 %     53365 x        0.047 Mt        0.032 Mt     2443.733 Mt    98.051 % 	 ...../Deferred

		      48.580 Mt     1.949 %     53365 x        0.001 Mt        0.000 Mt       27.051 Mt    55.684 % 	 ....../DeferredRLPrep

		      21.529 Mt    44.316 %        18 x        1.196 Mt        0.000 Mt       12.125 Mt    56.321 % 	 ......./PrepareForRendering

		       0.664 Mt     3.085 %        18 x        0.037 Mt        0.000 Mt        0.664 Mt   100.000 % 	 ......../PrepareMaterials

		       0.003 Mt     0.014 %        18 x        0.000 Mt        0.000 Mt        0.003 Mt   100.000 % 	 ......../BuildMaterialCache

		       8.736 Mt    40.580 %        18 x        0.485 Mt        0.000 Mt        8.736 Mt   100.000 % 	 ......../PrepareDrawBundle

		    5135.942 Mt    57.561 %     53365 x        0.096 Mt        0.028 Mt     2021.090 Mt    39.352 % 	 ...../RayCasting

		    3114.852 Mt    60.648 %     53365 x        0.058 Mt        0.001 Mt       47.992 Mt     1.541 % 	 ....../RayTracingRLPrep

		    1010.870 Mt    32.453 %        18 x       56.159 Mt        0.000 Mt     1010.870 Mt   100.000 % 	 ......./PrepareAccelerationStructures

		       0.300 Mt     0.010 %        18 x        0.017 Mt        0.000 Mt        0.300 Mt   100.000 % 	 ......./PrepareCache

		     390.639 Mt    12.541 %        18 x       21.702 Mt        0.000 Mt      390.639 Mt   100.000 % 	 ......./PipelineBuild

		       0.004 Mt     0.000 %        18 x        0.000 Mt        0.000 Mt        0.004 Mt   100.000 % 	 ......./BuildCache

		    1628.950 Mt    52.296 %        18 x       90.497 Mt        0.000 Mt        0.011 Mt     0.001 % 	 ......./BuildAccelerationStructures

		    1628.938 Mt    99.999 %        18 x       90.497 Mt        0.000 Mt       82.160 Mt     5.044 % 	 ......../AccelerationStructureBuild

		    1532.819 Mt    94.099 %        18 x       85.157 Mt        0.000 Mt     1532.819 Mt   100.000 % 	 ........./BuildBottomLevelAS

		      13.960 Mt     0.857 %        18 x        0.776 Mt        0.000 Mt       13.960 Mt   100.000 % 	 ........./BuildTopLevelAS

		      36.098 Mt     1.159 %        18 x        2.005 Mt        0.000 Mt       36.098 Mt   100.000 % 	 ......./BuildShaderTables

		    1092.754 Mt    12.247 %     53365 x        0.020 Mt        0.013 Mt     1092.754 Mt   100.000 % 	 ...../Resolve

		   77667.560 Mt    86.607 %     53365 x        1.455 Mt        2.369 Mt    77667.560 Mt   100.000 % 	 ..../Present

		       2.708 Mt     0.003 %         1 x        2.708 Mt        0.000 Mt        2.708 Mt   100.000 % 	 ../AmbientOcclusionRLInitialization

		       4.462 Mt     0.005 %         1 x        4.462 Mt        0.000 Mt        4.462 Mt   100.000 % 	 ../DeferredRLInitialization

		      51.220 Mt     0.056 %         1 x       51.220 Mt        0.000 Mt        2.243 Mt     4.380 % 	 ../RayTracingRLInitialization

		      48.976 Mt    95.620 %         1 x       48.976 Mt        0.000 Mt       48.976 Mt   100.000 % 	 .../PipelineBuild

		     139.028 Mt     0.152 %         1 x      139.028 Mt        0.000 Mt        0.186 Mt     0.134 % 	 ../Initialization

		     138.842 Mt    99.866 %         1 x      138.842 Mt        0.000 Mt        1.491 Mt     1.074 % 	 .../ScenePrep

		      92.026 Mt    66.281 %         1 x       92.026 Mt        0.000 Mt       16.110 Mt    17.506 % 	 ..../SceneLoad

		      64.346 Mt    69.922 %         1 x       64.346 Mt        0.000 Mt       10.035 Mt    15.595 % 	 ...../glTF-LoadScene

		      54.312 Mt    84.405 %         2 x       27.156 Mt        0.000 Mt       54.312 Mt   100.000 % 	 ....../glTF-LoadImageData

		       7.810 Mt     8.486 %         1 x        7.810 Mt        0.000 Mt        7.810 Mt   100.000 % 	 ...../glTF-CreateScene

		       3.760 Mt     4.086 %         1 x        3.760 Mt        0.000 Mt        3.760 Mt   100.000 % 	 ...../SceneDesc-CreateScene

		       0.379 Mt     0.273 %         1 x        0.379 Mt        0.000 Mt        0.001 Mt     0.290 % 	 ..../ShadowMapRLPrep

		       0.378 Mt    99.710 %         1 x        0.378 Mt        0.000 Mt        0.364 Mt    96.272 % 	 ...../PrepareForRendering

		       0.014 Mt     3.728 %         1 x        0.014 Mt        0.000 Mt        0.014 Mt   100.000 % 	 ....../PrepareDrawBundle

		       1.407 Mt     1.014 %         1 x        1.407 Mt        0.000 Mt        0.001 Mt     0.050 % 	 ..../TexturedRLPrep

		       1.407 Mt    99.950 %         1 x        1.407 Mt        0.000 Mt        1.397 Mt    99.353 % 	 ...../PrepareForRendering

		       0.002 Mt     0.114 %         1 x        0.002 Mt        0.000 Mt        0.002 Mt   100.000 % 	 ....../PrepareMaterials

		       0.007 Mt     0.533 %         1 x        0.007 Mt        0.000 Mt        0.007 Mt   100.000 % 	 ....../PrepareDrawBundle

		       3.530 Mt     2.543 %         1 x        3.530 Mt        0.000 Mt        0.001 Mt     0.031 % 	 ..../DeferredRLPrep

		       3.529 Mt    99.969 %         1 x        3.529 Mt        0.000 Mt        1.341 Mt    38.002 % 	 ...../PrepareForRendering

		       0.002 Mt     0.054 %         1 x        0.002 Mt        0.000 Mt        0.002 Mt   100.000 % 	 ....../PrepareMaterials

		       2.182 Mt    61.814 %         1 x        2.182 Mt        0.000 Mt        2.182 Mt   100.000 % 	 ....../BuildMaterialCache

		       0.005 Mt     0.130 %         1 x        0.005 Mt        0.000 Mt        0.005 Mt   100.000 % 	 ....../PrepareDrawBundle

		      29.008 Mt    20.892 %         1 x       29.008 Mt        0.000 Mt        3.022 Mt    10.419 % 	 ..../RayTracingRLPrep

		       0.093 Mt     0.321 %         1 x        0.093 Mt        0.000 Mt        0.093 Mt   100.000 % 	 ...../PrepareAccelerationStructures

		       0.001 Mt     0.004 %         1 x        0.001 Mt        0.000 Mt        0.001 Mt   100.000 % 	 ...../PrepareCache

		      19.670 Mt    67.811 %         1 x       19.670 Mt        0.000 Mt       19.670 Mt   100.000 % 	 ...../PipelineBuild

		       0.385 Mt     1.327 %         1 x        0.385 Mt        0.000 Mt        0.385 Mt   100.000 % 	 ...../BuildCache

		       4.378 Mt    15.094 %         1 x        4.378 Mt        0.000 Mt        0.001 Mt     0.014 % 	 ...../BuildAccelerationStructures

		       4.378 Mt    99.986 %         1 x        4.378 Mt        0.000 Mt        2.806 Mt    64.095 % 	 ....../AccelerationStructureBuild

		       0.795 Mt    18.169 %         1 x        0.795 Mt        0.000 Mt        0.795 Mt   100.000 % 	 ......./BuildBottomLevelAS

		       0.776 Mt    17.737 %         1 x        0.776 Mt        0.000 Mt        0.776 Mt   100.000 % 	 ......./BuildTopLevelAS

		       1.457 Mt     5.023 %         1 x        1.457 Mt        0.000 Mt        1.457 Mt   100.000 % 	 ...../BuildShaderTables

		      11.000 Mt     7.922 %         1 x       11.000 Mt        0.000 Mt       11.000 Mt   100.000 % 	 ..../GpuSidePrep

	WindowThread:

		   91599.555 Mt   100.000 %         1 x    91599.555 Mt    91599.555 Mt    91599.555 Mt   100.000 % 	 /

	GpuThread:

		   65789.776 Mt   100.000 %     53365 x        1.233 Mt        2.081 Mt      132.422 Mt     0.201 % 	 /

		       0.517 Mt     0.001 %         1 x        0.517 Mt        0.000 Mt        0.005 Mt     0.997 % 	 ./ScenePrep

		       0.512 Mt    99.003 %         1 x        0.512 Mt        0.000 Mt        0.001 Mt     0.206 % 	 ../AccelerationStructureBuild

		       0.446 Mt    87.276 %         1 x        0.446 Mt        0.000 Mt        0.446 Mt   100.000 % 	 .../BuildBottomLevelASGpu

		       0.064 Mt    12.517 %         1 x        0.064 Mt        0.000 Mt        0.064 Mt   100.000 % 	 .../BuildTopLevelASGpu

		   65562.529 Mt    99.655 %     53365 x        1.229 Mt        2.078 Mt      150.146 Mt     0.229 % 	 ./RayTracingGpu

		   11935.204 Mt    18.204 %     53365 x        0.224 Mt        0.715 Mt    11935.204 Mt   100.000 % 	 ../DeferredRLGpu

		   25203.078 Mt    38.441 %     53365 x        0.472 Mt        0.890 Mt    25203.078 Mt   100.000 % 	 ../RayTracingRLGpu

		   25677.323 Mt    39.165 %     53365 x        0.481 Mt        0.471 Mt    25677.323 Mt   100.000 % 	 ../ResolveRLGpu

		    2596.778 Mt     3.961 %        18 x      144.265 Mt        0.000 Mt        0.035 Mt     0.001 % 	 ../AccelerationStructureBuild

		    2594.259 Mt    99.903 %        18 x      144.125 Mt        0.000 Mt     2594.259 Mt   100.000 % 	 .../BuildBottomLevelASGpu

		       2.485 Mt     0.096 %        18 x        0.138 Mt        0.000 Mt        2.485 Mt   100.000 % 	 .../BuildTopLevelASGpu

		      94.307 Mt     0.143 %     53365 x        0.002 Mt        0.002 Mt       94.307 Mt   100.000 % 	 ./Present


	============================


