Configuration: 
Command line parameters  = E:\programming\FIT-DIP\Masters-DXR-Main-git\build\Measurement\x64\Release\Measurement.exe --scene Sponza/Sponza.gltf --duplication-cube --duplication-offset 25 --profile-triangles --profile-camera-track Sponza/SponzaFast.trk --profile-max-duplication 7 --rt-mode-pure --width 1024 --height 768 --profile-output TrianglesSponza768Rp 
Build type               = Release
Device name              = NVIDIA GeForce RTX 2080 Ti
Device memory MB         = 11049
Ray Tracing backend      = Hardware
Window width             = 1024
Window height            = 768
Window title             = Direct3D App
Back-buffer count        = 3
Fill Triangles           = enabled
Triangles Font Clock-Wise= enabled
Fast Build AS            = disabled
Target FPS               = 0
Target UPS               = 60
Tearing                  = enabled
VSync                    = disabled
GUI rendering            = disabled
Debug layer              = disabled
GPU validation           = disabled
GPU profiling            = enabled
Render mode              = Ray Tracing
Loaded scene file        = Sponza/Sponza.gltf
Using testing scene      = disabled
Duplication              = 7
Duplication in cube      = enabled
Duplication offset       = 25
BLAS duplication         = enabled
Rays per pixel           = 14
Quality preset           = High
Rasterization Quality    : 
  AO                     = enabled
  AO kernel size         = 4
  Shadows                = enabled
  Shadow map resolution  = 4096
  Shadow PCF kernel size = 4
  Reflections            = enabled
Ray Tracing Quality      : 
  AO                     = enabled
  AO rays                = 4
  AO kernel size         = 4
  Shadows                = enabled
  Shadow rays            = 4
  Shadow kernel size     = 4
  Reflections            = enabled

ProfilingAggregator: 
Render	,	1.4474	,	1.4474	,	1.8076	,	1.8076	,	1.6592	,	1.6592	,	1.6513	,	1.6513	,	1.7483	,	1.7483	,	1.7156	,	0.9125	,	0.9125	,	1.0619	,	1.0619	,	0.9996	,	0.9996	,	1.2412	,	1.2412	,	1.3445	,	1.3445	,	1.342	,	1.342	,	1.3389	,	1.3792	,	1.3792	,	1.3211	,	1.3211	,	1.4048	,	1.4048	,	1.5118	,	1.5118	,	7.8623	,	7.8623	,	1.2828	,	1.2562	,	1.2562	,	1.3151	,	1.3151	,	1.2719	,	1.2719	,	1.7227	,	1.7227	,	1.6257	,	1.6257	,	1.5602	,	1.5602	,	1.4975	,	1.4196	,	1.4196	,	1.7458	,	1.7458	,	1.469	,	1.469	,	2.4462	,	2.4462	,	1.7626	,	1.7626	,	1.7533	,	1.4121	,	1.4121	,	1.7657	,	1.7657	,	1.4633	,	1.4633	,	1.7612	,	1.7612	,	1.8282	,	1.8282	,	1.412	,	1.6467	,	1.6467	,	1.617	,	1.617	,	1.903	,	1.903	,	2.2707	,	2.2707	,	1.8007
Update	,	0.0569	,	0.0569	,	0.0663	,	0.0663	,	0.0535	,	0.0535	,	0.0679	,	0.0679	,	0.0464	,	0.0464	,	0.0288	,	0.0401	,	0.0401	,	0.0442	,	0.0442	,	0.0403	,	0.0403	,	0.049	,	0.049	,	0.0553	,	0.0553	,	0.0555	,	0.0555	,	0.0608	,	0.0555	,	0.0555	,	0.0548	,	0.0548	,	0.0544	,	0.0544	,	0.0671	,	0.0671	,	0.0742	,	0.0742	,	0.0716	,	0.0564	,	0.0564	,	0.0582	,	0.0582	,	0.0578	,	0.0578	,	0.0645	,	0.0645	,	0.0592	,	0.0592	,	0.068	,	0.068	,	0.0564	,	0.0593	,	0.0593	,	0.0708	,	0.0708	,	0.0547	,	0.0547	,	0.0565	,	0.0565	,	0.0701	,	0.0701	,	0.0703	,	0.0638	,	0.0638	,	0.0739	,	0.0739	,	0.0592	,	0.0592	,	0.0869	,	0.0869	,	0.0735	,	0.0735	,	0.06	,	0.0756	,	0.0756	,	0.0784	,	0.0784	,	0.0682	,	0.0682	,	0.0773	,	0.0773	,	0.0763
RayTracing	,	0.0576	,	0.0576	,	0.0709	,	0.0709	,	0.0576	,	0.0576	,	0.0742	,	0.0742	,	0.0314	,	0.0314	,	0.0259	,	0.0391	,	0.0391	,	0.0474	,	0.0474	,	0.047	,	0.047	,	0.051	,	0.051	,	0.0476	,	0.0476	,	0.0563	,	0.0563	,	0.0563	,	0.056	,	0.056	,	0.0562	,	0.0562	,	0.0566	,	0.0566	,	0.059	,	0.059	,	0.0733	,	0.0733	,	0.0612	,	0.0559	,	0.0559	,	0.0538	,	0.0538	,	0.0537	,	0.0537	,	0.0773	,	0.0773	,	0.0605	,	0.0605	,	0.0584	,	0.0584	,	0.0555	,	0.056	,	0.056	,	0.0601	,	0.0601	,	0.0556	,	0.0556	,	0.0724	,	0.0724	,	0.0745	,	0.0745	,	0.0734	,	0.0549	,	0.0549	,	0.0717	,	0.0717	,	0.0608	,	0.0608	,	0.0479	,	0.0479	,	0.0724	,	0.0724	,	0.0588	,	0.0727	,	0.0727	,	0.0779	,	0.0779	,	0.0591	,	0.0591	,	0.0727	,	0.0727	,	0.0602
RayTracingGpu	,	1.12774	,	1.12774	,	1.27878	,	1.27878	,	1.34243	,	1.34243	,	1.24534	,	1.24534	,	1.5191	,	1.5191	,	1.47402	,	0.671136	,	0.671136	,	0.757408	,	0.757408	,	0.735072	,	0.735072	,	0.951296	,	0.951296	,	1.06976	,	1.06976	,	1.02794	,	1.02794	,	1.02675	,	1.06998	,	1.06998	,	1.01155	,	1.01155	,	1.09421	,	1.09421	,	1.14493	,	1.14493	,	1.36045	,	1.36045	,	0.984896	,	0.963584	,	0.963584	,	1.01587	,	1.01587	,	0.979744	,	0.979744	,	1.34534	,	1.34534	,	1.24557	,	1.24557	,	1.21574	,	1.21574	,	1.19827	,	1.10538	,	1.10538	,	1.27789	,	1.27789	,	1.17475	,	1.17475	,	1.93155	,	1.93155	,	1.33971	,	1.33971	,	1.3344	,	1.10182	,	1.10182	,	1.34605	,	1.34605	,	1.15574	,	1.15574	,	1.4712	,	1.4712	,	1.41034	,	1.41034	,	1.05974	,	1.20797	,	1.20797	,	1.17594	,	1.17594	,	1.53421	,	1.53421	,	1.78867	,	1.78867	,	1.41987
RayTracingRLGpu	,	1.12614	,	1.12614	,	1.27731	,	1.27731	,	1.34077	,	1.34077	,	1.24387	,	1.24387	,	1.5184	,	1.5184	,	1.47322	,	0.67024	,	0.67024	,	0.756704	,	0.756704	,	0.7344	,	0.7344	,	0.949632	,	0.949632	,	1.06912	,	1.06912	,	1.02749	,	1.02749	,	1.0257	,	1.06848	,	1.06848	,	1.01005	,	1.01005	,	1.09274	,	1.09274	,	1.14352	,	1.14352	,	1.35882	,	1.35882	,	0.984064	,	0.961984	,	0.961984	,	1.0152	,	1.0152	,	0.978112	,	0.978112	,	1.34374	,	1.34374	,	1.2449	,	1.2449	,	1.2151	,	1.2151	,	1.1976	,	1.1047	,	1.1047	,	1.27645	,	1.27645	,	1.17315	,	1.17315	,	1.93011	,	1.93011	,	1.33901	,	1.33901	,	1.33373	,	1.10112	,	1.10112	,	1.34534	,	1.34534	,	1.15491	,	1.15491	,	1.46973	,	1.46973	,	1.40966	,	1.40966	,	1.05891	,	1.20726	,	1.20726	,	1.17523	,	1.17523	,	1.53354	,	1.53354	,	1.78784	,	1.78784	,	1.41824
Index	,	0	,	1	,	2	,	3	,	4	,	5	,	6	,	7	,	8	,	9	,	10	,	11	,	12	,	13	,	14	,	15	,	16	,	17	,	18	,	19	,	20	,	21	,	22	,	23	,	24	,	25	,	26	,	27	,	28	,	29	,	30	,	31	,	32	,	33	,	34	,	35	,	36	,	37	,	38	,	39	,	40	,	41	,	42	,	43	,	44	,	45	,	46	,	47	,	48	,	49	,	50	,	51	,	52	,	53	,	54	,	55	,	56	,	57	,	58	,	59	,	60	,	61	,	62	,	63	,	64	,	65	,	66	,	67	,	68	,	69	,	70	,	71	,	72	,	73	,	74	,	75	,	76	,	77	,	78

ProfilingBuildAggregator: 
BuildBottomLevelAS	,	1.7338	,	11.1851	,	23.0649	,	72.2565	,	130.932	,	226.057	,	365.366
BuildBottomLevelASGpu	,	2.43549	,	14.1333	,	48.2386	,	113.321	,	221.066	,	382.011	,	607.102
BuildTopLevelAS	,	0.7648	,	0.9408	,	0.635	,	1.2126	,	1.1685	,	1.2322	,	1.3609
BuildTopLevelASGpu	,	0.089216	,	0.0752	,	0.098752	,	0.106112	,	0.134048	,	0.141856	,	0.168352
Duplication	,	1	,	2	,	3	,	4	,	5	,	6	,	7
Triangles	,	262267	,	2098136	,	7081209	,	16785088	,	32783375	,	56649672	,	89957581
Meshes	,	103	,	824	,	2781	,	6592	,	12875	,	22248	,	35329
BottomLevels	,	1	,	8	,	27	,	64	,	125	,	216	,	343
TopLevelSize	,	64	,	512	,	1728	,	4096	,	8000	,	13824	,	21952
BottomLevelsSize	,	18390656	,	147125248	,	496547712	,	1177001984	,	2298832000	,	3972381696	,	6307995008
Index	,	0	,	1	,	2	,	3	,	4	,	5	,	6

FpsAggregator: 
FPS	,	569	,	569	,	634	,	634	,	604	,	604	,	559	,	559	,	564	,	564	,	532	,	1306	,	1306	,	977	,	977	,	995	,	995	,	937	,	937	,	731	,	731	,	758	,	758	,	736	,	674	,	674	,	710	,	710	,	695	,	695	,	702	,	702	,	561	,	561	,	485	,	853	,	853	,	745	,	745	,	732	,	732	,	688	,	688	,	605	,	605	,	634	,	634	,	640	,	657	,	657	,	677	,	677	,	589	,	589	,	434	,	434	,	497	,	497	,	561	,	710	,	710	,	603	,	603	,	588	,	588	,	539	,	539	,	564	,	564	,	701	,	603	,	603	,	556	,	556	,	531	,	531	,	529	,	529	,	515
UPS	,	60	,	60	,	60	,	60	,	60	,	60	,	60	,	60	,	60	,	60	,	60	,	60	,	60	,	60	,	60	,	60	,	60	,	60	,	60	,	60	,	60	,	60	,	60	,	60	,	60	,	60	,	60	,	60	,	60	,	60	,	60	,	60	,	59	,	59	,	61	,	60	,	60	,	60	,	60	,	60	,	60	,	60	,	60	,	60	,	60	,	60	,	60	,	60	,	60	,	60	,	60	,	60	,	60	,	60	,	60	,	60	,	61	,	61	,	60	,	60	,	60	,	60	,	60	,	60	,	60	,	60	,	60	,	60	,	60	,	60	,	60	,	60	,	61	,	61	,	60	,	60	,	60	,	60	,	60
FrameTime	,	1.75919	,	1.75919	,	1.5784	,	1.5784	,	1.65702	,	1.65702	,	1.79116	,	1.79116	,	1.77498	,	1.77498	,	1.88192	,	0.766082	,	0.766082	,	1.02432	,	1.02432	,	1.00514	,	1.00514	,	1.06821	,	1.06821	,	1.36934	,	1.36934	,	1.3206	,	1.3206	,	1.35988	,	1.48455	,	1.48455	,	1.40872	,	1.40872	,	1.44032	,	1.44032	,	1.42499	,	1.42499	,	1.78375	,	1.78375	,	2.06429	,	1.17234	,	1.17234	,	1.34237	,	1.34237	,	1.3673	,	1.3673	,	1.45364	,	1.45364	,	1.65353	,	1.65353	,	1.57948	,	1.57948	,	1.5626	,	1.52351	,	1.52351	,	1.4779	,	1.4779	,	1.69786	,	1.69786	,	2.30788	,	2.30788	,	2.01529	,	2.01529	,	1.78278	,	1.41019	,	1.41019	,	1.65953	,	1.65953	,	1.70119	,	1.70119	,	1.85595	,	1.85595	,	1.77474	,	1.77474	,	1.42711	,	1.66027	,	1.66027	,	1.80114	,	1.80114	,	1.88593	,	1.88593	,	1.89082	,	1.89082	,	1.9434
GigaRays/s	,	6.25858	,	6.25858	,	6.97545	,	6.97545	,	6.64449	,	6.64449	,	6.1469	,	6.1469	,	6.20292	,	6.20292	,	5.85043	,	14.3719	,	14.3719	,	10.7486	,	10.7486	,	10.9538	,	10.9538	,	10.307	,	10.307	,	8.04043	,	8.04043	,	8.33716	,	8.33716	,	8.09632	,	7.41644	,	7.41644	,	7.81564	,	7.81564	,	7.64416	,	7.64416	,	7.72641	,	7.72641	,	6.17242	,	6.17242	,	5.33359	,	9.39155	,	9.39155	,	8.20197	,	8.20197	,	8.05241	,	8.05241	,	7.5741	,	7.5741	,	6.65852	,	6.65852	,	6.97067	,	6.97067	,	7.04598	,	7.22675	,	7.22675	,	7.44977	,	7.44977	,	6.48466	,	6.48466	,	4.77062	,	4.77062	,	5.46327	,	5.46327	,	6.17577	,	7.80748	,	7.80748	,	6.63442	,	6.63442	,	6.47197	,	6.47197	,	5.93231	,	5.93231	,	6.20377	,	6.20377	,	7.71494	,	6.63147	,	6.63147	,	6.11281	,	6.11281	,	5.838	,	5.838	,	5.82289	,	5.82289	,	5.66534
Duplication	,	1	,	1	,	1	,	1	,	1	,	1	,	1	,	1	,	1	,	1	,	1	,	2	,	2	,	2	,	2	,	2	,	2	,	2	,	2	,	2	,	2	,	2	,	2	,	2	,	3	,	3	,	3	,	3	,	3	,	3	,	3	,	3	,	3	,	3	,	3	,	4	,	4	,	4	,	4	,	4	,	4	,	4	,	4	,	4	,	4	,	4	,	4	,	4	,	5	,	5	,	5	,	5	,	5	,	5	,	5	,	5	,	5	,	5	,	5	,	6	,	6	,	6	,	6	,	6	,	6	,	6	,	6	,	6	,	6	,	6	,	7	,	7	,	7	,	7	,	7	,	7	,	7	,	7	,	7
Index	,	0	,	1	,	2	,	3	,	4	,	5	,	6	,	7	,	8	,	9	,	10	,	11	,	12	,	13	,	14	,	15	,	16	,	17	,	18	,	19	,	20	,	21	,	22	,	23	,	24	,	25	,	26	,	27	,	28	,	29	,	30	,	31	,	32	,	33	,	34	,	35	,	36	,	37	,	38	,	39	,	40	,	41	,	42	,	43	,	44	,	45	,	46	,	47	,	48	,	49	,	50	,	51	,	52	,	53	,	54	,	55	,	56	,	57	,	58	,	59	,	60	,	61	,	62	,	63	,	64	,	65	,	66	,	67	,	68	,	69	,	70	,	71	,	72	,	73	,	74	,	75	,	76	,	77	,	78


AccelerationStructure: 
Ray tracing acceleration structure building statistics: 
	Bottom Level Acceleration Structure: 
		Maximum [B]: 18390656
		Minimum [B]: 18390656
		Currently Allocated [B]: 6307995008
		Currently Created [num]: 343
		Current Average [B]: 18390656
		Maximum Triangles [num]: 262267
		Minimum Triangles [num]: 262267
		Total Triangles [num]: 89957581
		Maximum Meshes [num]: 103
		Minimum Meshes [num]: 103
		Total Meshes [num]: 35329
	Top Level Acceleration Structure: 
		Maximum [B]: 21952
		Minimum [B]: 21952
		Currently Allocated [B]: 21952
		Total Allocated [B]: 21952
		Total Created [num]: 1
		Average Allocated [B]: 21952
		Maximum Instances [num]: 343
		Minimum Instances [num]: 343
		Total Instances [num]: 343
	Scratch Buffer: 
		Maximum [B]: 14995072
		Minimum [B]: 14995072
		Currently Allocated [B]: 14995072
		Total Allocated [B]: 14995072
		Total Created [num]: 1
		Average Allocated [B]: 14995072
ProfilingStack: 
[PROF] Profiling statistics: 
	Scopes entered : 440174
	Scopes exited : 440173
	Overhead per scope [ticks] : 102.4
	Threads entered : 3
	Threads exited : 0
	============================
		         Sum[Mt]   Parent[%]  Samples[num]       Avg[Mt]   Last/Curr[Mt]        Self[Mt]     Self[%] 	 Name

	main:

		   68117.682 Mt   100.000 %         1 x    68117.683 Mt    68117.682 Mt        0.330 Mt     0.000 % 	 /

		   68117.379 Mt   100.000 %         1 x    68117.379 Mt    68117.379 Mt      310.274 Mt     0.455 % 	 ./Main application loop

		       2.297 Mt     0.003 %         1 x        2.297 Mt        0.000 Mt        2.297 Mt   100.000 % 	 ../TexturedRLInitialization

		       1.250 Mt     0.002 %         1 x        1.250 Mt        0.000 Mt        1.250 Mt   100.000 % 	 ../ShadowMapRLInitialization

		       5.241 Mt     0.008 %         1 x        5.241 Mt        0.000 Mt        5.241 Mt   100.000 % 	 ../RasterResolveRLInitialization

		       3.583 Mt     0.005 %         1 x        3.583 Mt        0.000 Mt        3.583 Mt   100.000 % 	 ../ResolveRLInitialization

		   65087.135 Mt    95.551 %    128756 x        0.506 Mt        2.257 Mt      668.832 Mt     1.028 % 	 ../MainLoop

		     295.450 Mt     0.454 %      3906 x        0.076 Mt        0.086 Mt      295.192 Mt    99.913 % 	 .../Update

		       0.258 Mt     0.087 %         1 x        0.258 Mt        0.000 Mt        0.258 Mt   100.000 % 	 ..../GuiModelApply

		   64122.853 Mt    98.518 %     38407 x        1.670 Mt        2.169 Mt     2262.438 Mt     3.528 % 	 .../Render

		    5317.306 Mt     8.292 %     38407 x        0.138 Mt        0.090 Mt      137.776 Mt     2.591 % 	 ..../RayTracing

		    5179.530 Mt    97.409 %     38407 x        0.135 Mt        0.072 Mt     2073.469 Mt    40.032 % 	 ...../RayCasting

		    3106.061 Mt    59.968 %     38407 x        0.081 Mt        0.001 Mt       46.832 Mt     1.508 % 	 ....../RayTracingRLPrep

		     759.502 Mt    24.452 %        12 x       63.292 Mt        0.000 Mt      759.502 Mt   100.000 % 	 ......./PrepareAccelerationStructures

		       0.087 Mt     0.003 %        12 x        0.007 Mt        0.000 Mt        0.087 Mt   100.000 % 	 ......./PrepareCache

		     227.065 Mt     7.310 %        12 x       18.922 Mt        0.000 Mt      227.065 Mt   100.000 % 	 ......./PipelineBuild

		       0.002 Mt     0.000 %        12 x        0.000 Mt        0.000 Mt        0.002 Mt   100.000 % 	 ......./BuildCache

		    1806.327 Mt    58.155 %        12 x      150.527 Mt        0.000 Mt        0.009 Mt     0.001 % 	 ......./BuildAccelerationStructures

		    1806.318 Mt    99.999 %        12 x      150.526 Mt        0.000 Mt       57.618 Mt     3.190 % 	 ......../AccelerationStructureBuild

		    1735.434 Mt    96.076 %        12 x      144.620 Mt        0.000 Mt     1735.434 Mt   100.000 % 	 ........./BuildBottomLevelAS

		      13.265 Mt     0.734 %        12 x        1.105 Mt        0.000 Mt       13.265 Mt   100.000 % 	 ........./BuildTopLevelAS

		     266.245 Mt     8.572 %        12 x       22.187 Mt        0.000 Mt      266.245 Mt   100.000 % 	 ......./BuildShaderTables

		   56543.110 Mt    88.179 %     38407 x        1.472 Mt        1.997 Mt    56543.110 Mt   100.000 % 	 ..../Present

		       2.684 Mt     0.004 %         1 x        2.684 Mt        0.000 Mt        2.684 Mt   100.000 % 	 ../AmbientOcclusionRLInitialization

		       6.367 Mt     0.009 %         1 x        6.367 Mt        0.000 Mt        6.367 Mt   100.000 % 	 ../DeferredRLInitialization

		      59.271 Mt     0.087 %         1 x       59.271 Mt        0.000 Mt        3.985 Mt     6.724 % 	 ../RayTracingRLInitialization

		      55.285 Mt    93.276 %         1 x       55.285 Mt        0.000 Mt       55.285 Mt   100.000 % 	 .../PipelineBuild

		    2639.278 Mt     3.875 %         1 x     2639.278 Mt        0.000 Mt        0.189 Mt     0.007 % 	 ../Initialization

		    2639.089 Mt    99.993 %         1 x     2639.089 Mt        0.000 Mt        1.566 Mt     0.059 % 	 .../ScenePrep

		    2575.646 Mt    97.596 %         1 x     2575.646 Mt        0.000 Mt      230.201 Mt     8.938 % 	 ..../SceneLoad

		    2098.169 Mt    81.462 %         1 x     2098.169 Mt        0.000 Mt      607.355 Mt    28.947 % 	 ...../glTF-LoadScene

		    1490.814 Mt    71.053 %        69 x       21.606 Mt        0.000 Mt     1490.814 Mt   100.000 % 	 ....../glTF-LoadImageData

		     219.244 Mt     8.512 %         1 x      219.244 Mt        0.000 Mt      219.244 Mt   100.000 % 	 ...../glTF-CreateScene

		      28.033 Mt     1.088 %         1 x       28.033 Mt        0.000 Mt       28.033 Mt   100.000 % 	 ...../SceneDesc-CreateScene

		       0.949 Mt     0.036 %         1 x        0.949 Mt        0.000 Mt        0.001 Mt     0.063 % 	 ..../ShadowMapRLPrep

		       0.948 Mt    99.937 %         1 x        0.948 Mt        0.000 Mt        0.911 Mt    96.118 % 	 ...../PrepareForRendering

		       0.037 Mt     3.882 %         1 x        0.037 Mt        0.000 Mt        0.037 Mt   100.000 % 	 ....../PrepareDrawBundle

		       3.977 Mt     0.151 %         1 x        3.977 Mt        0.000 Mt        0.000 Mt     0.010 % 	 ..../TexturedRLPrep

		       3.977 Mt    99.990 %         1 x        3.977 Mt        0.000 Mt        3.881 Mt    97.586 % 	 ...../PrepareForRendering

		       0.002 Mt     0.038 %         1 x        0.002 Mt        0.000 Mt        0.002 Mt   100.000 % 	 ....../PrepareMaterials

		       0.095 Mt     2.376 %         1 x        0.095 Mt        0.000 Mt        0.095 Mt   100.000 % 	 ....../PrepareDrawBundle

		       2.943 Mt     0.112 %         1 x        2.943 Mt        0.000 Mt        0.001 Mt     0.027 % 	 ..../DeferredRLPrep

		       2.942 Mt    99.973 %         1 x        2.942 Mt        0.000 Mt        2.405 Mt    81.731 % 	 ...../PrepareForRendering

		       0.001 Mt     0.031 %         1 x        0.001 Mt        0.000 Mt        0.001 Mt   100.000 % 	 ....../PrepareMaterials

		       0.379 Mt    12.889 %         1 x        0.379 Mt        0.000 Mt        0.379 Mt   100.000 % 	 ....../BuildMaterialCache

		       0.157 Mt     5.350 %         1 x        0.157 Mt        0.000 Mt        0.157 Mt   100.000 % 	 ....../PrepareDrawBundle

		      24.482 Mt     0.928 %         1 x       24.482 Mt        0.000 Mt        2.597 Mt    10.608 % 	 ..../RayTracingRLPrep

		       0.176 Mt     0.719 %         1 x        0.176 Mt        0.000 Mt        0.176 Mt   100.000 % 	 ...../PrepareAccelerationStructures

		       0.002 Mt     0.010 %         1 x        0.002 Mt        0.000 Mt        0.002 Mt   100.000 % 	 ...../PrepareCache

		      13.869 Mt    56.650 %         1 x       13.869 Mt        0.000 Mt       13.869 Mt   100.000 % 	 ...../PipelineBuild

		       0.661 Mt     2.702 %         1 x        0.661 Mt        0.000 Mt        0.661 Mt   100.000 % 	 ...../BuildCache

		       5.681 Mt    23.204 %         1 x        5.681 Mt        0.000 Mt        0.000 Mt     0.007 % 	 ...../BuildAccelerationStructures

		       5.680 Mt    99.993 %         1 x        5.680 Mt        0.000 Mt        3.182 Mt    56.013 % 	 ....../AccelerationStructureBuild

		       1.734 Mt    30.523 %         1 x        1.734 Mt        0.000 Mt        1.734 Mt   100.000 % 	 ......./BuildBottomLevelAS

		       0.765 Mt    13.464 %         1 x        0.765 Mt        0.000 Mt        0.765 Mt   100.000 % 	 ......./BuildTopLevelAS

		       1.495 Mt     6.107 %         1 x        1.495 Mt        0.000 Mt        1.495 Mt   100.000 % 	 ...../BuildShaderTables

		      29.526 Mt     1.119 %         1 x       29.526 Mt        0.000 Mt       29.526 Mt   100.000 % 	 ..../GpuSidePrep

	WindowThread:

		   68116.534 Mt   100.000 %         1 x    68116.534 Mt    68116.534 Mt    68116.534 Mt   100.000 % 	 /

	GpuThread:

		   47485.097 Mt   100.000 %     38407 x        1.236 Mt        1.773 Mt      131.971 Mt     0.278 % 	 /

		       2.533 Mt     0.005 %         1 x        2.533 Mt        0.000 Mt        0.007 Mt     0.260 % 	 ./ScenePrep

		       2.526 Mt    99.740 %         1 x        2.526 Mt        0.000 Mt        0.002 Mt     0.066 % 	 ../AccelerationStructureBuild

		       2.435 Mt    96.403 %         1 x        2.435 Mt        0.000 Mt        2.435 Mt   100.000 % 	 .../BuildBottomLevelASGpu

		       0.089 Mt     3.531 %         1 x        0.089 Mt        0.000 Mt        0.089 Mt   100.000 % 	 .../BuildTopLevelASGpu

		   47286.168 Mt    99.581 %     38407 x        1.231 Mt        1.771 Mt       42.603 Mt     0.090 % 	 ./RayTracingGpu

		   44470.085 Mt    94.045 %     38407 x        1.158 Mt        1.771 Mt    44470.085 Mt   100.000 % 	 ../RayTracingRLGpu

		    2773.480 Mt     5.865 %        12 x      231.123 Mt        0.000 Mt        0.019 Mt     0.001 % 	 ../AccelerationStructureBuild

		    2772.008 Mt    99.947 %        12 x      231.001 Mt        0.000 Mt     2772.008 Mt   100.000 % 	 .../BuildBottomLevelASGpu

		       1.453 Mt     0.052 %        12 x        0.121 Mt        0.000 Mt        1.453 Mt   100.000 % 	 .../BuildTopLevelASGpu

		      64.425 Mt     0.136 %     38407 x        0.002 Mt        0.002 Mt       64.425 Mt   100.000 % 	 ./Present


	============================


