Configuration: 
Command line parameters  = E:\programming\FIT-DIP\Masters-DXR-Main-git\build\Measurement\x64\Release\Measurement.exe --scene Cube/Cube.gltf --duplication-cube --duplication-offset 2.5 --profile-triangles --profile-camera-track Cube/CubeFast.trk --profile-max-duplication 10 --rt-mode-pure --width 1024 --height 768 --profile-output TrianglesCube768Rp 
Build type               = Release
Device name              = NVIDIA GeForce RTX 2080 Ti
Device memory MB         = 11049
Ray Tracing backend      = Hardware
Window width             = 1024
Window height            = 768
Window title             = Direct3D App
Back-buffer count        = 3
Fill Triangles           = enabled
Triangles Font Clock-Wise= enabled
Fast Build AS            = disabled
Target FPS               = 0
Target UPS               = 60
Tearing                  = enabled
VSync                    = disabled
GUI rendering            = disabled
Debug layer              = disabled
GPU validation           = disabled
GPU profiling            = enabled
Render mode              = Ray Tracing
Loaded scene file        = Cube/Cube.gltf
Using testing scene      = disabled
Duplication              = 10
Duplication in cube      = enabled
Duplication offset       = 2.5
BLAS duplication         = enabled
Rays per pixel           = 14
Quality preset           = High
Rasterization Quality    : 
  AO                     = enabled
  AO kernel size         = 4
  Shadows                = enabled
  Shadow map resolution  = 4096
  Shadow PCF kernel size = 4
  Reflections            = enabled
Ray Tracing Quality      : 
  AO                     = enabled
  AO rays                = 4
  AO kernel size         = 4
  Shadows                = enabled
  Shadow rays            = 4
  Shadow kernel size     = 4
  Reflections            = enabled

ProfilingAggregator: 
Render	,	0.8446	,	0.8446	,	0.7044	,	0.7044	,	1.0492	,	1.0492	,	1.0089	,	1.0089	,	0.5491	,	0.5491	,	0.3139	,	1.0197	,	1.0197	,	0.7829	,	0.7829	,	0.8947	,	0.8947	,	1.004	,	1.004	,	0.6294	,	0.6294	,	0.348	,	0.348	,	0.3813	,	1.0492	,	1.0492	,	0.973	,	0.973	,	1.0433	,	1.0433	,	1.0376	,	1.0376	,	0.6893	,	0.6893	,	0.4821	,	0.4821	,	0.3658	,	1.0544	,	1.0544	,	1.0493	,	1.0493	,	1.0832	,	1.0832	,	1.0597	,	1.0597	,	0.7244	,	0.7244	,	0.3837	,	0.3837	,	0.3829	,	1.0523	,	1.0523	,	1.0688	,	1.0688	,	1.0977	,	1.0977	,	1.0646	,	1.0646	,	0.7439	,	0.7439	,	0.3785	,	1.0398	,	1.0398	,	1.1087	,	1.1087	,	1.1142	,	1.1142	,	1.0945	,	1.0945	,	0.7542	,	0.7542	,	0.3908	,	0.3908	,	0.3987	,	1.0611	,	1.0611	,	1.1089	,	1.1089	,	1.0855	,	1.0855	,	1.073	,	1.073	,	0.7748	,	0.7748	,	0.4011	,	0.4011	,	0.3984	,	1.038	,	1.038	,	1.113	,	1.113	,	1.1025	,	1.1025	,	1.0579	,	1.0579	,	0.7674	,	0.7674	,	0.4044	,	1.0335	,	1.0335	,	1.1262	,	1.1262	,	1.1131	,	1.1131	,	1.0804	,	1.0804	,	0.9097	,	0.9097	,	0.4021	,	0.4021	,	0.4122	,	1.191	,	1.191	,	1.1275	,	1.1275	,	1.0946	,	1.0946	,	0.7946	,	0.7946	,	0.5564	,	0.5564	,	0.4042
Update	,	0.0351	,	0.0351	,	0.0308	,	0.0308	,	0.0508	,	0.0508	,	0.0414	,	0.0414	,	0.0224	,	0.0224	,	0.0195	,	0.0477	,	0.0477	,	0.018	,	0.018	,	0.024	,	0.024	,	0.0443	,	0.0443	,	0.0262	,	0.0262	,	0.0291	,	0.0291	,	0.0235	,	0.0501	,	0.0501	,	0.048	,	0.048	,	0.0441	,	0.0441	,	0.0425	,	0.0425	,	0.033	,	0.033	,	0.0592	,	0.0592	,	0.0181	,	0.045	,	0.045	,	0.0462	,	0.0462	,	0.047	,	0.047	,	0.0446	,	0.0446	,	0.0316	,	0.0316	,	0.0185	,	0.0185	,	0.0185	,	0.0458	,	0.0458	,	0.051	,	0.051	,	0.0492	,	0.0492	,	0.0512	,	0.0512	,	0.0354	,	0.0354	,	0.0191	,	0.0492	,	0.0492	,	0.0532	,	0.0532	,	0.0484	,	0.0484	,	0.0498	,	0.0498	,	0.0361	,	0.0361	,	0.0196	,	0.0196	,	0.0193	,	0.0529	,	0.0529	,	0.0546	,	0.0546	,	0.0521	,	0.0521	,	0.0563	,	0.0563	,	0.0384	,	0.0384	,	0.0239	,	0.0239	,	0.0201	,	0.054	,	0.054	,	0.0604	,	0.0604	,	0.0571	,	0.0571	,	0.0549	,	0.0549	,	0.0424	,	0.0424	,	0.0224	,	0.0604	,	0.0604	,	0.0735	,	0.0735	,	0.0625	,	0.0625	,	0.0648	,	0.0648	,	0.1147	,	0.1147	,	0.0253	,	0.0253	,	0.026	,	0.0791	,	0.0791	,	0.0682	,	0.0682	,	0.0679	,	0.0679	,	0.0495	,	0.0495	,	0.086	,	0.086	,	0.0279
RayTracing	,	0.0357	,	0.0357	,	0.0334	,	0.0334	,	0.0569	,	0.0569	,	0.0418	,	0.0418	,	0.0247	,	0.0247	,	0.0193	,	0.0452	,	0.0452	,	0.0218	,	0.0218	,	0.0229	,	0.0229	,	0.0445	,	0.0445	,	0.0276	,	0.0276	,	0.0197	,	0.0197	,	0.021	,	0.0457	,	0.0457	,	0.0444	,	0.0444	,	0.0439	,	0.0439	,	0.0444	,	0.0444	,	0.0355	,	0.0355	,	0.0548	,	0.0548	,	0.0197	,	0.0465	,	0.0465	,	0.0489	,	0.0489	,	0.0472	,	0.0472	,	0.0454	,	0.0454	,	0.0329	,	0.0329	,	0.0203	,	0.0203	,	0.0209	,	0.0444	,	0.0444	,	0.047	,	0.047	,	0.047	,	0.047	,	0.0438	,	0.0438	,	0.0328	,	0.0328	,	0.0192	,	0.0444	,	0.0444	,	0.0466	,	0.0466	,	0.0459	,	0.0459	,	0.0476	,	0.0476	,	0.0331	,	0.0331	,	0.0196	,	0.0196	,	0.0206	,	0.0453	,	0.0453	,	0.0485	,	0.0485	,	0.0482	,	0.0482	,	0.0459	,	0.0459	,	0.0335	,	0.0335	,	0.0196	,	0.0196	,	0.0198	,	0.0452	,	0.0452	,	0.0474	,	0.0474	,	0.0472	,	0.0472	,	0.0442	,	0.0442	,	0.0328	,	0.0328	,	0.0205	,	0.0441	,	0.0441	,	0.0501	,	0.0501	,	0.0468	,	0.0468	,	0.0466	,	0.0466	,	0.0583	,	0.0583	,	0.0194	,	0.0194	,	0.02	,	0.0539	,	0.0539	,	0.0465	,	0.0465	,	0.047	,	0.047	,	0.0321	,	0.0321	,	0.0244	,	0.0244	,	0.0197
RayTracingGpu	,	0.609248	,	0.609248	,	0.481664	,	0.481664	,	0.721376	,	0.721376	,	0.752928	,	0.752928	,	0.364064	,	0.364064	,	0.149344	,	0.719392	,	0.719392	,	0.614624	,	0.614624	,	0.714432	,	0.714432	,	0.735392	,	0.735392	,	0.44256	,	0.44256	,	0.178048	,	0.178048	,	0.18192	,	0.782656	,	0.782656	,	0.723008	,	0.723008	,	0.798176	,	0.798176	,	0.777312	,	0.777312	,	0.473792	,	0.473792	,	0.200416	,	0.200416	,	0.198112	,	0.773728	,	0.773728	,	0.76224	,	0.76224	,	0.820704	,	0.820704	,	0.789824	,	0.789824	,	0.50432	,	0.50432	,	0.21792	,	0.21792	,	0.220448	,	0.787296	,	0.787296	,	0.789888	,	0.789888	,	0.822528	,	0.822528	,	0.797312	,	0.797312	,	0.524512	,	0.524512	,	0.21872	,	0.775072	,	0.775072	,	0.829888	,	0.829888	,	0.840864	,	0.840864	,	0.815424	,	0.815424	,	0.53312	,	0.53312	,	0.229248	,	0.229248	,	0.22944	,	0.790912	,	0.790912	,	0.820704	,	0.820704	,	0.804928	,	0.804928	,	0.806048	,	0.806048	,	0.554112	,	0.554112	,	0.235648	,	0.235648	,	0.232096	,	0.776032	,	0.776032	,	0.834816	,	0.834816	,	0.826176	,	0.826176	,	0.777952	,	0.777952	,	0.554784	,	0.554784	,	0.238848	,	0.770016	,	0.770016	,	0.842528	,	0.842528	,	0.833792	,	0.833792	,	0.801408	,	0.801408	,	0.56544	,	0.56544	,	0.242752	,	0.242752	,	0.241984	,	0.88272	,	0.88272	,	0.84992	,	0.84992	,	0.814496	,	0.814496	,	0.581504	,	0.581504	,	0.376704	,	0.376704	,	0.24336
RayTracingRLGpu	,	0.608608	,	0.608608	,	0.480832	,	0.480832	,	0.719488	,	0.719488	,	0.752256	,	0.752256	,	0.362464	,	0.362464	,	0.148704	,	0.717696	,	0.717696	,	0.613952	,	0.613952	,	0.71296	,	0.71296	,	0.73376	,	0.73376	,	0.440992	,	0.440992	,	0.177248	,	0.177248	,	0.180352	,	0.781152	,	0.781152	,	0.721312	,	0.721312	,	0.797152	,	0.797152	,	0.775808	,	0.775808	,	0.472128	,	0.472128	,	0.198784	,	0.198784	,	0.196992	,	0.773088	,	0.773088	,	0.761536	,	0.761536	,	0.819136	,	0.819136	,	0.789024	,	0.789024	,	0.503648	,	0.503648	,	0.217088	,	0.217088	,	0.218848	,	0.785792	,	0.785792	,	0.789216	,	0.789216	,	0.820928	,	0.820928	,	0.796448	,	0.796448	,	0.522944	,	0.522944	,	0.217088	,	0.774208	,	0.774208	,	0.829184	,	0.829184	,	0.83936	,	0.83936	,	0.81472	,	0.81472	,	0.531648	,	0.531648	,	0.227776	,	0.227776	,	0.227808	,	0.790112	,	0.790112	,	0.819104	,	0.819104	,	0.804256	,	0.804256	,	0.804416	,	0.804416	,	0.553312	,	0.553312	,	0.234976	,	0.234976	,	0.231424	,	0.7752	,	0.7752	,	0.834112	,	0.834112	,	0.825504	,	0.825504	,	0.77728	,	0.77728	,	0.554112	,	0.554112	,	0.238016	,	0.769344	,	0.769344	,	0.8408	,	0.8408	,	0.83296	,	0.83296	,	0.799776	,	0.799776	,	0.564736	,	0.564736	,	0.24208	,	0.24208	,	0.241312	,	0.881888	,	0.881888	,	0.849216	,	0.849216	,	0.813664	,	0.813664	,	0.580704	,	0.580704	,	0.375872	,	0.375872	,	0.242336
Index	,	0	,	1	,	2	,	3	,	4	,	5	,	6	,	7	,	8	,	9	,	10	,	11	,	12	,	13	,	14	,	15	,	16	,	17	,	18	,	19	,	20	,	21	,	22	,	23	,	24	,	25	,	26	,	27	,	28	,	29	,	30	,	31	,	32	,	33	,	34	,	35	,	36	,	37	,	38	,	39	,	40	,	41	,	42	,	43	,	44	,	45	,	46	,	47	,	48	,	49	,	50	,	51	,	52	,	53	,	54	,	55	,	56	,	57	,	58	,	59	,	60	,	61	,	62	,	63	,	64	,	65	,	66	,	67	,	68	,	69	,	70	,	71	,	72	,	73	,	74	,	75	,	76	,	77	,	78	,	79	,	80	,	81	,	82	,	83	,	84	,	85	,	86	,	87	,	88	,	89	,	90	,	91	,	92	,	93	,	94	,	95	,	96	,	97	,	98	,	99	,	100	,	101	,	102	,	103	,	104	,	105	,	106	,	107	,	108	,	109	,	110	,	111	,	112	,	113	,	114	,	115	,	116	,	117	,	118	,	119	,	120	,	121

ProfilingBuildAggregator: 
BuildBottomLevelAS	,	0.8193	,	2.4247	,	6.6184	,	16.8214	,	46.6164	,	53.2642	,	86.4286	,	124.407	,	178.242	,	220.759
BuildBottomLevelASGpu	,	0.130176	,	0.90624	,	3.02096	,	7.1328	,	13.9093	,	24.4825	,	38.673	,	57.4393	,	81.7005	,	111.425
BuildTopLevelAS	,	0.8207	,	0.7379	,	0.7838	,	0.791	,	0.9075	,	0.663	,	0.8392	,	0.7331	,	1.007	,	0.5702
BuildTopLevelASGpu	,	0.061856	,	0.06912	,	0.091808	,	0.098592	,	0.126752	,	0.164832	,	0.160992	,	0.14496	,	0.171936	,	0.213888
Duplication	,	1	,	2	,	3	,	4	,	5	,	6	,	7	,	8	,	9	,	10
Triangles	,	12	,	96	,	324	,	768	,	1500	,	2592	,	4116	,	6144	,	8748	,	12000
Meshes	,	1	,	8	,	27	,	64	,	125	,	216	,	343	,	512	,	729	,	1000
BottomLevels	,	1	,	8	,	27	,	64	,	125	,	216	,	343	,	512	,	729	,	1000
TopLevelSize	,	64	,	512	,	1728	,	4096	,	8000	,	13824	,	21952	,	32768	,	46656	,	64000
BottomLevelsSize	,	4480	,	35840	,	120960	,	286720	,	560000	,	967680	,	1536640	,	2293760	,	3265920	,	4480000
Index	,	0	,	1	,	2	,	3	,	4	,	5	,	6	,	7	,	8	,	9

FpsAggregator: 
FPS	,	1052	,	1052	,	1135	,	1135	,	1206	,	1206	,	966	,	966	,	1335	,	1335	,	2491	,	1020	,	1020	,	1015	,	1015	,	1110	,	1110	,	997	,	997	,	1237	,	1237	,	2127	,	2127	,	2768	,	947	,	947	,	933	,	933	,	935	,	935	,	930	,	930	,	1156	,	1156	,	1983	,	1983	,	2624	,	947	,	947	,	917	,	917	,	918	,	918	,	906	,	906	,	1129	,	1129	,	1892	,	1892	,	2594	,	910	,	910	,	893	,	893	,	899	,	899	,	921	,	921	,	1113	,	1113	,	1867	,	908	,	908	,	869	,	869	,	876	,	876	,	890	,	890	,	1089	,	1089	,	1806	,	1806	,	2516	,	895	,	895	,	874	,	874	,	891	,	891	,	909	,	909	,	1088	,	1088	,	1781	,	1781	,	2483	,	891	,	891	,	871	,	871	,	885	,	885	,	913	,	913	,	1085	,	1085	,	1757	,	879	,	879	,	867	,	867	,	881	,	881	,	896	,	896	,	1057	,	1057	,	1707	,	1707	,	2440	,	879	,	879	,	855	,	855	,	875	,	875	,	939	,	939	,	1296	,	1296	,	2241
UPS	,	60	,	60	,	61	,	61	,	60	,	60	,	60	,	60	,	60	,	60	,	60	,	60	,	60	,	60	,	60	,	60	,	60	,	60	,	60	,	60	,	60	,	60	,	60	,	60	,	60	,	60	,	60	,	60	,	60	,	60	,	60	,	60	,	60	,	60	,	60	,	60	,	60	,	60	,	60	,	60	,	60	,	60	,	60	,	60	,	60	,	60	,	60	,	60	,	60	,	60	,	60	,	60	,	60	,	60	,	60	,	60	,	60	,	60	,	60	,	60	,	60	,	60	,	60	,	60	,	60	,	60	,	60	,	60	,	60	,	60	,	60	,	60	,	60	,	60	,	60	,	60	,	60	,	60	,	60	,	60	,	60	,	60	,	60	,	60	,	60	,	60	,	60	,	60	,	60	,	60	,	60	,	60	,	60	,	60	,	60	,	60	,	60	,	61	,	60	,	60	,	60	,	60	,	60	,	60	,	60	,	60	,	60	,	60	,	60	,	60	,	60	,	60	,	60	,	60	,	60	,	60	,	60	,	60	,	60	,	60	,	60	,	60
FrameTime	,	0.951017	,	0.951017	,	0.881119	,	0.881119	,	0.829957	,	0.829957	,	1.03566	,	1.03566	,	0.749299	,	0.749299	,	0.401515	,	0.981158	,	0.981158	,	0.985738	,	0.985738	,	0.901167	,	0.901167	,	1.00375	,	1.00375	,	0.80854	,	0.80854	,	0.470304	,	0.470304	,	0.361275	,	1.05675	,	1.05675	,	1.07206	,	1.07206	,	1.0699	,	1.0699	,	1.0758	,	1.0758	,	0.865286	,	0.865286	,	0.504461	,	0.504461	,	0.381221	,	1.05657	,	1.05657	,	1.0907	,	1.0907	,	1.08998	,	1.08998	,	1.1041	,	1.1041	,	0.886118	,	0.886118	,	0.528719	,	0.528719	,	0.385551	,	1.09996	,	1.09996	,	1.12008	,	1.12008	,	1.11315	,	1.11315	,	1.08602	,	1.08602	,	0.898922	,	0.898922	,	0.535626	,	1.1024	,	1.1024	,	1.15105	,	1.15105	,	1.14274	,	1.14274	,	1.1242	,	1.1242	,	0.918634	,	0.918634	,	0.553818	,	0.553818	,	0.397493	,	1.11796	,	1.11796	,	1.14476	,	1.14476	,	1.12279	,	1.12279	,	1.10049	,	1.10049	,	0.919195	,	0.919195	,	0.561635	,	0.561635	,	0.402853	,	1.1229	,	1.1229	,	1.1483	,	1.1483	,	1.13111	,	1.13111	,	1.09604	,	1.09604	,	0.922179	,	0.922179	,	0.569272	,	1.13847	,	1.13847	,	1.15451	,	1.15451	,	1.1358	,	1.1358	,	1.11628	,	1.11628	,	0.946194	,	0.946194	,	0.586003	,	0.586003	,	0.409858	,	1.1378	,	1.1378	,	1.17004	,	1.17004	,	1.14324	,	1.14324	,	1.0653	,	1.0653	,	0.771868	,	0.771868	,	0.446247
GigaRays/s	,	11.5771	,	11.5771	,	12.4955	,	12.4955	,	13.2658	,	13.2658	,	10.6309	,	10.6309	,	14.6938	,	14.6938	,	27.4212	,	11.2215	,	11.2215	,	11.1693	,	11.1693	,	12.2175	,	12.2175	,	10.9689	,	10.9689	,	13.6172	,	13.6172	,	23.4105	,	23.4105	,	30.4755	,	10.4188	,	10.4188	,	10.27	,	10.27	,	10.2907	,	10.2907	,	10.2343	,	10.2343	,	12.7242	,	12.7242	,	21.8254	,	21.8254	,	28.881	,	10.4206	,	10.4206	,	10.0944	,	10.0944	,	10.1012	,	10.1012	,	9.972	,	9.972	,	12.425	,	12.425	,	20.824	,	20.824	,	28.5566	,	10.0095	,	10.0095	,	9.82968	,	9.82968	,	9.89093	,	9.89093	,	10.138	,	10.138	,	12.2481	,	12.2481	,	20.5555	,	9.98734	,	9.98734	,	9.5652	,	9.5652	,	9.63479	,	9.63479	,	9.79365	,	9.79365	,	11.9852	,	11.9852	,	19.8803	,	19.8803	,	27.6987	,	9.8483	,	9.8483	,	9.61778	,	9.61778	,	9.80594	,	9.80594	,	10.0047	,	10.0047	,	11.9779	,	11.9779	,	19.6036	,	19.6036	,	27.3302	,	9.80499	,	9.80499	,	9.5881	,	9.5881	,	9.73382	,	9.73382	,	10.0453	,	10.0453	,	11.9392	,	11.9392	,	19.3406	,	9.67088	,	9.67088	,	9.53652	,	9.53652	,	9.69369	,	9.69369	,	9.86317	,	9.86317	,	11.6361	,	11.6361	,	18.7884	,	18.7884	,	26.8631	,	9.67659	,	9.67659	,	9.40996	,	9.40996	,	9.6306	,	9.6306	,	10.3352	,	10.3352	,	14.2642	,	14.2642	,	24.6725
Duplication	,	1	,	1	,	1	,	1	,	1	,	1	,	1	,	1	,	1	,	1	,	1	,	2	,	2	,	2	,	2	,	2	,	2	,	2	,	2	,	2	,	2	,	2	,	2	,	2	,	3	,	3	,	3	,	3	,	3	,	3	,	3	,	3	,	3	,	3	,	3	,	3	,	3	,	4	,	4	,	4	,	4	,	4	,	4	,	4	,	4	,	4	,	4	,	4	,	4	,	4	,	5	,	5	,	5	,	5	,	5	,	5	,	5	,	5	,	5	,	5	,	5	,	6	,	6	,	6	,	6	,	6	,	6	,	6	,	6	,	6	,	6	,	6	,	6	,	6	,	7	,	7	,	7	,	7	,	7	,	7	,	7	,	7	,	7	,	7	,	7	,	7	,	7	,	8	,	8	,	8	,	8	,	8	,	8	,	8	,	8	,	8	,	8	,	8	,	9	,	9	,	9	,	9	,	9	,	9	,	9	,	9	,	9	,	9	,	9	,	9	,	9	,	10	,	10	,	10	,	10	,	10	,	10	,	10	,	10	,	10	,	10	,	10
Index	,	0	,	1	,	2	,	3	,	4	,	5	,	6	,	7	,	8	,	9	,	10	,	11	,	12	,	13	,	14	,	15	,	16	,	17	,	18	,	19	,	20	,	21	,	22	,	23	,	24	,	25	,	26	,	27	,	28	,	29	,	30	,	31	,	32	,	33	,	34	,	35	,	36	,	37	,	38	,	39	,	40	,	41	,	42	,	43	,	44	,	45	,	46	,	47	,	48	,	49	,	50	,	51	,	52	,	53	,	54	,	55	,	56	,	57	,	58	,	59	,	60	,	61	,	62	,	63	,	64	,	65	,	66	,	67	,	68	,	69	,	70	,	71	,	72	,	73	,	74	,	75	,	76	,	77	,	78	,	79	,	80	,	81	,	82	,	83	,	84	,	85	,	86	,	87	,	88	,	89	,	90	,	91	,	92	,	93	,	94	,	95	,	96	,	97	,	98	,	99	,	100	,	101	,	102	,	103	,	104	,	105	,	106	,	107	,	108	,	109	,	110	,	111	,	112	,	113	,	114	,	115	,	116	,	117	,	118	,	119	,	120	,	121


AccelerationStructure: 
Ray tracing acceleration structure building statistics: 
	Bottom Level Acceleration Structure: 
		Maximum [B]: 4480
		Minimum [B]: 4480
		Currently Allocated [B]: 4480000
		Currently Created [num]: 1000
		Current Average [B]: 4480
		Maximum Triangles [num]: 12
		Minimum Triangles [num]: 12
		Total Triangles [num]: 12000
		Maximum Meshes [num]: 1
		Minimum Meshes [num]: 1
		Total Meshes [num]: 1000
	Top Level Acceleration Structure: 
		Maximum [B]: 64000
		Minimum [B]: 64000
		Currently Allocated [B]: 64000
		Total Allocated [B]: 64000
		Total Created [num]: 1
		Average Allocated [B]: 64000
		Maximum Instances [num]: 1000
		Minimum Instances [num]: 1000
		Total Instances [num]: 1000
	Scratch Buffer: 
		Maximum [B]: 78336
		Minimum [B]: 78336
		Currently Allocated [B]: 78336
		Total Allocated [B]: 78336
		Total Created [num]: 1
		Average Allocated [B]: 78336
ProfilingStack: 
[PROF] Profiling statistics: 
	Scopes entered : 1127209
	Scopes exited : 1127208
	Overhead per scope [ticks] : 117.2
	Threads entered : 3
	Threads exited : 0
	============================
		         Sum[Mt]   Parent[%]  Samples[num]       Avg[Mt]   Last/Curr[Mt]        Self[Mt]     Self[%] 	 Name

	main:

		   96514.903 Mt   100.000 %         1 x    96514.904 Mt    96514.903 Mt        0.374 Mt     0.000 % 	 /

		   96514.539 Mt   100.000 %         1 x    96514.539 Mt    96514.539 Mt      273.026 Mt     0.283 % 	 ./Main application loop

		       2.216 Mt     0.002 %         1 x        2.216 Mt        0.000 Mt        2.216 Mt   100.000 % 	 ../TexturedRLInitialization

		       1.174 Mt     0.001 %         1 x        1.174 Mt        0.000 Mt        1.174 Mt   100.000 % 	 ../ShadowMapRLInitialization

		       4.672 Mt     0.005 %         1 x        4.672 Mt        0.000 Mt        4.672 Mt   100.000 % 	 ../RasterResolveRLInitialization

		       3.827 Mt     0.004 %         1 x        3.827 Mt        0.000 Mt        3.827 Mt   100.000 % 	 ../ResolveRLInitialization

		   96094.317 Mt    99.565 %    203917 x        0.471 Mt        0.517 Mt      896.710 Mt     0.933 % 	 ../MainLoop

		     351.177 Mt     0.365 %      5767 x        0.061 Mt        0.048 Mt      350.921 Mt    99.927 % 	 .../Update

		       0.256 Mt     0.073 %         1 x        0.256 Mt        0.000 Mt        0.256 Mt   100.000 % 	 ..../GuiModelApply

		   94846.430 Mt    98.701 %    114658 x        0.827 Mt        0.468 Mt     3897.189 Mt     4.109 % 	 .../Render

		    7213.984 Mt     7.606 %    114658 x        0.063 Mt        0.027 Mt      233.913 Mt     3.242 % 	 ..../RayTracing

		    6980.071 Mt    96.758 %    114658 x        0.061 Mt        0.025 Mt     3810.690 Mt    54.594 % 	 ...../RayCasting

		    3169.381 Mt    45.406 %    114658 x        0.028 Mt        0.000 Mt       68.542 Mt     2.163 % 	 ....../RayTracingRLPrep

		    1056.357 Mt    33.330 %        18 x       58.686 Mt        0.000 Mt     1056.357 Mt   100.000 % 	 ......./PrepareAccelerationStructures

		       0.288 Mt     0.009 %        18 x        0.016 Mt        0.000 Mt        0.288 Mt   100.000 % 	 ......./PrepareCache

		     393.229 Mt    12.407 %        18 x       21.846 Mt        0.000 Mt      393.229 Mt   100.000 % 	 ......./PipelineBuild

		       0.005 Mt     0.000 %        18 x        0.000 Mt        0.000 Mt        0.005 Mt   100.000 % 	 ......./BuildCache

		    1612.984 Mt    50.893 %        18 x       89.610 Mt        0.000 Mt        0.011 Mt     0.001 % 	 ......./BuildAccelerationStructures

		    1612.973 Mt    99.999 %        18 x       89.610 Mt        0.000 Mt       83.682 Mt     5.188 % 	 ......../AccelerationStructureBuild

		    1515.579 Mt    93.962 %        18 x       84.199 Mt        0.000 Mt     1515.579 Mt   100.000 % 	 ........./BuildBottomLevelAS

		      13.711 Mt     0.850 %        18 x        0.762 Mt        0.000 Mt       13.711 Mt   100.000 % 	 ........./BuildTopLevelAS

		      37.976 Mt     1.198 %        18 x        2.110 Mt        0.000 Mt       37.976 Mt   100.000 % 	 ......./BuildShaderTables

		   83735.257 Mt    88.285 %    114658 x        0.730 Mt        0.404 Mt    83735.257 Mt   100.000 % 	 ..../Present

		       2.639 Mt     0.003 %         1 x        2.639 Mt        0.000 Mt        2.639 Mt   100.000 % 	 ../AmbientOcclusionRLInitialization

		       4.986 Mt     0.005 %         1 x        4.986 Mt        0.000 Mt        4.986 Mt   100.000 % 	 ../DeferredRLInitialization

		      60.140 Mt     0.062 %         1 x       60.140 Mt        0.000 Mt        2.330 Mt     3.874 % 	 ../RayTracingRLInitialization

		      57.810 Mt    96.126 %         1 x       57.810 Mt        0.000 Mt       57.810 Mt   100.000 % 	 .../PipelineBuild

		      67.543 Mt     0.070 %         1 x       67.543 Mt        0.000 Mt        0.178 Mt     0.263 % 	 ../Initialization

		      67.365 Mt    99.737 %         1 x       67.365 Mt        0.000 Mt        4.737 Mt     7.032 % 	 .../ScenePrep

		      22.362 Mt    33.195 %         1 x       22.362 Mt        0.000 Mt        6.469 Mt    28.927 % 	 ..../SceneLoad

		      10.655 Mt    47.649 %         1 x       10.655 Mt        0.000 Mt        2.637 Mt    24.750 % 	 ...../glTF-LoadScene

		       8.018 Mt    75.250 %         2 x        4.009 Mt        0.000 Mt        8.018 Mt   100.000 % 	 ....../glTF-LoadImageData

		       3.328 Mt    14.882 %         1 x        3.328 Mt        0.000 Mt        3.328 Mt   100.000 % 	 ...../glTF-CreateScene

		       1.910 Mt     8.541 %         1 x        1.910 Mt        0.000 Mt        1.910 Mt   100.000 % 	 ...../SceneDesc-CreateScene

		       0.304 Mt     0.451 %         1 x        0.304 Mt        0.000 Mt        0.001 Mt     0.165 % 	 ..../ShadowMapRLPrep

		       0.303 Mt    99.835 %         1 x        0.303 Mt        0.000 Mt        0.295 Mt    97.295 % 	 ...../PrepareForRendering

		       0.008 Mt     2.705 %         1 x        0.008 Mt        0.000 Mt        0.008 Mt   100.000 % 	 ....../PrepareDrawBundle

		       1.473 Mt     2.187 %         1 x        1.473 Mt        0.000 Mt        0.000 Mt     0.027 % 	 ..../TexturedRLPrep

		       1.473 Mt    99.973 %         1 x        1.473 Mt        0.000 Mt        1.469 Mt    99.708 % 	 ...../PrepareForRendering

		       0.001 Mt     0.048 %         1 x        0.001 Mt        0.000 Mt        0.001 Mt   100.000 % 	 ....../PrepareMaterials

		       0.004 Mt     0.244 %         1 x        0.004 Mt        0.000 Mt        0.004 Mt   100.000 % 	 ....../PrepareDrawBundle

		       1.394 Mt     2.069 %         1 x        1.394 Mt        0.000 Mt        0.000 Mt     0.036 % 	 ..../DeferredRLPrep

		       1.394 Mt    99.964 %         1 x        1.394 Mt        0.000 Mt        1.048 Mt    75.187 % 	 ...../PrepareForRendering

		       0.001 Mt     0.057 %         1 x        0.001 Mt        0.000 Mt        0.001 Mt   100.000 % 	 ....../PrepareMaterials

		       0.342 Mt    24.541 %         1 x        0.342 Mt        0.000 Mt        0.342 Mt   100.000 % 	 ....../BuildMaterialCache

		       0.003 Mt     0.215 %         1 x        0.003 Mt        0.000 Mt        0.003 Mt   100.000 % 	 ....../PrepareDrawBundle

		      26.272 Mt    39.000 %         1 x       26.272 Mt        0.000 Mt        2.678 Mt    10.194 % 	 ..../RayTracingRLPrep

		       0.046 Mt     0.176 %         1 x        0.046 Mt        0.000 Mt        0.046 Mt   100.000 % 	 ...../PrepareAccelerationStructures

		       0.001 Mt     0.003 %         1 x        0.001 Mt        0.000 Mt        0.001 Mt   100.000 % 	 ...../PrepareCache

		      17.154 Mt    65.293 %         1 x       17.154 Mt        0.000 Mt       17.154 Mt   100.000 % 	 ...../PipelineBuild

		       0.528 Mt     2.009 %         1 x        0.528 Mt        0.000 Mt        0.528 Mt   100.000 % 	 ...../BuildCache

		       4.282 Mt    16.301 %         1 x        4.282 Mt        0.000 Mt        0.001 Mt     0.014 % 	 ...../BuildAccelerationStructures

		       4.282 Mt    99.986 %         1 x        4.282 Mt        0.000 Mt        2.642 Mt    61.699 % 	 ....../AccelerationStructureBuild

		       0.819 Mt    19.134 %         1 x        0.819 Mt        0.000 Mt        0.819 Mt   100.000 % 	 ......./BuildBottomLevelAS

		       0.821 Mt    19.167 %         1 x        0.821 Mt        0.000 Mt        0.821 Mt   100.000 % 	 ......./BuildTopLevelAS

		       1.583 Mt     6.025 %         1 x        1.583 Mt        0.000 Mt        1.583 Mt   100.000 % 	 ...../BuildShaderTables

		      10.823 Mt    16.066 %         1 x       10.823 Mt        0.000 Mt       10.823 Mt   100.000 % 	 ..../GpuSidePrep

	WindowThread:

		   96512.780 Mt   100.000 %         1 x    96512.780 Mt    96512.779 Mt    96512.780 Mt   100.000 % 	 /

	GpuThread:

		   65572.254 Mt   100.000 %    114658 x        0.572 Mt        0.246 Mt      180.646 Mt     0.275 % 	 /

		       0.199 Mt     0.000 %         1 x        0.199 Mt        0.000 Mt        0.006 Mt     3.104 % 	 ./ScenePrep

		       0.193 Mt    96.896 %         1 x        0.193 Mt        0.000 Mt        0.001 Mt     0.382 % 	 ../AccelerationStructureBuild

		       0.130 Mt    67.530 %         1 x        0.130 Mt        0.000 Mt        0.130 Mt   100.000 % 	 .../BuildBottomLevelASGpu

		       0.062 Mt    32.088 %         1 x        0.062 Mt        0.000 Mt        0.062 Mt   100.000 % 	 .../BuildTopLevelASGpu

		   65204.869 Mt    99.440 %    114658 x        0.569 Mt        0.244 Mt      122.674 Mt     0.188 % 	 ./RayTracingGpu

		   64401.846 Mt    98.768 %    114658 x        0.562 Mt        0.244 Mt    64401.846 Mt   100.000 % 	 ../RayTracingRLGpu

		     680.349 Mt     1.043 %        18 x       37.797 Mt        0.000 Mt        0.032 Mt     0.005 % 	 ../AccelerationStructureBuild

		     677.857 Mt    99.634 %        18 x       37.659 Mt        0.000 Mt      677.857 Mt   100.000 % 	 .../BuildBottomLevelASGpu

		       2.461 Mt     0.362 %        18 x        0.137 Mt        0.000 Mt        2.461 Mt   100.000 % 	 .../BuildTopLevelASGpu

		     186.540 Mt     0.284 %    114658 x        0.002 Mt        0.002 Mt      186.540 Mt   100.000 % 	 ./Present


	============================


