Configuration: 
Command line parameters  = E:\programming\FIT-DIP\Masters-DXR-Main-git\\build\Measurement\x64\Debug\Measurement.exe --scene Cube/Cube.gltf 
Window width             = 1024
Window height            = 768
Window title             = Direct3D App
Back-buffer count        = 3
Target FPS               = 0
Target UPS               = 60
Tearing                  = enabled
VSync                    = disabled
GUI rendering            = enabled
Debug layer              = enabled
GPU validation           = disabled
GPU profiling            = enabled
Render mode              = Ray Tracing
Loaded scene file        = Cube/Cube.gltf
Using testing scene      = disabled
Duplication              = 1
Duplication in cube      = disabled
Duplication offset       = 10
BLAS duplication         = disabled
Rays per pixel           = 9

ProfilingBuildAggregator: 
BuildBottomLevelAS	,	0.9573	,	1.7538
BuildBottomLevelASGpu	,	0.179328	,	0.331616
BuildTopLevelAS	,	0.5593	,	1.7015
BuildTopLevelASGpu	,	0.084032	,	0.141376

ProfilingAggregator: 
Render	,	1.6299	,	1.6283	,	2.3757	,	2.9358	,	1.3422	,	1.3621	,	1.3781	,	2.1001	,	1.7529	,	1.8742	,	0.6242	,	1.3375	,	1.3072	,	1.3813	,	0.7236	,	0.6098	,	0.6002	,	2.3807	,	0.6311	,	0.6271	,	1.0336	,	1.4022	,	1.5195	,	2.578	,	2.2428	,	2.9467	,	6.2914	,	6.6327	,	4.1307	,	5.4421	,	3.4921	,	6.5104	,	8.4223	,	9.8916	,	3.7492	,	5.4651	,	4.9229	,	9.8305	,	4.3287	,	4.4827	,	6.6073	,	6.007	,	3.7443	,	5.0424	,	4.3412	,	4.3916	,	4.8294	,	3.2815	,	4.1682	,	4.0976	,	6.1793	,	9.2671	,	3.3626	,	3.5124	,	4.1829	,	9.2318	,	8.9086	,	8.1199	,	7.4758	,	4.4325	,	11.3412	,	5.1714	,	7.9257	,	5.0879	,	4.8185	,	9.2134	,	7.1666	,	7.5632	,	5.2853	,	12.0915	,	11.0217	,	7.7389	,	4.5666	,	8.6985	,	5.62	,	4.9872	,	11.7084	,	5.2419	,	5.5456	,	5.0315	,	6.6411	,	7.2841	,	11.3049	,	8.7668	,	5.4711	,	11.6739	,	9.4734	,	5.1309	,	7.637	,	6.3597	,	11.1724	,	11.4137	,	4.6367	,	4.6163	,	8.603	,	6.8181	,	11.8509	,	10.4709	,	10.7807
Update	,	0.3214	,	0.2821	,	0.2844	,	0.3074	,	0.8155	,	0.2792	,	0.278	,	0.2864	,	0.2856	,	0.283	,	0.3597	,	0.4125	,	0.287	,	0.2939	,	0.2906	,	0.7133	,	0.2896	,	0.3963	,	0.2837	,	0.3447	,	0.2858	,	0.2832	,	0.8289	,	0.2899	,	0.2887	,	0.2883	,	0.8198	,	0.5784	,	0.2968	,	0.4928	,	1.013	,	0.3977	,	0.2827	,	0.3365	,	0.2845	,	0.5241	,	0.2822	,	0.8301	,	0.2952	,	0.8439	,	0.4702	,	0.2855	,	0.2856	,	0.6328	,	0.792	,	0.2808	,	0.292	,	0.2831	,	0.2909	,	0.2869	,	0.9349	,	0.8171	,	0.2814	,	0.2921	,	0.2852	,	0.8235	,	0.8276	,	0.3164	,	0.2891	,	0.2832	,	0.8603	,	0.292	,	0.5856	,	0.2809	,	0.2973	,	0.3859	,	0.2859	,	0.5392	,	0.3074	,	0.5788	,	0.771	,	0.2917	,	0.8012	,	0.8431	,	0.2936	,	0.7482	,	0.8238	,	0.2844	,	0.5023	,	0.2836	,	0.738	,	0.6464	,	0.8133	,	0.5698	,	0.2953	,	0.9062	,	0.3612	,	0.4985	,	0.298	,	0.6231	,	0.3384	,	0.3621	,	0.341	,	0.2831	,	0.3938	,	0.8523	,	0.8186	,	0.7843	,	0.7709
RayTracing	,	0	,	0	,	0	,	0	,	0	,	0	,	0	,	0	,	0	,	0	,	0	,	0	,	0	,	0	,	0	,	0	,	0	,	0	,	0	,	0	,	0	,	0	,	0	,	0	,	0	,	0	,	2.22336	,	1.74253	,	1.70797	,	1.00182	,	1.12134	,	1.53168	,	1.52688	,	2.11872	,	1.38086	,	1.06304	,	1.76538	,	2.21341	,	1.71152	,	1.68522	,	1.69795	,	1.19818	,	1.20349	,	1.7351	,	2.13965	,	1.75872	,	2.31338	,	1.06323	,	1.82678	,	1.7209	,	1.71149	,	2.06998	,	1.06659	,	1.0616	,	2.08176	,	1.644	,	1.68698	,	1.05296	,	1.39898	,	1.27866	,	1.81194	,	1.78746	,	1.80131	,	1.7911	,	1.78211	,	1.67469	,	1.66784	,	2.13898	,	1.71677	,	1.6864	,	2.60298	,	1.68394	,	1.66752	,	1.75818	,	2.41104	,	1.74173	,	1.70627	,	1.75827	,	1.75405	,	1.77539	,	1.84032	,	2.49709	,	1.7721	,	2.58179	,	2.18982	,	1.8048	,	1.78282	,	1.85325	,	1.8295	,	2.13642	,	1.78362	,	1.79782	,	1.79136	,	1.89062	,	1.83702	,	1.8031	,	2.38634	,	2.46333	,	1.81936
RayTracingRL	,	0	,	0	,	0	,	0	,	0	,	0	,	0	,	0	,	0	,	0	,	0	,	0	,	0	,	0	,	0	,	0	,	0	,	0	,	0	,	0	,	0	,	0	,	0	,	0	,	0	,	0	,	0.431584	,	0.429824	,	0.427904	,	0.10384	,	0.101568	,	0.108352	,	0.109024	,	0.435712	,	0.107776	,	0.106464	,	0.425952	,	0.422848	,	0.430048	,	0.404384	,	0.403136	,	0.10512	,	0.104704	,	0.418944	,	0.422336	,	0.4208	,	0.418112	,	0.108224	,	0.402656	,	0.40832	,	0.410272	,	0.409152	,	0.11184	,	0.106816	,	0.43536	,	0.399872	,	0.405024	,	0.105984	,	0.107776	,	0.1304	,	0.410752	,	0.405024	,	0.417088	,	0.402144	,	0.405248	,	0.408224	,	0.399936	,	0.435008	,	0.438528	,	0.407136	,	0.428416	,	0.413696	,	0.40144	,	0.409984	,	0.415232	,	0.427264	,	0.397856	,	0.396928	,	0.399904	,	0.398656	,	0.403232	,	0.570368	,	0.407904	,	0.570528	,	0.426144	,	0.426368	,	0.403744	,	0.409344	,	0.400032	,	0.545184	,	0.406336	,	0.410592	,	0.402272	,	0.413152	,	0.43056	,	0.405952	,	0.42304	,	0.427584	,	0.416

FpsAggregator: 
FPS	,	56	,	60	,	60	,	60	,	338	,	503	,	473	,	489	,	666	,	819	,	979	,	1140	,	840	,	877	,	892	,	1030	,	1184	,	906	,	981	,	1095	,	957	,	889	,	1128	,	884	,	825	,	790	,	630	,	174	,	164	,	220	,	231	,	177	,	199	,	206	,	204	,	210	,	172	,	159	,	172	,	171	,	180	,	185	,	231	,	199	,	168	,	169	,	179	,	198	,	205	,	169	,	169	,	180	,	198	,	215	,	179	,	173	,	170	,	204	,	236	,	187	,	148	,	146	,	149	,	151	,	152	,	164	,	145	,	158	,	162	,	157	,	139	,	160	,	160	,	144	,	154	,	166	,	149	,	149	,	151	,	142	,	137	,	141	,	144	,	153	,	148	,	144	,	143	,	144	,	150	,	147	,	153	,	151	,	142	,	143	,	149	,	143	,	146	,	149	,	145
UPS	,	59	,	61	,	60	,	60	,	59	,	61	,	60	,	60	,	60	,	60	,	60	,	60	,	60	,	60	,	60	,	60	,	60	,	60	,	60	,	60	,	60	,	60	,	60	,	60	,	60	,	60	,	60	,	60	,	61	,	60	,	60	,	60	,	60	,	60	,	61	,	60	,	60	,	60	,	60	,	60	,	60	,	60	,	61	,	60	,	60	,	60	,	60	,	60	,	61	,	60	,	59	,	61	,	60	,	60	,	60	,	60	,	61	,	60	,	60	,	61	,	60	,	60	,	61	,	60	,	60	,	60	,	60	,	61	,	60	,	60	,	61	,	60	,	61	,	60	,	60	,	60	,	60	,	61	,	60	,	60	,	60	,	60	,	61	,	60	,	61	,	59	,	61	,	61	,	59	,	61	,	60	,	60	,	61	,	60	,	60	,	61	,	60	,	60	,	60
FrameTime	,	17.8572	,	16.6714	,	16.6667	,	16.667	,	2.96143	,	1.98917	,	2.11633	,	2.04546	,	1.50295	,	1.22252	,	1.02146	,	0.878056	,	1.19067	,	1.14106	,	1.12119	,	0.971232	,	0.844714	,	1.10568	,	1.01945	,	0.913802	,	1.04595	,	1.12618	,	0.88784	,	1.13167	,	1.2134	,	1.26611	,	1.5925	,	5.75081	,	6.11342	,	4.56708	,	4.34312	,	5.67717	,	5.02672	,	4.86964	,	4.90211	,	4.77201	,	5.83539	,	6.29011	,	5.82057	,	5.87242	,	5.57985	,	5.41415	,	4.33838	,	5.0418	,	5.95419	,	5.93514	,	5.59822	,	5.0616	,	4.89151	,	5.91936	,	5.9179	,	5.60724	,	5.06174	,	4.65474	,	5.58944	,	5.8246	,	5.91012	,	4.91975	,	4.24725	,	5.36275	,	6.82227	,	6.88221	,	6.75601	,	6.64777	,	6.61035	,	6.11695	,	6.8981	,	6.36105	,	6.2012	,	6.40748	,	7.25392	,	6.29565	,	6.27449	,	6.97081	,	6.52223	,	6.03775	,	6.76212	,	6.7394	,	6.63201	,	7.05706	,	7.3058	,	7.10994	,	7.02274	,	6.58126	,	6.77168	,	6.9605	,	7.0454	,	6.98208	,	6.67787	,	6.81345	,	6.58869	,	6.65788	,	7.0455	,	7.02261	,	6.76732	,	7.03813	,	6.89336	,	6.71392	,	6.90365
GigaRays/s	,	0	,	0	,	0	,	0	,	0	,	0	,	0	,	0	,	0	,	0	,	0	,	0	,	0	,	0	,	0	,	0	,	0	,	0	,	0	,	0	,	0	,	0	,	0	,	0	,	0	,	0	,	4.44451	,	1.23076	,	1.15776	,	1.54976	,	1.62968	,	1.24673	,	1.40805	,	1.45347	,	1.44385	,	1.48321	,	1.21293	,	1.12524	,	1.21601	,	1.20528	,	1.26847	,	1.30729	,	1.63146	,	1.40384	,	1.18872	,	1.19254	,	1.26431	,	1.39835	,	1.44697	,	1.19572	,	1.19601	,	1.26228	,	1.39831	,	1.52058	,	1.2663	,	1.21517	,	1.19759	,	1.43867	,	1.66646	,	1.31982	,	1.03747	,	1.02843	,	1.04764	,	1.0647	,	1.07073	,	1.15709	,	1.02606	,	1.11269	,	1.14137	,	1.10463	,	0.975732	,	1.12425	,	1.12804	,	1.01536	,	1.08519	,	1.17227	,	1.0467	,	1.05023	,	1.06723	,	1.00295	,	0.968804	,	0.995492	,	1.00785	,	1.07546	,	1.04522	,	1.01687	,	1.00461	,	1.01372	,	1.0599	,	1.03881	,	1.07425	,	1.06308	,	1.0046	,	1.00787	,	1.04589	,	1.00565	,	1.02677	,	1.05421	,	1.02524

AccelerationStructure: 
Ray tracing acceleration structure building statistics: 
	Bottom Level Acceleration Structure: 
		Maximum [B]: 6208
		Minimum [B]: 6208
		Currently Allocated [B]: 6208
		Currently Created [num]: 1
		Current Average [B]: 6208
		Maximum Triangles [num]: 12
		Minimum Triangles [num]: 12
		Total Triangles [num]: 12
		Maximum Meshes [num]: 1
		Minimum Meshes [num]: 1
		Total Meshes [num]: 1
	Top Level Acceleration Structure: 
		Maximum [B]: 64
		Minimum [B]: 64
		Currently Allocated [B]: 64
		Total Allocated [B]: 64
		Total Created [num]: 1
		Average Allocated [B]: 64
		Maximum Instances [num]: 1
		Minimum Instances [num]: 1
		Total Instances [num]: 1
	Scratch Buffer: 
		Maximum [B]: 3584
		Minimum [B]: 3584
		Currently Allocated [B]: 3584
		Total Allocated [B]: 3584
		Total Created [num]: 1
		Average Allocated [B]: 3584
ProfilingStack: 
[PROF] Profiling statistics: 
	Scopes entered : 1173661
	Scopes exited : 1173660
	Overhead per scope [ticks] : 1045.8
	Threads entered : 3
	Threads exited : 0
	============================
		         Sum[Mt]   Parent[%]  Samples[num]       Avg[Mt]   Last/Curr[Mt]        Self[Mt]     Self[%] 	 Name

	main:

		  101418.872 Mt   100.000 %         1 x   101418.874 Mt   101418.872 Mt      515.341 Mt     0.508 % 	 /

		  100903.576 Mt    99.492 %         1 x   100903.578 Mt   100903.576 Mt     2833.656 Mt     2.808 % 	 ./Main application loop

		       2.697 Mt     0.003 %         1 x        2.697 Mt        0.000 Mt        2.697 Mt   100.000 % 	 ../TexturedRLInitialization

		       8.725 Mt     0.009 %         1 x        8.725 Mt        0.000 Mt        8.725 Mt   100.000 % 	 ../DeferredRLInitialization

		      61.914 Mt     0.061 %         1 x       61.914 Mt        0.000 Mt        1.824 Mt     2.946 % 	 ../RayTracingRLInitialization

		      60.090 Mt    97.054 %         1 x       60.090 Mt        0.000 Mt       60.090 Mt   100.000 % 	 .../PipelineBuild

		      11.417 Mt     0.011 %         1 x       11.417 Mt        0.000 Mt       11.417 Mt   100.000 % 	 ../ResolveRLInitialization

		      91.240 Mt     0.090 %         1 x       91.240 Mt        0.000 Mt        2.409 Mt     2.640 % 	 ../Initialization

		      88.831 Mt    97.360 %         1 x       88.831 Mt        0.000 Mt        0.787 Mt     0.886 % 	 .../ScenePrep

		      72.162 Mt    81.235 %         1 x       72.162 Mt        0.000 Mt        7.269 Mt    10.073 % 	 ..../SceneLoad

		      60.271 Mt    83.522 %         1 x       60.271 Mt        0.000 Mt       13.095 Mt    21.727 % 	 ...../glTF-LoadScene

		      47.176 Mt    78.273 %         2 x       23.588 Mt        0.000 Mt       47.176 Mt   100.000 % 	 ....../glTF-LoadImageData

		       2.498 Mt     3.462 %         1 x        2.498 Mt        0.000 Mt        2.498 Mt   100.000 % 	 ...../glTF-CreateScene

		       2.124 Mt     2.943 %         1 x        2.124 Mt        0.000 Mt        2.124 Mt   100.000 % 	 ...../SceneDesc-CreateScene

		       0.749 Mt     0.843 %         1 x        0.749 Mt        0.000 Mt        0.005 Mt     0.708 % 	 ..../TexturedRLPrep

		       0.744 Mt    99.292 %         1 x        0.744 Mt        0.000 Mt        0.209 Mt    28.157 % 	 ...../PrepareForRendering

		       0.243 Mt    32.688 %         1 x        0.243 Mt        0.000 Mt        0.243 Mt   100.000 % 	 ....../PrepareMaterials

		       0.291 Mt    39.156 %         1 x        0.291 Mt        0.000 Mt        0.291 Mt   100.000 % 	 ....../PrepareDrawBundle

		       1.554 Mt     1.750 %         1 x        1.554 Mt        0.000 Mt        0.004 Mt     0.290 % 	 ..../DeferredRLPrep

		       1.550 Mt    99.710 %         1 x        1.550 Mt        0.000 Mt        1.092 Mt    70.467 % 	 ...../PrepareForRendering

		       0.018 Mt     1.129 %         1 x        0.018 Mt        0.000 Mt        0.018 Mt   100.000 % 	 ....../PrepareMaterials

		       0.163 Mt    10.498 %         1 x        0.163 Mt        0.000 Mt        0.163 Mt   100.000 % 	 ....../BuildMaterialCache

		       0.278 Mt    17.906 %         1 x        0.278 Mt        0.000 Mt        0.278 Mt   100.000 % 	 ....../PrepareDrawBundle

		       5.640 Mt     6.349 %         1 x        5.640 Mt        0.000 Mt        2.232 Mt    39.584 % 	 ..../RayTracingRLPrep

		       0.237 Mt     4.201 %         1 x        0.237 Mt        0.000 Mt        0.237 Mt   100.000 % 	 ...../PrepareAccelerationStructures

		       0.026 Mt     0.456 %         1 x        0.026 Mt        0.000 Mt        0.026 Mt   100.000 % 	 ...../PrepareCache

		       0.220 Mt     3.906 %         1 x        0.220 Mt        0.000 Mt        0.220 Mt   100.000 % 	 ...../BuildCache

		       2.247 Mt    39.848 %         1 x        2.247 Mt        0.000 Mt        0.007 Mt     0.307 % 	 ...../BuildAccelerationStructures

		       2.240 Mt    99.693 %         1 x        2.240 Mt        0.000 Mt        0.724 Mt    32.307 % 	 ....../AccelerationStructureBuild

		       0.957 Mt    42.729 %         1 x        0.957 Mt        0.000 Mt        0.957 Mt   100.000 % 	 ......./BuildBottomLevelAS

		       0.559 Mt    24.964 %         1 x        0.559 Mt        0.000 Mt        0.559 Mt   100.000 % 	 ......./BuildTopLevelAS

		       0.677 Mt    12.006 %         1 x        0.677 Mt        0.000 Mt        0.677 Mt   100.000 % 	 ...../BuildShaderTables

		       7.939 Mt     8.937 %         1 x        7.939 Mt        0.000 Mt        7.939 Mt   100.000 % 	 ..../GpuSidePrep

		   97893.927 Mt    97.017 %    975324 x        0.100 Mt       20.544 Mt     2365.343 Mt     2.416 % 	 ../MainLoop

		    2826.028 Mt     2.887 %      6001 x        0.471 Mt        9.187 Mt     2826.028 Mt   100.000 % 	 .../Update

		   92702.555 Mt    94.697 %     31723 x        2.922 Mt       11.342 Mt    86163.468 Mt    92.946 % 	 .../Render

		      81.314 Mt     0.088 %     19514 x        0.004 Mt        0.000 Mt       81.314 Mt   100.000 % 	 ..../TexturedRLPrep

		    6304.976 Mt     6.801 %      8263 x        0.763 Mt        1.737 Mt     6304.976 Mt   100.000 % 	 ..../GuiModelApply

		      71.996 Mt     0.078 %     12209 x        0.006 Mt        0.011 Mt       68.218 Mt    94.753 % 	 ..../DeferredRLPrep

		       3.777 Mt     5.247 %         3 x        1.259 Mt        0.000 Mt        2.008 Mt    53.162 % 	 ...../PrepareForRendering

		       0.054 Mt     1.443 %         3 x        0.018 Mt        0.000 Mt        0.054 Mt   100.000 % 	 ....../PrepareMaterials

		       0.003 Mt     0.071 %         3 x        0.001 Mt        0.000 Mt        0.003 Mt   100.000 % 	 ....../BuildMaterialCache

		       1.712 Mt    45.324 %         3 x        0.571 Mt        0.000 Mt        1.712 Mt   100.000 % 	 ....../PrepareDrawBundle

		      80.801 Mt     0.087 %     12209 x        0.007 Mt        0.008 Mt       54.046 Mt    66.888 % 	 ..../RayTracingRLPrep

		       5.522 Mt     6.834 %         3 x        1.841 Mt        0.000 Mt        5.522 Mt   100.000 % 	 ...../PrepareAccelerationStructures

		       0.037 Mt     0.046 %         3 x        0.012 Mt        0.000 Mt        0.037 Mt   100.000 % 	 ...../PrepareCache

		       0.003 Mt     0.003 %         3 x        0.001 Mt        0.000 Mt        0.003 Mt   100.000 % 	 ...../BuildCache

		      17.017 Mt    21.061 %         3 x        5.672 Mt        0.000 Mt        0.013 Mt     0.077 % 	 ...../BuildAccelerationStructures

		      17.004 Mt    99.923 %         3 x        5.668 Mt        0.000 Mt        3.836 Mt    22.561 % 	 ....../AccelerationStructureBuild

		       9.751 Mt    57.347 %         3 x        3.250 Mt        0.000 Mt        9.751 Mt   100.000 % 	 ......./BuildBottomLevelAS

		       3.416 Mt    20.092 %         3 x        1.139 Mt        0.000 Mt        3.416 Mt   100.000 % 	 ......./BuildTopLevelAS

		       4.176 Mt     5.169 %         3 x        1.392 Mt        0.000 Mt        4.176 Mt   100.000 % 	 ...../BuildShaderTables

	WindowThread:

		  100899.448 Mt   100.000 %         1 x   100899.449 Mt   100899.448 Mt   100899.448 Mt   100.000 % 	 /

	GpuThread:

		   21746.035 Mt   100.000 %     31723 x        0.685 Mt        1.845 Mt      142.201 Mt     0.654 % 	 /

		       0.274 Mt     0.001 %         1 x        0.274 Mt        0.000 Mt        0.009 Mt     3.232 % 	 ./ScenePrep

		       0.265 Mt    96.768 %         1 x        0.265 Mt        0.000 Mt        0.002 Mt     0.760 % 	 ../AccelerationStructureBuild

		       0.179 Mt    67.575 %         1 x        0.179 Mt        0.000 Mt        0.179 Mt   100.000 % 	 .../BuildBottomLevelASGpu

		       0.084 Mt    31.665 %         1 x        0.084 Mt        0.000 Mt        0.084 Mt   100.000 % 	 .../BuildTopLevelASGpu

		     358.267 Mt     1.648 %     19514 x        0.018 Mt        0.000 Mt      358.267 Mt   100.000 % 	 ./Textured

		     278.832 Mt     1.282 %      8263 x        0.034 Mt        0.025 Mt      278.832 Mt   100.000 % 	 ./ImGui

		     161.451 Mt     0.742 %     31723 x        0.005 Mt        0.002 Mt      161.451 Mt   100.000 % 	 ./Present

		   20805.010 Mt    95.673 %     12209 x        1.704 Mt        1.817 Mt       29.907 Mt     0.144 % 	 ./RayTracing

		     979.021 Mt     4.706 %     12209 x        0.080 Mt        0.094 Mt      979.021 Mt   100.000 % 	 ../DeferredRL

		    4212.608 Mt    20.248 %     12209 x        0.345 Mt        0.416 Mt     4212.608 Mt   100.000 % 	 ../RayTracingRL

		   15580.009 Mt    74.886 %     12209 x        1.276 Mt        1.305 Mt    15580.009 Mt   100.000 % 	 ../ResolveRL

		       3.465 Mt     0.017 %         3 x        1.155 Mt        0.000 Mt        0.005 Mt     0.154 % 	 ../AccelerationStructureBuild

		       2.987 Mt    86.207 %         3 x        0.996 Mt        0.000 Mt        2.987 Mt   100.000 % 	 .../BuildBottomLevelASGpu

		       0.473 Mt    13.639 %         3 x        0.158 Mt        0.000 Mt        0.473 Mt   100.000 % 	 .../BuildTopLevelASGpu


	============================


