Configuration: 
Command line parameters = 000001607FBFEAC8 000001607FBFEB7A 000001607FBFEB8A 000001607FBFEBB4 
Window width = 1024
Window height = 768
Window title = Direct3D App
Back-buffer count = 3
Target FPS = 0
Target UPS = 60
Tearing = enabled
VSync = disabled
GUI rendering = enabled
Debug layer = enabled
GPU validation = disabled
GPU profiling = enabled
Render mode = Ray Tracing
Loaded scene file = Suzanne/Suzanne.gltf
Using testing scene = disabled
Duplication = 1
Duplication in cube = enabled
Duplication offset = 10

ProfilingBuildAggregator: 
BuildBottomLevelAS , 0 , 
BuildBottomLevelASGpu , 0 , 
BuildTopLevelAS , 0 , 
BuildTopLevelASGpu , 0 , 

ProfilingAggregator: 
Render , 0 , 0 , 0 , 0 , 0 , 0 , 0 , 0 , 0 , 0 , 0 , 0 , 0 , 0 , 0 , 0 , 0 , 0 , 0 , 0 , 0 , 0 , 0 , 0 , 0 , 0 , 0 , 0 , 0 , 0 , 0 , 0 , 0 , 0 , 0 , 0 , 0 , 0 , 0 , 0 , 0 , 0 , 0 , 0 , 0 , 0 , 0 , 0 , 0 , 0 , 0 , 0 , 0 , 0 , 0 , 0 , 0 , 0 , 0 , 0 , 0 , 0 , 0 , 0 , 0 , 0 , 0 , 0 , 0 , 0 , 0 , 0 , 0 , 0 , 0 , 0 , 0 , 0 , 0 , 0 , 0 , 0 , 0 , 0 , 0 , 0 , 0 , 0 , 0 , 0 , 0 , 0 , 0 , 0 , 0 , 0 , 0 , 0 , 0 , 0 , 0 , 0 , 0 , 0 , 0 , 0 , 0 , 0 , 0 , 0 , 0 , 0 , 0 , 0 , 0 , 0 , 0 , 0 , 0 , 0 , 0 , 0 , 0 , 0 , 0 , 0 , 0 , 0 , 0 , 0 , 0 , 0 , 0 , 0 , 0 , 0 , 0 , 0 , 0 , 0 , 0 , 0 , 0 , 0 , 0 , 0 , 0 , 0 , 0 , 0 , 0 , 0 , 0 , 0 , 0 , 0 , 0 , 0 , 0 , 0 , 0 , 0 , 0 , 0 , 0 , 
Update , 0 , 0 , 0 , 0 , 0 , 0 , 0 , 0 , 0 , 0 , 0 , 0 , 0 , 0 , 0 , 0 , 0 , 0 , 0 , 0 , 0 , 0 , 0 , 0 , 0 , 0 , 0 , 0 , 0 , 0 , 0 , 0 , 0 , 0 , 0 , 0 , 0 , 0 , 0 , 0 , 0 , 0 , 0 , 0 , 0 , 0 , 0 , 0 , 0 , 0 , 0 , 0 , 0 , 0 , 0 , 0 , 0 , 0 , 0 , 0 , 0 , 0 , 0 , 0 , 0 , 0 , 0 , 0 , 0 , 0 , 0 , 0 , 0 , 0 , 0 , 0 , 0 , 0 , 0 , 0 , 0 , 0 , 0 , 0 , 0 , 0 , 0 , 0 , 0 , 0 , 0 , 0 , 0 , 0 , 0 , 0 , 0 , 0 , 0 , 0 , 0 , 0 , 0 , 0 , 0 , 0 , 0 , 0 , 0 , 0 , 0 , 0 , 0 , 0 , 0 , 0 , 0 , 0 , 0 , 0 , 0 , 0 , 0 , 0 , 0 , 0 , 0 , 0 , 0 , 0 , 0 , 0 , 0 , 0 , 0 , 0 , 0 , 0 , 0 , 0 , 0 , 0 , 0 , 0 , 0 , 0 , 0 , 0 , 0 , 0 , 0 , 0 , 0 , 0 , 0 , 0 , 0 , 0 , 0 , 0 , 0 , 0 , 0 , 0 , 0 , 
RayTracing , 0 , 0 , 0 , 0 , 0 , 0 , 0 , 0 , 0 , 0 , 0 , 0 , 0 , 0 , 0 , 0 , 0 , 0 , 0 , 0 , 0 , 0 , 0 , 0 , 0 , 0 , 0 , 0 , 0 , 0 , 0 , 0 , 0 , 0 , 0 , 0 , 0 , 0 , 0 , 0 , 0 , 0 , 0 , 0 , 0 , 0 , 0 , 0 , 0 , 0 , 0 , 0 , 0 , 0 , 0 , 0 , 0 , 0 , 0 , 0 , 0 , 0 , 0 , 0 , 0 , 0 , 0 , 0 , 0 , 0 , 0 , 0 , 0 , 0 , 0 , 0 , 0 , 0 , 0 , 0 , 0 , 0 , 0 , 0 , 0 , 0 , 0 , 0 , 0 , 0 , 0 , 0 , 0 , 0 , 0 , 0 , 0 , 0 , 0 , 0 , 0 , 0 , 0 , 0 , 0 , 0 , 0 , 0 , 0 , 0 , 0 , 0 , 0 , 0 , 0 , 0 , 0 , 0 , 0 , 0 , 0 , 0 , 0 , 0 , 0 , 0 , 0 , 0 , 0 , 0 , 0 , 0 , 0 , 0 , 0 , 0 , 0 , 0 , 0 , 0 , 0 , 0 , 0 , 0 , 0 , 0 , 0 , 0 , 0 , 0 , 0 , 0 , 0 , 0 , 0 , 0 , 0 , 0 , 0 , 0 , 0 , 0 , 0 , 0 , 0 , 
RayTracingRL , 0 , 0 , 0 , 0 , 0 , 0 , 0 , 0 , 0 , 0 , 0 , 0 , 0 , 0 , 0 , 0 , 0 , 0 , 0 , 0 , 0 , 0 , 0 , 0 , 0 , 0 , 0 , 0 , 0 , 0 , 0 , 0 , 0 , 0 , 0 , 0 , 0 , 0 , 0 , 0 , 0 , 0 , 0 , 0 , 0 , 0 , 0 , 0 , 0 , 0 , 0 , 0 , 0 , 0 , 0 , 0 , 0 , 0 , 0 , 0 , 0 , 0 , 0 , 0 , 0 , 0 , 0 , 0 , 0 , 0 , 0 , 0 , 0 , 0 , 0 , 0 , 0 , 0 , 0 , 0 , 0 , 0 , 0 , 0 , 0 , 0 , 0 , 0 , 0 , 0 , 0 , 0 , 0 , 0 , 0 , 0 , 0 , 0 , 0 , 0 , 0 , 0 , 0 , 0 , 0 , 0 , 0 , 0 , 0 , 0 , 0 , 0 , 0 , 0 , 0 , 0 , 0 , 0 , 0 , 0 , 0 , 0 , 0 , 0 , 0 , 0 , 0 , 0 , 0 , 0 , 0 , 0 , 0 , 0 , 0 , 0 , 0 , 0 , 0 , 0 , 0 , 0 , 0 , 0 , 0 , 0 , 0 , 0 , 0 , 0 , 0 , 0 , 0 , 0 , 0 , 0 , 0 , 0 , 0 , 0 , 0 , 0 , 0 , 0 , 0 , 

FpsAggregator: 
FPS , 60 , 60 , 60 , 60 , 60 , 60 , 185 , 185 , 203 , 217 , 192 , 200 , 223 , 222 , 228 , 226 , 220 , 223 , 228 , 222 , 218 , 219 , 218 , 222 , 223 , 219 , 224 , 218 , 218 , 221 , 222 , 220 , 217 , 223 , 216 , 221 , 227 , 223 , 221 , 223 , 225 , 222 , 225 , 226 , 219 , 225 , 207 , 221 , 225 , 224 , 219 , 217 , 215 , 207 , 211 , 208 , 205 , 209 , 208 , 209 , 209 , 211 , 214 , 117 , 65 , 83 , 82 , 82 , 82 , 80 , 82 , 83 , 85 , 81 , 84 , 80 , 81 , 81 , 78 , 80 , 82 , 79 , 82 , 81 , 81 , 81 , 81 , 81 , 80 , 84 , 78 , 79 , 79 , 79 , 79 , 80 , 78 , 75 , 71 , 79 , 73 , 72 , 71 , 71 , 71 , 72 , 70 , 80 , 80 , 83 , 80 , 80 , 83 , 80 , 81 , 81 , 81 , 78 , 81 , 80 , 77 , 81 , 81 , 81 , 78 , 1 , 1 , 72 , 80 , 82 , 83 , 83 , 82 , 82 , 81 , 82 , 82 , 84 , 78 , 83 , 84 , 83 , 82 , 82 , 76 , 80 , 77 , 81 , 74 , 194 , 195 , 206 , 211 , 211 , 211 , 212 , 208 , 204 , 162 , 163 , 159 , 161 , 172 , 213 , 211 , 
UPS , 60 , 60 , 60 , 60 , 60 , 60 , 59 , 61 , 60 , 60 , 60 , 60 , 60 , 61 , 60 , 60 , 60 , 60 , 60 , 61 , 60 , 60 , 60 , 60 , 60 , 60 , 60 , 60 , 61 , 60 , 60 , 60 , 60 , 60 , 60 , 60 , 61 , 60 , 60 , 60 , 60 , 60 , 60 , 60 , 61 , 60 , 60 , 60 , 60 , 61 , 60 , 60 , 60 , 60 , 60 , 60 , 60 , 61 , 60 , 60 , 60 , 60 , 60 , 47 , 81 , 60 , 61 , 60 , 61 , 60 , 60 , 61 , 61 , 60 , 60 , 61 , 60 , 60 , 61 , 60 , 60 , 61 , 60 , 60 , 61 , 60 , 60 , 61 , 61 , 60 , 60 , 61 , 60 , 60 , 61 , 60 , 60 , 61 , 60 , 60 , 60 , 61 , 60 , 59 , 62 , 60 , 60 , 60 , 61 , 60 , 60 , 61 , 60 , 61 , 60 , 60 , 61 , 60 , 60 , 60 , 60 , 60 , 60 , 61 , 60 , 1 , 983 , 125 , 61 , 60 , 61 , 60 , 61 , 60 , 60 , 61 , 60 , 61 , 60 , 61 , 60 , 61 , 61 , 60 , 60 , 60 , 61 , 61 , 60 , 60 , 61 , 60 , 60 , 60 , 60 , 60 , 60 , 60 , 61 , 60 , 60 , 60 , 60 , 60 , 61 , 
FrameTime , 16.6667 , 16.6667 , 16.6667 , 16.6667 , 16.6667 , 16.6667 , 5.43576 , 5.43651 , 4.92618 , 4.62394 , 5.21526 , 5.0057 , 4.49054 , 4.51657 , 4.39979 , 4.43584 , 4.55893 , 4.49474 , 4.39553 , 4.51963 , 4.59828 , 4.57408 , 4.59513 , 4.51488 , 4.49348 , 4.56904 , 4.46947 , 4.60307 , 4.60769 , 4.54657 , 4.50698 , 4.54674 , 4.61435 , 4.48765 , 4.63842 , 4.52581 , 4.43085 , 4.48881 , 4.5319 , 4.48826 , 4.45722 , 4.50481 , 4.45944 , 4.43059 , 4.58355 , 4.4631 , 4.84855 , 4.53953 , 4.45825 , 4.48343 , 4.57189 , 4.61676 , 4.66059 , 4.83937 , 4.73938 , 4.82097 , 4.89086 , 4.80287 , 4.80973 , 4.79164 , 4.79986 , 4.74976 , 4.68455 , 9.70457 , 15.49 , 12.0853 , 12.2456 , 12.3242 , 12.3208 , 12.5314 , 12.2524 , 12.1496 , 11.8983 , 12.4491 , 11.9618 , 12.5429 , 12.3949 , 12.4445 , 12.9209 , 12.5707 , 12.2164 , 12.8202 , 12.2265 , 12.3845 , 12.4951 , 12.3787 , 12.347 , 12.5012 , 12.6273 , 12.0241 , 12.8293 , 12.7212 , 12.7432 , 12.73 , 12.7144 , 12.5832 , 12.8882 , 13.4433 , 14.1071 , 12.7374 , 13.7003 , 13.9964 , 14.1364 , 14.1702 , 14.1523 , 13.9093 , 14.3339 , 12.5693 , 12.5644 , 12.1738 , 12.5425 , 12.5961 , 12.163 , 12.5307 , 12.5035 , 12.3942 , 12.3905 , 12.821 , 12.3839 , 12.5345 , 12.995 , 12.3737 , 12.3797 , 12.502 , 12.8229 , 16379.4 , 1096.63 , 13.9273 , 12.6734 , 12.3082 , 12.1805 , 12.1096 , 12.315 , 12.2001 , 12.4355 , 12.3336 , 12.2498 , 12.0665 , 12.8717 , 12.1587 , 12.0253 , 12.2009 , 12.2523 , 12.2557 , 13.1598 , 12.6117 , 13.1278 , 12.503 , 13.5508 , 5.15814 , 5.15898 , 4.86578 , 4.76036 , 4.74155 , 4.74425 , 4.72008 , 4.82054 , 4.91154 , 6.19242 , 6.15967 , 6.30251 , 6.22857 , 5.81888 , 4.70761 , 4.75371 , 
GigaRays/s , 0.471859 , 0.471858 , 0.471859 , 0.471859 , 0.471858 , 0.471858 , 1.44678 , 1.44657 , 1.59643 , 1.70079 , 1.50794 , 1.57107 , 1.75131 , 1.74122 , 1.78743 , 1.77291 , 1.72504 , 1.74967 , 1.78916 , 1.74004 , 1.71028 , 1.71932 , 1.71145 , 1.74187 , 1.75016 , 1.72122 , 1.75956 , 1.70849 , 1.70678 , 1.72973 , 1.74492 , 1.72966 , 1.70432 , 1.75244 , 1.69548 , 1.73766 , 1.7749 , 1.75198 , 1.73533 , 1.7522 , 1.7644 , 1.74576 , 1.76352 , 1.77501 , 1.71577 , 1.76208 , 1.622 , 1.73241 , 1.76399 , 1.75409 , 1.72014 , 1.70343 , 1.68741 , 1.62507 , 1.65936 , 1.63127 , 1.60796 , 1.63742 , 1.63508 , 1.64126 , 1.63845 , 1.65573 , 1.67878 , 0.810373 , 0.507705 , 0.650736 , 0.642217 , 0.638122 , 0.638297 , 0.62757 , 0.641859 , 0.647291 , 0.660963 , 0.631719 , 0.657454 , 0.626991 , 0.634479 , 0.63195 , 0.608653 , 0.625608 , 0.643753 , 0.613431 , 0.643221 , 0.635011 , 0.629393 , 0.635312 , 0.636944 , 0.629086 , 0.622801 , 0.654049 , 0.612998 , 0.618206 , 0.617139 , 0.617779 , 0.618536 , 0.624985 , 0.610198 , 0.585001 , 0.557472 , 0.617418 , 0.574025 , 0.561883 , 0.556318 , 0.554989 , 0.555692 , 0.565402 , 0.548652 , 0.625675 , 0.625923 , 0.646005 , 0.627014 , 0.624344 , 0.646576 , 0.627605 , 0.628972 , 0.634514 , 0.634706 , 0.613394 , 0.635042 , 0.627414 , 0.605179 , 0.635569 , 0.635258 , 0.629047 , 0.613302 , 0.000480135 , 0.00717136 , 0.564667 , 0.620539 , 0.638952 , 0.645648 , 0.64943 , 0.638596 , 0.644613 , 0.63241 , 0.637633 , 0.641996 , 0.651749 , 0.61098 , 0.646807 , 0.653982 , 0.644571 , 0.641867 , 0.641685 , 0.597602 , 0.623571 , 0.599057 , 0.628994 , 0.580356 , 1.52464 , 1.52439 , 1.61625 , 1.65204 , 1.6586 , 1.65765 , 1.66614 , 1.63142 , 1.60119 , 1.26999 , 1.27674 , 1.24781 , 1.26262 , 1.35152 , 1.67055 , 1.65436 , 
AccelerationStructure: 
Ray tracing acceleration structure building statistics: 
	Bottom Level Acceleration Structure: 
		Maximum [B]: 283264
		Minimum [B]: 283264
		Currently Allocated [B]: 283264
		Currently Created [num]: 1
		Current Average [B]: 283264
		Maximum Triangles [num]: 3936
		Minimum Triangles [num]: 3936
		Total Triangles [num]: 3936
	Top Level Acceleration Structure: 
		Maximum [B]: 3584
		Minimum [B]: 3584
		Currently Allocated [B]: 3584
		Total Allocated [B]: 3584
		Total Created [num]: 1
		Average Allocated [B]: 3584
	Scratch Buffer: 
		Maximum [B]: 83968
		Minimum [B]: 83968
		Currently Allocated [B]: 83968
		Total Allocated [B]: 83968
		Total Created [num]: 1
		Average Allocated [B]: 83968
ProfilingStack: 
[PROF] Profiling statistics: 
	Scopes entered : 2272165
	Scopes exited : 2272164
	Overhead per scope [ticks] : 1021.8
	Threads entered : 3
	Threads exited : 0
	============================
		         Sum[Mt]   Parent[%]  Samples[num]       Avg[Mt]   Last/Curr[Mt]        Self[Mt]     Self[%] 	 Name

	main:

		  188293.329 Mt   100.000 %         1 x   188293.332 Mt   188293.328 Mt      363.271 Mt     0.193 % 	 /

		  187930.130 Mt    99.807 %         1 x   187930.133 Mt   187930.130 Mt     5509.460 Mt     2.932 % 	 ./Main application loop

		       2.596 Mt     0.001 %         1 x        2.596 Mt        0.000 Mt        2.596 Mt   100.000 % 	 ../TexturedRLInitialization

		       8.692 Mt     0.005 %         1 x        8.692 Mt        0.000 Mt        8.692 Mt   100.000 % 	 ../DeferredRLInitialization

		     154.267 Mt     0.082 %         1 x      154.267 Mt        0.000 Mt        2.221 Mt     1.440 % 	 ../RayTracingRLInitialization

		     152.046 Mt    98.560 %         1 x      152.046 Mt        0.000 Mt      152.046 Mt   100.000 % 	 .../PipelineBuild

		      12.259 Mt     0.007 %         1 x       12.259 Mt        0.000 Mt       12.259 Mt   100.000 % 	 ../ResolveRLInitialization

		     318.466 Mt     0.169 %         1 x      318.466 Mt        0.000 Mt        3.027 Mt     0.950 % 	 ../Initialization

		     315.440 Mt    99.050 %         1 x      315.440 Mt        0.000 Mt        2.229 Mt     0.707 % 	 .../ScenePrep

		     286.594 Mt    90.855 %         1 x      286.594 Mt        0.000 Mt       84.580 Mt    29.512 % 	 ..../SceneLoad

		     192.284 Mt    67.093 %         1 x      192.284 Mt        0.000 Mt       26.181 Mt    13.616 % 	 ...../glTF-LoadScene

		     166.103 Mt    86.384 %         2 x       83.051 Mt        0.000 Mt      166.103 Mt   100.000 % 	 ....../glTF-LoadImageData

		       6.915 Mt     2.413 %         1 x        6.915 Mt        0.000 Mt        6.915 Mt   100.000 % 	 ...../glTF-CreateScene

		       2.814 Mt     0.982 %         1 x        2.814 Mt        0.000 Mt        2.814 Mt   100.000 % 	 ...../SceneDesc-CreateScene

		       0.939 Mt     0.298 %         1 x        0.939 Mt        0.000 Mt        0.006 Mt     0.618 % 	 ..../TexturedRLPrep

		       0.933 Mt    99.382 %         1 x        0.933 Mt        0.000 Mt        0.334 Mt    35.766 % 	 ...../PrepareForRendering

		       0.284 Mt    30.429 %         1 x        0.284 Mt        0.000 Mt        0.284 Mt   100.000 % 	 ....../PrepareMaterials

		       0.315 Mt    33.805 %         1 x        0.315 Mt        0.000 Mt        0.315 Mt   100.000 % 	 ....../PrepareDrawBundle

		       1.745 Mt     0.553 %         1 x        1.745 Mt        0.000 Mt        0.004 Mt     0.252 % 	 ..../DeferredRLPrep

		       1.741 Mt    99.748 %         1 x        1.741 Mt        0.000 Mt        1.225 Mt    70.393 % 	 ...../PrepareForRendering

		       0.018 Mt     1.023 %         1 x        0.018 Mt        0.000 Mt        0.018 Mt   100.000 % 	 ....../PrepareMaterials

		       0.218 Mt    12.546 %         1 x        0.218 Mt        0.000 Mt        0.218 Mt   100.000 % 	 ....../BuildMaterialCache

		       0.279 Mt    16.039 %         1 x        0.279 Mt        0.000 Mt        0.279 Mt   100.000 % 	 ....../PrepareDrawBundle

		       5.332 Mt     1.690 %         1 x        5.332 Mt        0.000 Mt        2.383 Mt    44.692 % 	 ..../RayTracingRLPrep

		       0.079 Mt     1.474 %         1 x        0.079 Mt        0.000 Mt        0.079 Mt   100.000 % 	 ...../PrepareAccelerationStructures

		       0.024 Mt     0.458 %         1 x        0.024 Mt        0.000 Mt        0.024 Mt   100.000 % 	 ...../PrepareCache

		       0.230 Mt     4.308 %         1 x        0.230 Mt        0.000 Mt        0.230 Mt   100.000 % 	 ...../BuildCache

		       2.032 Mt    38.098 %         1 x        2.032 Mt        0.000 Mt        0.004 Mt     0.212 % 	 ...../BuildAccelerationStructures

		       2.027 Mt    99.788 %         1 x        2.027 Mt        0.000 Mt        0.678 Mt    33.434 % 	 ....../AccelerationStructureBuild

		       0.789 Mt    38.938 %         1 x        0.789 Mt        0.000 Mt        0.789 Mt   100.000 % 	 ......./BuildBottomLevelAS

		       0.560 Mt    27.628 %         1 x        0.560 Mt        0.000 Mt        0.560 Mt   100.000 % 	 ......./BuildTopLevelAS

		       0.585 Mt    10.970 %         1 x        0.585 Mt        0.000 Mt        0.585 Mt   100.000 % 	 ...../BuildShaderTables

		      18.600 Mt     5.897 %         1 x       18.600 Mt        0.000 Mt       18.600 Mt   100.000 % 	 ..../GpuSidePrep

		  181924.389 Mt    96.804 %   2033344 x        0.089 Mt       18.340 Mt    20534.232 Mt    11.287 % 	 ../MainLoop

		    9874.433 Mt     5.428 %     11182 x        0.883 Mt        6.380 Mt     9874.433 Mt   100.000 % 	 .../Update

		  151515.724 Mt    83.285 %     22828 x        6.637 Mt       11.945 Mt   136028.491 Mt    89.778 % 	 .../Render

		       1.750 Mt     0.001 %       237 x        0.007 Mt        0.000 Mt        1.750 Mt   100.000 % 	 ..../TexturedRLPrep

		   14975.189 Mt     9.884 %     22828 x        0.656 Mt        1.286 Mt    14975.189 Mt   100.000 % 	 ..../GuiModelApply

		     214.194 Mt     0.141 %     22591 x        0.009 Mt        0.004 Mt      117.439 Mt    54.828 % 	 ..../DeferredRLPrep

		      96.755 Mt    45.172 %        18 x        5.375 Mt        0.000 Mt        5.427 Mt     5.609 % 	 ...../PrepareForRendering

		      10.240 Mt    10.583 %        18 x        0.569 Mt        0.000 Mt       10.240 Mt   100.000 % 	 ....../PrepareMaterials

		       0.014 Mt     0.015 %        18 x        0.001 Mt        0.000 Mt        0.014 Mt   100.000 % 	 ....../BuildMaterialCache

		      81.074 Mt    83.793 %        18 x        4.504 Mt        0.000 Mt       81.074 Mt   100.000 % 	 ....../PrepareDrawBundle

		     296.101 Mt     0.195 %     22591 x        0.013 Mt        0.005 Mt      135.698 Mt    45.828 % 	 ..../RayTracingRLPrep

		      40.042 Mt    13.523 %        18 x        2.225 Mt        0.000 Mt       40.042 Mt   100.000 % 	 ...../PrepareAccelerationStructures

		       8.747 Mt     2.954 %        18 x        0.486 Mt        0.000 Mt        8.747 Mt   100.000 % 	 ...../PrepareCache

		       0.013 Mt     0.004 %        18 x        0.001 Mt        0.000 Mt        0.013 Mt   100.000 % 	 ...../BuildCache

		      30.596 Mt    10.333 %        18 x        1.700 Mt        0.000 Mt        0.051 Mt     0.166 % 	 ...../BuildAccelerationStructures

		      30.545 Mt    99.834 %        18 x        1.697 Mt        0.000 Mt       11.918 Mt    39.018 % 	 ....../AccelerationStructureBuild

		       2.290 Mt     7.496 %        18 x        0.127 Mt        0.000 Mt        2.290 Mt   100.000 % 	 ......./BuildBottomLevelAS

		      16.337 Mt    53.487 %        18 x        0.908 Mt        0.000 Mt       16.337 Mt   100.000 % 	 ......./BuildTopLevelAS

		      81.005 Mt    27.357 %        18 x        4.500 Mt        0.000 Mt       81.005 Mt   100.000 % 	 ...../BuildShaderTables

	WindowThread:

		  187928.227 Mt   100.000 %         1 x   187928.227 Mt   187928.226 Mt   187928.227 Mt   100.000 % 	 /

	GpuThread:

		   22514.516 Mt   100.000 %     22828 x        0.986 Mt        0.653 Mt      154.193 Mt     0.685 % 	 /

		       0.507 Mt     0.002 %         1 x        0.507 Mt        0.000 Mt        0.006 Mt     1.131 % 	 ./ScenePrep

		       0.501 Mt    98.869 %         1 x        0.501 Mt        0.000 Mt        0.001 Mt     0.185 % 	 ../AccelerationStructureBuild

		       0.439 Mt    87.663 %         1 x        0.439 Mt        0.000 Mt        0.439 Mt   100.000 % 	 .../BuildBottomLevelASGpu

		       0.061 Mt    12.152 %         1 x        0.061 Mt        0.000 Mt        0.061 Mt   100.000 % 	 .../BuildTopLevelASGpu

		       1.224 Mt     0.005 %       237 x        0.005 Mt        0.000 Mt        1.224 Mt   100.000 % 	 ./Textured

		     237.029 Mt     1.053 %     22828 x        0.010 Mt        0.010 Mt      237.029 Mt   100.000 % 	 ./ImGui

		      36.035 Mt     0.160 %     22828 x        0.002 Mt        0.001 Mt       36.035 Mt   100.000 % 	 ./Present

		   22085.529 Mt    98.095 %     22591 x        0.978 Mt        0.641 Mt       35.690 Mt     0.162 % 	 ./RayTracing

		    3342.136 Mt    15.133 %     22591 x        0.148 Mt        0.010 Mt     3342.136 Mt   100.000 % 	 ../DeferredRL

		    3340.223 Mt    15.124 %     22591 x        0.148 Mt        0.067 Mt     3340.223 Mt   100.000 % 	 ../RayTracingRL

		   15365.310 Mt    69.572 %     22591 x        0.680 Mt        0.561 Mt    15365.310 Mt   100.000 % 	 ../ResolveRL

		       2.170 Mt     0.010 %        18 x        0.121 Mt        0.000 Mt        0.029 Mt     1.325 % 	 ../AccelerationStructureBuild

		       0.015 Mt     0.707 %        18 x        0.001 Mt        0.000 Mt        0.015 Mt   100.000 % 	 .../BuildBottomLevelASGpu

		       2.126 Mt    97.969 %        18 x        0.118 Mt        0.000 Mt        2.126 Mt   100.000 % 	 .../BuildTopLevelASGpu


	============================


