Configuration: 
Command line parameters  = 
Build type               = Release
Device name              = NVIDIA GeForce RTX 2080 Ti
Device memory MB         = 11049
Ray Tracing backend      = Hardware
Window width             = 1024
Window height            = 768
Window title             = Direct3D App
Back-buffer count        = 3
Fill Triangles           = enabled
Triangles Font Clock-Wise= disabled
Fast Build AS            = disabled
Target FPS               = 0
Target UPS               = 60
Tearing                  = enabled
VSync                    = disabled
GUI rendering            = disabled
Debug layer              = enabled
GPU validation           = disabled
GPU profiling            = enabled
Render mode              = Ray Tracing
Loaded scene file        = 
Using testing scene      = disabled
BLAS duplication         = disabled
Rays per pixel           = 8
Quality preset           = Medium
Rasterization Quality    : 
  AO                     = enabled
  AO kernel size         = 4
  Shadows                = enabled
  Shadow map resolution  = 4096
  Shadow PCF kernel size = 4
  Reflections            = disabled
Ray Tracing Quality      : 
  AO                     = enabled
  AO rays                = 4
  AO kernel size         = 4
  Shadows                = enabled
  Shadow rays            = 4
  Shadow kernel size     = 4
  Reflections            = disabled

ProfilingAggregator: 
Render	,	0.978	,	0.5214	,	0.5214	,	0.5214	,	0.5214	,	0.5214	,	0.5214	,	0.5214	,	0.5214	,	0.5214	,	0.5214	,	0.5214	,	0.5214	,	0.5214	,	0.5214	,	0.5214	,	0.5214	,	0.5214	,	0.5214	,	0.5214	,	0.5214	,	0.5214	,	0.5214	,	0.5214	,	0.5214	,	0.5214	,	0.5214	,	0.5214	,	0.5214	,	0.5214	,	0.5214	,	0.5214	,	0.5214	,	0.5214	,	0.5214	,	0.5214	,	0.5214	,	0.5214	,	0.5214	,	0.5214	,	0.5214	,	0.5214	,	0.5214	,	0.5214	,	0.5214	,	0.5214	,	0.5214	,	0.5214	,	0.5214	,	0.5214	,	0.5214	,	0.5214	,	0.5214	,	0.5214	,	0.5214	,	0.5214	,	0.5214	,	0.5214	,	0.5214	,	0.5214	,	0.5214	,	0.5214	,	0.5214	,	0.5214	,	0.5214	,	0.5214	,	0.5214	,	0.5214	,	0.5214	,	0.5214	,	0.5214	,	0.5214	,	0.5214	,	0.5214	,	0.5214	,	0.5214	,	0.5214	,	0.5214	,	0.5214	,	0.5214	,	0.5214	,	0.5214	,	0.5214	,	0.5214	,	0.5214	,	0.5214	,	0.5214	,	0.5214	,	0.5214	,	0.5214	,	0.5214	,	0.5214	,	0.5214	,	0.5214	,	0.5214	,	0.5214	,	0.5214	,	0.5214	,	0.5214	,	0.5214	,	0.5214	,	0.5214	,	0.5214	,	0.5214	,	0.5214	,	0.5214	,	0.5214	,	0.5214	,	0.5214	,	0.5214	,	0.5214	,	0.5214	,	0.5214	,	0.5214	,	0.5214	,	0.5214	,	0.5214	,	0.5214	,	0.5214	,	0.5214	,	0.5214	,	0.5214	,	0.5214	,	0.5214	,	0.5214	,	0.5214	,	0.5214	,	0.5214	,	0.5214	,	0.5214	,	0.5214	,	0.5214	,	0.5214	,	0.5214	,	0.5214	,	0.5214	,	0.5214	,	0.5214	,	0.5214	,	0.5214	,	0.5214	,	0.5214	,	0.5214	,	0.5214	,	0.5214	,	0.5214	,	0.5214	,	0.5214	,	0.5214	,	0.5214	,	0.5214	,	0.5214	,	0.5214	,	0.5214	,	0.5214	,	0.5214	,	0.5214	,	0.5214	,	0.5214	,	0.5214	,	0.5214	,	0.5214	,	0.5214	,	0.5214	,	0.5214	,	0.5214	,	0.5214	,	0.5214	,	0.5214	,	0.5214	,	0.5214	,	0.5214	,	0.5214	,	0.5214	,	0.5214	,	0.5214	,	0.5214	,	0.5214	,	0.5214	,	0.5214	,	0.5214	,	0.5214	,	0.5214	,	0.5214	,	0.5214	,	0.5214	,	0.5214	,	0.5214	,	0.5214	,	0.5214	,	0.5214	,	0.5214	,	0.5214
Update	,	0.078	,	407.78	,	409.739	,	412.019	,	414.501	,	416.853	,	419.343	,	421.668	,	423.664	,	425.875	,	428.226	,	431.313	,	434.307	,	436.566	,	438.757	,	440.921	,	442.946	,	445.759	,	449.068	,	451.494	,	453.732	,	455.97	,	458.231	,	461.139	,	464.362	,	466.762	,	468.974	,	470.885	,	472.853	,	475.157	,	477.97	,	481.132	,	483.246	,	484.944	,	486.607	,	488.285	,	490.008	,	491.914	,	493.482	,	495.226	,	497.374	,	499.109	,	500.822	,	502.542	,	504.233	,	506.146	,	507.919	,	510.135	,	511.923	,	513.944	,	515.664	,	517.386	,	519.107	,	520.69	,	522.433	,	524.295	,	526.019	,	527.799	,	529.573	,	531.651	,	533.37	,	535.039	,	536.699	,	538.895	,	540.912	,	542.994	,	544.852	,	547.448	,	549.279	,	550.922	,	552.773	,	555.926	,	559.841	,	563.254	,	566.955	,	569.023	,	570.753	,	572.503	,	574.289	,	576.015	,	577.809	,	579.617	,	581.797	,	583.71	,	585.575	,	587.389	,	589.23	,	591.001	,	592.723	,	594.563	,	596.445	,	598.66	,	600.952	,	603.101	,	605.517	,	607.978	,	609.966	,	611.723	,	613.964	,	615.883	,	617.928	,	619.686	,	621.384	,	623.106	,	624.814	,	626.466	,	628.197	,	630.497	,	632.463	,	634.131	,	635.819	,	637.703	,	639.765	,	641.799	,	643.767	,	645.651	,	648.253	,	650.313	,	652.289	,	654.644	,	656.476	,	658.229	,	659.932	,	661.545	,	664.172	,	666.613	,	668.607	,	670.636	,	672.48	,	674.136	,	675.791	,	677.551	,	679.58	,	682.5	,	684.418	,	686.543	,	688.239	,	689.849	,	691.414	,	693.135	,	694.791	,	696.724	,	698.83	,	700.59	,	702.567	,	704.23	,	705.824	,	707.446	,	709.271	,	710.865	,	712.789	,	714.715	,	716.464	,	718.113	,	719.715	,	721.257	,	722.819	,	724.69	,	726.814	,	728.772	,	730.994	,	732.628	,	734.256	,	735.844	,	738.034	,	740.264	,	742.277	,	743.839	,	746.414	,	748.802	,	750.928	,	752.754	,	754.751	,	756.619	,	758.508	,	760.446	,	762.348	,	764.658	,	766.565	,	768.527	,	770.337	,	772.979	,	775.025	,	777.151	,	779.106	,	781.175	,	783.107	,	784.961	,	786.865	,	788.923	,	791.715	,	794.383	,	796.967
Index	,	0	,	1	,	2	,	3	,	4	,	5	,	6	,	7	,	8	,	9	,	10	,	11	,	12	,	13	,	14	,	15	,	16	,	17	,	18	,	19	,	20	,	21	,	22	,	23	,	24	,	25	,	26	,	27	,	28	,	29	,	30	,	31	,	32	,	33	,	34	,	35	,	36	,	37	,	38	,	39	,	40	,	41	,	42	,	43	,	44	,	45	,	46	,	47	,	48	,	49	,	50	,	51	,	52	,	53	,	54	,	55	,	56	,	57	,	58	,	59	,	60	,	61	,	62	,	63	,	64	,	65	,	66	,	67	,	68	,	69	,	70	,	71	,	72	,	73	,	74	,	75	,	76	,	77	,	78	,	79	,	80	,	81	,	82	,	83	,	84	,	85	,	86	,	87	,	88	,	89	,	90	,	91	,	92	,	93	,	94	,	95	,	96	,	97	,	98	,	99	,	100	,	101	,	102	,	103	,	104	,	105	,	106	,	107	,	108	,	109	,	110	,	111	,	112	,	113	,	114	,	115	,	116	,	117	,	118	,	119	,	120	,	121	,	122	,	123	,	124	,	125	,	126	,	127	,	128	,	129	,	130	,	131	,	132	,	133	,	134	,	135	,	136	,	137	,	138	,	139	,	140	,	141	,	142	,	143	,	144	,	145	,	146	,	147	,	148	,	149	,	150	,	151	,	152	,	153	,	154	,	155	,	156	,	157	,	158	,	159	,	160	,	161	,	162	,	163	,	164	,	165	,	166	,	167	,	168	,	169	,	170	,	171	,	172	,	173	,	174	,	175	,	176	,	177	,	178	,	179	,	180	,	181	,	182	,	183	,	184	,	185	,	186	,	187	,	188	,	189	,	190	,	191	,	192

ProfilingBuildAggregator: 
BuildBottomLevelAS	,	0.2359	,	0.2729	,	0.2661	,	0.3834	,	0.3398	,	0.4271	,	0.361	,	0.2681	,	0.3162	,	0.3346	,	0.4113	,	0.3888	,	0.3436	,	0.3281	,	0.318	,	0.2628	,	0.4734	,	0.4746	,	0.3532	,	0.3092	,	0.3106	,	0.322	,	0.3817	,	0.4296	,	0.3214	,	0.2914	,	0.2548	,	0.2948	,	0.2871	,	0.3874	,	0.4316	,	0.2875	,	0.2361	,	0.2164	,	0.2383	,	0.2409	,	0.2674	,	0.2066	,	0.2071	,	0.326	,	0.2293	,	0.2331	,	0.2446	,	0.2384	,	0.2515	,	0.2528	,	0.2679	,	0.2571	,	0.2368	,	0.2236	,	0.2437	,	0.2144	,	0.208	,	0.2166	,	0.2344	,	0.2349	,	0.262	,	0.3171	,	0.2458	,	0.2228	,	0.2196	,	0.2292	,	0.2821	,	0.2614	,	0.2722	,	0.2418	,	0.3802	,	0.2501	,	0.2231	,	0.2732	,	1.5412	,	0.9001	,	0.6973	,	0.717	,	0.2672	,	0.2335	,	0.2522	,	0.2376	,	0.2255	,	0.2296	,	0.2426	,	0.2327	,	0.2827	,	0.2511	,	0.2421	,	0.2399	,	0.2321	,	0.2313	,	0.2466	,	0.2671	,	0.2417	,	0.2794	,	0.2754	,	0.3407	,	0.2888	,	0.2516	,	0.2219	,	0.2477	,	0.2357	,	0.2789	,	0.2284	,	0.2261	,	0.2248	,	0.2296	,	0.2227	,	0.2418	,	0.2313	,	0.2394	,	0.2267	,	0.2181	,	0.2452	,	0.2866	,	0.2559	,	0.2573	,	0.2586	,	0.2953	,	0.27	,	0.2248	,	0.2964	,	0.2203	,	0.2448	,	0.2281	,	0.2032	,	0.351	,	0.3096	,	0.2577	,	0.2662	,	0.241	,	0.2464	,	0.2112	,	0.2476	,	0.2241	,	0.3255	,	0.2493	,	0.2246	,	0.2276	,	0.211	,	0.2133	,	0.2168	,	0.2174	,	0.2781	,	0.2748	,	0.2636	,	0.2253	,	0.2034	,	0.2043	,	0.1983	,	0.285	,	0.2156	,	0.2136	,	0.2626	,	0.2176	,	0.2634	,	0.2013	,	0.2117	,	0.2172	,	0.212	,	0.2455	,	0.2489	,	0.3292	,	0.2211	,	0.2152	,	0.2171	,	0.3971	,	0.2986	,	0.2628	,	0.2203	,	0.4051	,	0.3618	,	0.2544	,	0.2511	,	0.2601	,	0.2375	,	0.2306	,	0.2398	,	0.2351	,	0.3945	,	0.2816	,	0.2486	,	0.2424	,	0.495	,	0.2527	,	0.2785	,	0.2334	,	0.2971	,	0.2391	,	0.2242	,	0.2239	,	0.275	,	0.4584	,	0.4156	,	0.3511
BuildBottomLevelASGpu	,	0.021216	,	0.179936	,	0.239648	,	0.015168	,	0.182144	,	0.378528	,	0.37088	,	0.238048	,	0.183712	,	0.214112	,	0.280128	,	0.384192	,	0.372576	,	0.373696	,	0.367488	,	0.31152	,	0.373856	,	0.384032	,	0.3792	,	0.364256	,	0.369088	,	0.371168	,	0.376064	,	0.387392	,	0.375552	,	0.354976	,	0.224992	,	0.233856	,	0.37632	,	0.371424	,	0.388448	,	0.21776	,	0.017792	,	0.015392	,	0.014976	,	0.015168	,	0.014944	,	0.015168	,	0.0152	,	0.015552	,	0.0152	,	0.015008	,	0.015008	,	0.014976	,	0.015392	,	0.0152	,	0.018176	,	0.015168	,	0.015168	,	0.014784	,	0.014976	,	0.015168	,	0.01536	,	0.014976	,	0.014976	,	0.014976	,	0.014976	,	0.014976	,	0.015744	,	0.015168	,	0.014976	,	0.015168	,	0.015168	,	0.015168	,	0.014976	,	0.015168	,	0.018816	,	0.014976	,	0.014976	,	0.014976	,	0.015168	,	0.017792	,	0.015776	,	0.017984	,	0.015168	,	0.014944	,	0.014976	,	0.015168	,	0.015168	,	0.015136	,	0.015168	,	0.01776	,	0.01536	,	0.014592	,	0.014976	,	0.0152	,	0.015392	,	0.015168	,	0.015168	,	0.015168	,	0.018368	,	0.014976	,	0.014976	,	0.01536	,	0.0184	,	0.015392	,	0.015392	,	0.01776	,	0.0152	,	0.015168	,	0.015168	,	0.014976	,	0.014976	,	0.015168	,	0.014976	,	0.01536	,	0.01536	,	0.015168	,	0.014976	,	0.015136	,	0.014976	,	0.015168	,	0.015168	,	0.015168	,	0.015168	,	0.015392	,	0.015168	,	0.015392	,	0.0184	,	0.015168	,	0.015392	,	0.01536	,	0.0152	,	0.015168	,	0.01536	,	0.014976	,	0.014976	,	0.015168	,	0.0152	,	0.015168	,	0.014976	,	0.01456	,	0.018784	,	0.015168	,	0.015168	,	0.015168	,	0.015168	,	0.015168	,	0.015168	,	0.015392	,	0.0152	,	0.017792	,	0.01536	,	0.017792	,	0.014976	,	0.014976	,	0.015008	,	0.015168	,	0.015168	,	0.015008	,	0.018592	,	0.015168	,	0.015168	,	0.015168	,	0.015168	,	0.014976	,	0.015168	,	0.01536	,	0.015392	,	0.017792	,	0.015168	,	0.015168	,	0.015168	,	0.351392	,	0.424384	,	0.281312	,	0.017568	,	0.45088	,	0.177472	,	0.153568	,	0.21328	,	0.34368	,	0.233984	,	0.313664	,	0.36576	,	0.348704	,	0.2352	,	0.181088	,	0.323168	,	0.246656	,	0.690784	,	0.373632	,	0.515616	,	0.326272	,	0.268608	,	0.31488	,	0.257344	,	0.321152	,	0.245056	,	0.628992	,	0.625248	,	0.330592
BuildTopLevelAS	,	0.4137	,	0.4131	,	0.4745	,	0.524	,	0.4705	,	0.4419	,	0.4021	,	0.4236	,	0.4947	,	0.4852	,	0.5827	,	0.6254	,	0.3856	,	0.3915	,	0.4301	,	0.3855	,	0.521	,	0.5036	,	0.4164	,	0.4279	,	0.4244	,	0.4205	,	0.4524	,	0.6015	,	0.4095	,	0.4275	,	0.3987	,	0.4039	,	0.4622	,	0.4616	,	0.5198	,	0.4165	,	0.4139	,	0.4461	,	0.4062	,	0.4023	,	0.4051	,	0.3825	,	0.3817	,	0.4803	,	0.4229	,	0.4018	,	0.4087	,	0.4048	,	0.4969	,	0.3891	,	0.4999	,	0.4067	,	0.4741	,	0.4047	,	0.4152	,	0.3888	,	0.3772	,	0.3756	,	0.4782	,	0.4333	,	0.4141	,	0.436	,	0.4137	,	0.4247	,	0.3974	,	0.4056	,	0.5309	,	0.4983	,	0.4932	,	0.4364	,	0.708	,	0.4212	,	0.402	,	0.5205	,	0.4162	,	1.5642	,	0.9053	,	1.2954	,	0.4315	,	0.3764	,	0.4116	,	0.4134	,	0.4078	,	0.4039	,	0.3958	,	0.4097	,	0.4267	,	0.4386	,	0.4267	,	0.4994	,	0.4083	,	0.4055	,	0.4342	,	0.426	,	0.4168	,	0.5084	,	0.5058	,	0.5687	,	0.4738	,	0.4024	,	0.3867	,	0.5641	,	0.4901	,	0.4751	,	0.3926	,	0.3863	,	0.3911	,	0.3855	,	0.3635	,	0.3929	,	0.4989	,	0.3896	,	0.357	,	0.4209	,	0.3944	,	0.5147	,	0.4423	,	0.4408	,	0.4149	,	0.5394	,	0.4343	,	0.4579	,	0.4783	,	0.3999	,	0.3824	,	0.3931	,	0.3687	,	0.6456	,	0.5148	,	0.4337	,	0.4474	,	0.3916	,	0.3936	,	0.4031	,	0.4054	,	0.5249	,	0.5075	,	0.3888	,	0.3875	,	0.3886	,	0.3707	,	0.3676	,	0.4785	,	0.4309	,	0.3759	,	0.406	,	0.4104	,	0.3853	,	0.3686	,	0.3675	,	0.3573	,	0.4446	,	0.3826	,	0.445	,	0.391	,	0.3888	,	0.3849	,	0.3728	,	0.3712	,	0.3738	,	0.3765	,	0.4867	,	0.4183	,	0.4752	,	0.3517	,	0.3838	,	0.3794	,	0.3889	,	0.381	,	0.3654	,	0.3628	,	0.5226	,	0.4928	,	0.3949	,	0.3849	,	0.3796	,	0.3961	,	0.3694	,	0.3671	,	0.3754	,	0.5052	,	0.3899	,	0.3655	,	0.3805	,	0.4484	,	0.377	,	0.3733	,	0.3697	,	0.4032	,	0.3645	,	0.3743	,	0.3861	,	0.4513	,	0.422	,	0.4574	,	0.5824
BuildTopLevelASGpu	,	0.078336	,	0.078944	,	0.076896	,	0.078528	,	0.076704	,	0.076544	,	0.077536	,	0.076928	,	0.076512	,	0.076928	,	0.081376	,	0.081152	,	0.077696	,	0.077344	,	0.077312	,	0.077312	,	0.077664	,	0.08096	,	0.077536	,	0.07696	,	0.07776	,	0.077504	,	0.076736	,	0.08176	,	0.076928	,	0.077536	,	0.076896	,	0.07712	,	0.077728	,	0.077728	,	0.080928	,	0.076928	,	0.078944	,	0.078368	,	0.079168	,	0.078368	,	0.07936	,	0.078144	,	0.078336	,	0.079712	,	0.078336	,	0.078944	,	0.079136	,	0.078912	,	0.078528	,	0.078976	,	0.088768	,	0.079328	,	0.078528	,	0.078336	,	0.079168	,	0.078368	,	0.078336	,	0.078912	,	0.079136	,	0.07936	,	0.079552	,	0.079104	,	0.080768	,	0.078368	,	0.079136	,	0.078336	,	0.078528	,	0.078336	,	0.079328	,	0.078112	,	0.0888	,	0.079712	,	0.079328	,	0.078944	,	0.078528	,	0.088608	,	0.082752	,	0.0872	,	0.078944	,	0.078944	,	0.079168	,	0.078144	,	0.078528	,	0.078336	,	0.078336	,	0.087392	,	0.078912	,	0.079136	,	0.079104	,	0.078144	,	0.079136	,	0.078144	,	0.078336	,	0.078336	,	0.089152	,	0.079552	,	0.079136	,	0.078752	,	0.088384	,	0.079328	,	0.078528	,	0.087968	,	0.079136	,	0.078304	,	0.079136	,	0.07936	,	0.079136	,	0.078144	,	0.07952	,	0.078944	,	0.078944	,	0.078368	,	0.079328	,	0.078144	,	0.079168	,	0.078144	,	0.078528	,	0.078304	,	0.078528	,	0.078528	,	0.078336	,	0.078144	,	0.088416	,	0.07872	,	0.078336	,	0.078336	,	0.079136	,	0.078528	,	0.07936	,	0.078912	,	0.079136	,	0.078144	,	0.078528	,	0.078336	,	0.079296	,	0.07856	,	0.087808	,	0.078784	,	0.078528	,	0.078176	,	0.078336	,	0.078528	,	0.078528	,	0.078912	,	0.079136	,	0.092384	,	0.079136	,	0.087392	,	0.079712	,	0.078944	,	0.079328	,	0.078912	,	0.078336	,	0.079168	,	0.087776	,	0.078752	,	0.078336	,	0.078176	,	0.07856	,	0.079328	,	0.078528	,	0.07856	,	0.079136	,	0.087968	,	0.078944	,	0.078336	,	0.078336	,	0.078528	,	0.077536	,	0.076704	,	0.078528	,	0.076736	,	0.082144	,	0.084384	,	0.07936	,	0.078912	,	0.078944	,	0.07872	,	0.078944	,	0.079744	,	0.080352	,	0.079168	,	0.07952	,	0.07872	,	0.080576	,	0.079136	,	0.079552	,	0.090528	,	0.079552	,	0.078944	,	0.07936	,	0.078752	,	0.078944	,	0.079328	,	0.079552	,	0.079744
Triangles	,	28	,	116	,	369	,	12	,	128	,	9232	,	9232	,	222	,	72	,	334	,	882	,	9232	,	9232	,	8552	,	9232	,	4488	,	9232	,	8552	,	9232	,	9232	,	8552	,	9232	,	9232	,	9232	,	9232	,	7620	,	236	,	739	,	8552	,	9232	,	8552	,	318	,	12	,	12	,	12	,	12	,	12	,	12	,	12	,	12	,	12	,	12	,	12	,	12	,	12	,	12	,	12	,	12	,	12	,	12	,	12	,	12	,	12	,	12	,	12	,	12	,	12	,	12	,	12	,	12	,	12	,	12	,	12	,	12	,	12	,	12	,	12	,	12	,	12	,	12	,	12	,	12	,	12	,	12	,	12	,	12	,	12	,	12	,	12	,	12	,	12	,	12	,	12	,	12	,	12	,	12	,	12	,	12	,	12	,	12	,	12	,	12	,	12	,	12	,	12	,	12	,	12	,	12	,	12	,	12	,	12	,	12	,	12	,	12	,	12	,	12	,	12	,	12	,	12	,	12	,	12	,	12	,	12	,	12	,	12	,	12	,	12	,	12	,	12	,	12	,	12	,	12	,	12	,	12	,	12	,	12	,	12	,	12	,	12	,	12	,	12	,	12	,	12	,	12	,	12	,	12	,	12	,	12	,	12	,	12	,	12	,	12	,	12	,	12	,	12	,	12	,	12	,	12	,	12	,	12	,	12	,	12	,	12	,	12	,	12	,	12	,	12	,	12	,	12	,	12	,	12	,	12	,	12	,	18694	,	12452	,	1122	,	20	,	13664	,	24	,	4	,	36	,	260	,	73	,	284	,	598	,	684	,	55	,	26	,	220	,	72	,	9761	,	697	,	1700	,	294	,	144	,	380	,	132	,	336	,	130	,	7062	,	6206	,	396
Meshes	,	2	,	1	,	3	,	1	,	1	,	1	,	1	,	1	,	1	,	1	,	2	,	1	,	1	,	1	,	1	,	1	,	1	,	1	,	1	,	1	,	1	,	1	,	1	,	1	,	1	,	1	,	1	,	2	,	1	,	1	,	1	,	3	,	1	,	1	,	1	,	1	,	1	,	1	,	1	,	1	,	1	,	1	,	1	,	1	,	1	,	1	,	1	,	1	,	1	,	1	,	1	,	1	,	1	,	1	,	1	,	1	,	1	,	1	,	1	,	1	,	1	,	1	,	1	,	1	,	1	,	1	,	1	,	1	,	1	,	1	,	1	,	1	,	1	,	1	,	1	,	1	,	1	,	1	,	1	,	1	,	1	,	1	,	1	,	1	,	1	,	1	,	1	,	1	,	1	,	1	,	1	,	1	,	1	,	1	,	1	,	1	,	1	,	1	,	1	,	1	,	1	,	1	,	1	,	1	,	1	,	1	,	1	,	1	,	1	,	1	,	1	,	1	,	1	,	1	,	1	,	1	,	1	,	1	,	1	,	1	,	1	,	1	,	1	,	1	,	1	,	1	,	1	,	1	,	1	,	1	,	1	,	1	,	1	,	1	,	1	,	1	,	1	,	1	,	1	,	1	,	1	,	1	,	1	,	1	,	1	,	1	,	1	,	1	,	1	,	1	,	1	,	1	,	1	,	1	,	1	,	1	,	1	,	1	,	1	,	1	,	1	,	1	,	1	,	1	,	4	,	5	,	1	,	3	,	1	,	1	,	1	,	1	,	1	,	1	,	1	,	1	,	1	,	1	,	1	,	1	,	1	,	1	,	1	,	1	,	1	,	1	,	1	,	1	,	1	,	1	,	1	,	1
BottomLevels	,	1	,	1	,	1	,	1	,	1	,	1	,	1	,	1	,	1	,	1	,	1	,	1	,	1	,	1	,	1	,	1	,	1	,	1	,	1	,	1	,	1	,	1	,	1	,	1	,	1	,	1	,	1	,	1	,	1	,	1	,	1	,	1	,	1	,	1	,	1	,	1	,	1	,	1	,	1	,	1	,	1	,	1	,	1	,	1	,	1	,	1	,	1	,	1	,	1	,	1	,	1	,	1	,	1	,	1	,	1	,	1	,	1	,	1	,	1	,	1	,	1	,	1	,	1	,	1	,	1	,	1	,	1	,	1	,	1	,	1	,	1	,	1	,	1	,	1	,	1	,	1	,	1	,	1	,	1	,	1	,	1	,	1	,	1	,	1	,	1	,	1	,	1	,	1	,	1	,	1	,	1	,	1	,	1	,	1	,	1	,	1	,	1	,	1	,	1	,	1	,	1	,	1	,	1	,	1	,	1	,	1	,	1	,	1	,	1	,	1	,	1	,	1	,	1	,	1	,	1	,	1	,	1	,	1	,	1	,	1	,	1	,	1	,	1	,	1	,	1	,	1	,	1	,	1	,	1	,	1	,	1	,	1	,	1	,	1	,	1	,	1	,	1	,	1	,	1	,	1	,	1	,	1	,	1	,	1	,	1	,	1	,	1	,	1	,	1	,	1	,	1	,	1	,	1	,	1	,	1	,	1	,	1	,	1	,	1	,	1	,	1	,	1	,	1	,	1	,	1	,	1	,	1	,	1	,	1	,	1	,	1	,	1	,	1	,	1	,	1	,	1	,	1	,	1	,	1	,	1	,	1	,	1	,	1	,	1	,	1	,	1	,	1	,	1	,	1	,	1	,	1	,	1
TopLevelSize	,	64	,	64	,	64	,	64	,	64	,	64	,	64	,	64	,	64	,	64	,	64	,	64	,	64	,	64	,	64	,	64	,	64	,	64	,	64	,	64	,	64	,	64	,	64	,	64	,	64	,	64	,	64	,	64	,	64	,	64	,	64	,	64	,	64	,	64	,	64	,	64	,	64	,	64	,	64	,	64	,	64	,	64	,	64	,	64	,	64	,	64	,	64	,	64	,	64	,	64	,	64	,	64	,	64	,	64	,	64	,	64	,	64	,	64	,	64	,	64	,	64	,	64	,	64	,	64	,	64	,	64	,	64	,	64	,	64	,	64	,	64	,	64	,	64	,	64	,	64	,	64	,	64	,	64	,	64	,	64	,	64	,	64	,	64	,	64	,	64	,	64	,	64	,	64	,	64	,	64	,	64	,	64	,	64	,	64	,	64	,	64	,	64	,	64	,	64	,	64	,	64	,	64	,	64	,	64	,	64	,	64	,	64	,	64	,	64	,	64	,	64	,	64	,	64	,	64	,	64	,	64	,	64	,	64	,	64	,	64	,	64	,	64	,	64	,	64	,	64	,	64	,	64	,	64	,	64	,	64	,	64	,	64	,	64	,	64	,	64	,	64	,	64	,	64	,	64	,	64	,	64	,	64	,	64	,	64	,	64	,	64	,	64	,	64	,	64	,	64	,	64	,	64	,	64	,	64	,	64	,	64	,	64	,	64	,	64	,	64	,	64	,	64	,	64	,	64	,	64	,	64	,	64	,	64	,	64	,	64	,	64	,	64	,	64	,	64	,	64	,	64	,	64	,	64	,	64	,	64	,	64	,	64	,	64	,	64	,	64	,	64	,	64	,	64	,	64	,	64	,	64	,	64
BottomLevelsSize	,	1920	,	9344	,	23552	,	1152	,	10240	,	517760	,	517760	,	15232	,	6912	,	21888	,	52096	,	517760	,	517760	,	480000	,	517760	,	253440	,	517760	,	480000	,	517760	,	517760	,	480000	,	517760	,	517760	,	517760	,	517760	,	427520	,	16128	,	44416	,	480000	,	517760	,	480000	,	20992	,	1152	,	1152	,	1152	,	1152	,	1152	,	1152	,	1152	,	1152	,	1152	,	1152	,	1152	,	1152	,	1152	,	1152	,	1152	,	1152	,	1152	,	1152	,	1152	,	1152	,	1152	,	1152	,	1152	,	1152	,	1152	,	1152	,	1152	,	1152	,	1152	,	1152	,	1152	,	1152	,	1152	,	1152	,	1152	,	1152	,	1152	,	1152	,	1152	,	1152	,	1152	,	1152	,	1152	,	1152	,	1152	,	1152	,	1152	,	1152	,	1152	,	1152	,	1152	,	1152	,	1152	,	1152	,	1152	,	1152	,	1152	,	1152	,	1152	,	1152	,	1152	,	1152	,	1152	,	1152	,	1152	,	1152	,	1152	,	1152	,	1152	,	1152	,	1152	,	1152	,	1152	,	1152	,	1152	,	1152	,	1152	,	1152	,	1152	,	1152	,	1152	,	1152	,	1152	,	1152	,	1152	,	1152	,	1152	,	1152	,	1152	,	1152	,	1152	,	1152	,	1152	,	1152	,	1152	,	1152	,	1152	,	1152	,	1152	,	1152	,	1152	,	1152	,	1152	,	1152	,	1152	,	1152	,	1152	,	1152	,	1152	,	1152	,	1152	,	1152	,	1152	,	1152	,	1152	,	1152	,	1152	,	1152	,	1152	,	1152	,	1152	,	1152	,	1152	,	1152	,	1152	,	1152	,	1152	,	1152	,	1152	,	1152	,	1152	,	1045248	,	697344	,	65408	,	1536	,	764416	,	5216	,	3712	,	6528	,	22912	,	8576	,	24704	,	46720	,	52352	,	8320	,	5216	,	19456	,	8576	,	691072	,	54016	,	125184	,	24832	,	13952	,	30464	,	13696	,	28416	,	13696	,	498304	,	440320	,	32128
Index	,	0	,	1	,	2	,	3	,	4	,	5	,	6	,	7	,	8	,	9	,	10	,	11	,	12	,	13	,	14	,	15	,	16	,	17	,	18	,	19	,	20	,	21	,	22	,	23	,	24	,	25	,	26	,	27	,	28	,	29	,	30	,	31	,	32	,	33	,	34	,	35	,	36	,	37	,	38	,	39	,	40	,	41	,	42	,	43	,	44	,	45	,	46	,	47	,	48	,	49	,	50	,	51	,	52	,	53	,	54	,	55	,	56	,	57	,	58	,	59	,	60	,	61	,	62	,	63	,	64	,	65	,	66	,	67	,	68	,	69	,	70	,	71	,	72	,	73	,	74	,	75	,	76	,	77	,	78	,	79	,	80	,	81	,	82	,	83	,	84	,	85	,	86	,	87	,	88	,	89	,	90	,	91	,	92	,	93	,	94	,	95	,	96	,	97	,	98	,	99	,	100	,	101	,	102	,	103	,	104	,	105	,	106	,	107	,	108	,	109	,	110	,	111	,	112	,	113	,	114	,	115	,	116	,	117	,	118	,	119	,	120	,	121	,	122	,	123	,	124	,	125	,	126	,	127	,	128	,	129	,	130	,	131	,	132	,	133	,	134	,	135	,	136	,	137	,	138	,	139	,	140	,	141	,	142	,	143	,	144	,	145	,	146	,	147	,	148	,	149	,	150	,	151	,	152	,	153	,	154	,	155	,	156	,	157	,	158	,	159	,	160	,	161	,	162	,	163	,	164	,	165	,	166	,	167	,	168	,	169	,	170	,	171	,	172	,	173	,	174	,	175	,	176	,	177	,	178	,	179	,	180	,	181	,	182	,	183	,	184	,	185	,	186	,	187	,	188	,	189	,	190	,	191

FpsAggregator: 
FPS	,	2	,	2	,	2	,	2	,	2	,	2	,	2	,	2	,	2	,	2	,	2	,	2	,	2	,	2	,	2	,	2	,	2	,	2	,	2	,	2	,	2	,	2	,	2	,	2	,	2	,	2	,	2	,	2	,	2	,	2	,	2	,	2	,	2	,	2	,	2	,	2	,	2	,	2	,	2	,	2	,	2	,	2	,	2	,	2	,	2	,	2	,	2	,	2	,	2	,	2	,	2	,	2	,	2	,	2	,	2	,	2	,	2	,	2	,	2	,	2	,	2	,	2	,	2	,	2	,	2	,	2	,	2	,	2	,	2	,	2	,	2	,	2	,	2	,	2	,	2	,	2	,	2	,	2	,	2	,	2	,	2	,	2	,	2	,	2	,	2	,	2	,	2	,	2	,	2	,	2	,	2	,	2	,	2	,	2	,	2	,	2	,	2	,	2	,	2	,	2	,	2	,	2	,	2	,	2	,	2	,	2	,	2	,	2	,	2	,	2	,	2	,	2	,	2	,	2	,	2	,	2	,	2	,	2	,	2	,	2	,	2	,	2	,	2	,	2	,	2	,	2	,	2	,	2	,	2	,	2	,	2	,	2	,	2	,	2	,	2	,	2	,	2	,	2	,	2	,	2	,	2	,	2	,	2	,	2	,	2	,	2	,	2	,	2	,	2	,	2	,	2	,	2	,	2	,	2	,	2	,	2	,	2	,	2	,	2	,	2	,	2	,	2	,	2	,	2	,	2	,	2	,	2	,	2	,	2	,	2	,	2	,	2	,	2	,	2	,	2	,	2	,	2	,	2	,	2	,	2	,	2	,	2	,	2	,	2	,	2	,	2	,	2	,	2	,	2	,	2	,	2	,	2	,	2
UPS	,	24	,	24	,	24	,	24	,	24	,	24	,	24	,	24	,	24	,	24	,	24	,	24	,	24	,	24	,	24	,	24	,	24	,	24	,	24	,	24	,	24	,	24	,	24	,	24	,	24	,	24	,	24	,	24	,	24	,	24	,	24	,	24	,	24	,	24	,	24	,	24	,	24	,	24	,	24	,	24	,	24	,	24	,	24	,	24	,	24	,	24	,	24	,	24	,	24	,	24	,	24	,	24	,	24	,	24	,	24	,	24	,	24	,	24	,	24	,	24	,	24	,	24	,	24	,	24	,	24	,	24	,	24	,	24	,	24	,	24	,	24	,	24	,	24	,	24	,	24	,	24	,	24	,	24	,	24	,	24	,	24	,	24	,	24	,	24	,	24	,	24	,	24	,	24	,	24	,	24	,	24	,	24	,	24	,	24	,	24	,	24	,	24	,	24	,	24	,	24	,	24	,	24	,	24	,	24	,	24	,	24	,	24	,	24	,	24	,	24	,	24	,	24	,	24	,	24	,	24	,	24	,	24	,	24	,	24	,	24	,	24	,	24	,	24	,	24	,	24	,	24	,	24	,	24	,	24	,	24	,	24	,	24	,	24	,	24	,	24	,	24	,	24	,	24	,	24	,	24	,	24	,	24	,	24	,	24	,	24	,	24	,	24	,	24	,	24	,	24	,	24	,	24	,	24	,	24	,	24	,	24	,	24	,	24	,	24	,	24	,	24	,	24	,	24	,	24	,	24	,	24	,	24	,	24	,	24	,	24	,	24	,	24	,	24	,	24	,	24	,	24	,	24	,	24	,	24	,	24	,	24	,	24	,	24	,	24	,	24	,	24	,	24	,	24	,	24	,	24	,	24	,	24	,	24
FrameTime	,	1335.49	,	1335.49	,	1335.49	,	1335.49	,	1335.49	,	1335.49	,	1335.49	,	1335.49	,	1335.49	,	1335.49	,	1335.49	,	1335.49	,	1335.49	,	1335.49	,	1335.49	,	1335.49	,	1335.49	,	1335.49	,	1335.49	,	1335.49	,	1335.49	,	1335.49	,	1335.49	,	1335.49	,	1335.49	,	1335.49	,	1335.49	,	1335.49	,	1335.49	,	1335.49	,	1335.49	,	1335.49	,	1335.49	,	1335.49	,	1335.49	,	1335.49	,	1335.49	,	1335.49	,	1335.49	,	1335.49	,	1335.49	,	1335.49	,	1335.49	,	1335.49	,	1335.49	,	1335.49	,	1335.49	,	1335.49	,	1335.49	,	1335.49	,	1335.49	,	1335.49	,	1335.49	,	1335.49	,	1335.49	,	1335.49	,	1335.49	,	1335.49	,	1335.49	,	1335.49	,	1335.49	,	1335.49	,	1335.49	,	1335.49	,	1335.49	,	1335.49	,	1335.49	,	1335.49	,	1335.49	,	1335.49	,	1335.49	,	1335.49	,	1335.49	,	1335.49	,	1335.49	,	1335.49	,	1335.49	,	1335.49	,	1335.49	,	1335.49	,	1335.49	,	1335.49	,	1335.49	,	1335.49	,	1335.49	,	1335.49	,	1335.49	,	1335.49	,	1335.49	,	1335.49	,	1335.49	,	1335.49	,	1335.49	,	1335.49	,	1335.49	,	1335.49	,	1335.49	,	1335.49	,	1335.49	,	1335.49	,	1335.49	,	1335.49	,	1335.49	,	1335.49	,	1335.49	,	1335.49	,	1335.49	,	1335.49	,	1335.49	,	1335.49	,	1335.49	,	1335.49	,	1335.49	,	1335.49	,	1335.49	,	1335.49	,	1335.49	,	1335.49	,	1335.49	,	1335.49	,	1335.49	,	1335.49	,	1335.49	,	1335.49	,	1335.49	,	1335.49	,	1335.49	,	1335.49	,	1335.49	,	1335.49	,	1335.49	,	1335.49	,	1335.49	,	1335.49	,	1335.49	,	1335.49	,	1335.49	,	1335.49	,	1335.49	,	1335.49	,	1335.49	,	1335.49	,	1335.49	,	1335.49	,	1335.49	,	1335.49	,	1335.49	,	1335.49	,	1335.49	,	1335.49	,	1335.49	,	1335.49	,	1335.49	,	1335.49	,	1335.49	,	1335.49	,	1335.49	,	1335.49	,	1335.49	,	1335.49	,	1335.49	,	1335.49	,	1335.49	,	1335.49	,	1335.49	,	1335.49	,	1335.49	,	1335.49	,	1335.49	,	1335.49	,	1335.49	,	1335.49	,	1335.49	,	1335.49	,	1335.49	,	1335.49	,	1335.49	,	1335.49	,	1335.49	,	1335.49	,	1335.49	,	1335.49	,	1335.49	,	1335.49	,	1335.49	,	1335.49	,	1335.49	,	1335.49	,	1335.49	,	1335.49	,	1335.49	,	1335.49	,	1335.49
GigaRays/s	,	0	,	0	,	0	,	0	,	0	,	0	,	0	,	0	,	0	,	0	,	0	,	0	,	0	,	0	,	0	,	0	,	0	,	0	,	0	,	0	,	0	,	0	,	0	,	0	,	0	,	0	,	0	,	0	,	0	,	0	,	0	,	0	,	0	,	0	,	0	,	0	,	0	,	0	,	0	,	0	,	0	,	0	,	0	,	0	,	0	,	0	,	0	,	0	,	0	,	0	,	0	,	0	,	0	,	0	,	0	,	0	,	0	,	0	,	0	,	0	,	0	,	0	,	0	,	0	,	0	,	0	,	0	,	0	,	0	,	0	,	0	,	0	,	0	,	0	,	0	,	0	,	0	,	0	,	0	,	0	,	0	,	0	,	0	,	0	,	0	,	0	,	0	,	0	,	0	,	0	,	0	,	0	,	0	,	0	,	0	,	0	,	0	,	0	,	0	,	0	,	0	,	0	,	0	,	0	,	0	,	0	,	0	,	0	,	0	,	0	,	0	,	0	,	0	,	0	,	0	,	0	,	0	,	0	,	0	,	0	,	0	,	0	,	0	,	0	,	0	,	0	,	0	,	0	,	0	,	0	,	0	,	0	,	0	,	0	,	0	,	0	,	0	,	0	,	0	,	0	,	0	,	0	,	0	,	0	,	0	,	0	,	0	,	0	,	0	,	0	,	0	,	0	,	0	,	0	,	0	,	0	,	0	,	0	,	0	,	0	,	0	,	0	,	0	,	0	,	0	,	0	,	0	,	0	,	0	,	0	,	0	,	0	,	0	,	0	,	0	,	0	,	0	,	0	,	0	,	0	,	0	,	0	,	0	,	0	,	0	,	0	,	0	,	0	,	0	,	0	,	0	,	0	,	0
Index	,	0	,	1	,	2	,	3	,	4	,	5	,	6	,	7	,	8	,	9	,	10	,	11	,	12	,	13	,	14	,	15	,	16	,	17	,	18	,	19	,	20	,	21	,	22	,	23	,	24	,	25	,	26	,	27	,	28	,	29	,	30	,	31	,	32	,	33	,	34	,	35	,	36	,	37	,	38	,	39	,	40	,	41	,	42	,	43	,	44	,	45	,	46	,	47	,	48	,	49	,	50	,	51	,	52	,	53	,	54	,	55	,	56	,	57	,	58	,	59	,	60	,	61	,	62	,	63	,	64	,	65	,	66	,	67	,	68	,	69	,	70	,	71	,	72	,	73	,	74	,	75	,	76	,	77	,	78	,	79	,	80	,	81	,	82	,	83	,	84	,	85	,	86	,	87	,	88	,	89	,	90	,	91	,	92	,	93	,	94	,	95	,	96	,	97	,	98	,	99	,	100	,	101	,	102	,	103	,	104	,	105	,	106	,	107	,	108	,	109	,	110	,	111	,	112	,	113	,	114	,	115	,	116	,	117	,	118	,	119	,	120	,	121	,	122	,	123	,	124	,	125	,	126	,	127	,	128	,	129	,	130	,	131	,	132	,	133	,	134	,	135	,	136	,	137	,	138	,	139	,	140	,	141	,	142	,	143	,	144	,	145	,	146	,	147	,	148	,	149	,	150	,	151	,	152	,	153	,	154	,	155	,	156	,	157	,	158	,	159	,	160	,	161	,	162	,	163	,	164	,	165	,	166	,	167	,	168	,	169	,	170	,	171	,	172	,	173	,	174	,	175	,	176	,	177	,	178	,	179	,	180	,	181	,	182	,	183	,	184	,	185	,	186	,	187	,	188	,	189	,	190	,	191	,	192


AccelerationStructure: 
Ray tracing acceleration structure building statistics: 
	Bottom Level Acceleration Structure: 
		Maximum [B]: 1315840
		Minimum [B]: 4480
		Currently Allocated [B]: 16523840
		Currently Created [num]: 168
		Current Average [B]: 98356
		Maximum Triangles [num]: 18694
		Minimum Triangles [num]: 12
		Total Triangles [num]: 225864
		Maximum Meshes [num]: 5
		Minimum Meshes [num]: 1
		Total Meshes [num]: 184
	Top Level Acceleration Structure: 
		Maximum [B]: 10752
		Minimum [B]: 10752
		Currently Allocated [B]: 10752
		Total Allocated [B]: 10752
		Total Created [num]: 1
		Average Allocated [B]: 10752
		Maximum Instances [num]: 168
		Minimum Instances [num]: 168
		Total Instances [num]: 168
	Scratch Buffer: 
		Maximum [B]: 781824
		Minimum [B]: 781824
		Currently Allocated [B]: 781824
		Total Allocated [B]: 781824
		Total Created [num]: 1
		Average Allocated [B]: 781824
ProfilingStack: 
[PROF] Profiling statistics: 
	Scopes entered : 1368
	Scopes exited : 1366
	Overhead per scope [ticks] : 162.5
	Threads entered : 3
	Threads exited : 0
	============================
		         Sum[Mt]   Parent[%]  Samples[num]       Avg[Mt]   Last/Curr[Mt]        Self[Mt]     Self[%] 	 Name

	main:

		    3677.448 Mt   100.000 %         1 x     3677.449 Mt     3677.448 Mt     2792.608 Mt    75.939 % 	 /

		      59.850 Mt     1.627 %         1 x       59.850 Mt        0.000 Mt        0.680 Mt     1.136 % 	 ./Initialize

		       1.439 Mt     2.404 %         1 x        1.439 Mt        0.000 Mt        1.439 Mt   100.000 % 	 ../ShadowMapRLInitialization

		       6.284 Mt    10.500 %         1 x        6.284 Mt        0.000 Mt        6.284 Mt   100.000 % 	 ../AmbientOcclusionRLInitialization

		       3.873 Mt     6.471 %         1 x        3.873 Mt        0.000 Mt        3.873 Mt   100.000 % 	 ../RasterResolveRLInitialization

		       4.437 Mt     7.413 %         1 x        4.437 Mt        0.000 Mt        4.437 Mt   100.000 % 	 ../DeferredRLInitialization

		      39.620 Mt    66.199 %         1 x       39.620 Mt        0.000 Mt        1.854 Mt     4.678 % 	 ../RayTracingRLInitialization

		      37.766 Mt    95.322 %         1 x       37.766 Mt        0.000 Mt       37.766 Mt   100.000 % 	 .../PipelineBuild

		       3.518 Mt     5.877 %         1 x        3.518 Mt        0.000 Mt        3.518 Mt   100.000 % 	 ../ResolveRLInitialization

		     825.049 Mt    22.435 %         4 x      206.262 Mt      798.893 Mt        0.805 Mt     0.098 % 	 ./Run

		     816.480 Mt    98.961 %       161 x        5.071 Mt      798.898 Mt      201.805 Mt    24.716 % 	 ../Update

		     403.175 Mt    49.380 %         1 x      403.175 Mt      403.175 Mt       21.476 Mt     5.327 % 	 .../ScenePrep

		      11.454 Mt     2.841 %         1 x       11.454 Mt       11.454 Mt       11.454 Mt   100.000 % 	 ..../SceneDesc-CreateScene

		       1.480 Mt     0.367 %         1 x        1.480 Mt        1.480 Mt        0.002 Mt     0.101 % 	 ..../ShadowMapRLPrep

		       1.478 Mt    99.899 %         1 x        1.478 Mt        1.478 Mt        0.911 Mt    61.614 % 	 ...../PrepareForRendering

		       0.568 Mt    38.386 %         1 x        0.568 Mt        0.568 Mt        0.568 Mt   100.000 % 	 ....../PrepareDrawBundle

		      10.576 Mt     2.623 %         1 x       10.576 Mt       10.576 Mt        0.001 Mt     0.011 % 	 ..../DeferredRLPrep

		      10.575 Mt    99.989 %         1 x       10.575 Mt       10.575 Mt        8.341 Mt    78.877 % 	 ...../PrepareForRendering

		       0.150 Mt     1.419 %         1 x        0.150 Mt        0.150 Mt        0.150 Mt   100.000 % 	 ....../PrepareMaterials

		       0.435 Mt     4.112 %         1 x        0.435 Mt        0.435 Mt        0.435 Mt   100.000 % 	 ....../BuildMaterialCache

		       1.649 Mt    15.592 %         1 x        1.649 Mt        1.649 Mt        1.649 Mt   100.000 % 	 ....../PrepareDrawBundle

		     308.299 Mt    76.468 %         1 x      308.299 Mt      308.299 Mt        2.357 Mt     0.764 % 	 ..../RayTracingRLPrep

		       4.930 Mt     1.599 %         1 x        4.930 Mt        4.930 Mt        4.930 Mt   100.000 % 	 ...../PrepareAccelerationStructures

		       0.151 Mt     0.049 %         1 x        0.151 Mt        0.151 Mt        0.151 Mt   100.000 % 	 ...../PrepareCache

		     252.487 Mt    81.897 %         1 x      252.487 Mt      252.487 Mt      252.487 Mt   100.000 % 	 ...../PipelineBuild

		       1.153 Mt     0.374 %         1 x        1.153 Mt        1.153 Mt        1.153 Mt   100.000 % 	 ...../BuildCache

		      46.322 Mt    15.025 %         1 x       46.322 Mt       46.322 Mt        0.001 Mt     0.003 % 	 ...../BuildAccelerationStructures

		      46.320 Mt    99.997 %         1 x       46.320 Mt       46.320 Mt        0.810 Mt     1.749 % 	 ....../AccelerationStructureBuild

		      44.994 Mt    97.137 %         1 x       44.994 Mt       44.994 Mt       44.994 Mt   100.000 % 	 ......./BuildBottomLevelAS

		       0.516 Mt     1.114 %         1 x        0.516 Mt        0.516 Mt        0.516 Mt   100.000 % 	 ......./BuildTopLevelAS

		       0.900 Mt     0.292 %         1 x        0.900 Mt        0.900 Mt        0.900 Mt   100.000 % 	 ...../BuildShaderTables

		      49.891 Mt    12.374 %         1 x       49.891 Mt       49.891 Mt       49.891 Mt   100.000 % 	 ..../GpuSidePrep

		     211.500 Mt    25.904 %       193 x        1.096 Mt        1.271 Mt       71.280 Mt    33.702 % 	 .../AccelerationStructureBuild

		      54.797 Mt    25.909 %       193 x        0.284 Mt        0.351 Mt       54.797 Mt   100.000 % 	 ..../BuildBottomLevelAS

		      85.423 Mt    40.389 %       193 x        0.443 Mt        0.582 Mt       85.423 Mt   100.000 % 	 ..../BuildTopLevelAS

		       7.773 Mt     0.942 %         3 x        2.591 Mt        0.521 Mt        0.002 Mt     0.031 % 	 ../Render

		       7.770 Mt    99.969 %         3 x        2.590 Mt        0.520 Mt        1.097 Mt    14.114 % 	 .../Render

		       6.673 Mt    85.886 %         3 x        2.224 Mt        0.399 Mt        6.673 Mt   100.000 % 	 ..../Present

	WindowThread:

		    3675.811 Mt   100.000 %         1 x     3675.811 Mt     3675.811 Mt     3675.811 Mt   100.000 % 	 /

	GpuThread:

		      85.883 Mt   100.000 %       195 x        0.440 Mt        0.412 Mt        6.411 Mt     7.465 % 	 /

		       0.004 Mt     0.004 %         3 x        0.001 Mt        0.002 Mt        0.004 Mt   100.000 % 	 ./Present

		      42.577 Mt    49.575 %         1 x       42.577 Mt       42.577 Mt        0.008 Mt     0.018 % 	 ./ScenePrep

		      42.569 Mt    99.982 %         1 x       42.569 Mt       42.569 Mt        0.001 Mt     0.003 % 	 ../AccelerationStructureBuild

		      42.322 Mt    99.419 %         1 x       42.322 Mt       42.322 Mt       42.322 Mt   100.000 % 	 .../BuildBottomLevelASGpu

		       0.246 Mt     0.578 %         1 x        0.246 Mt        0.246 Mt        0.246 Mt   100.000 % 	 .../BuildTopLevelASGpu

		      36.891 Mt    42.955 %       193 x        0.191 Mt        0.412 Mt        0.276 Mt     0.748 % 	 ./AccelerationStructureBuild

		      21.272 Mt    57.661 %       193 x        0.110 Mt        0.331 Mt       21.272 Mt   100.000 % 	 ../BuildBottomLevelASGpu

		      15.343 Mt    41.591 %       193 x        0.079 Mt        0.080 Mt       15.343 Mt   100.000 % 	 ../BuildTopLevelASGpu


	============================


