Configuration: 
Command line parameters  = 
Build type               = Release
Device name              = NVIDIA GeForce RTX 2080 Ti
Device memory MB         = 11049
Ray Tracing backend      = Hardware
Window width             = 1161
Window height            = 1219
Window title             = Direct3D App
Back-buffer count        = 3
Fill Triangles           = enabled
Triangles Font Clock-Wise= disabled
Fast Build AS            = disabled
Target FPS               = 0
Target UPS               = 60
Tearing                  = enabled
VSync                    = disabled
GUI rendering            = disabled
Debug layer              = disabled
GPU validation           = disabled
GPU profiling            = enabled
Render mode              = Ray Tracing
Loaded scene file        = 
Using testing scene      = disabled
BLAS duplication         = disabled
Rays per pixel           = 8
Quality preset           = Medium
Rasterization Quality    : 
  AO                     = enabled
  AO kernel size         = 4
  Shadows                = enabled
  Shadow map resolution  = 4096
  Shadow PCF kernel size = 4
  Reflections            = disabled
Ray Tracing Quality      : 
  AO                     = enabled
  AO rays                = 4
  AO kernel size         = 4
  Shadows                = enabled
  Shadow rays            = 4
  Shadow kernel size     = 4
  Reflections            = disabled

ProfilingAggregator: 
Render	,	2.0385	,	2.3868	,	2.4776	,	2.4212	,	3.0711	,	2.8362	,	2.5386	,	2.1758	,	3.7159	,	2.7713	,	2.7431	,	2.4904	,	3.1832	,	2.1492	,	2.36	,	2.5649	,	2.4044	,	2.2497	,	2.4652	,	2.9785	,	2.7562	,	2.592	,	2.8634	,	2.8634	,	2.8634	,	2.8634	,	2.8634	,	2.8634	,	2.8634	,	2.8634	,	2.8634	,	2.8634	,	2.8634	,	2.8634	,	2.8634	,	2.8634	,	2.8634	,	2.8634	,	2.8634	,	2.8634	,	2.8634	,	2.8634	,	2.8634	,	2.8634	,	2.8634	,	2.8634	,	2.8634	,	2.8634	,	2.8634	,	2.8634	,	2.8634	,	2.8634	,	2.8634	,	2.8634	,	2.8634	,	2.8634	,	2.8634	,	2.8634	,	2.8634	,	2.8634	,	2.8634	,	2.8634	,	2.8634	,	2.8634	,	2.8634	,	2.8634	,	2.8634	,	2.8634	,	2.8634	,	2.8634	,	2.8634	,	2.8634	,	2.8634	,	2.8634	,	2.8634	,	2.8634	,	2.8634	,	2.8634	,	2.8634	,	2.8634	,	2.8634	,	2.8634	,	2.8634	,	2.8634	,	2.8634	,	2.8634	,	2.8634	,	2.8634	,	2.8634	,	2.8634	,	2.8634	,	2.8634	,	2.8634	,	2.8634	,	2.8634	,	2.8634	,	2.8634	,	2.8634	,	2.8634	,	2.8634	,	2.8634	,	2.8634	,	2.8634	,	2.8634	,	2.8634	,	2.8634	,	2.8634	,	2.8634	,	2.8634	,	2.8634	,	2.8634	,	2.8634	,	2.8634	,	2.8634	,	2.8634	,	2.8634	,	2.8634	,	2.8634	,	2.8634	,	2.8634	,	2.8634	,	2.8634	,	2.8634	,	2.8634	,	2.8634	,	2.8634	,	2.8634	,	2.8634	,	2.8634	,	2.8634	,	2.8634	,	2.8634	,	2.8634	,	2.8634	,	2.8634	,	2.8634	,	2.8634	,	2.8634	,	2.8634	,	2.8634	,	2.8634	,	2.8634	,	2.8634	,	2.8634	,	2.8634	,	2.8634	,	2.8634	,	2.8634	,	2.8634	,	2.8634	,	2.8634	,	2.8634	,	2.8634	,	2.8634	,	2.8634	,	2.8634	,	2.8634	,	2.8634	,	2.8634	,	2.8634	,	2.8634	,	2.8634	,	2.8634	,	2.8634	,	2.8634	,	2.8634	,	2.8634	,	2.8634	,	2.8634	,	2.8634	,	2.8634	,	2.8634	,	2.8634	,	2.8634	,	2.8634	,	2.8634	,	2.8634	,	2.8634	,	2.8634	,	2.8634	,	2.8634	,	2.8634	,	2.8634	,	2.8634	,	2.8634	,	2.8634	,	2.8634	,	2.8634	,	2.8634	,	2.8634	,	2.8634	,	2.8634	,	2.8634	,	2.8634	,	2.8634	,	2.8634	,	2.8634	,	2.8634	,	2.8634	,	2.8634	,	2.8634	,	2.8634	,	2.8634	,	2.8634	,	2.8634	,	2.8634	,	2.8634	,	2.8634	,	2.8634	,	2.8634	,	2.8634	,	2.8634	,	2.8634	,	2.8634	,	2.8634	,	2.8634	,	2.8634	,	2.8634	,	2.8634	,	2.8634	,	2.8634
Update	,	0.0193	,	0.0884	,	0.0887	,	0.0889	,	0.0846	,	0.0226	,	0.0229	,	0.086	,	0.086	,	0.0793	,	0.084	,	0.0857	,	0.0852	,	0.1008	,	0.09	,	0.0844	,	0.0831	,	0.0852	,	0.1013	,	0.022	,	0.0858	,	0.0902	,	175.123	,	177.372	,	179.751	,	182.001	,	184.29	,	186.484	,	188.835	,	191.179	,	193.002	,	195.306	,	197.86	,	199.926	,	201.849	,	203.799	,	205.603	,	207.306	,	209.257	,	212.064	,	214.365	,	216.566	,	218.369	,	220.483	,	223.052	,	225.487	,	228.313	,	230.304	,	232.972	,	236.218	,	238.714	,	240.896	,	242.975	,	245.652	,	247.754	,	249.762	,	251.628	,	253.562	,	255.537	,	257.409	,	259.234	,	261.571	,	263.591	,	265.295	,	267.043	,	269.267	,	270.985	,	272.897	,	274.591	,	276.42	,	278.803	,	281.264	,	283.384	,	285.721	,	287.73	,	289.445	,	291.261	,	294.177	,	297.031	,	299.031	,	300.74	,	302.479	,	304.869	,	306.905	,	308.657	,	310.777	,	312.852	,	314.983	,	317.073	,	319.089	,	321.475	,	323.657	,	325.71	,	328.353	,	330.93	,	332.907	,	334.77	,	336.802	,	338.854	,	340.943	,	343.098	,	345.358	,	347.328	,	349.287	,	351.204	,	353.021	,	354.875	,	356.659	,	359.061	,	361.345	,	363.342	,	365.22	,	367.01	,	368.697	,	370.426	,	372.203	,	374.079	,	375.856	,	377.618	,	379.431	,	381.173	,	382.958	,	385.09	,	386.931	,	388.709	,	390.389	,	392.191	,	394.173	,	395.863	,	397.627	,	399.309	,	401.256	,	402.995	,	404.601	,	406.371	,	407.905	,	409.746	,	411.754	,	413.453	,	415.362	,	416.968	,	418.89	,	420.892	,	422.682	,	424.376	,	426.435	,	429.124	,	430.843	,	432.565	,	434.295	,	437.577	,	439.889	,	441.703	,	443.324	,	446.006	,	447.916	,	450.036	,	451.735	,	453.311	,	455.169	,	456.847	,	458.719	,	460.503	,	462.304	,	463.994	,	465.593	,	467.195	,	468.647	,	470.154	,	471.793	,	473.358	,	474.907	,	476.544	,	478.471	,	480.291	,	482.494	,	484.959	,	486.591	,	488.188	,	489.698	,	491.227	,	492.935	,	494.776	,	496.651	,	498.168	,	499.588	,	501.2	,	502.818	,	504.341	,	505.933	,	507.463	,	508.991	,	510.636	,	512.213	,	513.845	,	515.377	,	516.997	,	518.594	,	520.222	,	521.844	,	523.581	,	525.051	,	526.875	,	528.738	,	530.404	,	532.271	,	533.809	,	535.435	,	537.07	,	539.108	,	541.166	,	543.282	,	545.57	,	547.688	,	549.838	,	551.574	,	553.145	,	554.779	,	556.31	,	558.077	,	559.745
RayTracing	,	0.7796	,	0.1662	,	0.1253	,	0.143	,	0.1361	,	0.1294	,	0.1349	,	0.1335	,	0.1379	,	0.1232	,	0.1277	,	0.1268	,	0.1267	,	0.1443	,	0.1441	,	0.1293	,	0.1254	,	0.1352	,	0.1303	,	0.1252	,	0.1319	,	0.1355	,	0.2028	,	0.2028	,	0.2028	,	0.2028	,	0.2028	,	0.2028	,	0.2028	,	0.2028	,	0.2028	,	0.2028	,	0.2028	,	0.2028	,	0.2028	,	0.2028	,	0.2028	,	0.2028	,	0.2028	,	0.2028	,	0.2028	,	0.2028	,	0.2028	,	0.2028	,	0.2028	,	0.2028	,	0.2028	,	0.2028	,	0.2028	,	0.2028	,	0.2028	,	0.2028	,	0.2028	,	0.2028	,	0.2028	,	0.2028	,	0.2028	,	0.2028	,	0.2028	,	0.2028	,	0.2028	,	0.2028	,	0.2028	,	0.2028	,	0.2028	,	0.2028	,	0.2028	,	0.2028	,	0.2028	,	0.2028	,	0.2028	,	0.2028	,	0.2028	,	0.2028	,	0.2028	,	0.2028	,	0.2028	,	0.2028	,	0.2028	,	0.2028	,	0.2028	,	0.2028	,	0.2028	,	0.2028	,	0.2028	,	0.2028	,	0.2028	,	0.2028	,	0.2028	,	0.2028	,	0.2028	,	0.2028	,	0.2028	,	0.2028	,	0.2028	,	0.2028	,	0.2028	,	0.2028	,	0.2028	,	0.2028	,	0.2028	,	0.2028	,	0.2028	,	0.2028	,	0.2028	,	0.2028	,	0.2028	,	0.2028	,	0.2028	,	0.2028	,	0.2028	,	0.2028	,	0.2028	,	0.2028	,	0.2028	,	0.2028	,	0.2028	,	0.2028	,	0.2028	,	0.2028	,	0.2028	,	0.2028	,	0.2028	,	0.2028	,	0.2028	,	0.2028	,	0.2028	,	0.2028	,	0.2028	,	0.2028	,	0.2028	,	0.2028	,	0.2028	,	0.2028	,	0.2028	,	0.2028	,	0.2028	,	0.2028	,	0.2028	,	0.2028	,	0.2028	,	0.2028	,	0.2028	,	0.2028	,	0.2028	,	0.2028	,	0.2028	,	0.2028	,	0.2028	,	0.2028	,	0.2028	,	0.2028	,	0.2028	,	0.2028	,	0.2028	,	0.2028	,	0.2028	,	0.2028	,	0.2028	,	0.2028	,	0.2028	,	0.2028	,	0.2028	,	0.2028	,	0.2028	,	0.2028	,	0.2028	,	0.2028	,	0.2028	,	0.2028	,	0.2028	,	0.2028	,	0.2028	,	0.2028	,	0.2028	,	0.2028	,	0.2028	,	0.2028	,	0.2028	,	0.2028	,	0.2028	,	0.2028	,	0.2028	,	0.2028	,	0.2028	,	0.2028	,	0.2028	,	0.2028	,	0.2028	,	0.2028	,	0.2028	,	0.2028	,	0.2028	,	0.2028	,	0.2028	,	0.2028	,	0.2028	,	0.2028	,	0.2028	,	0.2028	,	0.2028	,	0.2028	,	0.2028	,	0.2028	,	0.2028	,	0.2028	,	0.2028	,	0.2028	,	0.2028	,	0.2028	,	0.2028	,	0.2028	,	0.2028	,	0.2028	,	0.2028	,	0.2028	,	0.2028	,	0.2028	,	0.2028	,	0.2028	,	0.2028
RayTracingGpu	,	0.682432	,	1.736	,	1.94317	,	1.72826	,	2.45763	,	2.19933	,	2.01482	,	1.65581	,	2.91664	,	2.23747	,	2.21827	,	1.93162	,	2.38013	,	1.60234	,	1.76058	,	2.03693	,	1.86826	,	1.73395	,	1.96147	,	2.46058	,	2.22339	,	2.01046	,	2.18522	,	2.18522	,	2.18522	,	2.18522	,	2.18522	,	2.18522	,	2.18522	,	2.18522	,	2.18522	,	2.18522	,	2.18522	,	2.18522	,	2.18522	,	2.18522	,	2.18522	,	2.18522	,	2.18522	,	2.18522	,	2.18522	,	2.18522	,	2.18522	,	2.18522	,	2.18522	,	2.18522	,	2.18522	,	2.18522	,	2.18522	,	2.18522	,	2.18522	,	2.18522	,	2.18522	,	2.18522	,	2.18522	,	2.18522	,	2.18522	,	2.18522	,	2.18522	,	2.18522	,	2.18522	,	2.18522	,	2.18522	,	2.18522	,	2.18522	,	2.18522	,	2.18522	,	2.18522	,	2.18522	,	2.18522	,	2.18522	,	2.18522	,	2.18522	,	2.18522	,	2.18522	,	2.18522	,	2.18522	,	2.18522	,	2.18522	,	2.18522	,	2.18522	,	2.18522	,	2.18522	,	2.18522	,	2.18522	,	2.18522	,	2.18522	,	2.18522	,	2.18522	,	2.18522	,	2.18522	,	2.18522	,	2.18522	,	2.18522	,	2.18522	,	2.18522	,	2.18522	,	2.18522	,	2.18522	,	2.18522	,	2.18522	,	2.18522	,	2.18522	,	2.18522	,	2.18522	,	2.18522	,	2.18522	,	2.18522	,	2.18522	,	2.18522	,	2.18522	,	2.18522	,	2.18522	,	2.18522	,	2.18522	,	2.18522	,	2.18522	,	2.18522	,	2.18522	,	2.18522	,	2.18522	,	2.18522	,	2.18522	,	2.18522	,	2.18522	,	2.18522	,	2.18522	,	2.18522	,	2.18522	,	2.18522	,	2.18522	,	2.18522	,	2.18522	,	2.18522	,	2.18522	,	2.18522	,	2.18522	,	2.18522	,	2.18522	,	2.18522	,	2.18522	,	2.18522	,	2.18522	,	2.18522	,	2.18522	,	2.18522	,	2.18522	,	2.18522	,	2.18522	,	2.18522	,	2.18522	,	2.18522	,	2.18522	,	2.18522	,	2.18522	,	2.18522	,	2.18522	,	2.18522	,	2.18522	,	2.18522	,	2.18522	,	2.18522	,	2.18522	,	2.18522	,	2.18522	,	2.18522	,	2.18522	,	2.18522	,	2.18522	,	2.18522	,	2.18522	,	2.18522	,	2.18522	,	2.18522	,	2.18522	,	2.18522	,	2.18522	,	2.18522	,	2.18522	,	2.18522	,	2.18522	,	2.18522	,	2.18522	,	2.18522	,	2.18522	,	2.18522	,	2.18522	,	2.18522	,	2.18522	,	2.18522	,	2.18522	,	2.18522	,	2.18522	,	2.18522	,	2.18522	,	2.18522	,	2.18522	,	2.18522	,	2.18522	,	2.18522	,	2.18522	,	2.18522	,	2.18522	,	2.18522	,	2.18522	,	2.18522	,	2.18522	,	2.18522	,	2.18522	,	2.18522	,	2.18522	,	2.18522	,	2.18522	,	2.18522	,	2.18522	,	2.18522	,	2.18522	,	2.18522	,	2.18522	,	2.18522	,	2.18522
DeferredRLGpu	,	0.022944	,	0.217024	,	0.223232	,	0.215648	,	0.29296	,	0.225056	,	0.2344	,	0.174432	,	0.448928	,	0.297184	,	0.263136	,	0.242048	,	0.27616	,	0.156672	,	0.201824	,	0.3248	,	0.231328	,	0.235904	,	0.259136	,	0.323424	,	0.27232	,	0.27152	,	0.272992	,	0.272992	,	0.272992	,	0.272992	,	0.272992	,	0.272992	,	0.272992	,	0.272992	,	0.272992	,	0.272992	,	0.272992	,	0.272992	,	0.272992	,	0.272992	,	0.272992	,	0.272992	,	0.272992	,	0.272992	,	0.272992	,	0.272992	,	0.272992	,	0.272992	,	0.272992	,	0.272992	,	0.272992	,	0.272992	,	0.272992	,	0.272992	,	0.272992	,	0.272992	,	0.272992	,	0.272992	,	0.272992	,	0.272992	,	0.272992	,	0.272992	,	0.272992	,	0.272992	,	0.272992	,	0.272992	,	0.272992	,	0.272992	,	0.272992	,	0.272992	,	0.272992	,	0.272992	,	0.272992	,	0.272992	,	0.272992	,	0.272992	,	0.272992	,	0.272992	,	0.272992	,	0.272992	,	0.272992	,	0.272992	,	0.272992	,	0.272992	,	0.272992	,	0.272992	,	0.272992	,	0.272992	,	0.272992	,	0.272992	,	0.272992	,	0.272992	,	0.272992	,	0.272992	,	0.272992	,	0.272992	,	0.272992	,	0.272992	,	0.272992	,	0.272992	,	0.272992	,	0.272992	,	0.272992	,	0.272992	,	0.272992	,	0.272992	,	0.272992	,	0.272992	,	0.272992	,	0.272992	,	0.272992	,	0.272992	,	0.272992	,	0.272992	,	0.272992	,	0.272992	,	0.272992	,	0.272992	,	0.272992	,	0.272992	,	0.272992	,	0.272992	,	0.272992	,	0.272992	,	0.272992	,	0.272992	,	0.272992	,	0.272992	,	0.272992	,	0.272992	,	0.272992	,	0.272992	,	0.272992	,	0.272992	,	0.272992	,	0.272992	,	0.272992	,	0.272992	,	0.272992	,	0.272992	,	0.272992	,	0.272992	,	0.272992	,	0.272992	,	0.272992	,	0.272992	,	0.272992	,	0.272992	,	0.272992	,	0.272992	,	0.272992	,	0.272992	,	0.272992	,	0.272992	,	0.272992	,	0.272992	,	0.272992	,	0.272992	,	0.272992	,	0.272992	,	0.272992	,	0.272992	,	0.272992	,	0.272992	,	0.272992	,	0.272992	,	0.272992	,	0.272992	,	0.272992	,	0.272992	,	0.272992	,	0.272992	,	0.272992	,	0.272992	,	0.272992	,	0.272992	,	0.272992	,	0.272992	,	0.272992	,	0.272992	,	0.272992	,	0.272992	,	0.272992	,	0.272992	,	0.272992	,	0.272992	,	0.272992	,	0.272992	,	0.272992	,	0.272992	,	0.272992	,	0.272992	,	0.272992	,	0.272992	,	0.272992	,	0.272992	,	0.272992	,	0.272992	,	0.272992	,	0.272992	,	0.272992	,	0.272992	,	0.272992	,	0.272992	,	0.272992	,	0.272992	,	0.272992	,	0.272992	,	0.272992	,	0.272992	,	0.272992	,	0.272992	,	0.272992	,	0.272992	,	0.272992	,	0.272992	,	0.272992	,	0.272992	,	0.272992	,	0.272992	,	0.272992	,	0.272992	,	0.272992	,	0.272992	,	0.272992
RayTracingRLGpu	,	0.048768	,	0.74656	,	0.750304	,	0.666368	,	1.35507	,	1.1337	,	0.942944	,	0.683584	,	1.63085	,	1.11037	,	1.11078	,	0.915904	,	1.31709	,	0.689216	,	0.785152	,	0.921344	,	0.86368	,	0.742432	,	0.913536	,	1.08	,	1.16163	,	0.951904	,	1.12666	,	1.12666	,	1.12666	,	1.12666	,	1.12666	,	1.12666	,	1.12666	,	1.12666	,	1.12666	,	1.12666	,	1.12666	,	1.12666	,	1.12666	,	1.12666	,	1.12666	,	1.12666	,	1.12666	,	1.12666	,	1.12666	,	1.12666	,	1.12666	,	1.12666	,	1.12666	,	1.12666	,	1.12666	,	1.12666	,	1.12666	,	1.12666	,	1.12666	,	1.12666	,	1.12666	,	1.12666	,	1.12666	,	1.12666	,	1.12666	,	1.12666	,	1.12666	,	1.12666	,	1.12666	,	1.12666	,	1.12666	,	1.12666	,	1.12666	,	1.12666	,	1.12666	,	1.12666	,	1.12666	,	1.12666	,	1.12666	,	1.12666	,	1.12666	,	1.12666	,	1.12666	,	1.12666	,	1.12666	,	1.12666	,	1.12666	,	1.12666	,	1.12666	,	1.12666	,	1.12666	,	1.12666	,	1.12666	,	1.12666	,	1.12666	,	1.12666	,	1.12666	,	1.12666	,	1.12666	,	1.12666	,	1.12666	,	1.12666	,	1.12666	,	1.12666	,	1.12666	,	1.12666	,	1.12666	,	1.12666	,	1.12666	,	1.12666	,	1.12666	,	1.12666	,	1.12666	,	1.12666	,	1.12666	,	1.12666	,	1.12666	,	1.12666	,	1.12666	,	1.12666	,	1.12666	,	1.12666	,	1.12666	,	1.12666	,	1.12666	,	1.12666	,	1.12666	,	1.12666	,	1.12666	,	1.12666	,	1.12666	,	1.12666	,	1.12666	,	1.12666	,	1.12666	,	1.12666	,	1.12666	,	1.12666	,	1.12666	,	1.12666	,	1.12666	,	1.12666	,	1.12666	,	1.12666	,	1.12666	,	1.12666	,	1.12666	,	1.12666	,	1.12666	,	1.12666	,	1.12666	,	1.12666	,	1.12666	,	1.12666	,	1.12666	,	1.12666	,	1.12666	,	1.12666	,	1.12666	,	1.12666	,	1.12666	,	1.12666	,	1.12666	,	1.12666	,	1.12666	,	1.12666	,	1.12666	,	1.12666	,	1.12666	,	1.12666	,	1.12666	,	1.12666	,	1.12666	,	1.12666	,	1.12666	,	1.12666	,	1.12666	,	1.12666	,	1.12666	,	1.12666	,	1.12666	,	1.12666	,	1.12666	,	1.12666	,	1.12666	,	1.12666	,	1.12666	,	1.12666	,	1.12666	,	1.12666	,	1.12666	,	1.12666	,	1.12666	,	1.12666	,	1.12666	,	1.12666	,	1.12666	,	1.12666	,	1.12666	,	1.12666	,	1.12666	,	1.12666	,	1.12666	,	1.12666	,	1.12666	,	1.12666	,	1.12666	,	1.12666	,	1.12666	,	1.12666	,	1.12666	,	1.12666	,	1.12666	,	1.12666	,	1.12666	,	1.12666	,	1.12666	,	1.12666	,	1.12666	,	1.12666	,	1.12666	,	1.12666	,	1.12666	,	1.12666	,	1.12666	,	1.12666	,	1.12666	,	1.12666	,	1.12666
ResolveRLGpu	,	0.608896	,	0.768672	,	0.966336	,	0.843904	,	0.807104	,	0.835808	,	0.832288	,	0.7936	,	0.832064	,	0.822944	,	0.84096	,	0.765856	,	0.783712	,	0.753568	,	0.766464	,	0.786528	,	0.768736	,	0.750976	,	0.779008	,	1.05168	,	0.786272	,	0.780928	,	0.781888	,	0.781888	,	0.781888	,	0.781888	,	0.781888	,	0.781888	,	0.781888	,	0.781888	,	0.781888	,	0.781888	,	0.781888	,	0.781888	,	0.781888	,	0.781888	,	0.781888	,	0.781888	,	0.781888	,	0.781888	,	0.781888	,	0.781888	,	0.781888	,	0.781888	,	0.781888	,	0.781888	,	0.781888	,	0.781888	,	0.781888	,	0.781888	,	0.781888	,	0.781888	,	0.781888	,	0.781888	,	0.781888	,	0.781888	,	0.781888	,	0.781888	,	0.781888	,	0.781888	,	0.781888	,	0.781888	,	0.781888	,	0.781888	,	0.781888	,	0.781888	,	0.781888	,	0.781888	,	0.781888	,	0.781888	,	0.781888	,	0.781888	,	0.781888	,	0.781888	,	0.781888	,	0.781888	,	0.781888	,	0.781888	,	0.781888	,	0.781888	,	0.781888	,	0.781888	,	0.781888	,	0.781888	,	0.781888	,	0.781888	,	0.781888	,	0.781888	,	0.781888	,	0.781888	,	0.781888	,	0.781888	,	0.781888	,	0.781888	,	0.781888	,	0.781888	,	0.781888	,	0.781888	,	0.781888	,	0.781888	,	0.781888	,	0.781888	,	0.781888	,	0.781888	,	0.781888	,	0.781888	,	0.781888	,	0.781888	,	0.781888	,	0.781888	,	0.781888	,	0.781888	,	0.781888	,	0.781888	,	0.781888	,	0.781888	,	0.781888	,	0.781888	,	0.781888	,	0.781888	,	0.781888	,	0.781888	,	0.781888	,	0.781888	,	0.781888	,	0.781888	,	0.781888	,	0.781888	,	0.781888	,	0.781888	,	0.781888	,	0.781888	,	0.781888	,	0.781888	,	0.781888	,	0.781888	,	0.781888	,	0.781888	,	0.781888	,	0.781888	,	0.781888	,	0.781888	,	0.781888	,	0.781888	,	0.781888	,	0.781888	,	0.781888	,	0.781888	,	0.781888	,	0.781888	,	0.781888	,	0.781888	,	0.781888	,	0.781888	,	0.781888	,	0.781888	,	0.781888	,	0.781888	,	0.781888	,	0.781888	,	0.781888	,	0.781888	,	0.781888	,	0.781888	,	0.781888	,	0.781888	,	0.781888	,	0.781888	,	0.781888	,	0.781888	,	0.781888	,	0.781888	,	0.781888	,	0.781888	,	0.781888	,	0.781888	,	0.781888	,	0.781888	,	0.781888	,	0.781888	,	0.781888	,	0.781888	,	0.781888	,	0.781888	,	0.781888	,	0.781888	,	0.781888	,	0.781888	,	0.781888	,	0.781888	,	0.781888	,	0.781888	,	0.781888	,	0.781888	,	0.781888	,	0.781888	,	0.781888	,	0.781888	,	0.781888	,	0.781888	,	0.781888	,	0.781888	,	0.781888	,	0.781888	,	0.781888	,	0.781888	,	0.781888	,	0.781888	,	0.781888	,	0.781888	,	0.781888	,	0.781888	,	0.781888	,	0.781888	,	0.781888	,	0.781888	,	0.781888	,	0.781888	,	0.781888	,	0.781888	,	0.781888
Index	,	0	,	1	,	2	,	3	,	4	,	5	,	6	,	7	,	8	,	9	,	10	,	11	,	12	,	13	,	14	,	15	,	16	,	17	,	18	,	19	,	20	,	21	,	22	,	23	,	24	,	25	,	26	,	27	,	28	,	29	,	30	,	31	,	32	,	33	,	34	,	35	,	36	,	37	,	38	,	39	,	40	,	41	,	42	,	43	,	44	,	45	,	46	,	47	,	48	,	49	,	50	,	51	,	52	,	53	,	54	,	55	,	56	,	57	,	58	,	59	,	60	,	61	,	62	,	63	,	64	,	65	,	66	,	67	,	68	,	69	,	70	,	71	,	72	,	73	,	74	,	75	,	76	,	77	,	78	,	79	,	80	,	81	,	82	,	83	,	84	,	85	,	86	,	87	,	88	,	89	,	90	,	91	,	92	,	93	,	94	,	95	,	96	,	97	,	98	,	99	,	100	,	101	,	102	,	103	,	104	,	105	,	106	,	107	,	108	,	109	,	110	,	111	,	112	,	113	,	114	,	115	,	116	,	117	,	118	,	119	,	120	,	121	,	122	,	123	,	124	,	125	,	126	,	127	,	128	,	129	,	130	,	131	,	132	,	133	,	134	,	135	,	136	,	137	,	138	,	139	,	140	,	141	,	142	,	143	,	144	,	145	,	146	,	147	,	148	,	149	,	150	,	151	,	152	,	153	,	154	,	155	,	156	,	157	,	158	,	159	,	160	,	161	,	162	,	163	,	164	,	165	,	166	,	167	,	168	,	169	,	170	,	171	,	172	,	173	,	174	,	175	,	176	,	177	,	178	,	179	,	180	,	181	,	182	,	183	,	184	,	185	,	186	,	187	,	188	,	189	,	190	,	191	,	192	,	193	,	194	,	195	,	196	,	197	,	198	,	199	,	200	,	201	,	202	,	203	,	204	,	205	,	206	,	207	,	208	,	209	,	210	,	211	,	212	,	213	,	214	,	215	,	216	,	217	,	218	,	219	,	220

ProfilingBuildAggregator: 
BuildBottomLevelAS	,	0.2599	,	0.3922	,	0.3462	,	0.32	,	0.2981	,	0.3182	,	0.434	,	0.4088	,	0.2729	,	0.3734	,	0.5174	,	0.2943	,	0.2791	,	0.2911	,	0.2624	,	0.237	,	0.2951	,	0.4188	,	0.3076	,	0.3301	,	0.2403	,	0.2937	,	0.3739	,	0.3317	,	0.5359	,	0.275	,	0.3772	,	0.544	,	0.3017	,	0.3292	,	0.3136	,	0.5186	,	0.3208	,	0.3343	,	0.288	,	0.2719	,	0.292	,	0.2859	,	0.2761	,	0.3254	,	0.2918	,	0.2271	,	0.2348	,	0.3231	,	0.2448	,	0.2773	,	0.2412	,	0.27	,	0.292	,	0.382	,	0.261	,	0.348	,	0.2533	,	0.2449	,	0.2344	,	0.5287	,	0.3715	,	0.3304	,	0.2256	,	0.238	,	0.2771	,	0.2935	,	0.2418	,	0.3125	,	0.253	,	0.3274	,	0.3321	,	0.297	,	0.2961	,	0.4374	,	0.265	,	0.3449	,	0.4006	,	0.2481	,	0.2846	,	0.306	,	0.3213	,	0.3522	,	0.2947	,	0.3963	,	0.2779	,	0.2645	,	0.2581	,	0.2674	,	0.2613	,	0.2654	,	0.31	,	0.3159	,	0.3189	,	0.2688	,	0.2593	,	0.2476	,	0.23	,	0.2295	,	0.2706	,	0.2432	,	0.2499	,	0.2752	,	0.26	,	0.2484	,	0.3126	,	0.2758	,	0.2446	,	0.2286	,	0.2617	,	0.2419	,	0.2328	,	0.248	,	0.2214	,	0.2934	,	0.2291	,	0.2218	,	0.2708	,	0.2168	,	0.336	,	0.2912	,	0.2548	,	0.2946	,	0.2034	,	0.2688	,	0.267	,	0.2285	,	0.2469	,	0.3555	,	0.4447	,	0.2478	,	0.2189	,	0.2248	,	0.3914	,	0.2789	,	0.2243	,	0.2201	,	0.3655	,	0.4023	,	0.3556	,	0.2069	,	0.2496	,	0.237	,	0.2213	,	0.3358	,	0.2246	,	0.2619	,	0.2018	,	0.2142	,	0.2359	,	0.1927	,	0.2215	,	0.2235	,	0.2236	,	0.2105	,	0.2068	,	0.2532	,	0.2799	,	0.2755	,	0.3184	,	0.2398	,	0.2359	,	0.2017	,	0.2135	,	0.2188	,	0.2201	,	0.278	,	0.212	,	0.1966	,	0.2133	,	0.2052	,	0.2003	,	0.2052	,	0.2007	,	0.2674	,	0.215	,	0.2252	,	0.2246	,	0.2127	,	0.2234	,	0.2172	,	0.2103	,	0.218	,	0.2459	,	0.2065	,	0.2299	,	0.2789	,	0.2124	,	0.2187	,	0.2122	,	0.2027	,	0.2187	,	0.3008	,	0.3871	,	0.2333	,	0.3121	,	0.2883	,	0.2527	,	0.2245	,	0.2435	,	0.2269	,	0.2123	,	0.3043	,	0.2164
BuildBottomLevelASGpu	,	0.014784	,	0.228768	,	0.196736	,	0.212992	,	0.212128	,	0.251264	,	0.269024	,	0.278912	,	0.141792	,	0.245696	,	0.341824	,	0.210784	,	0.11056	,	0.165792	,	0.104736	,	0.016832	,	0.219744	,	0.22544	,	0.137728	,	0.125152	,	0.015712	,	0.220736	,	0.212096	,	0.171776	,	0.113728	,	0.01696	,	0.094272	,	0.12528	,	0.016416	,	0.15696	,	0.145344	,	0.149984	,	0.016992	,	0.104448	,	0.116576	,	0.14416	,	0.169216	,	0.107168	,	0.127904	,	0.108	,	0.099968	,	0.013824	,	0.013696	,	0.245536	,	0.013696	,	0.140992	,	0.015072	,	0.127488	,	0.015168	,	0.148992	,	0.016832	,	0.221536	,	0.015328	,	0.0152	,	0.013696	,	0.276736	,	0.242784	,	0.102688	,	0.015744	,	0.129952	,	0.10528	,	0.154624	,	0.013696	,	0.13472	,	0.018048	,	0.218016	,	0.2304	,	0.206976	,	0.202016	,	0.222656	,	0.199168	,	0.165248	,	0.19552	,	0.188576	,	0.154784	,	0.197024	,	0.17872	,	0.1744	,	0.17424	,	0.183392	,	0.178304	,	0.173408	,	0.165664	,	0.10256	,	0.10784	,	0.102944	,	0.115488	,	0.10416	,	0.104832	,	0.128992	,	0.100608	,	0.112224	,	0.115072	,	0.10064	,	0.104448	,	0.127488	,	0.104544	,	0.160864	,	0.105536	,	0.105984	,	0.116608	,	0.1016	,	0.122432	,	0.106368	,	0.108544	,	0.017504	,	0.01504	,	0.113984	,	0.015296	,	0.1144	,	0.01504	,	0.012576	,	0.10432	,	0.10432	,	0.100608	,	0.10528	,	0.103776	,	0.1248	,	0.100224	,	0.158016	,	0.160192	,	0.124384	,	0.125312	,	0.165376	,	0.130496	,	0.2008	,	0.308512	,	0.247008	,	0.211168	,	0.327712	,	0.342432	,	0.21632	,	0.397344	,	0.234656	,	0.398496	,	0.207616	,	0.169856	,	0.384	,	0.242528	,	0.396544	,	0.153952	,	0.140032	,	0.193472	,	0.192768	,	0.239264	,	0.188	,	0.154624	,	0.122976	,	0.20352	,	0.194528	,	0.25776	,	0.183104	,	0.146976	,	0.199072	,	0.29568	,	0.170016	,	0.220288	,	0.170144	,	0.20448	,	0.298752	,	0.166176	,	0.22096	,	0.165728	,	0.127872	,	0.261888	,	0.228192	,	0.204608	,	0.282176	,	0.167424	,	0.148032	,	0.193024	,	0.168896	,	0.270048	,	0.144768	,	0.262112	,	0.14656	,	0.272928	,	0.274304	,	0.272096	,	0.145472	,	0.266784	,	0.178848	,	0.291168	,	0.29552	,	0.1464	,	0.25968	,	0.273568	,	0.2304	,	0.40032	,	0.355104	,	0.184576	,	0.295296	,	0.301024	,	0.288608	,	0.148736	,	0.265952	,	0.193056	,	0.323776	,	0.302784
BuildTopLevelAS	,	0.4116	,	0.4785	,	0.4363	,	0.3798	,	0.3976	,	0.4229	,	0.3968	,	0.4137	,	0.3728	,	0.4114	,	0.4004	,	0.4346	,	0.3857	,	0.4378	,	0.4054	,	0.4224	,	0.4013	,	0.666	,	0.4762	,	0.4276	,	0.4418	,	0.4296	,	0.5374	,	0.4652	,	0.7644	,	0.459	,	0.6141	,	0.6205	,	0.6175	,	0.4067	,	0.4259	,	0.4796	,	0.5189	,	0.4149	,	0.403	,	0.4359	,	0.4343	,	0.4063	,	0.3818	,	0.4967	,	0.3921	,	0.4116	,	0.3929	,	0.4037	,	0.4084	,	0.4024	,	0.3668	,	0.3651	,	0.535	,	0.5107	,	0.4486	,	0.4872	,	0.4507	,	0.3691	,	0.4075	,	0.5376	,	0.5312	,	0.424	,	0.4044	,	0.3611	,	0.4096	,	0.396	,	0.4469	,	0.4603	,	0.4533	,	0.4302	,	0.4173	,	0.4271	,	0.7787	,	0.3826	,	0.4093	,	0.7209	,	0.4373	,	0.3919	,	0.3308	,	0.4219	,	0.4063	,	0.4406	,	0.3891	,	0.4241	,	0.3685	,	0.4512	,	0.4232	,	0.4256	,	0.4119	,	0.3965	,	0.4553	,	0.4459	,	0.4114	,	0.4264	,	0.4251	,	0.3392	,	0.3686	,	0.436	,	0.4065	,	0.3709	,	0.388	,	0.4045	,	0.432	,	0.4211	,	0.414	,	0.3987	,	0.3651	,	0.3337	,	0.3991	,	0.4548	,	0.3625	,	0.3777	,	0.412	,	0.4034	,	0.428	,	0.3356	,	0.3467	,	0.3528	,	0.4061	,	0.4283	,	0.3399	,	0.4097	,	0.3652	,	0.4606	,	0.4302	,	0.4094	,	0.4344	,	0.4664	,	0.6967	,	0.3653	,	0.3232	,	0.3366	,	0.4376	,	0.5826	,	0.3357	,	0.3415	,	0.5275	,	0.38	,	0.3489	,	0.3525	,	0.3515	,	0.3638	,	0.3395	,	0.3283	,	0.413	,	0.3503	,	0.399	,	0.3256	,	0.3248	,	0.3138	,	0.3334	,	0.3889	,	0.3352	,	0.3612	,	0.3255	,	0.3764	,	0.4237	,	0.5354	,	0.3893	,	0.3457	,	0.3546	,	0.3461	,	0.3294	,	0.3317	,	0.4726	,	0.389	,	0.3239	,	0.3239	,	0.3375	,	0.3448	,	0.3369	,	0.3338	,	0.3626	,	0.3463	,	0.4414	,	0.3398	,	0.339	,	0.3445	,	0.3303	,	0.3418	,	0.3416	,	0.3261	,	0.3444	,	0.3291	,	0.326	,	0.384	,	0.3297	,	0.3398	,	0.362	,	0.3635	,	0.3374	,	0.4145	,	0.3563	,	0.4575	,	0.4385	,	0.4237	,	0.399	,	0.3586	,	0.3422	,	0.3465	,	0.3362	,	0.3585	,	0.3316
BuildTopLevelASGpu	,	0.056608	,	0.055104	,	0.059232	,	0.056224	,	0.055936	,	0.056608	,	0.05552	,	0.055808	,	0.055808	,	0.054976	,	0.055552	,	0.056064	,	0.055168	,	0.055648	,	0.05568	,	0.05744	,	0.056064	,	0.05936	,	0.055392	,	0.055136	,	0.05648	,	0.055808	,	0.055648	,	0.055776	,	0.06032	,	0.057024	,	0.055808	,	0.059072	,	0.057152	,	0.05568	,	0.055136	,	0.06016	,	0.057152	,	0.054848	,	0.055808	,	0.05568	,	0.055936	,	0.055104	,	0.054848	,	0.055808	,	0.05568	,	0.05648	,	0.057152	,	0.05552	,	0.057184	,	0.055776	,	0.05648	,	0.055104	,	0.05664	,	0.059232	,	0.056768	,	0.055392	,	0.05648	,	0.057312	,	0.057312	,	0.058656	,	0.05552	,	0.055936	,	0.056512	,	0.055008	,	0.055648	,	0.054976	,	0.05728	,	0.055008	,	0.065728	,	0.05744	,	0.055424	,	0.055936	,	0.055808	,	0.05568	,	0.055104	,	0.059488	,	0.05936	,	0.055264	,	0.05552	,	0.055808	,	0.054976	,	0.055808	,	0.056096	,	0.059488	,	0.05552	,	0.05568	,	0.055008	,	0.055776	,	0.055904	,	0.055808	,	0.055808	,	0.054976	,	0.054976	,	0.055008	,	0.056064	,	0.055808	,	0.05568	,	0.055776	,	0.055904	,	0.055776	,	0.055104	,	0.056064	,	0.055808	,	0.054976	,	0.059904	,	0.055232	,	0.055648	,	0.054944	,	0.054944	,	0.05648	,	0.056608	,	0.055232	,	0.05648	,	0.054976	,	0.05664	,	0.056736	,	0.055776	,	0.055936	,	0.05536	,	0.05568	,	0.054976	,	0.055008	,	0.054848	,	0.054976	,	0.055648	,	0.055136	,	0.055808	,	0.055808	,	0.059616	,	0.060032	,	0.057024	,	0.076608	,	0.057248	,	0.056384	,	0.056736	,	0.057312	,	0.060992	,	0.056608	,	0.057184	,	0.057024	,	0.056768	,	0.057312	,	0.057152	,	0.057696	,	0.056352	,	0.061792	,	0.057856	,	0.05664	,	0.05648	,	0.056352	,	0.057312	,	0.05728	,	0.05664	,	0.056608	,	0.05728	,	0.05632	,	0.05648	,	0.056608	,	0.060416	,	0.05744	,	0.057568	,	0.057824	,	0.057152	,	0.056992	,	0.056352	,	0.05744	,	0.056448	,	0.056384	,	0.057024	,	0.057568	,	0.057152	,	0.057024	,	0.056352	,	0.05744	,	0.056736	,	0.05648	,	0.057312	,	0.057024	,	0.056224	,	0.057152	,	0.056448	,	0.057312	,	0.056448	,	0.057152	,	0.056384	,	0.05664	,	0.056352	,	0.056192	,	0.056768	,	0.05648	,	0.056512	,	0.059872	,	0.057184	,	0.056736	,	0.057536	,	0.057568	,	0.056224	,	0.057152	,	0.056512	,	0.06464	,	0.05744	,	0.056736	,	0.05744
Triangles	,	32	,	608	,	1656	,	960	,	960	,	4260	,	7980	,	7980	,	198	,	4553	,	34324	,	1479	,	36	,	372	,	42	,	30	,	444	,	1305	,	90	,	78	,	24	,	434	,	1479	,	246	,	44	,	32	,	36	,	56	,	28	,	206	,	148	,	98	,	30	,	39	,	74	,	78	,	249	,	36	,	76	,	52	,	34	,	24	,	24	,	1420	,	24	,	98	,	32	,	68	,	28	,	93	,	30	,	1305	,	32	,	32	,	24	,	8232	,	1420	,	42	,	24	,	52	,	39	,	206	,	24	,	52	,	30	,	1806	,	2815	,	1432	,	1432	,	4268	,	1320	,	232	,	776	,	874	,	232	,	1504	,	1341	,	1341	,	1341	,	1341	,	1341	,	1341	,	402	,	42	,	62	,	40	,	58	,	40	,	36	,	76	,	40	,	54	,	58	,	42	,	36	,	76	,	40	,	440	,	58	,	40	,	42	,	36	,	76	,	40	,	64	,	32	,	32	,	62	,	32	,	62	,	32	,	18	,	36	,	36	,	36	,	36	,	36	,	102	,	36	,	440	,	440	,	102	,	102	,	360	,	66	,	148	,	460	,	300	,	180	,	1620	,	2160	,	200	,	3204	,	352	,	4224	,	200	,	70	,	3204	,	282	,	4224	,	40	,	24	,	84	,	94	,	233	,	110	,	40	,	24	,	84	,	94	,	233	,	110	,	38	,	73	,	362	,	66	,	238	,	66	,	178	,	542	,	48	,	240	,	72	,	28	,	370	,	234	,	114	,	446	,	60	,	48	,	102	,	58	,	936	,	39	,	504	,	33	,	792	,	480	,	936	,	39	,	504	,	64	,	588	,	768	,	33	,	792	,	480	,	240	,	5664	,	2328	,	64	,	588	,	768	,	1152	,	48	,	606	,	130	,	1182	,	1503
Meshes	,	1	,	2	,	1	,	1	,	1	,	4	,	4	,	5	,	1	,	32	,	1	,	3	,	1	,	1	,	1	,	1	,	1	,	3	,	1	,	1	,	1	,	1	,	3	,	1	,	1	,	1	,	1	,	1	,	1	,	1	,	1	,	1	,	1	,	1	,	1	,	1	,	1	,	1	,	1	,	1	,	1	,	1	,	1	,	3	,	1	,	1	,	1	,	1	,	1	,	1	,	1	,	3	,	1	,	1	,	1	,	3	,	3	,	1	,	1	,	1	,	1	,	1	,	1	,	1	,	1	,	3	,	3	,	1	,	1	,	1	,	1	,	1	,	1	,	1	,	1	,	1	,	1	,	1	,	1	,	1	,	1	,	1	,	1	,	1	,	1	,	1	,	1	,	1	,	1	,	1	,	1	,	1	,	1	,	1	,	1	,	1	,	1	,	1	,	1	,	1	,	1	,	1	,	1	,	1	,	1	,	1	,	1	,	1	,	1	,	1	,	1	,	1	,	1	,	1	,	1	,	1	,	1	,	1	,	1	,	1	,	1	,	1	,	1	,	1	,	1	,	1	,	1	,	1	,	1	,	1	,	1	,	1	,	1	,	1	,	1	,	1	,	1	,	1	,	1	,	1	,	1	,	1	,	1	,	1	,	1	,	1	,	1	,	1	,	1	,	1	,	1	,	1	,	1	,	1	,	1	,	1	,	1	,	1	,	1	,	1	,	1	,	1	,	1	,	1	,	1	,	1	,	1	,	1	,	1	,	1	,	1	,	1	,	1	,	1	,	1	,	1	,	1	,	1	,	1	,	1	,	1	,	1	,	1	,	1	,	1	,	1	,	1	,	1	,	1	,	1	,	1	,	1	,	1	,	1	,	1	,	1	,	1	,	1	,	1
BottomLevels	,	1	,	1	,	1	,	1	,	1	,	1	,	1	,	1	,	1	,	1	,	1	,	1	,	1	,	1	,	1	,	1	,	1	,	1	,	1	,	1	,	1	,	1	,	1	,	1	,	1	,	1	,	1	,	1	,	1	,	1	,	1	,	1	,	1	,	1	,	1	,	1	,	1	,	1	,	1	,	1	,	1	,	1	,	1	,	1	,	1	,	1	,	1	,	1	,	1	,	1	,	1	,	1	,	1	,	1	,	1	,	1	,	1	,	1	,	1	,	1	,	1	,	1	,	1	,	1	,	1	,	1	,	1	,	1	,	1	,	1	,	1	,	1	,	1	,	1	,	1	,	1	,	1	,	1	,	1	,	1	,	1	,	1	,	1	,	1	,	1	,	1	,	1	,	1	,	1	,	1	,	1	,	1	,	1	,	1	,	1	,	1	,	1	,	1	,	1	,	1	,	1	,	1	,	1	,	1	,	1	,	1	,	1	,	1	,	1	,	1	,	1	,	1	,	1	,	1	,	1	,	1	,	1	,	1	,	1	,	1	,	1	,	1	,	1	,	1	,	1	,	1	,	1	,	1	,	1	,	1	,	1	,	1	,	1	,	1	,	1	,	1	,	1	,	1	,	1	,	1	,	1	,	1	,	1	,	1	,	1	,	1	,	1	,	1	,	1	,	1	,	1	,	1	,	1	,	1	,	1	,	1	,	1	,	1	,	1	,	1	,	1	,	1	,	1	,	1	,	1	,	1	,	1	,	1	,	1	,	1	,	1	,	1	,	1	,	1	,	1	,	1	,	1	,	1	,	1	,	1	,	1	,	1	,	1	,	1	,	1	,	1	,	1	,	1	,	1	,	1	,	1	,	1	,	1	,	1	,	1	,	1	,	1	,	1	,	1
TopLevelSize	,	64	,	64	,	64	,	64	,	64	,	64	,	64	,	64	,	64	,	64	,	64	,	64	,	64	,	64	,	64	,	64	,	64	,	64	,	64	,	64	,	64	,	64	,	64	,	64	,	64	,	64	,	64	,	64	,	64	,	64	,	64	,	64	,	64	,	64	,	64	,	64	,	64	,	64	,	64	,	64	,	64	,	64	,	64	,	64	,	64	,	64	,	64	,	64	,	64	,	64	,	64	,	64	,	64	,	64	,	64	,	64	,	64	,	64	,	64	,	64	,	64	,	64	,	64	,	64	,	64	,	64	,	64	,	64	,	64	,	64	,	64	,	64	,	64	,	64	,	64	,	64	,	64	,	64	,	64	,	64	,	64	,	64	,	64	,	64	,	64	,	64	,	64	,	64	,	64	,	64	,	64	,	64	,	64	,	64	,	64	,	64	,	64	,	64	,	64	,	64	,	64	,	64	,	64	,	64	,	64	,	64	,	64	,	64	,	64	,	64	,	64	,	64	,	64	,	64	,	64	,	64	,	64	,	64	,	64	,	64	,	64	,	64	,	64	,	64	,	64	,	64	,	64	,	64	,	64	,	64	,	64	,	64	,	64	,	64	,	64	,	64	,	64	,	64	,	64	,	64	,	64	,	64	,	64	,	64	,	64	,	64	,	64	,	64	,	64	,	64	,	64	,	64	,	64	,	64	,	64	,	64	,	64	,	64	,	64	,	64	,	64	,	64	,	64	,	64	,	64	,	64	,	64	,	64	,	64	,	64	,	64	,	64	,	64	,	64	,	64	,	64	,	64	,	64	,	64	,	64	,	64	,	64	,	64	,	64	,	64	,	64	,	64	,	64	,	64	,	64	,	64	,	64	,	64	,	64	,	64	,	64	,	64	,	64	,	64
BottomLevelsSize	,	2048	,	36992	,	95488	,	56320	,	56320	,	240256	,	447616	,	447616	,	14336	,	256896	,	1916544	,	85504	,	5120	,	23680	,	5376	,	1920	,	27776	,	75520	,	7808	,	7680	,	1664	,	27008	,	85504	,	16896	,	5376	,	2048	,	5120	,	6016	,	1920	,	14464	,	11136	,	8576	,	1920	,	5248	,	6912	,	7680	,	16896	,	5120	,	7552	,	6016	,	5120	,	1664	,	1664	,	82176	,	1664	,	8576	,	2048	,	6912	,	1920	,	8448	,	1920	,	75520	,	2048	,	2048	,	1664	,	461696	,	82176	,	5376	,	1664	,	6016	,	5248	,	14464	,	1664	,	6016	,	1920	,	103808	,	159872	,	82944	,	82944	,	241024	,	76288	,	16000	,	46208	,	51968	,	16000	,	87040	,	77952	,	77952	,	77952	,	77952	,	77952	,	77952	,	25344	,	5376	,	6784	,	5248	,	6208	,	5248	,	5120	,	7552	,	5248	,	6016	,	6208	,	5376	,	5120	,	7552	,	5248	,	27776	,	6208	,	5248	,	5376	,	5120	,	7552	,	5248	,	6784	,	2048	,	2048	,	6784	,	2048	,	6784	,	2048	,	1408	,	5120	,	5120	,	5120	,	5120	,	5120	,	8576	,	5120	,	27776	,	27776	,	8576	,	8576	,	22784	,	6784	,	13952	,	35968	,	24960	,	17408	,	119680	,	157184	,	17664	,	227584	,	28672	,	303360	,	17664	,	8448	,	227584	,	23296	,	303360	,	6656	,	5216	,	10112	,	10368	,	20992	,	12032	,	6656	,	5216	,	10112	,	10368	,	20992	,	12032	,	6528	,	8576	,	30208	,	8448	,	21120	,	8448	,	15872	,	43008	,	6784	,	21120	,	8576	,	6400	,	30336	,	20992	,	12032	,	35712	,	8320	,	6784	,	10496	,	8320	,	71680	,	6656	,	39552	,	6528	,	59776	,	37760	,	71680	,	6656	,	39552	,	8448	,	45184	,	57984	,	6528	,	59776	,	37760	,	21120	,	403968	,	168192	,	8448	,	45184	,	57984	,	83456	,	6784	,	46848	,	13696	,	87936	,	109568
Index	,	0	,	1	,	2	,	3	,	4	,	5	,	6	,	7	,	8	,	9	,	10	,	11	,	12	,	13	,	14	,	15	,	16	,	17	,	18	,	19	,	20	,	21	,	22	,	23	,	24	,	25	,	26	,	27	,	28	,	29	,	30	,	31	,	32	,	33	,	34	,	35	,	36	,	37	,	38	,	39	,	40	,	41	,	42	,	43	,	44	,	45	,	46	,	47	,	48	,	49	,	50	,	51	,	52	,	53	,	54	,	55	,	56	,	57	,	58	,	59	,	60	,	61	,	62	,	63	,	64	,	65	,	66	,	67	,	68	,	69	,	70	,	71	,	72	,	73	,	74	,	75	,	76	,	77	,	78	,	79	,	80	,	81	,	82	,	83	,	84	,	85	,	86	,	87	,	88	,	89	,	90	,	91	,	92	,	93	,	94	,	95	,	96	,	97	,	98	,	99	,	100	,	101	,	102	,	103	,	104	,	105	,	106	,	107	,	108	,	109	,	110	,	111	,	112	,	113	,	114	,	115	,	116	,	117	,	118	,	119	,	120	,	121	,	122	,	123	,	124	,	125	,	126	,	127	,	128	,	129	,	130	,	131	,	132	,	133	,	134	,	135	,	136	,	137	,	138	,	139	,	140	,	141	,	142	,	143	,	144	,	145	,	146	,	147	,	148	,	149	,	150	,	151	,	152	,	153	,	154	,	155	,	156	,	157	,	158	,	159	,	160	,	161	,	162	,	163	,	164	,	165	,	166	,	167	,	168	,	169	,	170	,	171	,	172	,	173	,	174	,	175	,	176	,	177	,	178	,	179	,	180	,	181	,	182	,	183	,	184	,	185	,	186	,	187	,	188	,	189	,	190	,	191	,	192	,	193	,	194	,	195	,	196	,	197	,	198

FpsAggregator: 
FPS	,	3	,	57	,	12	,	60	,	60	,	60	,	61	,	60	,	61	,	60	,	57	,	60	,	61	,	59	,	59	,	61	,	60	,	61	,	60	,	56	,	60	,	61	,	61	,	61	,	61	,	61	,	61	,	61	,	61	,	61	,	61	,	61	,	61	,	61	,	61	,	61	,	61	,	61	,	61	,	61	,	61	,	61	,	61	,	61	,	61	,	61	,	61	,	61	,	61	,	61	,	61	,	61	,	61	,	61	,	61	,	61	,	61	,	61	,	61	,	61	,	61	,	61	,	61	,	61	,	61	,	61	,	61	,	61	,	61	,	61	,	61	,	61	,	61	,	61	,	61	,	61	,	61	,	61	,	61	,	61	,	61	,	61	,	61	,	61	,	61	,	61	,	61	,	61	,	61	,	61	,	61	,	61	,	61	,	61	,	61	,	61	,	61	,	61	,	61	,	61	,	61	,	61	,	61	,	61	,	61	,	61	,	61	,	61	,	61	,	61	,	61	,	61	,	61	,	61	,	61	,	61	,	61	,	61	,	61	,	61	,	61	,	61	,	61	,	61	,	61	,	61	,	61	,	61	,	61	,	61	,	61	,	61	,	61	,	61	,	61	,	61	,	61	,	61	,	61	,	61	,	61	,	61	,	61	,	61	,	61	,	61	,	61	,	61	,	61	,	61	,	61	,	61	,	61	,	61	,	61	,	61	,	61	,	61	,	61	,	61	,	61	,	61	,	61	,	61	,	61	,	61	,	61	,	61	,	61	,	61	,	61	,	61	,	61	,	61	,	61	,	61	,	61	,	61	,	61	,	61	,	61	,	61	,	61	,	61	,	61	,	61	,	61	,	61	,	61	,	61	,	61	,	61	,	61	,	61	,	61	,	61	,	61	,	61	,	61	,	61	,	61	,	61	,	61	,	61	,	61	,	61	,	61	,	61	,	61	,	61	,	61	,	61	,	61	,	61	,	61	,	61	,	61	,	61	,	61	,	61	,	61
UPS	,	106	,	110	,	15	,	123	,	60	,	60	,	61	,	60	,	61	,	61	,	61	,	60	,	61	,	60	,	60	,	61	,	60	,	61	,	60	,	61	,	59	,	61	,	61	,	61	,	61	,	61	,	61	,	61	,	61	,	61	,	61	,	61	,	61	,	61	,	61	,	61	,	61	,	61	,	61	,	61	,	61	,	61	,	61	,	61	,	61	,	61	,	61	,	61	,	61	,	61	,	61	,	61	,	61	,	61	,	61	,	61	,	61	,	61	,	61	,	61	,	61	,	61	,	61	,	61	,	61	,	61	,	61	,	61	,	61	,	61	,	61	,	61	,	61	,	61	,	61	,	61	,	61	,	61	,	61	,	61	,	61	,	61	,	61	,	61	,	61	,	61	,	61	,	61	,	61	,	61	,	61	,	61	,	61	,	61	,	61	,	61	,	61	,	61	,	61	,	61	,	61	,	61	,	61	,	61	,	61	,	61	,	61	,	61	,	61	,	61	,	61	,	61	,	61	,	61	,	61	,	61	,	61	,	61	,	61	,	61	,	61	,	61	,	61	,	61	,	61	,	61	,	61	,	61	,	61	,	61	,	61	,	61	,	61	,	61	,	61	,	61	,	61	,	61	,	61	,	61	,	61	,	61	,	61	,	61	,	61	,	61	,	61	,	61	,	61	,	61	,	61	,	61	,	61	,	61	,	61	,	61	,	61	,	61	,	61	,	61	,	61	,	61	,	61	,	61	,	61	,	61	,	61	,	61	,	61	,	61	,	61	,	61	,	61	,	61	,	61	,	61	,	61	,	61	,	61	,	61	,	61	,	61	,	61	,	61	,	61	,	61	,	61	,	61	,	61	,	61	,	61	,	61	,	61	,	61	,	61	,	61	,	61	,	61	,	61	,	61	,	61	,	61	,	61	,	61	,	61	,	61	,	61	,	61	,	61	,	61	,	61	,	61	,	61	,	61	,	61	,	61	,	61	,	61	,	61	,	61	,	61
FrameTime	,	334.079	,	18.4631	,	103.59	,	16.7087	,	16.6695	,	16.7609	,	16.6246	,	16.7275	,	16.6148	,	16.7484	,	17.7758	,	16.7365	,	16.6424	,	17.0053	,	17.0432	,	16.5739	,	16.7478	,	16.6155	,	16.6894	,	17.8976	,	16.6674	,	16.6575	,	16.6575	,	16.6575	,	16.6575	,	16.6575	,	16.6575	,	16.6575	,	16.6575	,	16.6575	,	16.6575	,	16.6575	,	16.6575	,	16.6575	,	16.6575	,	16.6575	,	16.6575	,	16.6575	,	16.6575	,	16.6575	,	16.6575	,	16.6575	,	16.6575	,	16.6575	,	16.6575	,	16.6575	,	16.6575	,	16.6575	,	16.6575	,	16.6575	,	16.6575	,	16.6575	,	16.6575	,	16.6575	,	16.6575	,	16.6575	,	16.6575	,	16.6575	,	16.6575	,	16.6575	,	16.6575	,	16.6575	,	16.6575	,	16.6575	,	16.6575	,	16.6575	,	16.6575	,	16.6575	,	16.6575	,	16.6575	,	16.6575	,	16.6575	,	16.6575	,	16.6575	,	16.6575	,	16.6575	,	16.6575	,	16.6575	,	16.6575	,	16.6575	,	16.6575	,	16.6575	,	16.6575	,	16.6575	,	16.6575	,	16.6575	,	16.6575	,	16.6575	,	16.6575	,	16.6575	,	16.6575	,	16.6575	,	16.6575	,	16.6575	,	16.6575	,	16.6575	,	16.6575	,	16.6575	,	16.6575	,	16.6575	,	16.6575	,	16.6575	,	16.6575	,	16.6575	,	16.6575	,	16.6575	,	16.6575	,	16.6575	,	16.6575	,	16.6575	,	16.6575	,	16.6575	,	16.6575	,	16.6575	,	16.6575	,	16.6575	,	16.6575	,	16.6575	,	16.6575	,	16.6575	,	16.6575	,	16.6575	,	16.6575	,	16.6575	,	16.6575	,	16.6575	,	16.6575	,	16.6575	,	16.6575	,	16.6575	,	16.6575	,	16.6575	,	16.6575	,	16.6575	,	16.6575	,	16.6575	,	16.6575	,	16.6575	,	16.6575	,	16.6575	,	16.6575	,	16.6575	,	16.6575	,	16.6575	,	16.6575	,	16.6575	,	16.6575	,	16.6575	,	16.6575	,	16.6575	,	16.6575	,	16.6575	,	16.6575	,	16.6575	,	16.6575	,	16.6575	,	16.6575	,	16.6575	,	16.6575	,	16.6575	,	16.6575	,	16.6575	,	16.6575	,	16.6575	,	16.6575	,	16.6575	,	16.6575	,	16.6575	,	16.6575	,	16.6575	,	16.6575	,	16.6575	,	16.6575	,	16.6575	,	16.6575	,	16.6575	,	16.6575	,	16.6575	,	16.6575	,	16.6575	,	16.6575	,	16.6575	,	16.6575	,	16.6575	,	16.6575	,	16.6575	,	16.6575	,	16.6575	,	16.6575	,	16.6575	,	16.6575	,	16.6575	,	16.6575	,	16.6575	,	16.6575	,	16.6575	,	16.6575	,	16.6575	,	16.6575	,	16.6575	,	16.6575	,	16.6575	,	16.6575	,	16.6575	,	16.6575	,	16.6575	,	16.6575	,	16.6575	,	16.6575	,	16.6575	,	16.6575	,	16.6575	,	16.6575	,	16.6575	,	16.6575	,	16.6575	,	16.6575	,	16.6575	,	16.6575	,	16.6575	,	16.6575
GigaRays/s	,	0.0188322	,	0.556652	,	0.0992135	,	0.6151	,	0.616546	,	0.613185	,	0.61821	,	0.614408	,	0.618576	,	0.613641	,	0.578175	,	0.614077	,	0.617552	,	0.604373	,	0.603029	,	0.620101	,	0.613664	,	0.618549	,	0.615812	,	0.574239	,	0.616625	,	0.616991	,	0.616991	,	0.616991	,	0.616991	,	0.616991	,	0.616991	,	0.616991	,	0.616991	,	0.616991	,	0.616991	,	0.616991	,	0.616991	,	0.616991	,	0.616991	,	0.616991	,	0.616991	,	0.616991	,	0.616991	,	0.616991	,	0.616991	,	0.616991	,	0.616991	,	0.616991	,	0.616991	,	0.616991	,	0.616991	,	0.616991	,	0.616991	,	0.616991	,	0.616991	,	0.616991	,	0.616991	,	0.616991	,	0.616991	,	0.616991	,	0.616991	,	0.616991	,	0.616991	,	0.616991	,	0.616991	,	0.616991	,	0.616991	,	0.616991	,	0.616991	,	0.616991	,	0.616991	,	0.616991	,	0.616991	,	0.616991	,	0.616991	,	0.616991	,	0.616991	,	0.616991	,	0.616991	,	0.616991	,	0.616991	,	0.616991	,	0.616991	,	0.616991	,	0.616991	,	0.616991	,	0.616991	,	0.616991	,	0.616991	,	0.616991	,	0.616991	,	0.616991	,	0.616991	,	0.616991	,	0.616991	,	0.616991	,	0.616991	,	0.616991	,	0.616991	,	0.616991	,	0.616991	,	0.616991	,	0.616991	,	0.616991	,	0.616991	,	0.616991	,	0.616991	,	0.616991	,	0.616991	,	0.616991	,	0.616991	,	0.616991	,	0.616991	,	0.616991	,	0.616991	,	0.616991	,	0.616991	,	0.616991	,	0.616991	,	0.616991	,	0.616991	,	0.616991	,	0.616991	,	0.616991	,	0.616991	,	0.616991	,	0.616991	,	0.616991	,	0.616991	,	0.616991	,	0.616991	,	0.616991	,	0.616991	,	0.616991	,	0.616991	,	0.616991	,	0.616991	,	0.616991	,	0.616991	,	0.616991	,	0.616991	,	0.616991	,	0.616991	,	0.616991	,	0.616991	,	0.616991	,	0.616991	,	0.616991	,	0.616991	,	0.616991	,	0.616991	,	0.616991	,	0.616991	,	0.616991	,	0.616991	,	0.616991	,	0.616991	,	0.616991	,	0.616991	,	0.616991	,	0.616991	,	0.616991	,	0.616991	,	0.616991	,	0.616991	,	0.616991	,	0.616991	,	0.616991	,	0.616991	,	0.616991	,	0.616991	,	0.616991	,	0.616991	,	0.616991	,	0.616991	,	0.616991	,	0.616991	,	0.616991	,	0.616991	,	0.616991	,	0.616991	,	0.616991	,	0.616991	,	0.616991	,	0.616991	,	0.616991	,	0.616991	,	0.616991	,	0.616991	,	0.616991	,	0.616991	,	0.616991	,	0.616991	,	0.616991	,	0.616991	,	0.616991	,	0.616991	,	0.616991	,	0.616991	,	0.616991	,	0.616991	,	0.616991	,	0.616991	,	0.616991	,	0.616991	,	0.616991	,	0.616991	,	0.616991	,	0.616991	,	0.616991	,	0.616991	,	0.616991	,	0.616991	,	0.616991	,	0.616991	,	0.616991	,	0.616991	,	0.616991	,	0.616991	,	0.616991	,	0.616991	,	0.616991	,	0.616991	,	0.616991	,	0.616991
Index	,	0	,	1	,	2	,	3	,	4	,	5	,	6	,	7	,	8	,	9	,	10	,	11	,	12	,	13	,	14	,	15	,	16	,	17	,	18	,	19	,	20	,	21	,	22	,	23	,	24	,	25	,	26	,	27	,	28	,	29	,	30	,	31	,	32	,	33	,	34	,	35	,	36	,	37	,	38	,	39	,	40	,	41	,	42	,	43	,	44	,	45	,	46	,	47	,	48	,	49	,	50	,	51	,	52	,	53	,	54	,	55	,	56	,	57	,	58	,	59	,	60	,	61	,	62	,	63	,	64	,	65	,	66	,	67	,	68	,	69	,	70	,	71	,	72	,	73	,	74	,	75	,	76	,	77	,	78	,	79	,	80	,	81	,	82	,	83	,	84	,	85	,	86	,	87	,	88	,	89	,	90	,	91	,	92	,	93	,	94	,	95	,	96	,	97	,	98	,	99	,	100	,	101	,	102	,	103	,	104	,	105	,	106	,	107	,	108	,	109	,	110	,	111	,	112	,	113	,	114	,	115	,	116	,	117	,	118	,	119	,	120	,	121	,	122	,	123	,	124	,	125	,	126	,	127	,	128	,	129	,	130	,	131	,	132	,	133	,	134	,	135	,	136	,	137	,	138	,	139	,	140	,	141	,	142	,	143	,	144	,	145	,	146	,	147	,	148	,	149	,	150	,	151	,	152	,	153	,	154	,	155	,	156	,	157	,	158	,	159	,	160	,	161	,	162	,	163	,	164	,	165	,	166	,	167	,	168	,	169	,	170	,	171	,	172	,	173	,	174	,	175	,	176	,	177	,	178	,	179	,	180	,	181	,	182	,	183	,	184	,	185	,	186	,	187	,	188	,	189	,	190	,	191	,	192	,	193	,	194	,	195	,	196	,	197	,	198	,	199	,	200	,	201	,	202	,	203	,	204	,	205	,	206	,	207	,	208	,	209	,	210	,	211	,	212	,	213	,	214	,	215	,	216	,	217	,	218	,	219	,	220


AccelerationStructure: 
Ray tracing acceleration structure building statistics: 
	Bottom Level Acceleration Structure: 
		Maximum [B]: 2413440
		Minimum [B]: 4864
		Currently Allocated [B]: 8442656
		Currently Created [num]: 125
		Current Average [B]: 67541
		Maximum Triangles [num]: 34324
		Minimum Triangles [num]: 18
		Total Triangles [num]: 112974
		Maximum Meshes [num]: 32
		Minimum Meshes [num]: 1
		Total Meshes [num]: 185
	Top Level Acceleration Structure: 
		Maximum [B]: 8000
		Minimum [B]: 8000
		Currently Allocated [B]: 8000
		Total Allocated [B]: 8000
		Total Created [num]: 1
		Average Allocated [B]: 8000
		Maximum Instances [num]: 125
		Minimum Instances [num]: 125
		Total Instances [num]: 125
	Scratch Buffer: 
		Maximum [B]: 721152
		Minimum [B]: 721152
		Currently Allocated [B]: 721152
		Total Allocated [B]: 721152
		Total Created [num]: 1
		Average Allocated [B]: 721152
ProfilingStack: 
[PROF] Profiling statistics: 
	Scopes entered : 18754
	Scopes exited : 18752
	Overhead per scope [ticks] : 163.4
	Threads entered : 3
	Threads exited : 0
	============================
		         Sum[Mt]   Parent[%]  Samples[num]       Avg[Mt]   Last/Curr[Mt]        Self[Mt]     Self[%] 	 Name

	main:

		   25972.220 Mt   100.000 %         1 x    25972.220 Mt    25972.220 Mt    20912.673 Mt    80.519 % 	 /

		      60.830 Mt     0.234 %         1 x       60.830 Mt        0.000 Mt        0.698 Mt     1.147 % 	 ./Initialize

		       1.538 Mt     2.528 %         1 x        1.538 Mt        0.000 Mt        1.538 Mt   100.000 % 	 ../ShadowMapRLInitialization

		       6.327 Mt    10.400 %         1 x        6.327 Mt        0.000 Mt        6.327 Mt   100.000 % 	 ../AmbientOcclusionRLInitialization

		       3.767 Mt     6.193 %         1 x        3.767 Mt        0.000 Mt        3.767 Mt   100.000 % 	 ../RasterResolveRLInitialization

		       4.179 Mt     6.870 %         1 x        4.179 Mt        0.000 Mt        4.179 Mt   100.000 % 	 ../DeferredRLInitialization

		      40.085 Mt    65.897 %         1 x       40.085 Mt        0.000 Mt        2.231 Mt     5.565 % 	 ../RayTracingRLInitialization

		      37.854 Mt    94.435 %         1 x       37.854 Mt        0.000 Mt       37.854 Mt   100.000 % 	 .../PipelineBuild

		       4.237 Mt     6.965 %         1 x        4.237 Mt        0.000 Mt        4.237 Mt   100.000 % 	 ../ResolveRLInitialization

		    4998.778 Mt    19.247 %      1235 x        4.048 Mt      562.473 Mt       52.582 Mt     1.052 % 	 ./Run

		    1539.198 Mt    30.791 %      1515 x        1.016 Mt      562.477 Mt      513.757 Mt    33.378 % 	 ../Update

		     604.009 Mt    39.242 %         2 x      302.005 Mt      171.559 Mt      128.387 Mt    21.256 % 	 .../ScenePrep

		      20.284 Mt     3.358 %         2 x       10.142 Mt        9.111 Mt       20.284 Mt   100.000 % 	 ..../SceneDesc-CreateScene

		       1.383 Mt     0.229 %         2 x        0.691 Mt        0.275 Mt        0.002 Mt     0.159 % 	 ..../ShadowMapRLPrep

		       1.380 Mt    99.841 %         2 x        0.690 Mt        0.273 Mt        1.100 Mt    79.686 % 	 ...../PrepareForRendering

		       0.280 Mt    20.314 %         2 x        0.140 Mt        0.142 Mt        0.280 Mt   100.000 % 	 ....../PrepareDrawBundle

		      11.197 Mt     1.854 %         2 x        5.599 Mt        1.464 Mt        0.002 Mt     0.020 % 	 ..../DeferredRLPrep

		      11.195 Mt    99.980 %         2 x        5.598 Mt        1.463 Mt        9.656 Mt    86.250 % 	 ...../PrepareForRendering

		       0.206 Mt     1.844 %         2 x        0.103 Mt        0.089 Mt        0.206 Mt   100.000 % 	 ....../PrepareMaterials

		       0.732 Mt     6.539 %         2 x        0.366 Mt        0.338 Mt        0.732 Mt   100.000 % 	 ....../BuildMaterialCache

		       0.601 Mt     5.367 %         2 x        0.300 Mt        0.265 Mt        0.601 Mt   100.000 % 	 ....../PrepareDrawBundle

		     360.567 Mt    59.696 %         2 x      180.284 Mt       62.852 Mt       16.795 Mt     4.658 % 	 ..../RayTracingRLPrep

		       7.120 Mt     1.975 %         2 x        3.560 Mt        3.270 Mt        7.120 Mt   100.000 % 	 ...../PrepareAccelerationStructures

		       0.212 Mt     0.059 %         2 x        0.106 Mt        0.088 Mt        0.212 Mt   100.000 % 	 ...../PrepareCache

		     261.489 Mt    72.522 %         2 x      130.745 Mt        9.168 Mt      261.489 Mt   100.000 % 	 ...../PipelineBuild

		       2.362 Mt     0.655 %         2 x        1.181 Mt        1.122 Mt        2.362 Mt   100.000 % 	 ...../BuildCache

		      71.287 Mt    19.771 %         2 x       35.644 Mt       33.703 Mt        0.003 Mt     0.004 % 	 ...../BuildAccelerationStructures

		      71.284 Mt    99.996 %         2 x       35.642 Mt       33.701 Mt        1.812 Mt     2.542 % 	 ....../AccelerationStructureBuild

		      68.523 Mt    96.126 %         2 x       34.262 Mt       32.158 Mt       68.523 Mt   100.000 % 	 ......./BuildBottomLevelAS

		       0.949 Mt     1.331 %         2 x        0.475 Mt        0.508 Mt        0.949 Mt   100.000 % 	 ......./BuildTopLevelAS

		       1.301 Mt     0.361 %         2 x        0.651 Mt        0.642 Mt        1.301 Mt   100.000 % 	 ...../BuildShaderTables

		      82.190 Mt    13.607 %         2 x       41.095 Mt       32.555 Mt       82.190 Mt   100.000 % 	 ..../GpuSidePrep

		     421.431 Mt    27.380 %       400 x        1.054 Mt        0.796 Mt      151.817 Mt    36.024 % 	 .../AccelerationStructureBuild

		     107.557 Mt    25.522 %       400 x        0.269 Mt        0.216 Mt      107.557 Mt   100.000 % 	 ..../BuildBottomLevelAS

		     162.058 Mt    38.454 %       400 x        0.405 Mt        0.332 Mt      162.058 Mt   100.000 % 	 ..../BuildTopLevelAS

		    3407.005 Mt    68.157 %      1234 x        2.761 Mt        2.863 Mt        0.929 Mt     0.027 % 	 ../Render

		    3406.075 Mt    99.973 %      1234 x        2.760 Mt        2.863 Mt      112.794 Mt     3.312 % 	 .../Render

		    3125.026 Mt    91.749 %      1234 x        2.532 Mt        2.551 Mt     3125.026 Mt   100.000 % 	 ..../Present

		     168.256 Mt     4.940 %      1230 x        0.137 Mt        0.203 Mt      166.808 Mt    99.140 % 	 ..../RayTracing

		       0.897 Mt     0.533 %      1230 x        0.001 Mt        0.001 Mt        0.897 Mt   100.000 % 	 ...../DeferredRLPrep

		       0.550 Mt     0.327 %      1230 x        0.000 Mt        0.001 Mt        0.550 Mt   100.000 % 	 ...../RayTracingRLPrep

	WindowThread:

		   25970.508 Mt   100.000 %         1 x    25970.508 Mt    25970.508 Mt    25970.508 Mt   100.000 % 	 /

	GpuThread:

		    2795.955 Mt   100.000 %      1632 x        1.713 Mt        0.361 Mt       14.851 Mt     0.531 % 	 /

		       8.375 Mt     0.300 %      1234 x        0.007 Mt        0.002 Mt        8.375 Mt   100.000 % 	 ./Present

		      69.790 Mt     2.496 %         2 x       34.895 Mt       28.507 Mt        0.008 Mt     0.012 % 	 ./ScenePrep

		      69.782 Mt    99.988 %         2 x       34.891 Mt       28.505 Mt        0.002 Mt     0.003 % 	 ../AccelerationStructureBuild

		      69.396 Mt    99.447 %         2 x       34.698 Mt       28.344 Mt       69.396 Mt   100.000 % 	 .../BuildBottomLevelASGpu

		       0.384 Mt     0.550 %         2 x        0.192 Mt        0.160 Mt        0.384 Mt   100.000 % 	 .../BuildTopLevelASGpu

		     108.182 Mt     3.869 %       400 x        0.270 Mt        0.361 Mt        0.499 Mt     0.462 % 	 ./AccelerationStructureBuild

		      80.537 Mt    74.445 %       400 x        0.201 Mt        0.303 Mt       80.537 Mt   100.000 % 	 ../BuildBottomLevelASGpu

		      27.146 Mt    25.093 %       400 x        0.068 Mt        0.057 Mt       27.146 Mt   100.000 % 	 ../BuildTopLevelASGpu

		    2594.758 Mt    92.804 %      1230 x        2.110 Mt        2.185 Mt        5.584 Mt     0.215 % 	 ./RayTracingGpu

		     317.283 Mt    12.228 %      1230 x        0.258 Mt        0.273 Mt      317.283 Mt   100.000 % 	 ../DeferredRLGpu

		    1268.492 Mt    48.887 %      1230 x        1.031 Mt        1.127 Mt     1268.492 Mt   100.000 % 	 ../RayTracingRLGpu

		    1003.400 Mt    38.670 %      1230 x        0.816 Mt        0.782 Mt     1003.400 Mt   100.000 % 	 ../ResolveRLGpu


	============================


