Configuration: 
Command line parameters  = 
Build type               = Release
Device name              = NVIDIA GeForce RTX 2080 Ti
Device memory MB         = 11049
Ray Tracing backend      = Hardware
Window width             = 1161
Window height            = 1219
Window title             = Direct3D App
Back-buffer count        = 3
Fill Triangles           = enabled
Triangles Font Clock-Wise= disabled
Fast Build AS            = disabled
Target FPS               = 0
Target UPS               = 60
Tearing                  = enabled
VSync                    = disabled
GUI rendering            = disabled
Debug layer              = enabled
GPU validation           = disabled
GPU profiling            = enabled
Render mode              = Ray Tracing
Loaded scene file        = 
Using testing scene      = disabled
BLAS duplication         = disabled
Rays per pixel           = 8
Quality preset           = Medium
Rasterization Quality    : 
  AO                     = enabled
  AO kernel size         = 4
  Shadows                = enabled
  Shadow map resolution  = 4096
  Shadow PCF kernel size = 4
  Reflections            = disabled
Ray Tracing Quality      : 
  AO                     = enabled
  AO rays                = 4
  AO kernel size         = 4
  Shadows                = enabled
  Shadow rays            = 4
  Shadow kernel size     = 4
  Reflections            = disabled

ProfilingAggregator: 
Render	,	4.6775	,	5.2277	,	4.1274	,	5.3042	,	5.1105	,	5.1599	,	4.3462	,	4.5701	,	4.9084	,	4.3766	,	4.3762	,	5.5945	,	4.675	,	4.5051	,	4.6083	,	4.8337	,	4.9545	,	4.513	,	4.323	,	4.3296	,	4.764	,	4.764	,	4.764	,	4.764	,	4.764	,	4.764	,	4.764	,	4.764	,	4.764	,	4.764	,	4.764	,	4.764	,	4.764	,	4.764	,	4.764	,	4.764	,	4.764	,	4.764	,	4.764	,	4.764	,	4.764	,	4.764	,	4.764	,	4.764	,	4.764	,	4.764	,	4.764	,	4.764	,	4.764	,	4.764	,	4.764	,	4.764	,	4.764	,	4.764	,	4.764	,	4.764	,	4.764	,	4.764	,	4.764	,	4.764	,	4.764	,	4.764	,	4.764	,	4.764	,	4.764	,	4.764	,	4.764	,	4.764	,	4.764	,	4.764	,	4.764	,	4.764	,	4.764	,	4.764	,	4.764	,	4.764	,	4.764	,	4.764	,	4.764	,	4.764	,	4.764	,	4.764	,	4.764	,	4.764	,	4.764	,	4.764	,	4.764	,	4.764	,	4.764	,	4.764	,	4.764	,	4.764	,	4.764	,	4.764	,	4.764	,	4.764	,	4.764	,	4.764	,	4.764	,	4.764	,	4.764	,	4.764	,	4.764	,	4.764	,	4.764	,	4.764	,	4.764	,	4.764	,	4.764	,	4.764	,	4.764	,	4.764	,	4.764	,	4.764	,	4.764	,	4.764	,	4.764	,	4.764	,	4.764	,	4.764	,	4.764	,	4.764	,	4.764	,	4.764	,	4.764	,	4.764	,	4.764	,	4.764	,	4.764	,	4.764	,	4.764	,	4.764	,	4.764	,	4.764	,	4.764	,	4.764	,	4.764	,	4.764	,	4.764	,	4.764	,	4.764	,	4.764	,	4.764	,	4.764	,	4.764	,	4.764	,	4.764	,	4.764	,	4.764	,	4.764	,	4.764
Update	,	0.0876	,	0.0808	,	0.0994	,	0.1086	,	0.0853	,	0.0833	,	0.0825	,	0.0924	,	0.0769	,	0.0919	,	0.0809	,	0.0278	,	0.0845	,	0.0806	,	0.0902	,	0.0856	,	0.086	,	0.0805	,	0.081	,	0.0819	,	182.396	,	184.675	,	187.621	,	190.529	,	193.065	,	195.67	,	197.96	,	200.626	,	202.903	,	204.867	,	206.723	,	208.992	,	211.03	,	213.44	,	216.675	,	218.61	,	221.199	,	224.039	,	226.248	,	228.743	,	231.537	,	233.781	,	235.941	,	237.948	,	239.989	,	242.059	,	244.149	,	246.708	,	249.316	,	251.793	,	254.196	,	256.838	,	258.862	,	260.672	,	262.554	,	264.557	,	266.69	,	268.595	,	270.427	,	272.225	,	274.054	,	275.884	,	277.691	,	280.459	,	283.001	,	285.212	,	287.68	,	290.038	,	292.335	,	294.699	,	297.366	,	299.788	,	302.214	,	304.22	,	306.381	,	308.482	,	311.125	,	313.649	,	315.76	,	317.585	,	319.304	,	321.005	,	322.733	,	324.677	,	326.827	,	329.166	,	331.743	,	333.875	,	335.786	,	337.808	,	339.893	,	341.933	,	344.054	,	346.362	,	348.81	,	350.952	,	353.052	,	355.094	,	357.285	,	359.414	,	361.761	,	364.119	,	366.212	,	368.348	,	370.345	,	372.356	,	374.792	,	376.945	,	379.265	,	381.354	,	383.401	,	385.367	,	387.322	,	389.454	,	391.447	,	393.377	,	395.396	,	397.576	,	399.641	,	401.551	,	403.68	,	405.77	,	408.18	,	410.227	,	412.303	,	414.681	,	416.722	,	418.78	,	420.921	,	422.933	,	424.951	,	426.858	,	428.787	,	431.212	,	433.526	,	435.785	,	438.946	,	441.482	,	443.935	,	446.728	,	449.559	,	452.081	,	455.207	,	457.783	,	460.298	,	462.8	,	465.173	,	467.427	,	469.982	,	472.278	,	474.42
RayTracing	,	1.8121	,	1.6236	,	1.574	,	1.9486	,	2.3837	,	2.1666	,	1.662	,	1.8247	,	1.9457	,	1.6384	,	1.6527	,	1.5776	,	1.8721	,	1.6805	,	1.5633	,	1.8268	,	1.9886	,	1.7928	,	1.5758	,	1.5727	,	1.5797	,	1.5797	,	1.5797	,	1.5797	,	1.5797	,	1.5797	,	1.5797	,	1.5797	,	1.5797	,	1.5797	,	1.5797	,	1.5797	,	1.5797	,	1.5797	,	1.5797	,	1.5797	,	1.5797	,	1.5797	,	1.5797	,	1.5797	,	1.5797	,	1.5797	,	1.5797	,	1.5797	,	1.5797	,	1.5797	,	1.5797	,	1.5797	,	1.5797	,	1.5797	,	1.5797	,	1.5797	,	1.5797	,	1.5797	,	1.5797	,	1.5797	,	1.5797	,	1.5797	,	1.5797	,	1.5797	,	1.5797	,	1.5797	,	1.5797	,	1.5797	,	1.5797	,	1.5797	,	1.5797	,	1.5797	,	1.5797	,	1.5797	,	1.5797	,	1.5797	,	1.5797	,	1.5797	,	1.5797	,	1.5797	,	1.5797	,	1.5797	,	1.5797	,	1.5797	,	1.5797	,	1.5797	,	1.5797	,	1.5797	,	1.5797	,	1.5797	,	1.5797	,	1.5797	,	1.5797	,	1.5797	,	1.5797	,	1.5797	,	1.5797	,	1.5797	,	1.5797	,	1.5797	,	1.5797	,	1.5797	,	1.5797	,	1.5797	,	1.5797	,	1.5797	,	1.5797	,	1.5797	,	1.5797	,	1.5797	,	1.5797	,	1.5797	,	1.5797	,	1.5797	,	1.5797	,	1.5797	,	1.5797	,	1.5797	,	1.5797	,	1.5797	,	1.5797	,	1.5797	,	1.5797	,	1.5797	,	1.5797	,	1.5797	,	1.5797	,	1.5797	,	1.5797	,	1.5797	,	1.5797	,	1.5797	,	1.5797	,	1.5797	,	1.5797	,	1.5797	,	1.5797	,	1.5797	,	1.5797	,	1.5797	,	1.5797	,	1.5797	,	1.5797	,	1.5797	,	1.5797	,	1.5797	,	1.5797	,	1.5797	,	1.5797	,	1.5797	,	1.5797	,	1.5797	,	1.5797	,	1.5797	,	1.5797
RayTracingGpu	,	1.85789	,	2.58118	,	1.61293	,	2.16851	,	1.67283	,	1.96621	,	1.75168	,	1.7984	,	1.88323	,	1.7904	,	1.77523	,	2.69914	,	1.85693	,	1.86666	,	2.08579	,	1.97171	,	1.94166	,	1.75498	,	1.75152	,	1.74954	,	2.02672	,	2.02672	,	2.02672	,	2.02672	,	2.02672	,	2.02672	,	2.02672	,	2.02672	,	2.02672	,	2.02672	,	2.02672	,	2.02672	,	2.02672	,	2.02672	,	2.02672	,	2.02672	,	2.02672	,	2.02672	,	2.02672	,	2.02672	,	2.02672	,	2.02672	,	2.02672	,	2.02672	,	2.02672	,	2.02672	,	2.02672	,	2.02672	,	2.02672	,	2.02672	,	2.02672	,	2.02672	,	2.02672	,	2.02672	,	2.02672	,	2.02672	,	2.02672	,	2.02672	,	2.02672	,	2.02672	,	2.02672	,	2.02672	,	2.02672	,	2.02672	,	2.02672	,	2.02672	,	2.02672	,	2.02672	,	2.02672	,	2.02672	,	2.02672	,	2.02672	,	2.02672	,	2.02672	,	2.02672	,	2.02672	,	2.02672	,	2.02672	,	2.02672	,	2.02672	,	2.02672	,	2.02672	,	2.02672	,	2.02672	,	2.02672	,	2.02672	,	2.02672	,	2.02672	,	2.02672	,	2.02672	,	2.02672	,	2.02672	,	2.02672	,	2.02672	,	2.02672	,	2.02672	,	2.02672	,	2.02672	,	2.02672	,	2.02672	,	2.02672	,	2.02672	,	2.02672	,	2.02672	,	2.02672	,	2.02672	,	2.02672	,	2.02672	,	2.02672	,	2.02672	,	2.02672	,	2.02672	,	2.02672	,	2.02672	,	2.02672	,	2.02672	,	2.02672	,	2.02672	,	2.02672	,	2.02672	,	2.02672	,	2.02672	,	2.02672	,	2.02672	,	2.02672	,	2.02672	,	2.02672	,	2.02672	,	2.02672	,	2.02672	,	2.02672	,	2.02672	,	2.02672	,	2.02672	,	2.02672	,	2.02672	,	2.02672	,	2.02672	,	2.02672	,	2.02672	,	2.02672	,	2.02672	,	2.02672	,	2.02672	,	2.02672	,	2.02672	,	2.02672	,	2.02672	,	2.02672	,	2.02672	,	2.02672
DeferredRLGpu	,	0.250976	,	0.326272	,	0.185408	,	0.367328	,	0.21584	,	0.361056	,	0.218624	,	0.242176	,	0.239296	,	0.239328	,	0.231392	,	0.2408	,	0.2544	,	0.244224	,	0.257344	,	0.215328	,	0.213376	,	0.215008	,	0.2144	,	0.214816	,	0.214592	,	0.214592	,	0.214592	,	0.214592	,	0.214592	,	0.214592	,	0.214592	,	0.214592	,	0.214592	,	0.214592	,	0.214592	,	0.214592	,	0.214592	,	0.214592	,	0.214592	,	0.214592	,	0.214592	,	0.214592	,	0.214592	,	0.214592	,	0.214592	,	0.214592	,	0.214592	,	0.214592	,	0.214592	,	0.214592	,	0.214592	,	0.214592	,	0.214592	,	0.214592	,	0.214592	,	0.214592	,	0.214592	,	0.214592	,	0.214592	,	0.214592	,	0.214592	,	0.214592	,	0.214592	,	0.214592	,	0.214592	,	0.214592	,	0.214592	,	0.214592	,	0.214592	,	0.214592	,	0.214592	,	0.214592	,	0.214592	,	0.214592	,	0.214592	,	0.214592	,	0.214592	,	0.214592	,	0.214592	,	0.214592	,	0.214592	,	0.214592	,	0.214592	,	0.214592	,	0.214592	,	0.214592	,	0.214592	,	0.214592	,	0.214592	,	0.214592	,	0.214592	,	0.214592	,	0.214592	,	0.214592	,	0.214592	,	0.214592	,	0.214592	,	0.214592	,	0.214592	,	0.214592	,	0.214592	,	0.214592	,	0.214592	,	0.214592	,	0.214592	,	0.214592	,	0.214592	,	0.214592	,	0.214592	,	0.214592	,	0.214592	,	0.214592	,	0.214592	,	0.214592	,	0.214592	,	0.214592	,	0.214592	,	0.214592	,	0.214592	,	0.214592	,	0.214592	,	0.214592	,	0.214592	,	0.214592	,	0.214592	,	0.214592	,	0.214592	,	0.214592	,	0.214592	,	0.214592	,	0.214592	,	0.214592	,	0.214592	,	0.214592	,	0.214592	,	0.214592	,	0.214592	,	0.214592	,	0.214592	,	0.214592	,	0.214592	,	0.214592	,	0.214592	,	0.214592	,	0.214592	,	0.214592	,	0.214592	,	0.214592	,	0.214592	,	0.214592	,	0.214592	,	0.214592	,	0.214592	,	0.214592	,	0.214592
RayTracingRLGpu	,	0.839648	,	1.48717	,	0.669408	,	1.02301	,	0.69744	,	0.825984	,	0.75024	,	0.773504	,	0.768576	,	0.770304	,	0.764128	,	1.68826	,	0.829152	,	0.835456	,	1.04986	,	0.771168	,	0.766304	,	0.764544	,	0.764256	,	0.762752	,	0.764768	,	0.764768	,	0.764768	,	0.764768	,	0.764768	,	0.764768	,	0.764768	,	0.764768	,	0.764768	,	0.764768	,	0.764768	,	0.764768	,	0.764768	,	0.764768	,	0.764768	,	0.764768	,	0.764768	,	0.764768	,	0.764768	,	0.764768	,	0.764768	,	0.764768	,	0.764768	,	0.764768	,	0.764768	,	0.764768	,	0.764768	,	0.764768	,	0.764768	,	0.764768	,	0.764768	,	0.764768	,	0.764768	,	0.764768	,	0.764768	,	0.764768	,	0.764768	,	0.764768	,	0.764768	,	0.764768	,	0.764768	,	0.764768	,	0.764768	,	0.764768	,	0.764768	,	0.764768	,	0.764768	,	0.764768	,	0.764768	,	0.764768	,	0.764768	,	0.764768	,	0.764768	,	0.764768	,	0.764768	,	0.764768	,	0.764768	,	0.764768	,	0.764768	,	0.764768	,	0.764768	,	0.764768	,	0.764768	,	0.764768	,	0.764768	,	0.764768	,	0.764768	,	0.764768	,	0.764768	,	0.764768	,	0.764768	,	0.764768	,	0.764768	,	0.764768	,	0.764768	,	0.764768	,	0.764768	,	0.764768	,	0.764768	,	0.764768	,	0.764768	,	0.764768	,	0.764768	,	0.764768	,	0.764768	,	0.764768	,	0.764768	,	0.764768	,	0.764768	,	0.764768	,	0.764768	,	0.764768	,	0.764768	,	0.764768	,	0.764768	,	0.764768	,	0.764768	,	0.764768	,	0.764768	,	0.764768	,	0.764768	,	0.764768	,	0.764768	,	0.764768	,	0.764768	,	0.764768	,	0.764768	,	0.764768	,	0.764768	,	0.764768	,	0.764768	,	0.764768	,	0.764768	,	0.764768	,	0.764768	,	0.764768	,	0.764768	,	0.764768	,	0.764768	,	0.764768	,	0.764768	,	0.764768	,	0.764768	,	0.764768	,	0.764768	,	0.764768	,	0.764768	,	0.764768	,	0.764768	,	0.764768	,	0.764768
ResolveRLGpu	,	0.764384	,	0.764128	,	0.755328	,	0.774336	,	0.756736	,	0.776	,	0.779104	,	0.779072	,	0.872384	,	0.77888	,	0.776864	,	0.76528	,	0.769664	,	0.78272	,	0.776736	,	0.983392	,	0.959616	,	0.773664	,	0.770688	,	0.768544	,	1.04509	,	1.04509	,	1.04509	,	1.04509	,	1.04509	,	1.04509	,	1.04509	,	1.04509	,	1.04509	,	1.04509	,	1.04509	,	1.04509	,	1.04509	,	1.04509	,	1.04509	,	1.04509	,	1.04509	,	1.04509	,	1.04509	,	1.04509	,	1.04509	,	1.04509	,	1.04509	,	1.04509	,	1.04509	,	1.04509	,	1.04509	,	1.04509	,	1.04509	,	1.04509	,	1.04509	,	1.04509	,	1.04509	,	1.04509	,	1.04509	,	1.04509	,	1.04509	,	1.04509	,	1.04509	,	1.04509	,	1.04509	,	1.04509	,	1.04509	,	1.04509	,	1.04509	,	1.04509	,	1.04509	,	1.04509	,	1.04509	,	1.04509	,	1.04509	,	1.04509	,	1.04509	,	1.04509	,	1.04509	,	1.04509	,	1.04509	,	1.04509	,	1.04509	,	1.04509	,	1.04509	,	1.04509	,	1.04509	,	1.04509	,	1.04509	,	1.04509	,	1.04509	,	1.04509	,	1.04509	,	1.04509	,	1.04509	,	1.04509	,	1.04509	,	1.04509	,	1.04509	,	1.04509	,	1.04509	,	1.04509	,	1.04509	,	1.04509	,	1.04509	,	1.04509	,	1.04509	,	1.04509	,	1.04509	,	1.04509	,	1.04509	,	1.04509	,	1.04509	,	1.04509	,	1.04509	,	1.04509	,	1.04509	,	1.04509	,	1.04509	,	1.04509	,	1.04509	,	1.04509	,	1.04509	,	1.04509	,	1.04509	,	1.04509	,	1.04509	,	1.04509	,	1.04509	,	1.04509	,	1.04509	,	1.04509	,	1.04509	,	1.04509	,	1.04509	,	1.04509	,	1.04509	,	1.04509	,	1.04509	,	1.04509	,	1.04509	,	1.04509	,	1.04509	,	1.04509	,	1.04509	,	1.04509	,	1.04509	,	1.04509	,	1.04509	,	1.04509	,	1.04509	,	1.04509	,	1.04509	,	1.04509	,	1.04509
Index	,	0	,	1	,	2	,	3	,	4	,	5	,	6	,	7	,	8	,	9	,	10	,	11	,	12	,	13	,	14	,	15	,	16	,	17	,	18	,	19	,	20	,	21	,	22	,	23	,	24	,	25	,	26	,	27	,	28	,	29	,	30	,	31	,	32	,	33	,	34	,	35	,	36	,	37	,	38	,	39	,	40	,	41	,	42	,	43	,	44	,	45	,	46	,	47	,	48	,	49	,	50	,	51	,	52	,	53	,	54	,	55	,	56	,	57	,	58	,	59	,	60	,	61	,	62	,	63	,	64	,	65	,	66	,	67	,	68	,	69	,	70	,	71	,	72	,	73	,	74	,	75	,	76	,	77	,	78	,	79	,	80	,	81	,	82	,	83	,	84	,	85	,	86	,	87	,	88	,	89	,	90	,	91	,	92	,	93	,	94	,	95	,	96	,	97	,	98	,	99	,	100	,	101	,	102	,	103	,	104	,	105	,	106	,	107	,	108	,	109	,	110	,	111	,	112	,	113	,	114	,	115	,	116	,	117	,	118	,	119	,	120	,	121	,	122	,	123	,	124	,	125	,	126	,	127	,	128	,	129	,	130	,	131	,	132	,	133	,	134	,	135	,	136	,	137	,	138	,	139	,	140	,	141	,	142	,	143	,	144	,	145	,	146	,	147	,	148	,	149	,	150

ProfilingBuildAggregator: 
BuildBottomLevelAS	,	0.2578	,	0.3759	,	0.5188	,	0.6274	,	0.4503	,	0.4004	,	0.3956	,	0.4571	,	0.2936	,	0.2729	,	0.2824	,	0.3272	,	0.3141	,	0.3537	,	0.3655	,	0.2678	,	0.4506	,	0.5607	,	0.3063	,	0.3143	,	0.4021	,	0.3482	,	0.3791	,	0.2981	,	0.3253	,	0.3355	,	0.3025	,	0.451	,	0.4073	,	0.3576	,	0.354	,	0.4964	,	0.2764	,	0.2654	,	0.2621	,	0.3019	,	0.3389	,	0.2458	,	0.2904	,	0.2798	,	0.2762	,	0.2716	,	0.2483	,	0.4597	,	0.4036	,	0.3464	,	0.4658	,	0.3429	,	0.3733	,	0.4063	,	0.4535	,	0.4219	,	0.3384	,	0.3054	,	0.3554	,	0.3474	,	0.4738	,	0.3999	,	0.303	,	0.2386	,	0.2442	,	0.2518	,	0.2422	,	0.3208	,	0.3499	,	0.3765	,	0.3273	,	0.3063	,	0.2813	,	0.3247	,	0.3411	,	0.3082	,	0.3237	,	0.3203	,	0.3629	,	0.3702	,	0.3392	,	0.3382	,	0.3628	,	0.3186	,	0.3532	,	0.3281	,	0.3293	,	0.4088	,	0.3124	,	0.313	,	0.3611	,	0.3186	,	0.3191	,	0.3554	,	0.3077	,	0.3005	,	0.2925	,	0.3191	,	0.3001	,	0.2995	,	0.309	,	0.3165	,	0.3339	,	0.2934	,	0.2914	,	0.3328	,	0.3948	,	0.3346	,	0.3587	,	0.3156	,	0.3198	,	0.307	,	0.3456	,	0.3033	,	0.2944	,	0.2611	,	0.2789	,	0.3665	,	0.3108	,	0.2943	,	0.6011	,	0.3966	,	0.4162	,	0.5035	,	0.4556	,	0.3474	,	0.5052	,	0.4185	,	0.4014	,	0.3187	,	0.2869	,	0.363	,	0.4097	,	0.3339	,	0.2605
BuildBottomLevelASGpu	,	0.014656	,	0.2344	,	0.327392	,	0.404	,	0.3336	,	0.24192	,	0.240992	,	0.44512	,	0.172448	,	0.174048	,	0.142208	,	0.017344	,	0.142336	,	0.015488	,	0.17632	,	0.14032	,	0.389152	,	0.474144	,	0.242752	,	0.256224	,	0.285056	,	0.233152	,	0.242752	,	0.129536	,	0.190496	,	0.196096	,	0.258144	,	0.315744	,	0.30256	,	0.299328	,	0.306528	,	0.31456	,	0.175776	,	0.116896	,	0.101472	,	0.106784	,	0.123808	,	0.115488	,	0.116608	,	0.130016	,	0.162336	,	0.148096	,	0.170848	,	0.21808	,	0.216928	,	0.21968	,	0.2184	,	0.215648	,	0.217824	,	0.218784	,	0.215296	,	0.215072	,	0.227328	,	0.218816	,	0.218848	,	0.218656	,	0.216896	,	0.228	,	0.217088	,	0.100608	,	0.106528	,	0.116608	,	0.111904	,	0.218336	,	0.213472	,	0.224992	,	0.228032	,	0.217056	,	0.215776	,	0.211904	,	0.218528	,	0.220096	,	0.218496	,	0.23568	,	0.221952	,	0.211872	,	0.213152	,	0.218112	,	0.218368	,	0.212576	,	0.230144	,	0.221536	,	0.218688	,	0.215328	,	0.221088	,	0.218368	,	0.218624	,	0.211904	,	0.220352	,	0.218784	,	0.212576	,	0.215744	,	0.218688	,	0.212288	,	0.2152	,	0.210112	,	0.216576	,	0.219232	,	0.218688	,	0.219968	,	0.215936	,	0.211904	,	0.233088	,	0.216896	,	0.218656	,	0.21936	,	0.211872	,	0.219392	,	0.217664	,	0.217664	,	0.217632	,	0.209824	,	0.198304	,	0.431168	,	0.518592	,	0.446432	,	0.697856	,	0.467552	,	0.543648	,	0.553792	,	0.648128	,	0.469024	,	0.644192	,	0.57088	,	0.642624	,	0.389824	,	0.255808	,	0.339808	,	0.384096	,	0.379616	,	0.285408
BuildTopLevelAS	,	0.4524	,	0.4362	,	0.4826	,	0.4603	,	0.4583	,	0.5024	,	0.4113	,	0.4268	,	0.4569	,	0.4075	,	0.4055	,	0.5613	,	0.4448	,	0.5923	,	0.4463	,	0.4062	,	0.4004	,	0.3813	,	0.4464	,	0.4681	,	0.5634	,	0.4585	,	0.427	,	0.4394	,	0.4288	,	0.3903	,	0.4091	,	0.4266	,	0.4367	,	0.4445	,	0.5217	,	0.4094	,	0.4123	,	0.3893	,	0.4057	,	0.4274	,	0.4428	,	0.4089	,	0.3947	,	0.3909	,	0.4253	,	0.4084	,	0.4024	,	0.4929	,	0.4826	,	0.3955	,	0.4468	,	0.4804	,	0.4409	,	0.4498	,	0.4704	,	0.4876	,	0.4077	,	0.3947	,	0.3945	,	0.4048	,	0.5044	,	0.4833	,	0.3965	,	0.4012	,	0.3684	,	0.3868	,	0.3708	,	0.4183	,	0.4194	,	0.5158	,	0.451	,	0.4016	,	0.3981	,	0.3764	,	0.4052	,	0.4489	,	0.4031	,	0.3946	,	0.4026	,	0.4323	,	0.4085	,	0.412	,	0.4779	,	0.4345	,	0.4052	,	0.4034	,	0.4048	,	0.4068	,	0.3924	,	0.395	,	0.4767	,	0.426	,	0.5318	,	0.399	,	0.3901	,	0.3867	,	0.3928	,	0.4856	,	0.396	,	0.3905	,	0.4113	,	0.3571	,	0.3903	,	0.3898	,	0.4067	,	0.4049	,	0.3952	,	0.382	,	0.3735	,	0.4261	,	0.3884	,	0.4367	,	0.3784	,	0.3937	,	0.3847	,	0.3711	,	0.4211	,	0.4252	,	0.371	,	0.4522	,	0.441	,	0.4715	,	0.4104	,	0.531	,	0.3996	,	0.4652	,	0.4212	,	0.4162	,	0.3789	,	0.5488	,	0.4101	,	0.4768	,	0.4877	,	0.4096	,	0.4316
BuildTopLevelASGpu	,	0.057184	,	0.057312	,	0.055296	,	0.059488	,	0.055296	,	0.055008	,	0.05488	,	0.05904	,	0.055744	,	0.05488	,	0.054848	,	0.065088	,	0.05664	,	0.057024	,	0.059328	,	0.05488	,	0.056896	,	0.06064	,	0.055168	,	0.055456	,	0.059072	,	0.055296	,	0.05472	,	0.05488	,	0.05488	,	0.05488	,	0.055712	,	0.060064	,	0.055904	,	0.05488	,	0.054752	,	0.059232	,	0.055008	,	0.055744	,	0.05488	,	0.056032	,	0.056192	,	0.05488	,	0.055584	,	0.05488	,	0.055872	,	0.05488	,	0.055616	,	0.055776	,	0.055744	,	0.05488	,	0.05504	,	0.054912	,	0.05504	,	0.055744	,	0.05488	,	0.05488	,	0.059488	,	0.055328	,	0.05504	,	0.05488	,	0.056	,	0.056736	,	0.055008	,	0.055008	,	0.05488	,	0.055872	,	0.05488	,	0.054752	,	0.055712	,	0.056352	,	0.05936	,	0.05488	,	0.054752	,	0.05488	,	0.054752	,	0.055904	,	0.05488	,	0.059328	,	0.058176	,	0.054912	,	0.05472	,	0.05504	,	0.05488	,	0.055456	,	0.058976	,	0.055744	,	0.055744	,	0.05472	,	0.055584	,	0.055872	,	0.055456	,	0.05488	,	0.055904	,	0.05488	,	0.05488	,	0.055872	,	0.055456	,	0.055616	,	0.066944	,	0.055456	,	0.05488	,	0.05472	,	0.05504	,	0.055744	,	0.05488	,	0.054848	,	0.059328	,	0.05488	,	0.05472	,	0.055904	,	0.055456	,	0.055744	,	0.05488	,	0.054624	,	0.05488	,	0.05504	,	0.054656	,	0.0592	,	0.056736	,	0.056192	,	0.061504	,	0.056768	,	0.05632	,	0.061088	,	0.061792	,	0.056608	,	0.061216	,	0.056608	,	0.057056	,	0.058624	,	0.060928	,	0.0576	,	0.057184	,	0.056448	,	0.056608
Triangles	,	32	,	4120	,	15584	,	45330	,	20655	,	7167	,	5600	,	46560	,	288	,	282	,	143	,	28	,	75	,	27	,	132	,	108	,	39389	,	52674	,	1812	,	2934	,	2305	,	1290	,	1919	,	122	,	1658	,	1658	,	8917	,	19389	,	19389	,	19389	,	19389	,	19389	,	281	,	47	,	34	,	46	,	63	,	52	,	50	,	102	,	142	,	125	,	183	,	3968	,	3968	,	3968	,	3968	,	3968	,	3968	,	3968	,	3968	,	3968	,	3968	,	3968	,	3968	,	3968	,	3968	,	3968	,	3968	,	34	,	33	,	48	,	34	,	3968	,	3968	,	3968	,	3968	,	3968	,	3968	,	3968	,	3968	,	3968	,	3968	,	3968	,	3968	,	3968	,	3968	,	3968	,	3968	,	3968	,	3968	,	3968	,	3968	,	3968	,	3968	,	3968	,	3968	,	3968	,	3968	,	3968	,	3968	,	3968	,	3968	,	3968	,	3968	,	3968	,	3968	,	3968	,	3968	,	3968	,	3968	,	3968	,	3968	,	3968	,	3968	,	3968	,	3968	,	3968	,	3968	,	3968	,	3968	,	1368	,	1658	,	7000	,	8584	,	7794	,	37536	,	6246	,	14409	,	23123	,	23437	,	9929	,	29460	,	23399	,	29275	,	1620	,	192	,	1572	,	1362	,	1999	,	306
Meshes	,	1	,	1	,	2	,	2	,	2	,	1	,	1	,	2	,	1	,	1	,	1	,	1	,	1	,	1	,	1	,	1	,	2	,	2	,	2	,	2	,	2	,	1	,	1	,	1	,	1	,	1	,	1	,	1	,	1	,	1	,	1	,	1	,	1	,	1	,	1	,	1	,	1	,	1	,	1	,	1	,	1	,	1	,	1	,	1	,	1	,	1	,	1	,	1	,	1	,	1	,	1	,	1	,	1	,	1	,	1	,	1	,	1	,	1	,	1	,	1	,	1	,	1	,	1	,	1	,	1	,	1	,	1	,	1	,	1	,	1	,	1	,	1	,	1	,	1	,	1	,	1	,	1	,	1	,	1	,	1	,	1	,	1	,	1	,	1	,	1	,	1	,	1	,	1	,	1	,	1	,	1	,	1	,	1	,	1	,	1	,	1	,	1	,	1	,	1	,	1	,	1	,	1	,	1	,	1	,	1	,	1	,	1	,	1	,	1	,	1	,	1	,	1	,	1	,	1	,	1	,	1	,	1	,	1	,	1	,	1	,	1	,	1	,	1	,	1	,	1	,	1	,	1	,	1	,	1	,	1	,	1
BottomLevels	,	1	,	1	,	1	,	1	,	1	,	1	,	1	,	1	,	1	,	1	,	1	,	1	,	1	,	1	,	1	,	1	,	1	,	1	,	1	,	1	,	1	,	1	,	1	,	1	,	1	,	1	,	1	,	1	,	1	,	1	,	1	,	1	,	1	,	1	,	1	,	1	,	1	,	1	,	1	,	1	,	1	,	1	,	1	,	1	,	1	,	1	,	1	,	1	,	1	,	1	,	1	,	1	,	1	,	1	,	1	,	1	,	1	,	1	,	1	,	1	,	1	,	1	,	1	,	1	,	1	,	1	,	1	,	1	,	1	,	1	,	1	,	1	,	1	,	1	,	1	,	1	,	1	,	1	,	1	,	1	,	1	,	1	,	1	,	1	,	1	,	1	,	1	,	1	,	1	,	1	,	1	,	1	,	1	,	1	,	1	,	1	,	1	,	1	,	1	,	1	,	1	,	1	,	1	,	1	,	1	,	1	,	1	,	1	,	1	,	1	,	1	,	1	,	1	,	1	,	1	,	1	,	1	,	1	,	1	,	1	,	1	,	1	,	1	,	1	,	1	,	1	,	1	,	1	,	1	,	1	,	1
TopLevelSize	,	64	,	64	,	64	,	64	,	64	,	64	,	64	,	64	,	64	,	64	,	64	,	64	,	64	,	64	,	64	,	64	,	64	,	64	,	64	,	64	,	64	,	64	,	64	,	64	,	64	,	64	,	64	,	64	,	64	,	64	,	64	,	64	,	64	,	64	,	64	,	64	,	64	,	64	,	64	,	64	,	64	,	64	,	64	,	64	,	64	,	64	,	64	,	64	,	64	,	64	,	64	,	64	,	64	,	64	,	64	,	64	,	64	,	64	,	64	,	64	,	64	,	64	,	64	,	64	,	64	,	64	,	64	,	64	,	64	,	64	,	64	,	64	,	64	,	64	,	64	,	64	,	64	,	64	,	64	,	64	,	64	,	64	,	64	,	64	,	64	,	64	,	64	,	64	,	64	,	64	,	64	,	64	,	64	,	64	,	64	,	64	,	64	,	64	,	64	,	64	,	64	,	64	,	64	,	64	,	64	,	64	,	64	,	64	,	64	,	64	,	64	,	64	,	64	,	64	,	64	,	64	,	64	,	64	,	64	,	64	,	64	,	64	,	64	,	64	,	64	,	64	,	64	,	64	,	64	,	64	,	64
BottomLevelsSize	,	2048	,	232576	,	871424	,	2529536	,	1154048	,	402432	,	315392	,	2598016	,	19328	,	18560	,	11008	,	1920	,	6912	,	1792	,	10240	,	9344	,	2198400	,	2939136	,	103936	,	166528	,	131456	,	74624	,	109824	,	10112	,	95488	,	95488	,	500096	,	1083776	,	1083776	,	1083776	,	1083776	,	1083776	,	18560	,	5888	,	5120	,	5888	,	6784	,	6016	,	6016	,	8576	,	11008	,	10112	,	13440	,	224256	,	224256	,	224256	,	224256	,	224256	,	224256	,	224256	,	224256	,	224256	,	224256	,	224256	,	224256	,	224256	,	224256	,	224256	,	224256	,	5120	,	5120	,	6016	,	5120	,	224256	,	224256	,	224256	,	224256	,	224256	,	224256	,	224256	,	224256	,	224256	,	224256	,	224256	,	224256	,	224256	,	224256	,	224256	,	224256	,	224256	,	224256	,	224256	,	224256	,	224256	,	224256	,	224256	,	224256	,	224256	,	224256	,	224256	,	224256	,	224256	,	224256	,	224256	,	224256	,	224256	,	224256	,	224256	,	224256	,	224256	,	224256	,	224256	,	224256	,	224256	,	224256	,	224256	,	224256	,	224256	,	224256	,	224256	,	224256	,	79488	,	95488	,	497280	,	605824	,	554368	,	2636544	,	440960	,	1014656	,	1624960	,	1646592	,	699264	,	2069760	,	1645952	,	2055680	,	119680	,	17536	,	114816	,	99072	,	146432	,	25088
Index	,	0	,	1	,	2	,	3	,	4	,	5	,	6	,	7	,	8	,	9	,	10	,	11	,	12	,	13	,	14	,	15	,	16	,	17	,	18	,	19	,	20	,	21	,	22	,	23	,	24	,	25	,	26	,	27	,	28	,	29	,	30	,	31	,	32	,	33	,	34	,	35	,	36	,	37	,	38	,	39	,	40	,	41	,	42	,	43	,	44	,	45	,	46	,	47	,	48	,	49	,	50	,	51	,	52	,	53	,	54	,	55	,	56	,	57	,	58	,	59	,	60	,	61	,	62	,	63	,	64	,	65	,	66	,	67	,	68	,	69	,	70	,	71	,	72	,	73	,	74	,	75	,	76	,	77	,	78	,	79	,	80	,	81	,	82	,	83	,	84	,	85	,	86	,	87	,	88	,	89	,	90	,	91	,	92	,	93	,	94	,	95	,	96	,	97	,	98	,	99	,	100	,	101	,	102	,	103	,	104	,	105	,	106	,	107	,	108	,	109	,	110	,	111	,	112	,	113	,	114	,	115	,	116	,	117	,	118	,	119	,	120	,	121	,	122	,	123	,	124	,	125	,	126	,	127	,	128	,	129	,	130

FpsAggregator: 
FPS	,	29	,	58	,	60	,	59	,	56	,	54	,	61	,	60	,	60	,	42	,	59	,	58	,	61	,	60	,	60	,	58	,	60	,	61	,	60	,	61	,	61	,	61	,	61	,	61	,	61	,	61	,	61	,	61	,	61	,	61	,	61	,	61	,	61	,	61	,	61	,	61	,	61	,	61	,	61	,	61	,	61	,	61	,	61	,	61	,	61	,	61	,	61	,	61	,	61	,	61	,	61	,	61	,	61	,	61	,	61	,	61	,	61	,	61	,	61	,	61	,	61	,	61	,	61	,	61	,	61	,	61	,	61	,	61	,	61	,	61	,	61	,	61	,	61	,	61	,	61	,	61	,	61	,	61	,	61	,	61	,	61	,	61	,	61	,	61	,	61	,	61	,	61	,	61	,	61	,	61	,	61	,	61	,	61	,	61	,	61	,	61	,	61	,	61	,	61	,	61	,	61	,	61	,	61	,	61	,	61	,	61	,	61	,	61	,	61	,	61	,	61	,	61	,	61	,	61	,	61	,	61	,	61	,	61	,	61	,	61	,	61	,	61	,	61	,	61	,	61	,	61	,	61	,	61	,	61	,	61	,	61	,	61	,	61	,	61	,	61	,	61	,	61	,	61	,	61	,	61	,	61	,	61	,	61	,	61	,	61	,	61	,	61	,	61	,	61	,	61	,	61
UPS	,	60	,	60	,	60	,	61	,	60	,	60	,	61	,	60	,	60	,	61	,	60	,	60	,	61	,	60	,	60	,	61	,	59	,	61	,	60	,	61	,	61	,	61	,	61	,	61	,	61	,	61	,	61	,	61	,	61	,	61	,	61	,	61	,	61	,	61	,	61	,	61	,	61	,	61	,	61	,	61	,	61	,	61	,	61	,	61	,	61	,	61	,	61	,	61	,	61	,	61	,	61	,	61	,	61	,	61	,	61	,	61	,	61	,	61	,	61	,	61	,	61	,	61	,	61	,	61	,	61	,	61	,	61	,	61	,	61	,	61	,	61	,	61	,	61	,	61	,	61	,	61	,	61	,	61	,	61	,	61	,	61	,	61	,	61	,	61	,	61	,	61	,	61	,	61	,	61	,	61	,	61	,	61	,	61	,	61	,	61	,	61	,	61	,	61	,	61	,	61	,	61	,	61	,	61	,	61	,	61	,	61	,	61	,	61	,	61	,	61	,	61	,	61	,	61	,	61	,	61	,	61	,	61	,	61	,	61	,	61	,	61	,	61	,	61	,	61	,	61	,	61	,	61	,	61	,	61	,	61	,	61	,	61	,	61	,	61	,	61	,	61	,	61	,	61	,	61	,	61	,	61	,	61	,	61	,	61	,	61	,	61	,	61	,	61	,	61	,	61	,	61
FrameTime	,	34.504	,	17.2631	,	16.7082	,	16.9645	,	17.9099	,	18.7762	,	16.4008	,	16.7071	,	16.6801	,	24.2	,	16.999	,	17.3043	,	16.6786	,	16.6849	,	16.6971	,	17.2532	,	16.7618	,	16.5194	,	16.7339	,	16.6399	,	16.6399	,	16.6399	,	16.6399	,	16.6399	,	16.6399	,	16.6399	,	16.6399	,	16.6399	,	16.6399	,	16.6399	,	16.6399	,	16.6399	,	16.6399	,	16.6399	,	16.6399	,	16.6399	,	16.6399	,	16.6399	,	16.6399	,	16.6399	,	16.6399	,	16.6399	,	16.6399	,	16.6399	,	16.6399	,	16.6399	,	16.6399	,	16.6399	,	16.6399	,	16.6399	,	16.6399	,	16.6399	,	16.6399	,	16.6399	,	16.6399	,	16.6399	,	16.6399	,	16.6399	,	16.6399	,	16.6399	,	16.6399	,	16.6399	,	16.6399	,	16.6399	,	16.6399	,	16.6399	,	16.6399	,	16.6399	,	16.6399	,	16.6399	,	16.6399	,	16.6399	,	16.6399	,	16.6399	,	16.6399	,	16.6399	,	16.6399	,	16.6399	,	16.6399	,	16.6399	,	16.6399	,	16.6399	,	16.6399	,	16.6399	,	16.6399	,	16.6399	,	16.6399	,	16.6399	,	16.6399	,	16.6399	,	16.6399	,	16.6399	,	16.6399	,	16.6399	,	16.6399	,	16.6399	,	16.6399	,	16.6399	,	16.6399	,	16.6399	,	16.6399	,	16.6399	,	16.6399	,	16.6399	,	16.6399	,	16.6399	,	16.6399	,	16.6399	,	16.6399	,	16.6399	,	16.6399	,	16.6399	,	16.6399	,	16.6399	,	16.6399	,	16.6399	,	16.6399	,	16.6399	,	16.6399	,	16.6399	,	16.6399	,	16.6399	,	16.6399	,	16.6399	,	16.6399	,	16.6399	,	16.6399	,	16.6399	,	16.6399	,	16.6399	,	16.6399	,	16.6399	,	16.6399	,	16.6399	,	16.6399	,	16.6399	,	16.6399	,	16.6399	,	16.6399	,	16.6399	,	16.6399	,	16.6399	,	16.6399	,	16.6399	,	16.6399	,	16.6399	,	16.6399	,	16.6399	,	16.6399	,	16.6399	,	16.6399
GigaRays/s	,	0.297865	,	0.595346	,	0.61512	,	0.605827	,	0.573845	,	0.547371	,	0.626646	,	0.615158	,	0.616156	,	0.424692	,	0.604596	,	0.593927	,	0.61621	,	0.615979	,	0.615529	,	0.595686	,	0.61315	,	0.622147	,	0.614175	,	0.617642	,	0.617642	,	0.617642	,	0.617642	,	0.617642	,	0.617642	,	0.617642	,	0.617642	,	0.617642	,	0.617642	,	0.617642	,	0.617642	,	0.617642	,	0.617642	,	0.617642	,	0.617642	,	0.617642	,	0.617642	,	0.617642	,	0.617642	,	0.617642	,	0.617642	,	0.617642	,	0.617642	,	0.617642	,	0.617642	,	0.617642	,	0.617642	,	0.617642	,	0.617642	,	0.617642	,	0.617642	,	0.617642	,	0.617642	,	0.617642	,	0.617642	,	0.617642	,	0.617642	,	0.617642	,	0.617642	,	0.617642	,	0.617642	,	0.617642	,	0.617642	,	0.617642	,	0.617642	,	0.617642	,	0.617642	,	0.617642	,	0.617642	,	0.617642	,	0.617642	,	0.617642	,	0.617642	,	0.617642	,	0.617642	,	0.617642	,	0.617642	,	0.617642	,	0.617642	,	0.617642	,	0.617642	,	0.617642	,	0.617642	,	0.617642	,	0.617642	,	0.617642	,	0.617642	,	0.617642	,	0.617642	,	0.617642	,	0.617642	,	0.617642	,	0.617642	,	0.617642	,	0.617642	,	0.617642	,	0.617642	,	0.617642	,	0.617642	,	0.617642	,	0.617642	,	0.617642	,	0.617642	,	0.617642	,	0.617642	,	0.617642	,	0.617642	,	0.617642	,	0.617642	,	0.617642	,	0.617642	,	0.617642	,	0.617642	,	0.617642	,	0.617642	,	0.617642	,	0.617642	,	0.617642	,	0.617642	,	0.617642	,	0.617642	,	0.617642	,	0.617642	,	0.617642	,	0.617642	,	0.617642	,	0.617642	,	0.617642	,	0.617642	,	0.617642	,	0.617642	,	0.617642	,	0.617642	,	0.617642	,	0.617642	,	0.617642	,	0.617642	,	0.617642	,	0.617642	,	0.617642	,	0.617642	,	0.617642	,	0.617642	,	0.617642	,	0.617642	,	0.617642	,	0.617642	,	0.617642	,	0.617642	,	0.617642	,	0.617642
Index	,	0	,	1	,	2	,	3	,	4	,	5	,	6	,	7	,	8	,	9	,	10	,	11	,	12	,	13	,	14	,	15	,	16	,	17	,	18	,	19	,	20	,	21	,	22	,	23	,	24	,	25	,	26	,	27	,	28	,	29	,	30	,	31	,	32	,	33	,	34	,	35	,	36	,	37	,	38	,	39	,	40	,	41	,	42	,	43	,	44	,	45	,	46	,	47	,	48	,	49	,	50	,	51	,	52	,	53	,	54	,	55	,	56	,	57	,	58	,	59	,	60	,	61	,	62	,	63	,	64	,	65	,	66	,	67	,	68	,	69	,	70	,	71	,	72	,	73	,	74	,	75	,	76	,	77	,	78	,	79	,	80	,	81	,	82	,	83	,	84	,	85	,	86	,	87	,	88	,	89	,	90	,	91	,	92	,	93	,	94	,	95	,	96	,	97	,	98	,	99	,	100	,	101	,	102	,	103	,	104	,	105	,	106	,	107	,	108	,	109	,	110	,	111	,	112	,	113	,	114	,	115	,	116	,	117	,	118	,	119	,	120	,	121	,	122	,	123	,	124	,	125	,	126	,	127	,	128	,	129	,	130	,	131	,	132	,	133	,	134	,	135	,	136	,	137	,	138	,	139	,	140	,	141	,	142	,	143	,	144	,	145	,	146	,	147	,	148	,	149	,	150


AccelerationStructure: 
Ray tracing acceleration structure building statistics: 
	Bottom Level Acceleration Structure: 
		Maximum [B]: 3698560
		Minimum [B]: 6400
		Currently Allocated [B]: 43692032
		Currently Created [num]: 113
		Current Average [B]: 386655
		Maximum Triangles [num]: 52674
		Minimum Triangles [num]: 27
		Total Triangles [num]: 616006
		Maximum Meshes [num]: 2
		Minimum Meshes [num]: 1
		Total Meshes [num]: 122
	Top Level Acceleration Structure: 
		Maximum [B]: 7232
		Minimum [B]: 7232
		Currently Allocated [B]: 7232
		Total Allocated [B]: 7232
		Total Created [num]: 1
		Average Allocated [B]: 7232
		Maximum Instances [num]: 113
		Minimum Instances [num]: 113
		Total Instances [num]: 113
	Scratch Buffer: 
		Maximum [B]: 3011456
		Minimum [B]: 3011456
		Currently Allocated [B]: 3011456
		Total Allocated [B]: 3011456
		Total Created [num]: 1
		Average Allocated [B]: 3011456
ProfilingStack: 
[PROF] Profiling statistics: 
	Scopes entered : 24372
	Scopes exited : 24370
	Overhead per scope [ticks] : 163.9
	Threads entered : 3
	Threads exited : 0
	============================
		         Sum[Mt]   Parent[%]  Samples[num]       Avg[Mt]   Last/Curr[Mt]        Self[Mt]     Self[%] 	 Name

	main:

		   34141.688 Mt   100.000 %         1 x    34141.688 Mt    34141.688 Mt    24508.407 Mt    71.784 % 	 /

		      68.745 Mt     0.201 %         1 x       68.745 Mt        0.000 Mt        0.892 Mt     1.298 % 	 ./Initialize

		       1.661 Mt     2.416 %         1 x        1.661 Mt        0.000 Mt        1.661 Mt   100.000 % 	 ../ShadowMapRLInitialization

		       6.526 Mt     9.493 %         1 x        6.526 Mt        0.000 Mt        6.526 Mt   100.000 % 	 ../AmbientOcclusionRLInitialization

		       3.743 Mt     5.445 %         1 x        3.743 Mt        0.000 Mt        3.743 Mt   100.000 % 	 ../RasterResolveRLInitialization

		       4.511 Mt     6.561 %         1 x        4.511 Mt        0.000 Mt        4.511 Mt   100.000 % 	 ../DeferredRLInitialization

		      47.137 Mt    68.568 %         1 x       47.137 Mt        0.000 Mt        2.180 Mt     4.624 % 	 ../RayTracingRLInitialization

		      44.958 Mt    95.376 %         1 x       44.958 Mt        0.000 Mt       44.958 Mt   100.000 % 	 .../PipelineBuild

		       4.275 Mt     6.219 %         1 x        4.275 Mt        0.000 Mt        4.275 Mt   100.000 % 	 ../ResolveRLInitialization

		    9564.595 Mt    28.014 %      1661 x        5.758 Mt      476.382 Mt       35.791 Mt     0.374 % 	 ./Run

		    1628.778 Mt    17.029 %      2006 x        0.812 Mt      476.386 Mt      615.267 Mt    37.775 % 	 ../Update

		     549.505 Mt    33.737 %         3 x      183.168 Mt      178.278 Mt      161.483 Mt    29.387 % 	 .../ScenePrep

		      40.478 Mt     7.366 %         3 x       13.493 Mt       12.007 Mt       40.478 Mt   100.000 % 	 ..../SceneDesc-CreateScene

		       2.733 Mt     0.497 %         3 x        0.911 Mt        0.468 Mt        0.008 Mt     0.278 % 	 ..../ShadowMapRLPrep

		       2.726 Mt    99.722 %         3 x        0.909 Mt        0.467 Mt        1.478 Mt    54.204 % 	 ...../PrepareForRendering

		       1.248 Mt    45.796 %         3 x        0.416 Mt        0.348 Mt        1.248 Mt   100.000 % 	 ....../PrepareDrawBundle

		       7.592 Mt     1.382 %         3 x        2.531 Mt        2.009 Mt        0.003 Mt     0.038 % 	 ..../DeferredRLPrep

		       7.589 Mt    99.962 %         3 x        2.530 Mt        2.008 Mt        3.361 Mt    44.284 % 	 ...../PrepareForRendering

		       0.155 Mt     2.040 %         3 x        0.052 Mt        0.042 Mt        0.155 Mt   100.000 % 	 ....../PrepareMaterials

		       0.777 Mt    10.237 %         3 x        0.259 Mt        0.206 Mt        0.777 Mt   100.000 % 	 ....../BuildMaterialCache

		       3.296 Mt    43.439 %         3 x        1.099 Mt        1.081 Mt        3.296 Mt   100.000 % 	 ....../PrepareDrawBundle

		     166.650 Mt    30.327 %         3 x       55.550 Mt       57.163 Mt       27.669 Mt    16.603 % 	 ..../RayTracingRLPrep

		       8.873 Mt     5.324 %         3 x        2.958 Mt        2.899 Mt        8.873 Mt   100.000 % 	 ...../PrepareAccelerationStructures

		       0.135 Mt     0.081 %         3 x        0.045 Mt        0.042 Mt        0.135 Mt   100.000 % 	 ...../PrepareCache

		      30.267 Mt    18.162 %         3 x       10.089 Mt        9.790 Mt       30.267 Mt   100.000 % 	 ...../PipelineBuild

		       1.292 Mt     0.775 %         3 x        0.431 Mt        0.425 Mt        1.292 Mt   100.000 % 	 ...../BuildCache

		      96.490 Mt    57.900 %         3 x       32.163 Mt       30.838 Mt        0.003 Mt     0.003 % 	 ...../BuildAccelerationStructures

		      96.487 Mt    99.997 %         3 x       32.162 Mt       30.837 Mt        2.268 Mt     2.351 % 	 ....../AccelerationStructureBuild

		      92.714 Mt    96.089 %         3 x       30.905 Mt       29.605 Mt       92.714 Mt   100.000 % 	 ......./BuildBottomLevelAS

		       1.505 Mt     1.560 %         3 x        0.502 Mt        0.484 Mt        1.505 Mt   100.000 % 	 ......./BuildTopLevelAS

		       1.923 Mt     1.154 %         3 x        0.641 Mt        0.614 Mt        1.923 Mt   100.000 % 	 ...../BuildShaderTables

		     170.570 Mt    31.041 %         3 x       56.857 Mt       46.673 Mt      170.570 Mt   100.000 % 	 ..../GpuSidePrep

		     464.007 Mt    28.488 %       396 x        1.172 Mt        1.056 Mt      158.389 Mt    34.135 % 	 .../AccelerationStructureBuild

		     133.550 Mt    28.782 %       396 x        0.337 Mt        0.261 Mt      133.550 Mt   100.000 % 	 ..../BuildBottomLevelAS

		     172.067 Mt    37.083 %       396 x        0.435 Mt        0.432 Mt      172.067 Mt   100.000 % 	 ..../BuildTopLevelAS

		    7900.033 Mt    82.597 %      1660 x        4.759 Mt        4.764 Mt        1.319 Mt     0.017 % 	 ../Render

		    7898.714 Mt    99.983 %      1660 x        4.758 Mt        4.763 Mt      372.873 Mt     4.721 % 	 .../Render

		    4605.062 Mt    58.301 %      1660 x        2.774 Mt        2.986 Mt     4605.062 Mt   100.000 % 	 ..../Present

		    2920.778 Mt    36.978 %      1658 x        1.762 Mt        1.580 Mt     2917.359 Mt    99.883 % 	 ..../RayTracing

		       1.534 Mt     0.053 %      1658 x        0.001 Mt        0.001 Mt        1.534 Mt   100.000 % 	 ...../DeferredRLPrep

		       1.885 Mt     0.065 %      1658 x        0.001 Mt        0.001 Mt        1.885 Mt   100.000 % 	 ...../RayTracingRLPrep

	WindowThread:

		   34139.728 Mt   100.000 %         1 x    34139.729 Mt    34139.728 Mt    34139.728 Mt   100.000 % 	 /

	GpuThread:

		    3488.671 Mt   100.000 %      2053 x        1.699 Mt        0.343 Mt       25.929 Mt     0.743 % 	 /

		      21.427 Mt     0.614 %      1660 x        0.013 Mt        0.000 Mt       21.427 Mt   100.000 % 	 ./Present

		     151.189 Mt     4.334 %         3 x       50.396 Mt       41.419 Mt        0.011 Mt     0.007 % 	 ./ScenePrep

		     151.178 Mt    99.993 %         3 x       50.393 Mt       41.417 Mt        0.005 Mt     0.004 % 	 ../AccelerationStructureBuild

		     150.681 Mt    99.671 %         3 x       50.227 Mt       41.265 Mt      150.681 Mt   100.000 % 	 .../BuildBottomLevelASGpu

		       0.492 Mt     0.325 %         3 x        0.164 Mt        0.151 Mt        0.492 Mt   100.000 % 	 .../BuildTopLevelASGpu

		     129.003 Mt     3.698 %       396 x        0.326 Mt        0.343 Mt        0.385 Mt     0.298 % 	 ./AccelerationStructureBuild

		     104.854 Mt    81.280 %       396 x        0.265 Mt        0.285 Mt      104.854 Mt   100.000 % 	 ../BuildBottomLevelASGpu

		      23.764 Mt    18.421 %       396 x        0.060 Mt        0.057 Mt       23.764 Mt   100.000 % 	 ../BuildTopLevelASGpu

		    3161.123 Mt    90.611 %      1658 x        1.907 Mt        2.027 Mt        7.266 Mt     0.230 % 	 ./RayTracingGpu

		     402.897 Mt    12.745 %      1658 x        0.243 Mt        0.215 Mt      402.897 Mt   100.000 % 	 ../DeferredRLGpu

		    1420.920 Mt    44.950 %      1658 x        0.857 Mt        0.765 Mt     1420.920 Mt   100.000 % 	 ../RayTracingRLGpu

		    1330.040 Mt    42.075 %      1658 x        0.802 Mt        1.045 Mt     1330.040 Mt   100.000 % 	 ../ResolveRLGpu


	============================


