Configuration: 
Command line parameters  = 
Build type               = Release
Device name              = NVIDIA GeForce RTX 2080 Ti
Device memory MB         = 11049
Ray Tracing backend      = Hardware
Window width             = 1161
Window height            = 1219
Window title             = Direct3D App
Back-buffer count        = 3
Fill Triangles           = enabled
Triangles Font Clock-Wise= disabled
Fast Build AS            = disabled
Target FPS               = 0
Target UPS               = 60
Tearing                  = enabled
VSync                    = disabled
GUI rendering            = disabled
Debug layer              = enabled
GPU validation           = disabled
GPU profiling            = enabled
Render mode              = Ray Tracing
Loaded scene file        = 
Using testing scene      = disabled
BLAS duplication         = disabled
Rays per pixel           = 8
Quality preset           = Medium
Rasterization Quality    : 
  AO                     = enabled
  AO kernel size         = 4
  Shadows                = enabled
  Shadow map resolution  = 4096
  Shadow PCF kernel size = 4
  Reflections            = disabled
Ray Tracing Quality      : 
  AO                     = enabled
  AO rays                = 4
  AO kernel size         = 4
  Shadows                = enabled
  Shadow rays            = 4
  Shadow kernel size     = 4
  Reflections            = disabled

ProfilingAggregator: 
Render	,	4.2834	,	4.5073	,	4.5073	,	4.5073	,	4.5073	,	4.5073	,	4.5073	,	4.5073	,	4.5073	,	4.5073	,	4.5073	,	4.5073	,	4.5073	,	4.5073	,	4.5073	,	4.5073	,	4.5073	,	4.5073	,	4.5073	,	4.5073	,	4.5073	,	4.5073	,	4.5073	,	4.5073	,	4.5073	,	4.5073	,	4.5073	,	4.5073	,	4.5073	,	4.5073	,	4.5073	,	4.5073	,	4.5073	,	4.5073	,	4.5073	,	4.5073	,	4.5073	,	4.5073	,	4.5073	,	4.5073	,	4.5073	,	4.5073	,	4.5073	,	4.5073	,	4.5073	,	4.5073	,	4.5073	,	4.5073	,	4.5073	,	4.5073	,	4.5073	,	4.5073	,	4.5073	,	4.5073	,	4.5073	,	4.5073	,	4.5073	,	4.5073	,	4.5073	,	4.5073	,	4.5073	,	4.5073	,	4.5073	,	4.5073	,	4.5073	,	4.5073	,	4.5073	,	4.5073	,	4.5073	,	4.5073	,	4.5073	,	4.5073	,	4.5073	,	4.5073	,	4.5073	,	4.5073	,	4.5073	,	4.5073	,	4.5073	,	4.5073	,	4.5073	,	4.5073	,	4.5073	,	4.5073	,	4.5073	,	4.5073	,	4.5073	,	4.5073	,	4.5073	,	4.5073	,	4.5073	,	4.5073	,	4.5073	,	4.5073	,	4.5073	,	4.5073	,	4.5073	,	4.5073	,	4.5073	,	4.5073	,	4.5073	,	4.5073	,	4.5073	,	4.5073	,	4.5073	,	4.5073	,	4.5073	,	4.5073	,	4.5073	,	4.5073	,	4.5073	,	4.5073	,	4.5073	,	4.5073	,	4.5073	,	4.5073	,	4.5073	,	4.5073	,	4.5073	,	4.5073	,	4.5073	,	4.5073	,	4.5073	,	4.5073	,	4.5073	,	4.5073	,	4.5073	,	4.5073	,	4.5073	,	4.5073	,	4.5073	,	4.5073
Update	,	0.0812	,	177.03	,	179.807	,	182.741	,	186.191	,	188.901	,	191.127	,	194.207	,	197.318	,	199.394	,	201.279	,	203.076	,	204.655	,	206.463	,	208.06	,	210.839	,	212.677	,	215.037	,	217.582	,	219.507	,	221.372	,	223.392	,	225.593	,	227.952	,	229.85	,	231.848	,	233.808	,	235.897	,	237.981	,	240.119	,	242.467	,	244.708	,	246.714	,	248.848	,	250.94	,	253.006	,	255.047	,	257.408	,	260.123	,	262.688	,	264.651	,	266.543	,	268.658	,	270.53	,	272.675	,	274.68	,	277.189	,	279.033	,	280.72	,	282.545	,	285.249	,	287.013	,	288.642	,	290.353	,	292.385	,	294.936	,	296.785	,	298.82	,	300.911	,	302.879	,	304.783	,	306.741	,	308.787	,	311.605	,	313.808	,	315.836	,	318.224	,	320.509	,	322.517	,	324.48	,	326.908	,	328.92	,	331.006	,	333.045	,	335.019	,	336.959	,	338.91	,	340.87	,	343.076	,	345.005	,	347.101	,	349.195	,	351.21	,	353.152	,	355.101	,	357.052	,	359.277	,	361.874	,	364.112	,	366.698	,	369.153	,	371.479	,	373.492	,	375.548	,	378.215	,	381.129	,	383.93	,	386.526	,	388.869	,	390.77	,	392.981	,	395.057	,	396.962	,	398.939	,	401.058	,	403.028	,	404.859	,	406.741	,	408.779	,	412.543	,	415.215	,	417.43	,	419.491	,	421.339	,	423.333	,	425.426	,	428.25	,	430.799	,	432.967	,	435.144	,	437.382	,	439.891	,	442.757	,	445.88	,	448.221	,	450.976	,	453.069	,	454.885	,	456.821	,	458.993	,	461.727	,	463.673
RayTracing	,	1.5322	,	1.6806	,	1.6806	,	1.6806	,	1.6806	,	1.6806	,	1.6806	,	1.6806	,	1.6806	,	1.6806	,	1.6806	,	1.6806	,	1.6806	,	1.6806	,	1.6806	,	1.6806	,	1.6806	,	1.6806	,	1.6806	,	1.6806	,	1.6806	,	1.6806	,	1.6806	,	1.6806	,	1.6806	,	1.6806	,	1.6806	,	1.6806	,	1.6806	,	1.6806	,	1.6806	,	1.6806	,	1.6806	,	1.6806	,	1.6806	,	1.6806	,	1.6806	,	1.6806	,	1.6806	,	1.6806	,	1.6806	,	1.6806	,	1.6806	,	1.6806	,	1.6806	,	1.6806	,	1.6806	,	1.6806	,	1.6806	,	1.6806	,	1.6806	,	1.6806	,	1.6806	,	1.6806	,	1.6806	,	1.6806	,	1.6806	,	1.6806	,	1.6806	,	1.6806	,	1.6806	,	1.6806	,	1.6806	,	1.6806	,	1.6806	,	1.6806	,	1.6806	,	1.6806	,	1.6806	,	1.6806	,	1.6806	,	1.6806	,	1.6806	,	1.6806	,	1.6806	,	1.6806	,	1.6806	,	1.6806	,	1.6806	,	1.6806	,	1.6806	,	1.6806	,	1.6806	,	1.6806	,	1.6806	,	1.6806	,	1.6806	,	1.6806	,	1.6806	,	1.6806	,	1.6806	,	1.6806	,	1.6806	,	1.6806	,	1.6806	,	1.6806	,	1.6806	,	1.6806	,	1.6806	,	1.6806	,	1.6806	,	1.6806	,	1.6806	,	1.6806	,	1.6806	,	1.6806	,	1.6806	,	1.6806	,	1.6806	,	1.6806	,	1.6806	,	1.6806	,	1.6806	,	1.6806	,	1.6806	,	1.6806	,	1.6806	,	1.6806	,	1.6806	,	1.6806	,	1.6806	,	1.6806	,	1.6806	,	1.6806	,	1.6806	,	1.6806	,	1.6806	,	1.6806	,	1.6806	,	1.6806	,	1.6806	,	1.6806
RayTracingGpu	,	1.83462	,	1.84451	,	1.84451	,	1.84451	,	1.84451	,	1.84451	,	1.84451	,	1.84451	,	1.84451	,	1.84451	,	1.84451	,	1.84451	,	1.84451	,	1.84451	,	1.84451	,	1.84451	,	1.84451	,	1.84451	,	1.84451	,	1.84451	,	1.84451	,	1.84451	,	1.84451	,	1.84451	,	1.84451	,	1.84451	,	1.84451	,	1.84451	,	1.84451	,	1.84451	,	1.84451	,	1.84451	,	1.84451	,	1.84451	,	1.84451	,	1.84451	,	1.84451	,	1.84451	,	1.84451	,	1.84451	,	1.84451	,	1.84451	,	1.84451	,	1.84451	,	1.84451	,	1.84451	,	1.84451	,	1.84451	,	1.84451	,	1.84451	,	1.84451	,	1.84451	,	1.84451	,	1.84451	,	1.84451	,	1.84451	,	1.84451	,	1.84451	,	1.84451	,	1.84451	,	1.84451	,	1.84451	,	1.84451	,	1.84451	,	1.84451	,	1.84451	,	1.84451	,	1.84451	,	1.84451	,	1.84451	,	1.84451	,	1.84451	,	1.84451	,	1.84451	,	1.84451	,	1.84451	,	1.84451	,	1.84451	,	1.84451	,	1.84451	,	1.84451	,	1.84451	,	1.84451	,	1.84451	,	1.84451	,	1.84451	,	1.84451	,	1.84451	,	1.84451	,	1.84451	,	1.84451	,	1.84451	,	1.84451	,	1.84451	,	1.84451	,	1.84451	,	1.84451	,	1.84451	,	1.84451	,	1.84451	,	1.84451	,	1.84451	,	1.84451	,	1.84451	,	1.84451	,	1.84451	,	1.84451	,	1.84451	,	1.84451	,	1.84451	,	1.84451	,	1.84451	,	1.84451	,	1.84451	,	1.84451	,	1.84451	,	1.84451	,	1.84451	,	1.84451	,	1.84451	,	1.84451	,	1.84451	,	1.84451	,	1.84451	,	1.84451	,	1.84451	,	1.84451	,	1.84451	,	1.84451	,	1.84451	,	1.84451	,	1.84451
DeferredRLGpu	,	0.297248	,	0.297728	,	0.297728	,	0.297728	,	0.297728	,	0.297728	,	0.297728	,	0.297728	,	0.297728	,	0.297728	,	0.297728	,	0.297728	,	0.297728	,	0.297728	,	0.297728	,	0.297728	,	0.297728	,	0.297728	,	0.297728	,	0.297728	,	0.297728	,	0.297728	,	0.297728	,	0.297728	,	0.297728	,	0.297728	,	0.297728	,	0.297728	,	0.297728	,	0.297728	,	0.297728	,	0.297728	,	0.297728	,	0.297728	,	0.297728	,	0.297728	,	0.297728	,	0.297728	,	0.297728	,	0.297728	,	0.297728	,	0.297728	,	0.297728	,	0.297728	,	0.297728	,	0.297728	,	0.297728	,	0.297728	,	0.297728	,	0.297728	,	0.297728	,	0.297728	,	0.297728	,	0.297728	,	0.297728	,	0.297728	,	0.297728	,	0.297728	,	0.297728	,	0.297728	,	0.297728	,	0.297728	,	0.297728	,	0.297728	,	0.297728	,	0.297728	,	0.297728	,	0.297728	,	0.297728	,	0.297728	,	0.297728	,	0.297728	,	0.297728	,	0.297728	,	0.297728	,	0.297728	,	0.297728	,	0.297728	,	0.297728	,	0.297728	,	0.297728	,	0.297728	,	0.297728	,	0.297728	,	0.297728	,	0.297728	,	0.297728	,	0.297728	,	0.297728	,	0.297728	,	0.297728	,	0.297728	,	0.297728	,	0.297728	,	0.297728	,	0.297728	,	0.297728	,	0.297728	,	0.297728	,	0.297728	,	0.297728	,	0.297728	,	0.297728	,	0.297728	,	0.297728	,	0.297728	,	0.297728	,	0.297728	,	0.297728	,	0.297728	,	0.297728	,	0.297728	,	0.297728	,	0.297728	,	0.297728	,	0.297728	,	0.297728	,	0.297728	,	0.297728	,	0.297728	,	0.297728	,	0.297728	,	0.297728	,	0.297728	,	0.297728	,	0.297728	,	0.297728	,	0.297728	,	0.297728	,	0.297728	,	0.297728	,	0.297728
RayTracingRLGpu	,	0.771744	,	0.776544	,	0.776544	,	0.776544	,	0.776544	,	0.776544	,	0.776544	,	0.776544	,	0.776544	,	0.776544	,	0.776544	,	0.776544	,	0.776544	,	0.776544	,	0.776544	,	0.776544	,	0.776544	,	0.776544	,	0.776544	,	0.776544	,	0.776544	,	0.776544	,	0.776544	,	0.776544	,	0.776544	,	0.776544	,	0.776544	,	0.776544	,	0.776544	,	0.776544	,	0.776544	,	0.776544	,	0.776544	,	0.776544	,	0.776544	,	0.776544	,	0.776544	,	0.776544	,	0.776544	,	0.776544	,	0.776544	,	0.776544	,	0.776544	,	0.776544	,	0.776544	,	0.776544	,	0.776544	,	0.776544	,	0.776544	,	0.776544	,	0.776544	,	0.776544	,	0.776544	,	0.776544	,	0.776544	,	0.776544	,	0.776544	,	0.776544	,	0.776544	,	0.776544	,	0.776544	,	0.776544	,	0.776544	,	0.776544	,	0.776544	,	0.776544	,	0.776544	,	0.776544	,	0.776544	,	0.776544	,	0.776544	,	0.776544	,	0.776544	,	0.776544	,	0.776544	,	0.776544	,	0.776544	,	0.776544	,	0.776544	,	0.776544	,	0.776544	,	0.776544	,	0.776544	,	0.776544	,	0.776544	,	0.776544	,	0.776544	,	0.776544	,	0.776544	,	0.776544	,	0.776544	,	0.776544	,	0.776544	,	0.776544	,	0.776544	,	0.776544	,	0.776544	,	0.776544	,	0.776544	,	0.776544	,	0.776544	,	0.776544	,	0.776544	,	0.776544	,	0.776544	,	0.776544	,	0.776544	,	0.776544	,	0.776544	,	0.776544	,	0.776544	,	0.776544	,	0.776544	,	0.776544	,	0.776544	,	0.776544	,	0.776544	,	0.776544	,	0.776544	,	0.776544	,	0.776544	,	0.776544	,	0.776544	,	0.776544	,	0.776544	,	0.776544	,	0.776544	,	0.776544	,	0.776544	,	0.776544	,	0.776544	,	0.776544
ResolveRLGpu	,	0.761984	,	0.766304	,	0.766304	,	0.766304	,	0.766304	,	0.766304	,	0.766304	,	0.766304	,	0.766304	,	0.766304	,	0.766304	,	0.766304	,	0.766304	,	0.766304	,	0.766304	,	0.766304	,	0.766304	,	0.766304	,	0.766304	,	0.766304	,	0.766304	,	0.766304	,	0.766304	,	0.766304	,	0.766304	,	0.766304	,	0.766304	,	0.766304	,	0.766304	,	0.766304	,	0.766304	,	0.766304	,	0.766304	,	0.766304	,	0.766304	,	0.766304	,	0.766304	,	0.766304	,	0.766304	,	0.766304	,	0.766304	,	0.766304	,	0.766304	,	0.766304	,	0.766304	,	0.766304	,	0.766304	,	0.766304	,	0.766304	,	0.766304	,	0.766304	,	0.766304	,	0.766304	,	0.766304	,	0.766304	,	0.766304	,	0.766304	,	0.766304	,	0.766304	,	0.766304	,	0.766304	,	0.766304	,	0.766304	,	0.766304	,	0.766304	,	0.766304	,	0.766304	,	0.766304	,	0.766304	,	0.766304	,	0.766304	,	0.766304	,	0.766304	,	0.766304	,	0.766304	,	0.766304	,	0.766304	,	0.766304	,	0.766304	,	0.766304	,	0.766304	,	0.766304	,	0.766304	,	0.766304	,	0.766304	,	0.766304	,	0.766304	,	0.766304	,	0.766304	,	0.766304	,	0.766304	,	0.766304	,	0.766304	,	0.766304	,	0.766304	,	0.766304	,	0.766304	,	0.766304	,	0.766304	,	0.766304	,	0.766304	,	0.766304	,	0.766304	,	0.766304	,	0.766304	,	0.766304	,	0.766304	,	0.766304	,	0.766304	,	0.766304	,	0.766304	,	0.766304	,	0.766304	,	0.766304	,	0.766304	,	0.766304	,	0.766304	,	0.766304	,	0.766304	,	0.766304	,	0.766304	,	0.766304	,	0.766304	,	0.766304	,	0.766304	,	0.766304	,	0.766304	,	0.766304	,	0.766304	,	0.766304	,	0.766304	,	0.766304
Index	,	0	,	1	,	2	,	3	,	4	,	5	,	6	,	7	,	8	,	9	,	10	,	11	,	12	,	13	,	14	,	15	,	16	,	17	,	18	,	19	,	20	,	21	,	22	,	23	,	24	,	25	,	26	,	27	,	28	,	29	,	30	,	31	,	32	,	33	,	34	,	35	,	36	,	37	,	38	,	39	,	40	,	41	,	42	,	43	,	44	,	45	,	46	,	47	,	48	,	49	,	50	,	51	,	52	,	53	,	54	,	55	,	56	,	57	,	58	,	59	,	60	,	61	,	62	,	63	,	64	,	65	,	66	,	67	,	68	,	69	,	70	,	71	,	72	,	73	,	74	,	75	,	76	,	77	,	78	,	79	,	80	,	81	,	82	,	83	,	84	,	85	,	86	,	87	,	88	,	89	,	90	,	91	,	92	,	93	,	94	,	95	,	96	,	97	,	98	,	99	,	100	,	101	,	102	,	103	,	104	,	105	,	106	,	107	,	108	,	109	,	110	,	111	,	112	,	113	,	114	,	115	,	116	,	117	,	118	,	119	,	120	,	121	,	122	,	123	,	124	,	125	,	126	,	127	,	128	,	129	,	130	,	131

ProfilingBuildAggregator: 
BuildBottomLevelAS	,	0.3778	,	0.461	,	0.467	,	0.6144	,	0.4072	,	0.3133	,	0.4441	,	0.5427	,	0.303	,	0.2793	,	0.2781	,	0.2303	,	0.2878	,	0.2056	,	0.3782	,	0.2617	,	0.413	,	0.4524	,	0.2588	,	0.2873	,	0.2899	,	0.2674	,	0.3352	,	0.3116	,	0.3191	,	0.3179	,	0.3489	,	0.281	,	0.3654	,	0.3164	,	0.3584	,	0.3148	,	0.3312	,	0.3456	,	0.3369	,	0.3295	,	0.356	,	0.4444	,	0.3512	,	0.2871	,	0.2713	,	0.2964	,	0.2863	,	0.3092	,	0.3146	,	0.4303	,	0.2746	,	0.2407	,	0.2938	,	0.26	,	0.2428	,	0.2227	,	0.2277	,	0.2218	,	0.2982	,	0.2463	,	0.3836	,	0.3926	,	0.309	,	0.2915	,	0.3289	,	0.2938	,	0.4153	,	0.3111	,	0.2976	,	0.3827	,	0.3609	,	0.3185	,	0.3123	,	0.3947	,	0.3132	,	0.324	,	0.3052	,	0.3176	,	0.2986	,	0.3178	,	0.2904	,	0.4058	,	0.2843	,	0.2637	,	0.3245	,	0.3112	,	0.2909	,	0.3292	,	0.278	,	0.3578	,	0.4194	,	0.3631	,	0.4951	,	0.3725	,	0.363	,	0.2957	,	0.3187	,	0.3597	,	0.4462	,	0.4333	,	0.4547	,	0.4094	,	0.2781	,	0.2756	,	0.3064	,	0.247	,	0.3207	,	0.3893	,	0.2963	,	0.2773	,	0.3082	,	0.2644	,	0.9371	,	0.452	,	0.3614	,	0.2717	,	0.2454	,	0.2595	,	0.2506	,	0.3407	,	0.3798	,	0.294	,	0.2848	,	0.3073	,	0.4714	,	0.3336	,	0.4335	,	0.3271	,	0.553	,	0.2873	,	0.2372	,	0.2583	,	0.2392	,	0.4252	,	0.2549
BuildBottomLevelASGpu	,	0.018272	,	0.235424	,	0.319168	,	0.412704	,	0.33824	,	0.237216	,	0.245056	,	0.44496	,	0.16768	,	0.174208	,	0.14224	,	0.016832	,	0.138688	,	0.014688	,	0.17664	,	0.13952	,	0.38624	,	0.47504	,	0.238848	,	0.259776	,	0.272224	,	0.233216	,	0.242432	,	0.129312	,	0.18704	,	0.189888	,	0.258784	,	0.30784	,	0.303648	,	0.315264	,	0.220704	,	0.220704	,	0.214496	,	0.214336	,	0.220288	,	0.219136	,	0.216576	,	0.21488	,	0.237824	,	0.219712	,	0.21376	,	0.21984	,	0.214912	,	0.310336	,	0.301056	,	0.184608	,	0.117088	,	0.101344	,	0.106592	,	0.123776	,	0.115232	,	0.1144	,	0.129856	,	0.1632	,	0.15296	,	0.17008	,	0.22272	,	0.21152	,	0.218432	,	0.212672	,	0.21744	,	0.217312	,	0.23424	,	0.223808	,	0.22288	,	0.2128	,	0.222048	,	0.217344	,	0.216992	,	0.21632	,	0.21504	,	0.215904	,	0.213344	,	0.222336	,	0.219136	,	0.215616	,	0.2176	,	0.215872	,	0.216448	,	0.215872	,	0.220864	,	0.22032	,	0.2216	,	0.215776	,	0.221056	,	0.2176	,	0.226112	,	0.21328	,	0.218048	,	0.221888	,	0.21648	,	0.215584	,	0.215552	,	0.223456	,	0.21376	,	0.22032	,	0.214208	,	0.215488	,	0.100224	,	0.10832	,	0.116096	,	0.111872	,	0.218304	,	0.217856	,	0.213472	,	0.21936	,	0.212608	,	0.222048	,	0.232832	,	0.218592	,	0.222432	,	0.20704	,	0.191136	,	0.42992	,	0.517024	,	0.462496	,	0.661216	,	0.464416	,	0.544576	,	0.54688	,	0.613344	,	0.47328	,	0.641536	,	0.558976	,	0.63824	,	0.377344	,	0.238048	,	0.34048	,	0.384704	,	0.39568	,	0.285024
BuildTopLevelAS	,	0.7506	,	0.4564	,	0.4886	,	0.5566	,	0.497	,	0.405	,	0.5466	,	0.4168	,	0.409	,	0.3971	,	0.3791	,	0.3546	,	0.3762	,	0.3683	,	0.5788	,	0.3886	,	0.378	,	0.3649	,	0.426	,	0.3599	,	0.3966	,	0.4944	,	0.4137	,	0.4188	,	0.401	,	0.4155	,	0.4164	,	0.4005	,	0.4142	,	0.373	,	0.3928	,	0.3784	,	0.4478	,	0.4172	,	0.4265	,	0.4105	,	0.4479	,	0.5103	,	0.4038	,	0.3773	,	0.3804	,	0.3946	,	0.3723	,	0.3759	,	0.371	,	0.5739	,	0.419	,	0.3601	,	0.4265	,	1.2972	,	0.3529	,	0.3652	,	0.3873	,	0.6037	,	0.6068	,	0.3896	,	0.4113	,	0.3825	,	0.3914	,	0.3905	,	0.3962	,	0.4911	,	0.5002	,	0.3956	,	0.394	,	0.4594	,	0.4658	,	0.402	,	0.3935	,	0.4492	,	0.3953	,	0.3896	,	0.4039	,	0.3962	,	0.3926	,	0.4016	,	0.3876	,	0.3777	,	0.3968	,	0.397	,	0.3801	,	0.4243	,	0.3993	,	0.3841	,	0.4019	,	0.445	,	0.5441	,	0.4367	,	0.4971	,	0.4677	,	0.4159	,	0.3966	,	0.4641	,	0.4282	,	0.55	,	0.5052	,	0.457	,	0.42	,	0.4078	,	0.3807	,	0.4506	,	0.3754	,	0.3985	,	0.4111	,	0.3853	,	0.3887	,	0.3617	,	0.3611	,	0.8613	,	0.4768	,	0.396	,	0.3805	,	0.3797	,	0.364	,	0.3649	,	0.3995	,	0.3773	,	0.3685	,	0.4081	,	0.3644	,	0.3865	,	0.4909	,	0.4526	,	0.3714	,	0.4162	,	0.4049	,	0.3929	,	0.3847	,	0.3607	,	0.4284	,	0.3786
BuildTopLevelASGpu	,	0.066272	,	0.057312	,	0.055776	,	0.059424	,	0.054752	,	0.055456	,	0.055424	,	0.057728	,	0.055872	,	0.054752	,	0.054592	,	0.056032	,	0.054464	,	0.056448	,	0.059296	,	0.056032	,	0.056032	,	0.059296	,	0.055872	,	0.054752	,	0.054752	,	0.054752	,	0.054496	,	0.054464	,	0.054752	,	0.055168	,	0.055488	,	0.054656	,	0.054336	,	0.058752	,	0.056032	,	0.055456	,	0.055296	,	0.054912	,	0.055168	,	0.054592	,	0.054592	,	0.0552	,	0.059424	,	0.05504	,	0.054464	,	0.054336	,	0.055744	,	0.056608	,	0.054752	,	0.058752	,	0.055904	,	0.054592	,	0.05472	,	0.054432	,	0.055456	,	0.054464	,	0.054432	,	0.054592	,	0.058592	,	0.054912	,	0.055904	,	0.055488	,	0.055328	,	0.055584	,	0.054464	,	0.055456	,	0.059584	,	0.05728	,	0.05504	,	0.054496	,	0.055744	,	0.055456	,	0.054304	,	0.054592	,	0.054624	,	0.054496	,	0.054464	,	0.055328	,	0.054336	,	0.055744	,	0.054496	,	0.055616	,	0.054624	,	0.054624	,	0.0552	,	0.054624	,	0.054496	,	0.054464	,	0.055296	,	0.055296	,	0.058592	,	0.05488	,	0.055744	,	0.054336	,	0.055456	,	0.054464	,	0.054336	,	0.05616	,	0.055904	,	0.055168	,	0.054624	,	0.054752	,	0.055744	,	0.05616	,	0.054752	,	0.055328	,	0.054336	,	0.05488	,	0.055328	,	0.054336	,	0.055328	,	0.056032	,	0.059584	,	0.057312	,	0.0552	,	0.055616	,	0.054624	,	0.057728	,	0.05664	,	0.060032	,	0.056192	,	0.055616	,	0.055488	,	0.055488	,	0.05632	,	0.058752	,	0.060032	,	0.056736	,	0.056032	,	0.055456	,	0.055616	,	0.055456	,	0.055456	,	0.060256	,	0.056864
Triangles	,	32	,	4120	,	15584	,	45330	,	20655	,	7167	,	5600	,	46560	,	288	,	282	,	143	,	28	,	75	,	27	,	132	,	108	,	39389	,	52674	,	1812	,	2934	,	2305	,	1290	,	1919	,	122	,	1658	,	1658	,	8917	,	19389	,	19389	,	19389	,	3968	,	3968	,	3968	,	3968	,	3968	,	3968	,	3968	,	3968	,	3968	,	3968	,	3968	,	3968	,	3968	,	19389	,	19389	,	281	,	47	,	34	,	46	,	63	,	52	,	50	,	102	,	142	,	125	,	183	,	3968	,	3968	,	3968	,	3968	,	3968	,	3968	,	3968	,	3968	,	3968	,	3968	,	3968	,	3968	,	3968	,	3968	,	3968	,	3968	,	3968	,	3968	,	3968	,	3968	,	3968	,	3968	,	3968	,	3968	,	3968	,	3968	,	3968	,	3968	,	3968	,	3968	,	3968	,	3968	,	3968	,	3968	,	3968	,	3968	,	3968	,	3968	,	3968	,	3968	,	3968	,	3968	,	34	,	33	,	48	,	34	,	3968	,	3968	,	3968	,	3968	,	3968	,	3968	,	3968	,	3968	,	3968	,	1368	,	1658	,	7000	,	8584	,	7794	,	37536	,	6246	,	14409	,	23123	,	23437	,	9929	,	29460	,	23399	,	29275	,	1620	,	192	,	1572	,	1362	,	1999	,	306
Meshes	,	1	,	1	,	2	,	2	,	2	,	1	,	1	,	2	,	1	,	1	,	1	,	1	,	1	,	1	,	1	,	1	,	2	,	2	,	2	,	2	,	2	,	1	,	1	,	1	,	1	,	1	,	1	,	1	,	1	,	1	,	1	,	1	,	1	,	1	,	1	,	1	,	1	,	1	,	1	,	1	,	1	,	1	,	1	,	1	,	1	,	1	,	1	,	1	,	1	,	1	,	1	,	1	,	1	,	1	,	1	,	1	,	1	,	1	,	1	,	1	,	1	,	1	,	1	,	1	,	1	,	1	,	1	,	1	,	1	,	1	,	1	,	1	,	1	,	1	,	1	,	1	,	1	,	1	,	1	,	1	,	1	,	1	,	1	,	1	,	1	,	1	,	1	,	1	,	1	,	1	,	1	,	1	,	1	,	1	,	1	,	1	,	1	,	1	,	1	,	1	,	1	,	1	,	1	,	1	,	1	,	1	,	1	,	1	,	1	,	1	,	1	,	1	,	1	,	1	,	1	,	1	,	1	,	1	,	1	,	1	,	1	,	1	,	1	,	1	,	1	,	1	,	1	,	1	,	1	,	1	,	1
BottomLevels	,	1	,	1	,	1	,	1	,	1	,	1	,	1	,	1	,	1	,	1	,	1	,	1	,	1	,	1	,	1	,	1	,	1	,	1	,	1	,	1	,	1	,	1	,	1	,	1	,	1	,	1	,	1	,	1	,	1	,	1	,	1	,	1	,	1	,	1	,	1	,	1	,	1	,	1	,	1	,	1	,	1	,	1	,	1	,	1	,	1	,	1	,	1	,	1	,	1	,	1	,	1	,	1	,	1	,	1	,	1	,	1	,	1	,	1	,	1	,	1	,	1	,	1	,	1	,	1	,	1	,	1	,	1	,	1	,	1	,	1	,	1	,	1	,	1	,	1	,	1	,	1	,	1	,	1	,	1	,	1	,	1	,	1	,	1	,	1	,	1	,	1	,	1	,	1	,	1	,	1	,	1	,	1	,	1	,	1	,	1	,	1	,	1	,	1	,	1	,	1	,	1	,	1	,	1	,	1	,	1	,	1	,	1	,	1	,	1	,	1	,	1	,	1	,	1	,	1	,	1	,	1	,	1	,	1	,	1	,	1	,	1	,	1	,	1	,	1	,	1	,	1	,	1	,	1	,	1	,	1	,	1
TopLevelSize	,	64	,	64	,	64	,	64	,	64	,	64	,	64	,	64	,	64	,	64	,	64	,	64	,	64	,	64	,	64	,	64	,	64	,	64	,	64	,	64	,	64	,	64	,	64	,	64	,	64	,	64	,	64	,	64	,	64	,	64	,	64	,	64	,	64	,	64	,	64	,	64	,	64	,	64	,	64	,	64	,	64	,	64	,	64	,	64	,	64	,	64	,	64	,	64	,	64	,	64	,	64	,	64	,	64	,	64	,	64	,	64	,	64	,	64	,	64	,	64	,	64	,	64	,	64	,	64	,	64	,	64	,	64	,	64	,	64	,	64	,	64	,	64	,	64	,	64	,	64	,	64	,	64	,	64	,	64	,	64	,	64	,	64	,	64	,	64	,	64	,	64	,	64	,	64	,	64	,	64	,	64	,	64	,	64	,	64	,	64	,	64	,	64	,	64	,	64	,	64	,	64	,	64	,	64	,	64	,	64	,	64	,	64	,	64	,	64	,	64	,	64	,	64	,	64	,	64	,	64	,	64	,	64	,	64	,	64	,	64	,	64	,	64	,	64	,	64	,	64	,	64	,	64	,	64	,	64	,	64	,	64
BottomLevelsSize	,	2048	,	232576	,	871424	,	2529536	,	1154048	,	402432	,	315392	,	2598016	,	19328	,	18560	,	11008	,	1920	,	6912	,	1792	,	10240	,	9344	,	2198400	,	2939136	,	103936	,	166528	,	131456	,	74624	,	109824	,	10112	,	95488	,	95488	,	500096	,	1083776	,	1083776	,	1083776	,	224256	,	224256	,	224256	,	224256	,	224256	,	224256	,	224256	,	224256	,	224256	,	224256	,	224256	,	224256	,	224256	,	1083776	,	1083776	,	18560	,	5888	,	5120	,	5888	,	6784	,	6016	,	6016	,	8576	,	11008	,	10112	,	13440	,	224256	,	224256	,	224256	,	224256	,	224256	,	224256	,	224256	,	224256	,	224256	,	224256	,	224256	,	224256	,	224256	,	224256	,	224256	,	224256	,	224256	,	224256	,	224256	,	224256	,	224256	,	224256	,	224256	,	224256	,	224256	,	224256	,	224256	,	224256	,	224256	,	224256	,	224256	,	224256	,	224256	,	224256	,	224256	,	224256	,	224256	,	224256	,	224256	,	224256	,	224256	,	224256	,	5120	,	5120	,	6016	,	5120	,	224256	,	224256	,	224256	,	224256	,	224256	,	224256	,	224256	,	224256	,	224256	,	79488	,	95488	,	497280	,	605824	,	554368	,	2636544	,	440960	,	1014656	,	1624960	,	1646592	,	699264	,	2069760	,	1645952	,	2055680	,	119680	,	17536	,	114816	,	99072	,	146432	,	25088
Index	,	0	,	1	,	2	,	3	,	4	,	5	,	6	,	7	,	8	,	9	,	10	,	11	,	12	,	13	,	14	,	15	,	16	,	17	,	18	,	19	,	20	,	21	,	22	,	23	,	24	,	25	,	26	,	27	,	28	,	29	,	30	,	31	,	32	,	33	,	34	,	35	,	36	,	37	,	38	,	39	,	40	,	41	,	42	,	43	,	44	,	45	,	46	,	47	,	48	,	49	,	50	,	51	,	52	,	53	,	54	,	55	,	56	,	57	,	58	,	59	,	60	,	61	,	62	,	63	,	64	,	65	,	66	,	67	,	68	,	69	,	70	,	71	,	72	,	73	,	74	,	75	,	76	,	77	,	78	,	79	,	80	,	81	,	82	,	83	,	84	,	85	,	86	,	87	,	88	,	89	,	90	,	91	,	92	,	93	,	94	,	95	,	96	,	97	,	98	,	99	,	100	,	101	,	102	,	103	,	104	,	105	,	106	,	107	,	108	,	109	,	110	,	111	,	112	,	113	,	114	,	115	,	116	,	117	,	118	,	119	,	120	,	121	,	122	,	123	,	124	,	125	,	126	,	127	,	128	,	129	,	130

FpsAggregator: 
FPS	,	31	,	31	,	31	,	31	,	31	,	31	,	31	,	31	,	31	,	31	,	31	,	31	,	31	,	31	,	31	,	31	,	31	,	31	,	31	,	31	,	31	,	31	,	31	,	31	,	31	,	31	,	31	,	31	,	31	,	31	,	31	,	31	,	31	,	31	,	31	,	31	,	31	,	31	,	31	,	31	,	31	,	31	,	31	,	31	,	31	,	31	,	31	,	31	,	31	,	31	,	31	,	31	,	31	,	31	,	31	,	31	,	31	,	31	,	31	,	31	,	31	,	31	,	31	,	31	,	31	,	31	,	31	,	31	,	31	,	31	,	31	,	31	,	31	,	31	,	31	,	31	,	31	,	31	,	31	,	31	,	31	,	31	,	31	,	31	,	31	,	31	,	31	,	31	,	31	,	31	,	31	,	31	,	31	,	31	,	31	,	31	,	31	,	31	,	31	,	31	,	31	,	31	,	31	,	31	,	31	,	31	,	31	,	31	,	31	,	31	,	31	,	31	,	31	,	31	,	31	,	31	,	31	,	31	,	31	,	31	,	31	,	31	,	31	,	31	,	31	,	31	,	31	,	31	,	31	,	31	,	31	,	31
UPS	,	63	,	63	,	63	,	63	,	63	,	63	,	63	,	63	,	63	,	63	,	63	,	63	,	63	,	63	,	63	,	63	,	63	,	63	,	63	,	63	,	63	,	63	,	63	,	63	,	63	,	63	,	63	,	63	,	63	,	63	,	63	,	63	,	63	,	63	,	63	,	63	,	63	,	63	,	63	,	63	,	63	,	63	,	63	,	63	,	63	,	63	,	63	,	63	,	63	,	63	,	63	,	63	,	63	,	63	,	63	,	63	,	63	,	63	,	63	,	63	,	63	,	63	,	63	,	63	,	63	,	63	,	63	,	63	,	63	,	63	,	63	,	63	,	63	,	63	,	63	,	63	,	63	,	63	,	63	,	63	,	63	,	63	,	63	,	63	,	63	,	63	,	63	,	63	,	63	,	63	,	63	,	63	,	63	,	63	,	63	,	63	,	63	,	63	,	63	,	63	,	63	,	63	,	63	,	63	,	63	,	63	,	63	,	63	,	63	,	63	,	63	,	63	,	63	,	63	,	63	,	63	,	63	,	63	,	63	,	63	,	63	,	63	,	63	,	63	,	63	,	63	,	63	,	63	,	63	,	63	,	63	,	63
FrameTime	,	32.3044	,	32.3044	,	32.3044	,	32.3044	,	32.3044	,	32.3044	,	32.3044	,	32.3044	,	32.3044	,	32.3044	,	32.3044	,	32.3044	,	32.3044	,	32.3044	,	32.3044	,	32.3044	,	32.3044	,	32.3044	,	32.3044	,	32.3044	,	32.3044	,	32.3044	,	32.3044	,	32.3044	,	32.3044	,	32.3044	,	32.3044	,	32.3044	,	32.3044	,	32.3044	,	32.3044	,	32.3044	,	32.3044	,	32.3044	,	32.3044	,	32.3044	,	32.3044	,	32.3044	,	32.3044	,	32.3044	,	32.3044	,	32.3044	,	32.3044	,	32.3044	,	32.3044	,	32.3044	,	32.3044	,	32.3044	,	32.3044	,	32.3044	,	32.3044	,	32.3044	,	32.3044	,	32.3044	,	32.3044	,	32.3044	,	32.3044	,	32.3044	,	32.3044	,	32.3044	,	32.3044	,	32.3044	,	32.3044	,	32.3044	,	32.3044	,	32.3044	,	32.3044	,	32.3044	,	32.3044	,	32.3044	,	32.3044	,	32.3044	,	32.3044	,	32.3044	,	32.3044	,	32.3044	,	32.3044	,	32.3044	,	32.3044	,	32.3044	,	32.3044	,	32.3044	,	32.3044	,	32.3044	,	32.3044	,	32.3044	,	32.3044	,	32.3044	,	32.3044	,	32.3044	,	32.3044	,	32.3044	,	32.3044	,	32.3044	,	32.3044	,	32.3044	,	32.3044	,	32.3044	,	32.3044	,	32.3044	,	32.3044	,	32.3044	,	32.3044	,	32.3044	,	32.3044	,	32.3044	,	32.3044	,	32.3044	,	32.3044	,	32.3044	,	32.3044	,	32.3044	,	32.3044	,	32.3044	,	32.3044	,	32.3044	,	32.3044	,	32.3044	,	32.3044	,	32.3044	,	32.3044	,	32.3044	,	32.3044	,	32.3044	,	32.3044	,	32.3044	,	32.3044	,	32.3044	,	32.3044	,	32.3044	,	32.3044	,	32.3044
GigaRays/s	,	0.318146	,	0.318146	,	0.318146	,	0.318146	,	0.318146	,	0.318146	,	0.318146	,	0.318146	,	0.318146	,	0.318146	,	0.318146	,	0.318146	,	0.318146	,	0.318146	,	0.318146	,	0.318146	,	0.318146	,	0.318146	,	0.318146	,	0.318146	,	0.318146	,	0.318146	,	0.318146	,	0.318146	,	0.318146	,	0.318146	,	0.318146	,	0.318146	,	0.318146	,	0.318146	,	0.318146	,	0.318146	,	0.318146	,	0.318146	,	0.318146	,	0.318146	,	0.318146	,	0.318146	,	0.318146	,	0.318146	,	0.318146	,	0.318146	,	0.318146	,	0.318146	,	0.318146	,	0.318146	,	0.318146	,	0.318146	,	0.318146	,	0.318146	,	0.318146	,	0.318146	,	0.318146	,	0.318146	,	0.318146	,	0.318146	,	0.318146	,	0.318146	,	0.318146	,	0.318146	,	0.318146	,	0.318146	,	0.318146	,	0.318146	,	0.318146	,	0.318146	,	0.318146	,	0.318146	,	0.318146	,	0.318146	,	0.318146	,	0.318146	,	0.318146	,	0.318146	,	0.318146	,	0.318146	,	0.318146	,	0.318146	,	0.318146	,	0.318146	,	0.318146	,	0.318146	,	0.318146	,	0.318146	,	0.318146	,	0.318146	,	0.318146	,	0.318146	,	0.318146	,	0.318146	,	0.318146	,	0.318146	,	0.318146	,	0.318146	,	0.318146	,	0.318146	,	0.318146	,	0.318146	,	0.318146	,	0.318146	,	0.318146	,	0.318146	,	0.318146	,	0.318146	,	0.318146	,	0.318146	,	0.318146	,	0.318146	,	0.318146	,	0.318146	,	0.318146	,	0.318146	,	0.318146	,	0.318146	,	0.318146	,	0.318146	,	0.318146	,	0.318146	,	0.318146	,	0.318146	,	0.318146	,	0.318146	,	0.318146	,	0.318146	,	0.318146	,	0.318146	,	0.318146	,	0.318146	,	0.318146	,	0.318146	,	0.318146	,	0.318146
Index	,	0	,	1	,	2	,	3	,	4	,	5	,	6	,	7	,	8	,	9	,	10	,	11	,	12	,	13	,	14	,	15	,	16	,	17	,	18	,	19	,	20	,	21	,	22	,	23	,	24	,	25	,	26	,	27	,	28	,	29	,	30	,	31	,	32	,	33	,	34	,	35	,	36	,	37	,	38	,	39	,	40	,	41	,	42	,	43	,	44	,	45	,	46	,	47	,	48	,	49	,	50	,	51	,	52	,	53	,	54	,	55	,	56	,	57	,	58	,	59	,	60	,	61	,	62	,	63	,	64	,	65	,	66	,	67	,	68	,	69	,	70	,	71	,	72	,	73	,	74	,	75	,	76	,	77	,	78	,	79	,	80	,	81	,	82	,	83	,	84	,	85	,	86	,	87	,	88	,	89	,	90	,	91	,	92	,	93	,	94	,	95	,	96	,	97	,	98	,	99	,	100	,	101	,	102	,	103	,	104	,	105	,	106	,	107	,	108	,	109	,	110	,	111	,	112	,	113	,	114	,	115	,	116	,	117	,	118	,	119	,	120	,	121	,	122	,	123	,	124	,	125	,	126	,	127	,	128	,	129	,	130	,	131


AccelerationStructure: 
Ray tracing acceleration structure building statistics: 
	Bottom Level Acceleration Structure: 
		Maximum [B]: 3698560
		Minimum [B]: 6400
		Currently Allocated [B]: 43692032
		Currently Created [num]: 113
		Current Average [B]: 386655
		Maximum Triangles [num]: 52674
		Minimum Triangles [num]: 27
		Total Triangles [num]: 616006
		Maximum Meshes [num]: 2
		Minimum Meshes [num]: 1
		Total Meshes [num]: 122
	Top Level Acceleration Structure: 
		Maximum [B]: 7232
		Minimum [B]: 7232
		Currently Allocated [B]: 7232
		Total Allocated [B]: 7232
		Total Created [num]: 1
		Average Allocated [B]: 7232
		Maximum Instances [num]: 113
		Minimum Instances [num]: 113
		Total Instances [num]: 113
	Scratch Buffer: 
		Maximum [B]: 3011456
		Minimum [B]: 3011456
		Currently Allocated [B]: 3011456
		Total Allocated [B]: 3011456
		Total Created [num]: 1
		Average Allocated [B]: 3011456
ProfilingStack: 
[PROF] Profiling statistics: 
	Scopes entered : 10715
	Scopes exited : 10713
	Overhead per scope [ticks] : 163.5
	Threads entered : 3
	Threads exited : 0
	============================
		         Sum[Mt]   Parent[%]  Samples[num]       Avg[Mt]   Last/Curr[Mt]        Self[Mt]     Self[%] 	 Name

	main:

		   13975.035 Mt   100.000 %         1 x    13975.035 Mt    13975.035 Mt     9266.972 Mt    66.311 % 	 /

		      67.361 Mt     0.482 %         1 x       67.361 Mt        0.000 Mt        0.974 Mt     1.446 % 	 ./Initialize

		       1.770 Mt     2.627 %         1 x        1.770 Mt        0.000 Mt        1.770 Mt   100.000 % 	 ../ShadowMapRLInitialization

		       5.991 Mt     8.893 %         1 x        5.991 Mt        0.000 Mt        5.991 Mt   100.000 % 	 ../AmbientOcclusionRLInitialization

		       3.719 Mt     5.521 %         1 x        3.719 Mt        0.000 Mt        3.719 Mt   100.000 % 	 ../RasterResolveRLInitialization

		       3.935 Mt     5.841 %         1 x        3.935 Mt        0.000 Mt        3.935 Mt   100.000 % 	 ../DeferredRLInitialization

		      46.583 Mt    69.155 %         1 x       46.583 Mt        0.000 Mt        2.454 Mt     5.268 % 	 ../RayTracingRLInitialization

		      44.129 Mt    94.732 %         1 x       44.129 Mt        0.000 Mt       44.129 Mt   100.000 % 	 .../PipelineBuild

		       4.390 Mt     6.517 %         1 x        4.390 Mt        0.000 Mt        4.390 Mt   100.000 % 	 ../ResolveRLInitialization

		    4640.762 Mt    33.208 %       556 x        8.347 Mt      465.425 Mt       13.814 Mt     0.298 % 	 ./Run

		    1980.484 Mt    42.676 %       792 x        2.501 Mt      465.429 Mt      674.060 Mt    34.035 % 	 ../Update

		     706.765 Mt    35.686 %         4 x      176.691 Mt      172.132 Mt      197.329 Mt    27.920 % 	 .../ScenePrep

		      57.611 Mt     8.151 %         4 x       14.403 Mt       14.094 Mt       57.611 Mt   100.000 % 	 ..../SceneDesc-CreateScene

		       3.158 Mt     0.447 %         4 x        0.789 Mt        0.516 Mt        0.007 Mt     0.215 % 	 ..../ShadowMapRLPrep

		       3.151 Mt    99.785 %         4 x        0.788 Mt        0.516 Mt        1.619 Mt    51.381 % 	 ...../PrepareForRendering

		       1.532 Mt    48.619 %         4 x        0.383 Mt        0.367 Mt        1.532 Mt   100.000 % 	 ....../PrepareDrawBundle

		       9.279 Mt     1.313 %         4 x        2.320 Mt        1.997 Mt        0.004 Mt     0.042 % 	 ..../DeferredRLPrep

		       9.275 Mt    99.958 %         4 x        2.319 Mt        1.996 Mt        3.836 Mt    41.360 % 	 ...../PrepareForRendering

		       0.193 Mt     2.076 %         4 x        0.048 Mt        0.041 Mt        0.193 Mt   100.000 % 	 ....../PrepareMaterials

		       0.977 Mt    10.529 %         4 x        0.244 Mt        0.326 Mt        0.977 Mt   100.000 % 	 ....../BuildMaterialCache

		       4.270 Mt    46.034 %         4 x        1.067 Mt        0.958 Mt        4.270 Mt   100.000 % 	 ....../PrepareDrawBundle

		     221.015 Mt    31.271 %         4 x       55.254 Mt       54.631 Mt       38.907 Mt    17.604 % 	 ..../RayTracingRLPrep

		      12.527 Mt     5.668 %         4 x        3.132 Mt        2.936 Mt       12.527 Mt   100.000 % 	 ...../PrepareAccelerationStructures

		       0.176 Mt     0.080 %         4 x        0.044 Mt        0.040 Mt        0.176 Mt   100.000 % 	 ...../PrepareCache

		      41.872 Mt    18.946 %         4 x       10.468 Mt        8.973 Mt       41.872 Mt   100.000 % 	 ...../PipelineBuild

		       2.183 Mt     0.988 %         4 x        0.546 Mt        0.552 Mt        2.183 Mt   100.000 % 	 ...../BuildCache

		     122.888 Mt    55.602 %         4 x       30.722 Mt       29.128 Mt        0.005 Mt     0.004 % 	 ...../BuildAccelerationStructures

		     122.884 Mt    99.996 %         4 x       30.721 Mt       29.127 Mt        3.580 Mt     2.913 % 	 ....../AccelerationStructureBuild

		     117.314 Mt    95.467 %         4 x       29.328 Mt       27.718 Mt      117.314 Mt   100.000 % 	 ......./BuildBottomLevelAS

		       1.990 Mt     1.620 %         4 x        0.498 Mt        0.520 Mt        1.990 Mt   100.000 % 	 ......./BuildTopLevelAS

		       2.461 Mt     1.113 %         4 x        0.615 Mt        0.589 Mt        2.461 Mt   100.000 % 	 ...../BuildShaderTables

		     218.374 Mt    30.898 %         4 x       54.593 Mt       48.703 Mt      218.374 Mt   100.000 % 	 ..../GpuSidePrep

		     599.659 Mt    30.278 %       528 x        1.136 Mt        0.984 Mt      205.820 Mt    34.323 % 	 .../AccelerationStructureBuild

		     171.333 Mt    28.572 %       528 x        0.324 Mt        0.255 Mt      171.333 Mt   100.000 % 	 ..../BuildBottomLevelAS

		     222.505 Mt    37.105 %       528 x        0.421 Mt        0.379 Mt      222.505 Mt   100.000 % 	 ..../BuildTopLevelAS

		    2646.471 Mt    57.027 %       555 x        4.768 Mt        4.507 Mt        0.397 Mt     0.015 % 	 ../Render

		    2646.074 Mt    99.985 %       555 x        4.768 Mt        4.507 Mt      115.397 Mt     4.361 % 	 .../Render

		    1620.428 Mt    61.239 %       555 x        2.920 Mt        2.610 Mt     1620.428 Mt   100.000 % 	 ..../Present

		     910.249 Mt    34.400 %       553 x        1.646 Mt        1.681 Mt      909.252 Mt    99.890 % 	 ..../RayTracing

		       0.512 Mt     0.056 %       553 x        0.001 Mt        0.001 Mt        0.512 Mt   100.000 % 	 ...../DeferredRLPrep

		       0.484 Mt     0.053 %       553 x        0.001 Mt        0.001 Mt        0.484 Mt   100.000 % 	 ...../RayTracingRLPrep

	WindowThread:

		   13973.315 Mt   100.000 %         1 x    13973.316 Mt    13973.315 Mt    13973.315 Mt   100.000 % 	 /

	GpuThread:

		    1499.397 Mt   100.000 %      1079 x        1.390 Mt        0.343 Mt       36.086 Mt     2.407 % 	 /

		       3.140 Mt     0.209 %       555 x        0.006 Mt        0.002 Mt        3.140 Mt   100.000 % 	 ./Present

		     193.637 Mt    12.914 %         4 x       48.409 Mt       42.886 Mt        0.012 Mt     0.006 % 	 ./ScenePrep

		     193.625 Mt    99.994 %         4 x       48.406 Mt       42.885 Mt        0.007 Mt     0.004 % 	 ../AccelerationStructureBuild

		     192.799 Mt    99.573 %         4 x       48.200 Mt       42.541 Mt      192.799 Mt   100.000 % 	 .../BuildBottomLevelASGpu

		       0.819 Mt     0.423 %         4 x        0.205 Mt        0.343 Mt        0.819 Mt   100.000 % 	 .../BuildTopLevelASGpu

		     167.006 Mt    11.138 %       528 x        0.316 Mt        0.343 Mt        0.577 Mt     0.345 % 	 ./AccelerationStructureBuild

		     135.718 Mt    81.266 %       528 x        0.257 Mt        0.285 Mt      135.718 Mt   100.000 % 	 ../BuildBottomLevelASGpu

		      30.711 Mt    18.389 %       528 x        0.058 Mt        0.057 Mt       30.711 Mt   100.000 % 	 ../BuildTopLevelASGpu

		    1099.528 Mt    73.331 %       553 x        1.988 Mt        1.845 Mt        1.630 Mt     0.148 % 	 ./RayTracingGpu

		     166.633 Mt    15.155 %       553 x        0.301 Mt        0.298 Mt      166.633 Mt   100.000 % 	 ../DeferredRLGpu

		     500.020 Mt    45.476 %       553 x        0.904 Mt        0.777 Mt      500.020 Mt   100.000 % 	 ../RayTracingRLGpu

		     431.245 Mt    39.221 %       553 x        0.780 Mt        0.766 Mt      431.245 Mt   100.000 % 	 ../ResolveRLGpu


	============================


