Configuration: 
Command line parameters  = 
Build type               = Release
Device name              = NVIDIA GeForce RTX 2080 Ti
Device memory MB         = 11049
Ray Tracing backend      = Hardware
Window width             = 1024
Window height            = 768
Window title             = Direct3D App
Back-buffer count        = 3
Fill Triangles           = enabled
Triangles Font Clock-Wise= disabled
Fast Build AS            = disabled
Target FPS               = 0
Target UPS               = 60
Tearing                  = enabled
VSync                    = disabled
GUI rendering            = disabled
Debug layer              = enabled
GPU validation           = disabled
GPU profiling            = enabled
Render mode              = Ray Tracing
Loaded scene file        = 
Using testing scene      = disabled
BLAS duplication         = disabled
Rays per pixel           = 8
Quality preset           = Medium
Rasterization Quality    : 
  AO                     = enabled
  AO kernel size         = 4
  Shadows                = enabled
  Shadow map resolution  = 4096
  Shadow PCF kernel size = 4
  Reflections            = disabled
Ray Tracing Quality      : 
  AO                     = enabled
  AO rays                = 4
  AO kernel size         = 4
  Shadows                = enabled
  Shadow rays            = 4
  Shadow kernel size     = 4
  Reflections            = disabled

ProfilingAggregator: 
Render	,	6.0798	,	1.009	,	1.238	,	0.4743	,	0.5387	,	0.5006	,	0.5006	,	0.5006	,	0.5006	,	0.5006	,	0.5006	,	0.5006	,	0.5006	,	0.5006	,	0.5006	,	0.5006	,	0.5006	,	0.5006	,	0.5006	,	0.5006	,	0.5006	,	0.5006	,	0.5006	,	0.5006	,	0.5006	,	0.5006	,	0.5006	,	0.5006	,	0.5006	,	0.5006	,	0.5006	,	0.5006	,	0.5006	,	0.5006	,	0.5006	,	0.5006	,	0.5006	,	0.5006	,	0.5006	,	0.5006	,	0.5006	,	0.5006	,	0.5006	,	0.5006	,	0.5006	,	0.5006	,	0.5006	,	0.5006	,	0.5006	,	0.5006	,	0.5006	,	0.5006	,	0.5006	,	0.5006	,	0.5006	,	0.5006	,	0.5006	,	0.5006	,	0.5006	,	0.5006	,	0.5006	,	0.5006	,	0.5006	,	0.5006	,	0.5006	,	0.5006	,	0.5006	,	0.5006	,	0.5006	,	0.5006	,	0.5006	,	0.5006	,	0.5006	,	0.5006	,	0.5006	,	0.5006	,	0.5006	,	0.5006	,	0.5006	,	0.5006	,	0.5006	,	0.5006	,	0.5006	,	0.5006	,	0.5006	,	0.5006	,	0.5006	,	0.5006	,	0.5006	,	0.5006	,	0.5006	,	0.5006	,	0.5006	,	0.5006	,	0.5006	,	0.5006	,	0.5006	,	0.5006	,	0.5006	,	0.5006	,	0.5006	,	0.5006	,	0.5006	,	0.5006	,	0.5006	,	0.5006	,	0.5006	,	0.5006	,	0.5006	,	0.5006	,	0.5006	,	0.5006	,	0.5006	,	0.5006	,	0.5006	,	0.5006	,	0.5006	,	0.5006	,	0.5006	,	0.5006	,	0.5006	,	0.5006	,	0.5006	,	0.5006	,	0.5006	,	0.5006	,	0.5006	,	0.5006	,	0.5006	,	0.5006	,	0.5006	,	0.5006	,	0.5006	,	0.5006	,	0.5006	,	0.5006	,	0.5006	,	0.5006	,	0.5006	,	0.5006	,	0.5006	,	0.5006	,	0.5006	,	0.5006	,	0.5006	,	0.5006	,	0.5006	,	0.5006	,	0.5006	,	0.5006	,	0.5006	,	0.5006	,	0.5006	,	0.5006	,	0.5006	,	0.5006	,	0.5006	,	0.5006	,	0.5006	,	0.5006	,	0.5006	,	0.5006	,	0.5006	,	0.5006	,	0.5006	,	0.5006	,	0.5006	,	0.5006	,	0.5006	,	0.5006	,	0.5006	,	0.5006	,	0.5006	,	0.5006	,	0.5006	,	0.5006	,	0.5006	,	0.5006	,	0.5006	,	0.5006	,	0.5006	,	0.5006	,	0.5006	,	0.5006	,	0.5006	,	0.5006	,	0.5006	,	0.5006	,	0.5006	,	0.5006	,	0.5006	,	0.5006	,	0.5006	,	0.5006	,	0.5006	,	0.5006	,	0.5006	,	0.5006	,	0.5006	,	0.5006	,	0.5006	,	0.5006	,	0.5006	,	0.5006	,	0.5006	,	0.5006	,	0.5006	,	0.5006	,	0.5006	,	0.5006	,	0.5006	,	0.5006	,	0.5006	,	0.5006	,	0.5006	,	0.5006	,	0.5006	,	0.5006	,	0.5006	,	0.5006	,	0.5006	,	0.5006	,	0.5006	,	0.5006	,	0.5006	,	0.5006	,	0.5006	,	0.5006	,	0.5006	,	0.5006	,	0.5006	,	0.5006	,	0.5006	,	0.5006	,	0.5006	,	0.5006	,	0.5006	,	0.5006	,	0.5006	,	0.5006	,	0.5006	,	0.5006	,	0.5006	,	0.5006	,	0.5006	,	0.5006	,	0.5006	,	0.5006	,	0.5006	,	0.5006	,	0.5006	,	0.5006	,	0.5006	,	0.5006	,	0.5006	,	0.5006	,	0.5006	,	0.5006	,	0.5006	,	0.5006	,	0.5006	,	0.5006	,	0.5006	,	0.5006	,	0.5006	,	0.5006	,	0.5006	,	0.5006	,	0.5006	,	0.5006	,	0.5006	,	0.5006	,	0.5006	,	0.5006	,	0.5006	,	0.5006	,	0.5006	,	0.5006	,	0.5006	,	0.5006	,	0.5006	,	0.5006	,	0.5006	,	0.5006	,	0.5006	,	0.5006	,	0.5006	,	0.5006	,	0.5006	,	0.5006	,	0.5006	,	0.5006	,	0.5006	,	0.5006	,	0.5006	,	0.5006	,	0.5006	,	0.5006	,	0.5006	,	0.5006	,	0.5006	,	0.5006	,	0.5006	,	0.5006	,	0.5006	,	0.5006	,	0.5006	,	0.5006	,	0.5006	,	0.5006	,	0.5006	,	0.5006	,	0.5006	,	0.5006	,	0.5006	,	0.5006	,	0.5006	,	0.5006	,	0.5006	,	0.5006	,	0.5006	,	0.5006	,	0.5006	,	0.5006	,	0.5006	,	0.5006	,	0.5006	,	0.5006	,	0.5006	,	0.5006	,	0.5006	,	0.5006	,	0.5006	,	0.5006	,	0.5006	,	0.5006	,	0.5006	,	0.5006	,	0.5006	,	0.5006	,	0.5006	,	0.5006	,	0.5006	,	0.5006	,	0.5006	,	0.5006	,	0.5006	,	0.5006	,	0.5006	,	0.5006	,	0.5006	,	0.5006	,	0.5006	,	0.5006	,	0.5006	,	0.5006	,	0.5006	,	0.5006	,	0.5006	,	0.5006	,	0.5006	,	0.5006	,	0.5006	,	0.5006	,	0.5006	,	0.5006	,	0.5006	,	0.5006	,	0.5006	,	0.5006	,	0.5006	,	0.5006	,	0.5006	,	0.5006	,	0.5006	,	0.5006	,	0.5006	,	0.5006	,	0.5006	,	0.5006	,	0.5006	,	0.5006	,	0.5006	,	0.5006	,	0.5006	,	0.5006	,	0.5006	,	0.5006	,	0.5006	,	0.5006	,	0.5006	,	0.5006	,	0.5006	,	0.5006	,	0.5006	,	0.5006	,	0.5006	,	0.5006	,	0.5006	,	0.5006	,	0.5006	,	0.5006	,	0.5006	,	0.5006	,	0.5006	,	0.5006	,	0.5006	,	0.5006	,	0.5006	,	0.5006	,	0.5006	,	0.5006	,	0.5006	,	0.5006	,	0.5006	,	0.5006	,	0.5006	,	0.5006	,	0.5006	,	0.5006	,	0.5006	,	0.5006	,	0.5006	,	0.5006	,	0.5006	,	0.5006	,	0.5006	,	0.5006	,	0.5006	,	0.5006	,	0.5006	,	0.5006	,	0.5006	,	0.5006	,	0.5006	,	0.5006	,	0.5006	,	0.5006	,	0.5006	,	0.5006	,	0.5006	,	0.5006	,	0.5006	,	0.5006	,	0.5006	,	0.5006	,	0.5006	,	0.5006	,	0.5006	,	0.5006	,	0.5006	,	0.5006	,	0.5006	,	0.5006	,	0.5006	,	0.5006	,	0.5006	,	0.5006	,	0.5006	,	0.5006	,	0.5006	,	0.5006	,	0.5006	,	0.5006	,	0.5006	,	0.5006	,	0.5006	,	0.5006	,	0.5006	,	0.5006	,	0.5006	,	0.5006	,	0.5006	,	0.5006	,	0.5006	,	0.5006	,	0.5006	,	0.5006	,	0.5006	,	0.5006	,	0.5006	,	0.5006	,	0.5006	,	0.5006	,	0.5006	,	0.5006	,	0.5006	,	0.5006	,	0.5006	,	0.5006	,	0.5006	,	0.5006	,	0.5006	,	0.5006	,	0.5006	,	0.5006	,	0.5006	,	0.5006	,	0.5006	,	0.5006	,	0.5006	,	0.5006	,	0.5006	,	0.5006	,	0.5006	,	0.5006	,	0.5006	,	0.5006	,	0.5006	,	0.5006	,	0.5006	,	0.5006	,	0.5006	,	0.5006	,	0.5006	,	0.5006	,	0.5006	,	0.5006	,	0.5006	,	0.5006	,	0.5006	,	0.5006	,	0.5006	,	0.5006	,	0.5006	,	0.5006	,	0.5006	,	0.5006	,	0.5006	,	0.5006	,	0.5006	,	0.5006	,	0.5006	,	0.5006	,	0.5006	,	0.5006	,	0.5006	,	0.5006	,	0.5006	,	0.5006	,	0.5006	,	0.5006	,	0.5006	,	0.5006	,	0.5006	,	0.5006	,	0.5006	,	0.5006	,	0.5006	,	0.5006	,	0.5006	,	0.5006	,	0.5006	,	0.5006	,	0.5006	,	0.5006	,	0.5006	,	0.5006	,	0.5006	,	0.5006	,	0.5006	,	0.5006	,	0.5006	,	0.5006	,	0.5006	,	0.5006	,	0.5006	,	0.5006	,	0.5006	,	0.5006	,	0.5006	,	0.5006	,	0.5006	,	0.5006	,	0.5006	,	0.5006	,	0.5006	,	0.5006	,	0.5006	,	0.5006	,	0.5006	,	0.5006	,	0.5006	,	0.5006	,	0.5006	,	0.5006	,	0.5006	,	0.5006	,	0.5006	,	0.5006	,	0.5006	,	0.5006	,	0.5006	,	0.5006	,	0.5006	,	0.5006	,	0.5006	,	0.5006	,	0.5006	,	0.5006	,	0.5006	,	0.5006	,	0.5006	,	0.5006	,	0.5006	,	0.5006	,	0.5006	,	0.5006	,	0.5006	,	0.5006	,	0.5006	,	0.5006	,	0.5006	,	0.5006	,	0.5006	,	0.5006	,	0.5006	,	0.5006	,	0.5006	,	0.5006	,	0.5006	,	0.5006	,	0.5006	,	0.5006	,	0.5006	,	0.5006	,	0.5006	,	0.5006	,	0.5006	,	0.5006	,	0.5006	,	0.5006	,	0.5006	,	0.5006	,	0.5006	,	0.5006	,	0.5006	,	0.5006	,	0.5006	,	0.5006	,	0.5006	,	0.5006	,	0.5006	,	0.5006	,	0.5006	,	0.5006	,	0.5006	,	0.5006	,	0.5006	,	0.5006	,	0.5006	,	0.5006	,	0.5006	,	0.5006	,	0.5006	,	0.5006	,	0.5006	,	0.5006	,	0.5006	,	0.5006	,	0.5006	,	0.5006	,	0.5006	,	0.5006	,	0.5006	,	0.5006	,	0.5006	,	0.5006	,	0.5006	,	0.5006	,	0.5006	,	0.5006	,	0.5006	,	0.5006	,	0.5006	,	0.5006	,	0.5006	,	0.5006	,	0.5006	,	0.5006	,	0.5006	,	0.5006	,	0.5006	,	0.5006	,	0.5006	,	0.5006	,	0.5006	,	0.5006	,	0.5006	,	0.5006	,	0.5006	,	0.5006	,	0.5006	,	0.5006	,	0.5006	,	0.5006	,	0.5006	,	0.5006	,	0.5006	,	0.5006	,	0.5006	,	0.5006	,	0.5006	,	0.5006	,	0.5006	,	0.5006	,	0.5006	,	0.5006	,	0.5006	,	0.5006	,	0.5006	,	0.5006	,	0.5006	,	0.5006
Update	,	0.0658	,	0.0263	,	0.0499	,	0.052	,	0.0558	,	884.266	,	886.583	,	889.197	,	892.188	,	894.766	,	897.827	,	900.394	,	902.779	,	905.437	,	907.581	,	909.602	,	911.619	,	913.604	,	915.709	,	917.801	,	919.906	,	922.578	,	924.75	,	926.773	,	928.706	,	930.672	,	932.591	,	934.318	,	936.319	,	938.433	,	940.676	,	943.082	,	945.098	,	947.117	,	949.214	,	951.336	,	954.125	,	957.012	,	959.03	,	960.843	,	962.703	,	964.479	,	966.35	,	968.774	,	971.304	,	973.884	,	976.17	,	978.192	,	980.477	,	982.587	,	984.812	,	986.986	,	990.346	,	992.545	,	994.675	,	997.002	,	1007.23	,	1009.68	,	1012.01	,	1016.11	,	1018.25	,	1020.46	,	1023.09	,	1025.34	,	1033.04	,	1036.62	,	1039.07	,	1041.08	,	1043.06	,	1044.98	,	1047.02	,	1049.32	,	1051.51	,	1053.44	,	1057.08	,	1059.05	,	1060.93	,	1063.13	,	1065.11	,	1066.93	,	1068.77	,	1070.9	,	1073.24	,	1075.13	,	1077.38	,	1079.61	,	1081.61	,	1083.46	,	1085.4	,	1087.27	,	1089.46	,	1091.45	,	1093.85	,	1095.84	,	1097.8	,	1099.69	,	1101.65	,	1103.69	,	1106.03	,	1107.99	,	1110	,	1111.87	,	1113.71	,	1115.5	,	1117.31	,	1119.23	,	1121.43	,	1124.01	,	1126.56	,	1128.9	,	1130.98	,	1133.14	,	1135.31	,	1137.61	,	1140.79	,	1143.07	,	1145.19	,	1147.21	,	1149.17	,	1151.15	,	1153.02	,	1155.62	,	1158.07	,	1160.21	,	1162.22	,	1164.17	,	1166.09	,	1167.87	,	1169.6	,	1172.05	,	1174.65	,	1178.53	,	1182.01	,	1184.21	,	1186.41	,	1189.1	,	1191.25	,	1193.17	,	1195.28	,	1197.48	,	1199.31	,	1201.18	,	1203.26	,	1206.13	,	1208.37	,	1210.41	,	1212.34	,	1215.52	,	1218.66	,	1221.88	,	1224.19	,	1227.4	,	1229.59	,	1231.55	,	1233.37	,	1235.17	,	1236.99	,	1240.62	,	1243.08	,	1245.24	,	1247.17	,	1248.99	,	1250.88	,	1252.64	,	1254.48	,	1256.8	,	1258.67	,	1260.57	,	1262.42	,	1264.63	,	1266.81	,	1268.59	,	1270.37	,	1272.71	,	1274.64	,	1276.56	,	1278.51	,	1280.64	,	1282.57	,	1284.37	,	1286.22	,	1288.3	,	1290.25	,	1292.15	,	1294.03	,	1295.75	,	1297.59	,	1299.83	,	1301.67	,	1303.54	,	1305.73	,	1307.78	,	1310.5	,	1312.39	,	1314.2	,	1315.94	,	1317.53	,	1319.14	,	1320.93	,	1323.07	,	1324.97	,	1327.11	,	1329.41	,	1331.58	,	1333.49	,	1335.22	,	1337.01	,	1339.2	,	1341.07	,	1342.8	,	1345.35	,	1347.37	,	1349.26	,	1351.16	,	1353	,	1355.24	,	1357.72	,	1359.99	,	1362.04	,	1363.87	,	1365.65	,	1367.58	,	1369.79	,	1371.89	,	1374.62	,	1376.89	,	1379.27	,	1381.36	,	1383.33	,	1385.18	,	1387.13	,	1389.61	,	1392.33	,	1394.67	,	1396.99	,	1399.46	,	1401.53	,	1403.44	,	1406.08	,	1408.02	,	1410.02	,	1411.92	,	1413.74	,	1415.54	,	1417.32	,	1419.14	,	1421.56	,	1423.94	,	1425.77	,	1427.59	,	1429.37	,	1431.22	,	1433.09	,	1434.92	,	1437.11	,	1439.54	,	1441.77	,	1443.64	,	1445.47	,	1447.45	,	1449.27	,	1451.22	,	1453.36	,	1456.07	,	1458.37	,	1460.07	,	1461.89	,	1463.68	,	1465.45	,	1467.35	,	1469.19	,	1470.9	,	1473.17	,	1474.85	,	1476.77	,	1478.44	,	1480.09	,	1482.16	,	1483.98	,	1485.65	,	1487.31	,	1489.16	,	1490.79	,	1492.41	,	1494	,	1495.63	,	1497.81	,	1499.58	,	1501.27	,	1502.9	,	1504.77	,	1506.71	,	1508.34	,	1510.05	,	1511.65	,	1513.47	,	1515.52	,	1517.65	,	1519.59	,	1521.63	,	1523.66	,	1525.43	,	1527.2	,	1528.94	,	1530.73	,	1532.6	,	1534.5	,	1536.24	,	1537.98	,	1540.19	,	1542.44	,	1544.39	,	1546.52	,	1548.43	,	1550.27	,	1552.03	,	1553.87	,	1556.52	,	1558.96	,	1560.89	,	1562.96	,	1565.11	,	1567	,	1568.88	,	1570.74	,	1573.3	,	1575.3	,	1578.83	,	1582.12	,	1584.54	,	1586.67	,	1589.43	,	1591.78	,	1593.89	,	1595.8	,	1597.48	,	1599.26	,	1601.35	,	1603.12	,	1605.22	,	1607.02	,	1608.66	,	1610.29	,	1611.91	,	1613.67	,	1615.5	,	1617.24	,	1618.96	,	1620.55	,	1622.61	,	1624.32	,	1625.96	,	1627.52	,	1629.36	,	1631.19	,	1632.93	,	1634.7	,	1636.52	,	1638.8	,	1640.92	,	1642.79	,	1644.77	,	1646.82	,	1648.54	,	1650.33	,	1652.19	,	1653.96	,	1656.21	,	1657.98	,	1659.67	,	1661.3	,	1662.97	,	1664.61	,	1666.37	,	1668.13	,	1670.16	,	1672.8	,	1675.12	,	1676.97	,	1678.88	,	1680.76	,	1682.61	,	1684.53	,	1686.71	,	1688.73	,	1691.44	,	1693.41	,	1695.46	,	1697.36	,	1699.25	,	1701.3	,	1703.58	,	1706.14	,	1708.24	,	1710.25	,	1712.18	,	1714.14	,	1716.07	,	1718.05	,	1719.95	,	1722.01	,	1724.05	,	1725.94	,	1727.86	,	1729.7	,	1731.56	,	1733.68	,	1735.78	,	1737.79	,	1739.9	,	1741.88	,	1743.83	,	1746.01	,	1748.2	,	1750.42	,	1752.38	,	1754.2	,	1756.15	,	1758.1	,	1759.99	,	1761.81	,	1763.77	,	1765.95	,	1768.2	,	1770.27	,	1772.57	,	1774.58	,	1776.83	,	1779.03	,	1781.03	,	1783.01	,	1784.74	,	1786.71	,	1788.98	,	1791.3	,	1793.35	,	1795.16	,	1796.86	,	1798.56	,	1800.22	,	1802.49	,	1804.62	,	1807.13	,	1809.18	,	1810.94	,	1812.79	,	1814.52	,	1816.25	,	1817.94	,	1819.66	,	1821.57	,	1823.7	,	1825.73	,	1828.08	,	1830.05	,	1831.97	,	1833.77	,	1835.69	,	1837.61	,	1839.74	,	1841.78	,	1843.63	,	1845.49	,	1847.46	,	1849.61	,	1851.55	,	1853.46	,	1855.7	,	1857.6	,	1859.63	,	1861.47	,	1863.27	,	1865.15	,	1866.95	,	1868.61	,	1870.26	,	1872.26	,	1873.91	,	1875.89	,	1877.64	,	1879.45	,	1881.11	,	1882.75	,	1884.44	,	1886.07	,	1887.89	,	1891.43	,	1893.93	,	1897.8	,	1901.29	,	1903.54	,	1907.83	,	1910.07	,	1912.26	,	1914.5	,	1916.59	,	1918.71	,	1920.69	,	1923.2	,	1926.17	,	1928.05	,	1929.96	,	1931.91	,	1933.79	,	1935.65	,	1937.83	,	1940.21	,	1942.57	,	1944.63	,	1946.57	,	1948.53	,	1950.45	,	1952.26	,	1954.39	,	1956.7	,	1958.68	,	1960.61	,	1962.49	,	1964.4	,	1966.32	,	1968.19	,	1970.06	,	1971.94	,	1973.8	,	1975.69	,	1977.7	,	1979.69	,	1981.83	,	1985.39	,	1987.69	,	1989.62	,	1991.74	,	1993.68	,	1995.53	,	1997.59	,	1999.97	,	2001.91	,	2003.76	,	2006.13	,	2008.06	,	2009.88	,	2011.68	,	2013.64	,	2015.98	,	2018.07	,	2020.2	,	2022.99	,	2025.24	,	2027.21	,	2029.11	,	2030.99	,	2033.05	,	2034.87	,	2037.8	,	2040.45	,	2042.51	,	2044.73	,	2046.68	,	2048.47	,	2050.29	,	2052.04	,	2062.89	,	2065.01	,	2067.23	,	2069.19	,	2073.09	,	2076.74	,	2079.2	,	2081.35	,	2084.23	,	2086.19	,	2088.11	,	2090.14	,	2092.2	,	2094.14	,	2095.96	,	2098.87	,	2102.52	,	2105.56	,	2109.38	,	2112.64	,	2115.62	,	2118.56	,	2121.52	,	2125.15	,	2128.11	,	2130.91	,	2133.81	,	2136.6	,	2139.51	,	2142.62	,	2145.49	,	2147.65	,	2150.31	,	2152.92	,	2154.76	,	2158.31	,	2160.19	,	2162.65	,	2164.51	,	2167.02	,	2168.84	,	2170.69	,	2172.56	,	2174.62	,	2177.39	,	2179.46	,	2182.19	,	2184.33	,	2187.01	,	2190.08	,	2193.41	,	2195.52	,	2198.1	,	2201.24	,	2204.02	,	2207.52	,	2209.81	,	2211.79	,	2214.29	,	2216.71	,	2218.89	,	2221.6	,	2224.62	,	2227.16	,	2229.86	,	2232.52	,	2234.5	,	2236.86	,	2239.02	,	2242.17	,	2244.13	,	2246.15	,	2248.23	,	2250.07	,	2251.89	,	2253.69	,	2255.58	,	2258.26	,	2260.67	,	2262.52	,	2264.61	,	2266.86	,	2268.93	,	2270.89	,	2272.94	,	2275.06	,	2276.81	,	2279.1	,	2280.98	,	2283.1	,	2285.67	,	2288.09	,	2291.1	,	2293.13	,	2295.16	,	2297.5	,	2299.45	,	2301.28	,	2303.22	,	2305.32	,	2308.43	,	2311.74	,	2314.37	,	2316.33	,	2318.12	,	2320.59	,	2322.75	,	2325.36	,	2327.54	,	2330.41	,	2332.4	,	2334.94	,	2336.72	,	2338.77	,	2340.79	,	2342.84	,	2344.6	,	2346.63	,	2348.51	,	2350.58	,	2352.43	,	2354.39	,	2357.83	,	2360.78	,	2362.74	,	2364.59	,	2366.63	,	2368.5	,	2370.55	,	2373.36	,	2375.23	,	2377.16	,	2379.06	,	2380.91	,	2382.94	,	2385.93	,	2388.16	,	2390.97	,	2393.81	,	2396.36	,	2399.73	,	2402.98	,	2405.61	,	2409.68	,	2412.46	,	2414.63	,	2416.79	,	2419.44	,	2421.65	,	2424.08	,	2427	,	2429.06	,	2431.14
Index	,	0	,	1	,	2	,	3	,	4	,	5	,	6	,	7	,	8	,	9	,	10	,	11	,	12	,	13	,	14	,	15	,	16	,	17	,	18	,	19	,	20	,	21	,	22	,	23	,	24	,	25	,	26	,	27	,	28	,	29	,	30	,	31	,	32	,	33	,	34	,	35	,	36	,	37	,	38	,	39	,	40	,	41	,	42	,	43	,	44	,	45	,	46	,	47	,	48	,	49	,	50	,	51	,	52	,	53	,	54	,	55	,	56	,	57	,	58	,	59	,	60	,	61	,	62	,	63	,	64	,	65	,	66	,	67	,	68	,	69	,	70	,	71	,	72	,	73	,	74	,	75	,	76	,	77	,	78	,	79	,	80	,	81	,	82	,	83	,	84	,	85	,	86	,	87	,	88	,	89	,	90	,	91	,	92	,	93	,	94	,	95	,	96	,	97	,	98	,	99	,	100	,	101	,	102	,	103	,	104	,	105	,	106	,	107	,	108	,	109	,	110	,	111	,	112	,	113	,	114	,	115	,	116	,	117	,	118	,	119	,	120	,	121	,	122	,	123	,	124	,	125	,	126	,	127	,	128	,	129	,	130	,	131	,	132	,	133	,	134	,	135	,	136	,	137	,	138	,	139	,	140	,	141	,	142	,	143	,	144	,	145	,	146	,	147	,	148	,	149	,	150	,	151	,	152	,	153	,	154	,	155	,	156	,	157	,	158	,	159	,	160	,	161	,	162	,	163	,	164	,	165	,	166	,	167	,	168	,	169	,	170	,	171	,	172	,	173	,	174	,	175	,	176	,	177	,	178	,	179	,	180	,	181	,	182	,	183	,	184	,	185	,	186	,	187	,	188	,	189	,	190	,	191	,	192	,	193	,	194	,	195	,	196	,	197	,	198	,	199	,	200	,	201	,	202	,	203	,	204	,	205	,	206	,	207	,	208	,	209	,	210	,	211	,	212	,	213	,	214	,	215	,	216	,	217	,	218	,	219	,	220	,	221	,	222	,	223	,	224	,	225	,	226	,	227	,	228	,	229	,	230	,	231	,	232	,	233	,	234	,	235	,	236	,	237	,	238	,	239	,	240	,	241	,	242	,	243	,	244	,	245	,	246	,	247	,	248	,	249	,	250	,	251	,	252	,	253	,	254	,	255	,	256	,	257	,	258	,	259	,	260	,	261	,	262	,	263	,	264	,	265	,	266	,	267	,	268	,	269	,	270	,	271	,	272	,	273	,	274	,	275	,	276	,	277	,	278	,	279	,	280	,	281	,	282	,	283	,	284	,	285	,	286	,	287	,	288	,	289	,	290	,	291	,	292	,	293	,	294	,	295	,	296	,	297	,	298	,	299	,	300	,	301	,	302	,	303	,	304	,	305	,	306	,	307	,	308	,	309	,	310	,	311	,	312	,	313	,	314	,	315	,	316	,	317	,	318	,	319	,	320	,	321	,	322	,	323	,	324	,	325	,	326	,	327	,	328	,	329	,	330	,	331	,	332	,	333	,	334	,	335	,	336	,	337	,	338	,	339	,	340	,	341	,	342	,	343	,	344	,	345	,	346	,	347	,	348	,	349	,	350	,	351	,	352	,	353	,	354	,	355	,	356	,	357	,	358	,	359	,	360	,	361	,	362	,	363	,	364	,	365	,	366	,	367	,	368	,	369	,	370	,	371	,	372	,	373	,	374	,	375	,	376	,	377	,	378	,	379	,	380	,	381	,	382	,	383	,	384	,	385	,	386	,	387	,	388	,	389	,	390	,	391	,	392	,	393	,	394	,	395	,	396	,	397	,	398	,	399	,	400	,	401	,	402	,	403	,	404	,	405	,	406	,	407	,	408	,	409	,	410	,	411	,	412	,	413	,	414	,	415	,	416	,	417	,	418	,	419	,	420	,	421	,	422	,	423	,	424	,	425	,	426	,	427	,	428	,	429	,	430	,	431	,	432	,	433	,	434	,	435	,	436	,	437	,	438	,	439	,	440	,	441	,	442	,	443	,	444	,	445	,	446	,	447	,	448	,	449	,	450	,	451	,	452	,	453	,	454	,	455	,	456	,	457	,	458	,	459	,	460	,	461	,	462	,	463	,	464	,	465	,	466	,	467	,	468	,	469	,	470	,	471	,	472	,	473	,	474	,	475	,	476	,	477	,	478	,	479	,	480	,	481	,	482	,	483	,	484	,	485	,	486	,	487	,	488	,	489	,	490	,	491	,	492	,	493	,	494	,	495	,	496	,	497	,	498	,	499	,	500	,	501	,	502	,	503	,	504	,	505	,	506	,	507	,	508	,	509	,	510	,	511	,	512	,	513	,	514	,	515	,	516	,	517	,	518	,	519	,	520	,	521	,	522	,	523	,	524	,	525	,	526	,	527	,	528	,	529	,	530	,	531	,	532	,	533	,	534	,	535	,	536	,	537	,	538	,	539	,	540	,	541	,	542	,	543	,	544	,	545	,	546	,	547	,	548	,	549	,	550	,	551	,	552	,	553	,	554	,	555	,	556	,	557	,	558	,	559	,	560	,	561	,	562	,	563	,	564	,	565	,	566	,	567	,	568	,	569	,	570	,	571	,	572	,	573	,	574	,	575	,	576	,	577	,	578	,	579	,	580	,	581	,	582	,	583	,	584	,	585	,	586	,	587	,	588	,	589	,	590	,	591	,	592	,	593	,	594	,	595	,	596	,	597	,	598	,	599	,	600	,	601	,	602	,	603	,	604	,	605	,	606	,	607	,	608	,	609	,	610	,	611	,	612	,	613	,	614	,	615	,	616	,	617	,	618	,	619	,	620	,	621	,	622	,	623	,	624	,	625	,	626	,	627	,	628	,	629	,	630	,	631	,	632	,	633	,	634	,	635	,	636	,	637	,	638	,	639	,	640	,	641	,	642	,	643	,	644	,	645	,	646	,	647	,	648	,	649	,	650	,	651	,	652	,	653	,	654	,	655	,	656	,	657	,	658	,	659	,	660	,	661	,	662	,	663	,	664	,	665	,	666	,	667	,	668	,	669	,	670	,	671	,	672	,	673	,	674	,	675	,	676	,	677	,	678	,	679	,	680	,	681	,	682	,	683	,	684	,	685	,	686	,	687	,	688	,	689	,	690	,	691	,	692	,	693	,	694	,	695	,	696	,	697	,	698	,	699	,	700	,	701	,	702	,	703	,	704	,	705	,	706	,	707	,	708	,	709	,	710	,	711	,	712	,	713

ProfilingBuildAggregator: 
BuildBottomLevelAS	,	0.3364	,	0.3844	,	0.2931	,	0.4804	,	0.3384	,	0.3553	,	0.3959	,	0.3552	,	0.3024	,	0.2808	,	0.2856	,	0.2722	,	0.2695	,	0.3457	,	0.3122	,	0.2891	,	0.419	,	0.3467	,	0.3062	,	0.3159	,	0.3168	,	0.2718	,	0.2289	,	0.29	,	0.2715	,	0.3464	,	0.4239	,	0.2542	,	0.2649	,	0.2822	,	0.2697	,	0.3687	,	0.3823	,	0.29	,	0.2667	,	0.2527	,	0.2527	,	0.2647	,	0.4142	,	0.4447	,	0.3705	,	0.3334	,	0.287	,	0.3715	,	0.3057	,	0.2826	,	0.2718	,	0.6701	,	0.2998	,	0.2878	,	0.403	,	0.7649	,	0.4202	,	0.369	,	1.9835	,	0.3011	,	0.3303	,	0.4217	,	0.3344	,	2.6407	,	1.4529	,	0.4098	,	0.2546	,	0.2806	,	0.2895	,	0.295	,	0.3455	,	0.3009	,	0.2762	,	1.3833	,	0.2718	,	0.2448	,	0.3453	,	0.3156	,	0.2479	,	0.2611	,	0.306	,	0.3237	,	0.2902	,	0.3387	,	0.3342	,	0.2522	,	0.2488	,	0.2588	,	0.236	,	0.2698	,	0.3043	,	0.3776	,	0.2974	,	0.2577	,	0.2579	,	0.2588	,	0.2796	,	0.3457	,	0.2575	,	0.3066	,	0.2414	,	0.2558	,	0.2482	,	0.2306	,	0.2655	,	0.2413	,	0.3348	,	0.3044	,	0.3285	,	0.2376	,	0.2597	,	0.2899	,	0.3072	,	0.4426	,	0.3397	,	0.2538	,	0.2646	,	0.2796	,	0.2924	,	0.2683	,	0.3054	,	0.346	,	0.2685	,	0.2581	,	0.2663	,	0.2505	,	0.2358	,	0.2284	,	0.3707	,	0.3883	,	1.6475	,	1.3199	,	0.2756	,	0.2832	,	0.4065	,	0.2571	,	0.2384	,	0.2431	,	0.2637	,	0.246	,	0.2751	,	0.238	,	0.4351	,	0.3246	,	0.2676	,	0.2559	,	1.3175	,	1.3655	,	1.1492	,	0.2645	,	1.3917	,	0.259	,	0.2465	,	0.2354	,	0.2329	,	0.2357	,	1.3121	,	0.354	,	0.2853	,	0.2563	,	0.2408	,	0.2439	,	0.2353	,	0.2294	,	0.2925	,	0.2497	,	0.2587	,	0.2449	,	0.3106	,	0.336	,	0.2268	,	0.2429	,	0.3403	,	0.2705	,	0.2723	,	0.264	,	0.3197	,	0.2679	,	0.2481	,	0.2626	,	0.2689	,	0.2768	,	0.2734	,	0.2846	,	0.2423	,	0.2761	,	0.3034	,	0.2554	,	0.273	,	0.3094	,	0.2761	,	0.2708	,	0.2993	,	0.2465	,	0.2165	,	0.2086	,	0.2084	,	0.2356	,	0.2998	,	0.2585	,	0.3212	,	0.3114	,	0.3019	,	0.2598	,	0.2451	,	0.2338	,	0.2947	,	0.2154	,	0.2156	,	0.3997	,	0.275	,	0.2578	,	0.2512	,	0.2521	,	0.2789	,	0.3197	,	0.285	,	0.2537	,	0.2401	,	0.2401	,	0.2607	,	0.3511	,	0.2764	,	0.3659	,	0.285	,	0.3844	,	0.2737	,	0.2591	,	0.239	,	0.2586	,	0.3593	,	0.3428	,	0.2879	,	0.3137	,	0.3198	,	0.3159	,	0.2695	,	0.3227	,	0.2515	,	0.2951	,	0.277	,	0.234	,	0.2254	,	0.2413	,	0.2471	,	0.2517	,	0.3316	,	0.23	,	0.2505	,	0.2777	,	0.2366	,	0.2417	,	0.2509	,	0.2691	,	0.2789	,	0.2553	,	0.2814	,	0.2539	,	0.286	,	0.2722	,	0.2712	,	0.3068	,	0.4424	,	0.3302	,	0.2331	,	0.2668	,	0.2631	,	0.256	,	0.3231	,	0.2934	,	0.2569	,	0.3319	,	0.2275	,	0.3071	,	0.2105	,	0.2233	,	0.3286	,	0.2502	,	0.2275	,	0.2213	,	0.2337	,	0.2138	,	0.2088	,	0.2142	,	0.223	,	0.2868	,	0.2526	,	0.2289	,	0.2219	,	0.2901	,	0.2183	,	0.2152	,	0.2311	,	0.218	,	0.2195	,	0.2911	,	0.2937	,	0.2626	,	0.2133	,	0.3129	,	0.2645	,	0.2701	,	0.2443	,	0.2436	,	0.2495	,	0.2725	,	0.2609	,	0.2249	,	0.2854	,	0.3035	,	0.2494	,	0.321	,	0.2998	,	0.2645	,	0.2595	,	0.2659	,	0.4733	,	0.5603	,	0.2978	,	0.346	,	0.3028	,	0.2453	,	0.298	,	0.291	,	0.3097	,	0.2353	,	0.5611	,	0.3794	,	0.3006	,	0.2968	,	0.3624	,	0.261	,	0.3202	,	0.2832	,	0.2308	,	0.2947	,	0.282	,	0.2317	,	0.3615	,	0.2264	,	0.2274	,	0.2404	,	0.2105	,	0.2474	,	0.2715	,	0.224	,	0.2306	,	0.2278	,	0.3813	,	0.2261	,	0.2149	,	0.2071	,	0.3044	,	0.2685	,	0.2293	,	0.2658	,	0.2404	,	0.2841	,	0.3327	,	0.2475	,	0.3114	,	0.2824	,	0.2276	,	0.2205	,	0.2481	,	0.2279	,	0.3318	,	0.2351	,	0.2254	,	0.2274	,	0.2207	,	0.2216	,	0.2317	,	0.2283	,	0.2699	,	0.3413	,	0.3606	,	0.2346	,	0.2579	,	0.2523	,	0.2515	,	0.3341	,	0.3419	,	0.2754	,	0.4015	,	0.265	,	0.2904	,	0.25	,	0.2345	,	0.2541	,	0.3269	,	0.3142	,	0.2774	,	0.2595	,	0.249	,	0.2442	,	0.269	,	0.2836	,	0.2671	,	0.3467	,	0.2751	,	0.2557	,	0.2638	,	0.2358	,	0.2525	,	0.3171	,	0.2868	,	0.2915	,	0.2747	,	0.2613	,	0.2521	,	0.3374	,	0.2354	,	0.2762	,	0.2557	,	0.2455	,	0.2554	,	0.2584	,	0.2335	,	0.2463	,	0.2659	,	0.325	,	0.3093	,	0.2668	,	0.3751	,	0.2946	,	0.3378	,	0.2981	,	0.2802	,	0.2758	,	0.2307	,	0.2613	,	0.2985	,	0.2908	,	0.2433	,	0.2513	,	0.2264	,	0.2354	,	0.2261	,	0.3338	,	0.2583	,	0.328	,	0.3065	,	0.244	,	0.2368	,	0.2179	,	0.2343	,	0.2275	,	0.2181	,	0.2538	,	0.2565	,	0.2551	,	0.3322	,	0.2784	,	0.2528	,	0.2441	,	0.2445	,	0.2466	,	0.2571	,	0.2561	,	0.2432	,	0.2541	,	0.2513	,	0.2858	,	0.291	,	0.2901	,	0.3316	,	0.2957	,	0.274	,	0.2546	,	0.2504	,	0.3046	,	0.2762	,	0.242	,	0.2416	,	0.3372	,	0.2221	,	0.2758	,	0.234	,	0.2439	,	0.2321	,	0.2257	,	0.2409	,	0.2234	,	0.2653	,	1.4592	,	0.3865	,	1.3618	,	1.3746	,	0.3313	,	1.924	,	0.3052	,	0.3409	,	0.2739	,	0.2657	,	0.3159	,	0.2541	,	0.3399	,	1.2018	,	0.2566	,	0.2631	,	0.3001	,	0.25	,	0.244	,	0.2605	,	0.3227	,	0.2831	,	0.275	,	0.267	,	0.2586	,	0.255	,	0.2519	,	0.3229	,	0.3	,	0.2637	,	0.2579	,	0.2552	,	0.2674	,	0.2797	,	0.2487	,	0.2474	,	0.2882	,	0.2498	,	0.2539	,	0.2573	,	0.2833	,	0.2867	,	1.3988	,	0.289	,	0.2389	,	0.2953	,	0.2633	,	0.26	,	0.315	,	0.2738	,	0.273	,	0.2513	,	0.2876	,	0.2501	,	0.2441	,	0.2411	,	0.3032	,	0.3385	,	0.2931	,	0.3198	,	0.4229	,	0.3198	,	0.2556	,	0.2369	,	0.3005	,	0.2682	,	0.2396	,	1.2155	,	0.4148	,	0.2906	,	0.3134	,	0.249	,	0.2462	,	0.246	,	0.2338	,	0.2263	,	0.2557	,	0.3416	,	0.2657	,	1.1379	,	0.9893	,	0.3426	,	0.2445	,	1.0698	,	0.2482	,	0.246	,	0.2727	,	0.2634	,	0.2485	,	0.2378	,	1.1456	,	1.4875	,	1.1595	,	1.329	,	1.2153	,	1.0723	,	1.1017	,	0.9405	,	1.0998	,	0.9683	,	0.9074	,	0.9751	,	0.8786	,	0.8834	,	1.021	,	0.4272	,	0.3173	,	0.9427	,	0.8863	,	0.2526	,	1.0056	,	0.2559	,	0.8043	,	0.2279	,	0.8214	,	0.253	,	0.2431	,	0.2527	,	0.2673	,	0.9133	,	0.2747	,	0.8744	,	0.2644	,	0.842	,	0.377	,	0.8939	,	0.32	,	0.7924	,	0.8324	,	0.4238	,	1.1872	,	0.3346	,	0.2397	,	0.8086	,	0.7405	,	0.2936	,	0.8452	,	0.7899	,	0.7354	,	0.8338	,	0.7671	,	0.2492	,	0.6542	,	0.2626	,	0.9647	,	0.2716	,	0.3131	,	0.344	,	0.2498	,	0.2498	,	0.2439	,	0.2866	,	0.6929	,	0.6676	,	0.246	,	0.3188	,	0.3183	,	0.2844	,	0.2399	,	0.2945	,	0.2458	,	0.2355	,	0.7196	,	0.2572	,	0.2717	,	0.759	,	0.684	,	0.7489	,	0.2521	,	0.2956	,	0.2646	,	0.2494	,	0.2473	,	0.2625	,	0.306	,	0.828	,	0.8284	,	0.6371	,	0.2615	,	0.2531	,	0.2943	,	0.2995	,	0.2927	,	0.3112	,	0.3543	,	0.3002	,	0.2908	,	0.2592	,	0.2503	,	0.2638	,	0.2613	,	0.2496	,	0.2844	,	0.2762	,	0.2723	,	0.27	,	0.2852	,	0.7654	,	0.6857	,	0.3183	,	0.2805	,	0.3249	,	0.2742	,	0.2851	,	0.5793	,	0.2577	,	0.3243	,	0.2722	,	0.2576	,	0.2787	,	0.6744	,	0.3255	,	0.3928	,	0.4782	,	0.3683	,	0.5704	,	0.7626	,	0.311	,	0.7544	,	0.6424	,	0.3293	,	0.2557	,	0.2554	,	0.2601	,	0.3235	,	0.6055	,	0.2787	,	0.2711
BuildBottomLevelASGpu	,	0.011104	,	0.287712	,	0.241888	,	0.260096	,	0.172512	,	0.18752	,	0.208288	,	0.201312	,	0.204544	,	0.1792	,	0.177888	,	0.180672	,	0.206848	,	0.261248	,	0.260352	,	0.258016	,	0.263392	,	0.170208	,	0.167744	,	0.167136	,	0.170048	,	0.117696	,	0.11712	,	0.1168	,	0.117856	,	0.297408	,	0.117568	,	0.26688	,	0.264704	,	0.262464	,	0.26416	,	0.160096	,	0.157728	,	0.146272	,	0.144128	,	0.144384	,	0.152832	,	0.153056	,	0.152448	,	0.194016	,	0.195904	,	0.195488	,	0.195808	,	0.376416	,	0.27984	,	0.280672	,	0.2256	,	0.292128	,	0.322208	,	0.192352	,	0.3576	,	0.649504	,	0.392512	,	0.334208	,	0.35936	,	0.198976	,	0.1352	,	0.015232	,	0.226752	,	1.67667	,	0.345856	,	0.218464	,	0.238272	,	0.212544	,	0.1616	,	0.158912	,	0.170496	,	0.161568	,	0.160352	,	0.369024	,	0.14624	,	0.155872	,	0.221216	,	0.175808	,	0.11056	,	0.17984	,	0.305664	,	0.263776	,	0.153312	,	0.22432	,	0.173248	,	0.22352	,	0.185504	,	0.181504	,	0.1536	,	0.155264	,	0.188384	,	0.207808	,	0.159808	,	0.177408	,	0.190848	,	0.226816	,	0.268992	,	0.275168	,	0.192128	,	0.174016	,	0.235744	,	0.290848	,	0.158336	,	0.153024	,	0.234208	,	0.24384	,	0.250528	,	0.161024	,	0.1656	,	0.16704	,	0.16672	,	0.154304	,	0.15776	,	0.236576	,	0.18848	,	0.257344	,	0.194304	,	0.158208	,	0.15296	,	0.153856	,	0.250688	,	0.202752	,	0.217792	,	0.2576	,	0.25824	,	0.155584	,	0.152992	,	0.12224	,	0.252256	,	0.235648	,	0.283936	,	0.254624	,	0.152832	,	0.149376	,	0.184288	,	0.26896	,	0.159616	,	0.152672	,	0.20304	,	0.2032	,	0.22496	,	0.251712	,	0.186016	,	0.2032	,	0.191936	,	0.182816	,	0.279712	,	0.202784	,	0.213696	,	0.201312	,	0.294336	,	0.168544	,	0.198848	,	0.148352	,	0.15488	,	0.165088	,	0.255552	,	0.217472	,	0.255904	,	0.234784	,	0.158144	,	0.15312	,	0.148928	,	0.148608	,	0.16096	,	0.152672	,	0.152832	,	0.153248	,	0.149248	,	0.16912	,	0.013216	,	0.146912	,	0.160768	,	0.15328	,	0.15312	,	0.185312	,	0.158464	,	0.176768	,	0.128896	,	0.014496	,	0.011456	,	0.109248	,	0.116352	,	0.113568	,	0.01104	,	0.010848	,	0.014208	,	0.01088	,	0.120256	,	0.186048	,	0.14448	,	0.129888	,	0.01088	,	0.011296	,	0.011008	,	0.01072	,	0.01088	,	0.099456	,	0.117024	,	0.144608	,	0.12256	,	0.144608	,	0.104768	,	0.115328	,	0.106816	,	0.132352	,	0.014496	,	0.01104	,	0.01088	,	0.134208	,	0.138272	,	0.121664	,	0.121344	,	0.140544	,	0.124832	,	0.134208	,	0.118784	,	0.121696	,	0.122112	,	0.102208	,	0.101632	,	0.101888	,	0.101728	,	0.1136	,	0.1016	,	0.10192	,	0.140576	,	0.13856	,	0.138976	,	0.137984	,	0.139712	,	0.14432	,	0.121504	,	0.120512	,	0.124832	,	0.120672	,	0.12496	,	0.126272	,	0.12512	,	0.120224	,	0.124736	,	0.12512	,	0.143616	,	0.117632	,	0.16048	,	0.150688	,	0.12832	,	0.11776	,	0.11664	,	0.016928	,	0.196544	,	0.157568	,	0.143296	,	0.225248	,	0.232928	,	0.232064	,	0.222528	,	0.213888	,	0.207072	,	0.131328	,	0.013056	,	0.01072	,	0.14288	,	0.131776	,	0.013024	,	0.106944	,	0.106208	,	0.104768	,	0.104384	,	0.115616	,	0.115008	,	0.170272	,	0.014464	,	0.094816	,	0.01104	,	0.013312	,	0.205632	,	0.014208	,	0.013888	,	0.014048	,	0.014336	,	0.013888	,	0.01392	,	0.013792	,	0.01392	,	0.017504	,	0.014048	,	0.01376	,	0.014208	,	0.014336	,	0.014304	,	0.013792	,	0.013888	,	0.01392	,	0.013888	,	0.01376	,	0.24448	,	0.237216	,	0.011584	,	0.136256	,	0.131808	,	0.131904	,	0.132064	,	0.131904	,	0.239136	,	0.138272	,	0.135808	,	0.1368	,	0.140128	,	0.144448	,	0.138272	,	0.107808	,	0.107392	,	0.10736	,	0.104672	,	0.168704	,	0.178528	,	0.125248	,	0.016064	,	0.01376	,	0.014048	,	0.013888	,	0.013888	,	0.01376	,	0.017376	,	0.013888	,	0.013888	,	0.01376	,	0.01392	,	0.01392	,	0.19888	,	0.159456	,	0.179072	,	0.128736	,	0.0168	,	0.01088	,	0.12096	,	0.116928	,	0.114592	,	0.013184	,	0.01088	,	0.011008	,	0.01088	,	0.117472	,	0.187296	,	0.143456	,	0.130464	,	0.010752	,	0.011456	,	0.01104	,	0.01072	,	0.010752	,	0.099744	,	0.115904	,	0.144608	,	0.121824	,	0.14416	,	0.105056	,	0.115456	,	0.106528	,	0.132768	,	0.014336	,	0.01072	,	0.010752	,	0.12656	,	0.13824	,	0.122848	,	0.121536	,	0.140736	,	0.121664	,	0.121504	,	0.121824	,	0.121536	,	0.121344	,	0.102752	,	0.114016	,	0.103488	,	0.102048	,	0.101888	,	0.101344	,	0.101632	,	0.141568	,	0.1384	,	0.138848	,	0.150528	,	0.138112	,	0.137952	,	0.125984	,	0.12528	,	0.120512	,	0.12496	,	0.125856	,	0.124736	,	0.120224	,	0.12528	,	0.124704	,	0.124864	,	0.143744	,	0.117888	,	0.155296	,	0.150496	,	0.121248	,	0.11776	,	0.11648	,	0.016928	,	0.196832	,	0.158464	,	0.14304	,	0.224224	,	0.219648	,	0.221536	,	0.22064	,	0.220512	,	0.206368	,	0.1312	,	0.012736	,	0.01088	,	0.130016	,	0.12208	,	0.011136	,	0.106944	,	0.106528	,	0.105248	,	0.104352	,	0.127424	,	0.115328	,	0.161504	,	0.014464	,	0.0944	,	0.011168	,	0.013472	,	0.20592	,	0.017504	,	0.014336	,	0.017504	,	0.01376	,	0.014208	,	0.013888	,	0.01392	,	0.01392	,	0.014752	,	0.017504	,	0.01392	,	0.014048	,	0.01392	,	0.01392	,	0.014048	,	0.01376	,	0.01392	,	0.01392	,	0.014336	,	0.243872	,	0.235648	,	0.011296	,	0.132192	,	0.135232	,	0.13232	,	0.13248	,	0.134816	,	0.239104	,	0.138272	,	0.136384	,	0.13696	,	0.145632	,	0.136384	,	0.138112	,	0.10784	,	0.106944	,	0.107104	,	0.10448	,	0.168416	,	0.168416	,	0.124416	,	0.016224	,	0.014048	,	0.014208	,	0.01392	,	0.01392	,	0.014336	,	0.01392	,	0.01392	,	0.014048	,	0.013888	,	0.014048	,	0.01392	,	0.268704	,	0.24432	,	0.281248	,	0.26464	,	0.238976	,	0.277984	,	0.186464	,	0.205632	,	0.202848	,	0.243328	,	0.184864	,	0.181696	,	0.236224	,	0.255328	,	0.184288	,	0.21472	,	0.208256	,	0.224096	,	0.22352	,	0.181408	,	0.211552	,	0.19472	,	0.247072	,	0.196128	,	0.18384	,	0.24064	,	0.112864	,	0.099264	,	0.098144	,	0.098304	,	0.098304	,	0.130336	,	0.126016	,	0.128576	,	0.098272	,	0.127744	,	0.112896	,	0.113152	,	0.164672	,	0.197568	,	0.14112	,	0.145472	,	0.240416	,	0.1136	,	0.012896	,	0.18096	,	0.160928	,	0.146208	,	0.145888	,	0.155904	,	0.145888	,	0.146048	,	0.14608	,	0.14592	,	0.145792	,	0.145504	,	0.146368	,	0.145632	,	0.146336	,	0.146176	,	0.156448	,	0.152	,	0.146368	,	0.13968	,	0.146944	,	0.139712	,	0.14736	,	0.276544	,	0.172768	,	0.119936	,	0.12976	,	0.193088	,	0.148064	,	0.184288	,	0.159744	,	0.171328	,	0.0168	,	0.201152	,	0.199264	,	0.2928	,	0.322688	,	0.23536	,	0.2368	,	0.264096	,	0.215296	,	0.164064	,	0.175744	,	0.218208	,	0.152096	,	0.144896	,	0.278368	,	0.306496	,	0.304064	,	0.330336	,	0.342688	,	0.304672	,	0.313568	,	0.303296	,	0.339968	,	0.333792	,	0.33184	,	0.343264	,	0.355488	,	0.361536	,	0.366848	,	0.19168	,	0.233088	,	0.184992	,	0.18272	,	0.180544	,	0.192512	,	0.183296	,	0.2576	,	0.23264	,	0.291488	,	0.109376	,	0.160768	,	0.017376	,	0.14752	,	0.361184	,	0.2328	,	0.309696	,	0.169984	,	0.190336	,	0.241312	,	0.292608	,	0.170016	,	0.260992	,	0.28096	,	0.23696	,	0.184128	,	0.236384	,	0.17232	,	0.184032	,	0.218336	,	0.23712	,	0.36224	,	0.306464	,	0.282528	,	0.366208	,	0.362624	,	0.231648	,	0.25712	,	0.191072	,	0.355968	,	0.177952	,	0.188032	,	0.174464	,	0.116192	,	0.116064	,	0.099424	,	0.124832	,	0.271296	,	0.263104	,	0.185152	,	0.1872	,	0.211296	,	0.208928	,	0.228128	,	0.2192	,	0.200032	,	0.208832	,	0.242304	,	0.232384	,	0.244928	,	0.25536	,	0.241824	,	0.268896	,	0.165536	,	0.14592	,	0.167264	,	0.155424	,	0.12352	,	0.226528	,	0.230144	,	0.316416	,	0.4136	,	0.44288	,	0.306496	,	0.1704	,	0.419616	,	0.109696	,	0.410144	,	0.109408	,	0.409248	,	0.109216	,	0.41792	,	0.109088	,	0.308736	,	0.130176	,	0.303616	,	0.128288	,	0.306624	,	0.128992	,	0.305888	,	0.129152	,	0.216576	,	0.5584	,	0.433152	,	0.101888	,	0.11152	,	0.194944	,	0.152384	,	0.330144	,	0.467168	,	0.102048	,	0.111552	,	0.191904	,	0.150208	,	0.330144	,	0.455648	,	0.311232	,	0.254688	,	0.245856	,	0.245728	,	0.348032	,	0.484512	,	0.364128	,	0.53968	,	0.43632	,	0.296992	,	0.24816	,	0.323648	,	0.386304	,	0.238816	,	0.550336	,	0.30112	,	0.423936
BuildTopLevelAS	,	0.4439	,	0.4614	,	0.5013	,	0.5635	,	0.48	,	0.6252	,	0.4694	,	0.4921	,	0.7256	,	0.4539	,	0.4383	,	0.4273	,	0.4269	,	0.4353	,	0.4549	,	0.5079	,	0.4821	,	0.4569	,	0.4378	,	0.4197	,	0.4217	,	0.4359	,	0.3841	,	0.4976	,	0.5508	,	0.4312	,	0.4398	,	0.4298	,	0.4685	,	0.4258	,	0.5032	,	0.5847	,	0.4744	,	0.4177	,	0.4144	,	0.3997	,	0.3965	,	0.4036	,	0.5065	,	0.5477	,	0.5082	,	0.4268	,	0.4214	,	0.4056	,	0.4205	,	0.4338	,	0.4148	,	0.7471	,	0.4059	,	0.3829	,	0.416	,	0.4867	,	0.4279	,	0.4326	,	0.5261	,	0.4355	,	0.5007	,	0.5385	,	0.4205	,	0.4795	,	0.4877	,	0.4518	,	0.419	,	0.4217	,	0.4381	,	0.4709	,	0.4324	,	0.4731	,	0.4035	,	0.4708	,	0.4185	,	0.4163	,	0.4711	,	0.4489	,	0.4147	,	0.3989	,	0.4229	,	0.414	,	0.4386	,	0.5076	,	0.4691	,	0.4568	,	0.4215	,	0.4229	,	0.4176	,	0.4505	,	0.4382	,	0.4693	,	0.4588	,	0.4188	,	0.4095	,	0.4184	,	0.4448	,	0.4477	,	0.4045	,	0.3957	,	0.395	,	0.3792	,	0.4434	,	0.391	,	0.4041	,	0.5633	,	0.5172	,	0.5112	,	0.4706	,	0.4178	,	0.4248	,	0.4559	,	0.4544	,	0.6191	,	0.4503	,	0.447	,	0.4856	,	0.4171	,	0.4382	,	0.4	,	0.4543	,	0.437	,	0.4053	,	0.4357	,	0.3839	,	0.4224	,	0.3763	,	0.3751	,	0.6119	,	0.5698	,	0.6725	,	0.5027	,	0.4242	,	0.4577	,	0.7008	,	0.4141	,	0.4682	,	0.5097	,	0.4006	,	0.382	,	0.3725	,	0.4511	,	0.4543	,	0.4301	,	0.4223	,	0.423	,	0.4615	,	0.4707	,	0.6385	,	0.4281	,	0.4925	,	0.508	,	0.4136	,	0.4086	,	0.4073	,	0.4076	,	0.5049	,	0.5262	,	0.4374	,	0.4078	,	0.398	,	0.394	,	0.3955	,	0.4472	,	0.4392	,	0.3978	,	0.4371	,	0.4163	,	0.4704	,	0.4577	,	0.4054	,	0.3968	,	0.4856	,	0.4167	,	0.4485	,	0.4349	,	0.4388	,	0.4174	,	0.4054	,	0.4661	,	0.564	,	0.4585	,	0.4514	,	0.4444	,	0.4229	,	0.4866	,	0.5247	,	0.4113	,	0.4129	,	0.4974	,	0.4871	,	1.1655	,	0.4238	,	0.4495	,	0.4347	,	0.3857	,	0.4019	,	0.4322	,	0.4427	,	0.4498	,	0.5195	,	0.4708	,	0.5438	,	0.4108	,	0.4083	,	0.4601	,	0.5948	,	0.4429	,	0.405	,	0.4876	,	0.431	,	0.419	,	0.4681	,	0.4166	,	0.596	,	0.4954	,	0.5256	,	0.4195	,	0.4095	,	0.4051	,	0.423	,	0.4686	,	0.5064	,	0.5634	,	0.4755	,	0.6057	,	0.502	,	0.4049	,	0.4171	,	0.4242	,	0.4941	,	0.5264	,	0.5261	,	0.5055	,	0.4569	,	0.4723	,	0.4206	,	0.6281	,	0.4375	,	0.4598	,	0.444	,	0.4107	,	0.4209	,	0.4112	,	0.4057	,	0.505	,	0.5028	,	0.4245	,	0.4182	,	0.4472	,	0.4156	,	0.4213	,	0.4046	,	0.5629	,	0.63	,	0.3938	,	0.3901	,	0.4018	,	0.4135	,	0.4326	,	0.4467	,	0.4879	,	0.6472	,	0.4637	,	0.4173	,	0.423	,	0.4188	,	0.4105	,	0.4381	,	0.3942	,	0.4042	,	0.5061	,	0.4474	,	0.4383	,	0.4378	,	0.4278	,	0.4065	,	0.4462	,	0.4041	,	0.4004	,	0.3962	,	0.4099	,	0.4126	,	0.393	,	0.4486	,	0.4781	,	0.4128	,	0.4013	,	0.4	,	0.449	,	0.4368	,	0.3929	,	0.3795	,	0.3985	,	0.4009	,	0.4941	,	0.3742	,	0.4037	,	0.4829	,	0.4048	,	0.3924	,	0.3871	,	0.3847	,	0.3947	,	0.399	,	0.4139	,	0.3842	,	0.4269	,	0.4605	,	0.5059	,	0.4029	,	0.4564	,	0.4265	,	0.4235	,	0.3744	,	0.4268	,	0.6374	,	0.4044	,	0.5074	,	0.4576	,	0.4889	,	0.424	,	0.4403	,	0.4235	,	0.5761	,	0.4771	,	1.0967	,	1.1158	,	0.5237	,	0.4865	,	0.6973	,	0.5263	,	0.4491	,	0.4161	,	0.3978	,	0.4455	,	0.4033	,	0.4055	,	0.4268	,	0.3891	,	0.3974	,	0.4	,	0.3864	,	0.4075	,	0.3789	,	0.4034	,	0.3979	,	0.3917	,	0.4694	,	0.4515	,	0.3933	,	0.3788	,	0.4132	,	0.4238	,	0.3856	,	0.4061	,	0.4282	,	0.494	,	0.4091	,	0.3805	,	0.4504	,	0.4304	,	0.4491	,	0.4719	,	0.4518	,	0.4147	,	0.4665	,	0.3868	,	0.3827	,	0.3662	,	0.3843	,	0.3886	,	0.4773	,	0.3928	,	0.4513	,	0.755	,	0.4205	,	0.4438	,	0.426	,	0.4406	,	0.4203	,	0.3988	,	0.5838	,	0.4365	,	0.5228	,	0.4461	,	0.4535	,	0.4468	,	0.4447	,	0.557	,	0.4913	,	0.6407	,	0.4871	,	0.5075	,	0.4306	,	0.4292	,	0.4191	,	0.4352	,	0.438	,	0.4596	,	0.4607	,	0.4406	,	0.4471	,	0.4256	,	0.428	,	0.4807	,	0.47	,	0.4402	,	0.4344	,	0.4135	,	0.4273	,	0.4992	,	0.4361	,	0.4487	,	0.4281	,	0.4299	,	0.4148	,	0.4903	,	0.4321	,	0.4149	,	0.4356	,	0.5241	,	0.5355	,	0.5006	,	0.504	,	0.4814	,	0.5058	,	0.54	,	0.47	,	0.4653	,	0.4237	,	0.4155	,	0.5709	,	0.526	,	0.4663	,	0.4122	,	0.4192	,	0.4096	,	0.402	,	0.5728	,	0.4138	,	0.4702	,	0.4278	,	0.4336	,	0.4763	,	0.4133	,	0.4223	,	0.4193	,	0.4189	,	0.5142	,	0.4217	,	0.4276	,	0.4897	,	0.4364	,	0.4148	,	0.4069	,	0.4599	,	0.4174	,	0.4499	,	0.4244	,	0.4154	,	0.4081	,	0.4846	,	0.4292	,	0.4093	,	0.4026	,	0.4951	,	0.4239	,	0.4095	,	0.4068	,	0.4047	,	0.4135	,	0.4078	,	0.3926	,	0.3983	,	0.4258	,	0.4001	,	0.4397	,	0.4015	,	0.4004	,	0.3958	,	0.3979	,	0.3974	,	0.3952	,	0.4259	,	0.5485	,	0.5638	,	0.554	,	0.5575	,	0.4637	,	0.6366	,	0.4186	,	0.4736	,	0.5333	,	0.3758	,	0.4928	,	0.4333	,	0.5336	,	0.4417	,	0.4038	,	0.4046	,	0.3835	,	0.3983	,	0.3974	,	0.4836	,	0.4685	,	0.4411	,	0.4303	,	0.3945	,	0.43	,	0.402	,	0.4062	,	0.446	,	0.5049	,	0.4318	,	0.4403	,	0.4119	,	0.4213	,	0.4349	,	0.4298	,	0.4153	,	0.4317	,	0.4138	,	0.4184	,	0.4402	,	0.4236	,	0.4704	,	0.4838	,	0.423	,	0.4813	,	0.4164	,	0.3899	,	0.4042	,	0.4441	,	0.3906	,	0.4189	,	0.3915	,	0.6079	,	0.4009	,	0.38	,	0.3693	,	0.4109	,	0.5305	,	0.4559	,	0.4843	,	0.5638	,	0.4599	,	0.4772	,	0.4106	,	0.4177	,	0.4288	,	0.3912	,	0.4136	,	0.4934	,	0.4653	,	0.4525	,	0.4127	,	0.397	,	0.3938	,	0.3934	,	0.3999	,	0.4614	,	0.4343	,	0.4204	,	0.4269	,	0.4239	,	0.4729	,	0.4461	,	0.4183	,	0.4057	,	0.4311	,	0.4212	,	0.4763	,	0.3782	,	0.4074	,	0.4327	,	0.4685	,	0.4388	,	0.4397	,	0.4432	,	0.4387	,	0.4409	,	0.4381	,	0.4944	,	0.4363	,	0.3981	,	0.4171	,	0.4221	,	0.5127	,	0.4654	,	0.6424	,	0.4106	,	0.3967	,	0.4273	,	0.3824	,	0.5475	,	0.409	,	0.4164	,	0.3945	,	0.4246	,	0.3931	,	0.3956	,	0.3997	,	0.3895	,	0.4264	,	0.4193	,	0.4581	,	0.4629	,	0.4888	,	0.7338	,	0.5056	,	0.4304	,	0.4533	,	0.4042	,	0.6235	,	0.4847	,	0.485	,	0.4851	,	0.4391	,	0.4221	,	0.4344	,	0.419	,	0.4614	,	0.4413	,	0.4284	,	0.4233	,	0.4043	,	0.4061	,	0.4522	,	0.4703	,	0.3921	,	0.4481	,	0.4801	,	0.4023	,	0.4063	,	0.4242	,	0.4282	,	0.4151	,	0.4142	,	0.3923	,	0.4425	,	0.4669	,	0.4575	,	0.3757	,	0.3943	,	0.3719	,	0.3732	,	0.3678	,	0.3745	,	0.3884	,	0.4161	,	0.4144	,	0.5446	,	0.3983	,	0.478	,	0.4673	,	0.4257	,	0.4174	,	0.3813	,	0.4565	,	0.4655	,	0.4139	,	0.4342	,	0.4059	,	0.389	,	0.3973	,	0.4816	,	0.4049	,	0.4835	,	0.4707	,	0.4379	,	0.4177	,	0.4048	,	0.4898	,	0.4141	,	0.4495	,	0.3995	,	0.4136	,	0.4341	,	0.4283	,	0.4313	,	0.4117	,	0.4863	,	0.4897	,	0.4544	,	0.4374	,	0.4393	,	0.4239	,	0.4118	,	0.4998	,	0.4113	,	0.4482	,	0.4349	,	0.4261	,	0.4193	,	0.6029	,	0.4153	,	0.6043	,	0.5852	,	0.5129	,	0.7042	,	0.5114	,	0.4926	,	0.6452	,	0.4649	,	0.4253	,	0.4871	,	0.7572	,	0.4135	,	0.5126	,	0.4125	,	0.4286	,	0.413
BuildTopLevelASGpu	,	0.056192	,	0.057184	,	0.055744	,	0.055168	,	0.055456	,	0.060672	,	0.055168	,	0.055872	,	0.056192	,	0.05616	,	0.056032	,	0.0552	,	0.055168	,	0.055872	,	0.056192	,	0.055456	,	0.059104	,	0.055584	,	0.055168	,	0.055296	,	0.055168	,	0.05504	,	0.055456	,	0.056032	,	0.05504	,	0.055872	,	0.059552	,	0.055904	,	0.055296	,	0.055936	,	0.055008	,	0.054944	,	0.055008	,	0.054912	,	0.05504	,	0.05488	,	0.055616	,	0.05488	,	0.05472	,	0.05488	,	0.054848	,	0.055904	,	0.05472	,	0.055104	,	0.054784	,	0.05584	,	0.05616	,	0.058912	,	0.055744	,	0.055424	,	0.055616	,	0.063968	,	0.054752	,	0.055456	,	0.05504	,	0.055584	,	0.055744	,	0.06656	,	0.057152	,	0.064832	,	0.055008	,	0.055264	,	0.055168	,	0.054848	,	0.055712	,	0.05504	,	0.058816	,	0.05504	,	0.055008	,	0.059072	,	0.055584	,	0.054848	,	0.055744	,	0.05456	,	0.055168	,	0.054592	,	0.054784	,	0.054592	,	0.055616	,	0.054592	,	0.054752	,	0.05472	,	0.054592	,	0.055616	,	0.055584	,	0.055296	,	0.05472	,	0.0592	,	0.05488	,	0.05456	,	0.054592	,	0.054592	,	0.055584	,	0.05456	,	0.05488	,	0.05488	,	0.056416	,	0.05504	,	0.054592	,	0.05488	,	0.055584	,	0.057344	,	0.058912	,	0.05488	,	0.054752	,	0.055872	,	0.054752	,	0.054464	,	0.05552	,	0.05904	,	0.054592	,	0.055136	,	0.05472	,	0.055744	,	0.055328	,	0.054592	,	0.059232	,	0.055872	,	0.054752	,	0.05504	,	0.054752	,	0.055328	,	0.055584	,	0.055168	,	0.05488	,	0.05472	,	0.05488	,	0.054752	,	0.054464	,	0.055296	,	0.054592	,	0.054752	,	0.054432	,	0.05488	,	0.058944	,	0.055328	,	0.055872	,	0.055296	,	0.05472	,	0.054752	,	0.055328	,	0.055744	,	0.05504	,	0.055584	,	0.057632	,	0.059072	,	0.055168	,	0.054752	,	0.054848	,	0.054464	,	0.055008	,	0.055712	,	0.059936	,	0.05936	,	0.055328	,	0.055904	,	0.055872	,	0.055456	,	0.055456	,	0.055776	,	0.058784	,	0.055904	,	0.055616	,	0.054592	,	0.054592	,	0.054592	,	0.056608	,	0.054432	,	0.054432	,	0.054592	,	0.055296	,	0.054624	,	0.05488	,	0.05472	,	0.05456	,	0.055872	,	0.05616	,	0.054432	,	0.05488	,	0.054336	,	0.055616	,	0.05664	,	0.066304	,	0.056608	,	0.056768	,	0.05488	,	0.054432	,	0.054592	,	0.055616	,	0.055616	,	0.055744	,	0.055456	,	0.055616	,	0.054784	,	0.054432	,	0.055456	,	0.054912	,	0.054592	,	0.055328	,	0.054464	,	0.054464	,	0.055872	,	0.066144	,	0.055904	,	0.055872	,	0.058624	,	0.05488	,	0.054912	,	0.055744	,	0.054592	,	0.055744	,	0.058912	,	0.054752	,	0.055744	,	0.055456	,	0.05472	,	0.054464	,	0.05472	,	0.055456	,	0.060352	,	0.056	,	0.054752	,	0.054752	,	0.055456	,	0.055328	,	0.05456	,	0.054592	,	0.059648	,	0.055712	,	0.055744	,	0.055296	,	0.055456	,	0.05472	,	0.054592	,	0.054592	,	0.055616	,	0.055296	,	0.055488	,	0.054624	,	0.055328	,	0.055296	,	0.054848	,	0.057472	,	0.054592	,	0.055328	,	0.055904	,	0.055616	,	0.054592	,	0.05488	,	0.055584	,	0.060512	,	0.05936	,	0.055008	,	0.055168	,	0.05472	,	0.054592	,	0.055616	,	0.05648	,	0.060064	,	0.05792	,	0.055744	,	0.054432	,	0.054464	,	0.054592	,	0.054592	,	0.055456	,	0.054592	,	0.060224	,	0.056576	,	0.055744	,	0.056896	,	0.055616	,	0.05504	,	0.055584	,	0.05632	,	0.055712	,	0.05632	,	0.056608	,	0.056448	,	0.056448	,	0.056608	,	0.064544	,	0.05616	,	0.056768	,	0.055744	,	0.055616	,	0.055744	,	0.056736	,	0.056352	,	0.055744	,	0.056448	,	0.05648	,	0.056448	,	0.05472	,	0.055584	,	0.055456	,	0.05488	,	0.054592	,	0.055296	,	0.055456	,	0.055456	,	0.054592	,	0.05472	,	0.054624	,	0.055744	,	0.05904	,	0.055904	,	0.054752	,	0.054848	,	0.054592	,	0.055328	,	0.054752	,	0.059776	,	0.05488	,	0.057184	,	0.056448	,	0.055712	,	0.055744	,	0.055584	,	0.056896	,	0.066112	,	0.056128	,	0.057024	,	0.056928	,	0.05632	,	0.05648	,	0.059072	,	0.05472	,	0.055456	,	0.055616	,	0.056032	,	0.057024	,	0.059072	,	0.054592	,	0.054848	,	0.055904	,	0.05632	,	0.055616	,	0.056448	,	0.054848	,	0.055328	,	0.055424	,	0.054752	,	0.055456	,	0.0576	,	0.055584	,	0.056448	,	0.055616	,	0.05456	,	0.05488	,	0.055168	,	0.05488	,	0.05488	,	0.05488	,	0.054592	,	0.054432	,	0.055744	,	0.064864	,	0.057024	,	0.055616	,	0.056448	,	0.054432	,	0.054592	,	0.054592	,	0.055328	,	0.05488	,	0.054592	,	0.055488	,	0.054592	,	0.055584	,	0.055296	,	0.05936	,	0.055328	,	0.054592	,	0.054752	,	0.05472	,	0.055584	,	0.054592	,	0.054752	,	0.054592	,	0.059648	,	0.05488	,	0.055008	,	0.054752	,	0.05488	,	0.054592	,	0.055904	,	0.054592	,	0.055296	,	0.055584	,	0.054464	,	0.055264	,	0.054592	,	0.054432	,	0.05472	,	0.055456	,	0.054592	,	0.055456	,	0.055296	,	0.054592	,	0.055616	,	0.05472	,	0.055744	,	0.055168	,	0.05504	,	0.05488	,	0.055456	,	0.05472	,	0.058784	,	0.055456	,	0.054752	,	0.056576	,	0.055744	,	0.055328	,	0.054592	,	0.055776	,	0.055168	,	0.055296	,	0.054432	,	0.054592	,	0.05936	,	0.055456	,	0.05488	,	0.055872	,	0.05472	,	0.055744	,	0.055584	,	0.05472	,	0.066848	,	0.057312	,	0.06512	,	0.056896	,	0.05616	,	0.05648	,	0.056288	,	0.055616	,	0.055616	,	0.06512	,	0.057184	,	0.055744	,	0.056448	,	0.056448	,	0.055904	,	0.056352	,	0.05632	,	0.0568	,	0.055616	,	0.05648	,	0.055488	,	0.055456	,	0.05456	,	0.054592	,	0.054464	,	0.054592	,	0.054848	,	0.05472	,	0.054592	,	0.054304	,	0.055456	,	0.058912	,	0.054752	,	0.054848	,	0.055744	,	0.055456	,	0.054592	,	0.055296	,	0.054432	,	0.05456	,	0.055584	,	0.056608	,	0.055456	,	0.057024	,	0.055584	,	0.055712	,	0.055616	,	0.055616	,	0.056448	,	0.055904	,	0.056736	,	0.056288	,	0.056064	,	0.055328	,	0.054464	,	0.059776	,	0.056032	,	0.056032	,	0.05936	,	0.055008	,	0.05504	,	0.055136	,	0.055008	,	0.054752	,	0.054752	,	0.058944	,	0.055296	,	0.05504	,	0.055904	,	0.055456	,	0.05488	,	0.054592	,	0.054592	,	0.05904	,	0.058944	,	0.055456	,	0.05488	,	0.055008	,	0.054752	,	0.054752	,	0.055744	,	0.055616	,	0.055296	,	0.054304	,	0.055744	,	0.055584	,	0.055488	,	0.054592	,	0.054752	,	0.055488	,	0.054432	,	0.05472	,	0.055456	,	0.055296	,	0.054592	,	0.054752	,	0.055616	,	0.05664	,	0.05488	,	0.055584	,	0.054592	,	0.054432	,	0.059776	,	0.055904	,	0.05472	,	0.054592	,	0.05456	,	0.054592	,	0.054752	,	0.055296	,	0.054592	,	0.054432	,	0.054432	,	0.05936	,	0.057472	,	0.0552	,	0.055904	,	0.055296	,	0.054592	,	0.05488	,	0.055168	,	0.058912	,	0.056608	,	0.059488	,	0.054752	,	0.054592	,	0.055744	,	0.055616	,	0.05936	,	0.056768	,	0.05472	,	0.054592	,	0.055168	,	0.054432	,	0.054592	,	0.055328	,	0.055584	,	0.055456	,	0.054464	,	0.05456	,	0.05488	,	0.055712	,	0.054592	,	0.054464	,	0.059488	,	0.055168	,	0.059648	,	0.055456	,	0.05504	,	0.056032	,	0.055872	,	0.056608	,	0.05488	,	0.055584	,	0.055456	,	0.055616	,	0.058912	,	0.05936	,	0.058912	,	0.055328	,	0.056032	,	0.05472	,	0.054752	,	0.059072	,	0.055168	,	0.055456	,	0.055744	,	0.05488	,	0.055168	,	0.055456	,	0.06688	,	0.058336	,	0.056608	,	0.055744	,	0.05488	,	0.05472	,	0.05472	,	0.059488	,	0.058496	,	0.054464	,	0.054592	,	0.05488	,	0.055008	,	0.055008	,	0.056032	,	0.054848	,	0.055328	,	0.055008	,	0.054752	,	0.05488	,	0.054464	,	0.05488	,	0.055584	,	0.055712	,	0.055904	,	0.055456	,	0.054752	,	0.059648	,	0.055456	,	0.054304	,	0.054464	,	0.054752	,	0.05504	,	0.055456	,	0.055296	,	0.05456	,	0.05472	,	0.055744	,	0.05488	,	0.054592	,	0.055296	,	0.055584	,	0.05472	,	0.059904	,	0.055456	,	0.055904	,	0.055616	,	0.05472	,	0.055584	,	0.05472	,	0.059936	,	0.054592	,	0.055168	,	0.058752	,	0.054752	,	0.055008	,	0.05488	,	0.054912	,	0.0592	,	0.057344	,	0.059072	,	0.05632	,	0.056768	,	0.056736	,	0.055904	,	0.05648	,	0.056064	,	0.056064	,	0.055872	,	0.057024	,	0.056896	,	0.056768	,	0.055872	,	0.057056	,	0.055872	,	0.056032	,	0.055584	,	0.056032	,	0.056896	,	0.056768	,	0.061376	,	0.06064	,	0.056768	,	0.056608	,	0.055904	,	0.056448	,	0.056032	,	0.058624	,	0.057184	,	0.055904	,	0.056608	,	0.055744	,	0.056608	,	0.056736	,	0.056032	,	0.056448	,	0.056192	,	0.055872	,	0.061376	,	0.056896	,	0.057024	,	0.060512	,	0.05776	,	0.057312	,	0.056448	,	0.05632	,	0.05648	,	0.06064	,	0.05792	,	0.05648	,	0.05648
Triangles	,	8	,	11708	,	3701	,	5752	,	344	,	922	,	1136	,	1136	,	1136	,	922	,	922	,	922	,	1136	,	2276	,	2276	,	2276	,	2276	,	1104	,	1104	,	1104	,	1104	,	90	,	90	,	90	,	90	,	7182	,	36	,	3504	,	3504	,	3504	,	3504	,	332	,	332	,	220	,	220	,	220	,	268	,	268	,	268	,	1107	,	1107	,	1107	,	1107	,	23822	,	6435	,	6435	,	1656	,	11486	,	12844	,	617	,	34580	,	126378	,	36958	,	33318	,	32715	,	878	,	166	,	16	,	3814	,	439546	,	33359	,	2657	,	1596	,	1370	,	366	,	334	,	272	,	292	,	264	,	20434	,	180	,	276	,	1604	,	605	,	62	,	752	,	7198	,	5790	,	276	,	1290	,	480	,	1234	,	554	,	662	,	276	,	276	,	546	,	890	,	272	,	660	,	650	,	2142	,	2358	,	3418	,	1316	,	492	,	2764	,	5084	,	276	,	276	,	2022	,	3655	,	1821	,	432	,	432	,	432	,	432	,	244	,	432	,	2457	,	631	,	3974	,	746	,	276	,	276	,	276	,	1380	,	926	,	1784	,	3658	,	4255	,	276	,	276	,	72	,	3118	,	2960	,	5624	,	5467	,	276	,	276	,	510	,	3091	,	340	,	244	,	880	,	996	,	2068	,	3118	,	584	,	2000	,	2240	,	1920	,	4856	,	2000	,	2240	,	1920	,	19930	,	624	,	1314	,	186	,	334	,	364	,	2295	,	1243	,	3819	,	2620	,	276	,	276	,	276	,	276	,	276	,	276	,	276	,	276	,	201	,	432	,	12	,	254	,	190	,	276	,	276	,	645	,	480	,	724	,	124	,	28	,	2	,	40	,	62	,	58	,	4	,	2	,	4	,	2	,	104	,	1190	,	204	,	134	,	4	,	12	,	2	,	2	,	4	,	48	,	104	,	216	,	112	,	274	,	52	,	60	,	52	,	110	,	4	,	4	,	4	,	88	,	124	,	88	,	88	,	176	,	88	,	88	,	88	,	88	,	88	,	56	,	56	,	56	,	56	,	56	,	56	,	56	,	168	,	168	,	104	,	104	,	104	,	104	,	124	,	124	,	124	,	124	,	124	,	124	,	124	,	124	,	124	,	124	,	208	,	53	,	442	,	254	,	101	,	86	,	86	,	30	,	634	,	326	,	274	,	2636	,	2636	,	2636	,	2636	,	1332	,	1332	,	124	,	4	,	4	,	124	,	112	,	8	,	52	,	52	,	52	,	52	,	60	,	60	,	318	,	18	,	38	,	6	,	22	,	810	,	26	,	26	,	26	,	26	,	26	,	26	,	26	,	26	,	26	,	26	,	26	,	26	,	26	,	26	,	26	,	26	,	26	,	26	,	26	,	2756	,	2756	,	12	,	62	,	62	,	62	,	62	,	62	,	2756	,	124	,	148	,	124	,	176	,	148	,	124	,	36	,	36	,	36	,	36	,	540	,	430	,	90	,	26	,	26	,	26	,	26	,	26	,	26	,	26	,	26	,	26	,	26	,	26	,	26	,	645	,	480	,	724	,	124	,	28	,	2	,	40	,	62	,	58	,	4	,	2	,	4	,	2	,	104	,	1190	,	204	,	134	,	4	,	12	,	2	,	2	,	4	,	48	,	104	,	216	,	112	,	274	,	52	,	60	,	52	,	110	,	4	,	4	,	4	,	88	,	124	,	88	,	88	,	176	,	88	,	88	,	88	,	88	,	88	,	56	,	56	,	56	,	56	,	56	,	56	,	56	,	168	,	168	,	104	,	104	,	104	,	104	,	124	,	124	,	124	,	124	,	124	,	124	,	124	,	124	,	124	,	124	,	208	,	53	,	442	,	254	,	101	,	86	,	86	,	30	,	634	,	326	,	274	,	2636	,	2636	,	2636	,	2636	,	1332	,	1332	,	124	,	4	,	4	,	124	,	112	,	8	,	52	,	52	,	52	,	52	,	60	,	60	,	318	,	18	,	38	,	6	,	22	,	810	,	26	,	26	,	26	,	26	,	26	,	26	,	26	,	26	,	26	,	26	,	26	,	26	,	26	,	26	,	26	,	26	,	26	,	26	,	26	,	2756	,	2756	,	12	,	62	,	62	,	62	,	62	,	62	,	2756	,	124	,	148	,	124	,	176	,	148	,	124	,	36	,	36	,	36	,	36	,	540	,	430	,	90	,	26	,	26	,	26	,	26	,	26	,	26	,	26	,	26	,	26	,	26	,	26	,	26	,	3444	,	1923	,	3444	,	3444	,	1923	,	3444	,	826	,	1848	,	1952	,	2980	,	992	,	644	,	1248	,	8012	,	908	,	1560	,	1488	,	1248	,	1248	,	908	,	1848	,	992	,	2980	,	1848	,	992	,	2980	,	112	,	48	,	48	,	48	,	48	,	124	,	124	,	124	,	48	,	164	,	112	,	112	,	318	,	2108	,	122	,	130	,	2234	,	76	,	7	,	402	,	196	,	192	,	192	,	192	,	192	,	192	,	192	,	192	,	192	,	192	,	192	,	192	,	192	,	192	,	192	,	192	,	192	,	192	,	192	,	192	,	192	,	9086	,	416	,	128	,	128	,	608	,	218	,	1472	,	416	,	416	,	30	,	720	,	720	,	12223	,	16137	,	2022	,	2022	,	7324	,	2196	,	480	,	366	,	1488	,	328	,	288	,	18240	,	11658	,	10471	,	21180	,	27671	,	16333	,	17539	,	11430	,	19553	,	21360	,	25511	,	21159	,	27870	,	28252	,	28252	,	336	,	2504	,	1262	,	1262	,	752	,	1262	,	336	,	6322	,	2504	,	16572	,	50	,	242	,	26	,	145	,	28252	,	2504	,	18686	,	338	,	1262	,	2504	,	6924	,	800	,	11176	,	15782	,	2504	,	1262	,	2504	,	336	,	1262	,	4662	,	2504	,	28252	,	11430	,	6924	,	28252	,	28252	,	4434	,	6344	,	755	,	27908	,	890	,	708	,	370	,	104	,	104	,	48	,	90	,	3444	,	3444	,	826	,	580	,	720	,	720	,	1532	,	1532	,	1658	,	1368	,	5600	,	4120	,	4230	,	8917	,	7167	,	8917	,	360	,	204	,	252	,	252	,	108	,	1646	,	2906	,	6282	,	35567	,	5834	,	1268	,	80	,	3492	,	12	,	3492	,	12	,	3492	,	12	,	3492	,	12	,	1089	,	18	,	1089	,	18	,	1089	,	18	,	1089	,	18	,	162	,	18818	,	4842	,	8	,	12	,	121	,	46	,	782	,	5466	,	8	,	12	,	121	,	46	,	782	,	5466	,	1100	,	270	,	326	,	336	,	1291	,	10932	,	2249	,	13888	,	7428	,	1004	,	372	,	1107	,	3056	,	276	,	19126	,	1184	,	2014
Meshes	,	1	,	1	,	1	,	1	,	1	,	1	,	1	,	1	,	1	,	1	,	1	,	1	,	1	,	1	,	1	,	1	,	1	,	1	,	1	,	1	,	1	,	1	,	1	,	1	,	1	,	3	,	1	,	2	,	2	,	2	,	2	,	1	,	1	,	1	,	1	,	1	,	1	,	1	,	1	,	2	,	2	,	2	,	2	,	3	,	6	,	6	,	1	,	1	,	1	,	1	,	1	,	1	,	1	,	1	,	1	,	1	,	1	,	1	,	1	,	1	,	1	,	1	,	1	,	2	,	1	,	1	,	1	,	1	,	1	,	1	,	1	,	1	,	1	,	1	,	1	,	1	,	1	,	1	,	1	,	1	,	1	,	1	,	1	,	2	,	1	,	1	,	1	,	1	,	1	,	1	,	1	,	1	,	1	,	1	,	1	,	1	,	1	,	1	,	1	,	1	,	1	,	1	,	1	,	1	,	1	,	1	,	1	,	1	,	1	,	1	,	1	,	1	,	1	,	1	,	1	,	1	,	1	,	1	,	1	,	1	,	1	,	1	,	1	,	1	,	1	,	1	,	1	,	1	,	1	,	1	,	1	,	1	,	1	,	1	,	1	,	1	,	1	,	1	,	1	,	1	,	1	,	1	,	1	,	1	,	1	,	1	,	1	,	1	,	1	,	1	,	1	,	1	,	1	,	1	,	1	,	1	,	1	,	1	,	1	,	1	,	1	,	1	,	1	,	1	,	1	,	1	,	1	,	1	,	1	,	1	,	1	,	1	,	1	,	1	,	1	,	1	,	1	,	1	,	1	,	1	,	1	,	1	,	1	,	1	,	1	,	1	,	1	,	1	,	1	,	1	,	1	,	1	,	1	,	1	,	1	,	1	,	1	,	1	,	1	,	1	,	1	,	1	,	1	,	1	,	1	,	1	,	1	,	1	,	1	,	1	,	1	,	1	,	1	,	1	,	1	,	1	,	1	,	1	,	1	,	1	,	1	,	1	,	1	,	1	,	1	,	1	,	1	,	1	,	1	,	1	,	1	,	1	,	1	,	1	,	1	,	1	,	1	,	1	,	1	,	1	,	1	,	1	,	1	,	1	,	1	,	1	,	1	,	1	,	1	,	1	,	1	,	1	,	1	,	1	,	1	,	1	,	1	,	1	,	1	,	1	,	1	,	1	,	1	,	1	,	1	,	1	,	1	,	1	,	1	,	1	,	1	,	1	,	1	,	1	,	1	,	1	,	1	,	1	,	1	,	1	,	1	,	1	,	1	,	1	,	1	,	1	,	1	,	1	,	1	,	1	,	1	,	1	,	1	,	1	,	1	,	1	,	1	,	1	,	1	,	1	,	1	,	1	,	1	,	1	,	1	,	1	,	1	,	1	,	1	,	1	,	1	,	1	,	1	,	1	,	1	,	1	,	1	,	1	,	1	,	1	,	1	,	1	,	1	,	1	,	1	,	1	,	1	,	1	,	1	,	1	,	1	,	1	,	1	,	1	,	1	,	1	,	1	,	1	,	1	,	1	,	1	,	1	,	1	,	1	,	1	,	1	,	1	,	1	,	1	,	1	,	1	,	1	,	1	,	1	,	1	,	1	,	1	,	1	,	1	,	1	,	1	,	1	,	1	,	1	,	1	,	1	,	1	,	1	,	1	,	1	,	1	,	1	,	1	,	1	,	1	,	1	,	1	,	1	,	1	,	1	,	1	,	1	,	1	,	1	,	1	,	1	,	1	,	1	,	1	,	1	,	1	,	1	,	1	,	1	,	1	,	1	,	1	,	1	,	1	,	1	,	1	,	1	,	1	,	1	,	1	,	1	,	1	,	1	,	1	,	1	,	1	,	1	,	1	,	1	,	1	,	1	,	1	,	1	,	1	,	1	,	1	,	1	,	1	,	1	,	1	,	1	,	1	,	1	,	1	,	1	,	1	,	1	,	1	,	1	,	1	,	1	,	1	,	1	,	1	,	1	,	1	,	1	,	1	,	1	,	1	,	1	,	1	,	1	,	1	,	1	,	1	,	1	,	1	,	1	,	1	,	1	,	1	,	1	,	1	,	1	,	1	,	1	,	1	,	1	,	1	,	1	,	1	,	1	,	1	,	1	,	1	,	1	,	1	,	1	,	1	,	1	,	1	,	1	,	1	,	1	,	1	,	1	,	1	,	1	,	1	,	1	,	1	,	1	,	1	,	1	,	1	,	1	,	1	,	1	,	1	,	1	,	1	,	1	,	1	,	1	,	1	,	1	,	1	,	1	,	1	,	1	,	1	,	1	,	1	,	1	,	1	,	1	,	1	,	1	,	1	,	1	,	1	,	1	,	1	,	1	,	1	,	1	,	1	,	1	,	1	,	1	,	1	,	1	,	1	,	1	,	1	,	1	,	1	,	1	,	1	,	1	,	1	,	1	,	1	,	1	,	1	,	1	,	1	,	1	,	1	,	1	,	1	,	1	,	1	,	1	,	1	,	1	,	1	,	1	,	1	,	1	,	1	,	1	,	1	,	1	,	2	,	2	,	1	,	1	,	1	,	1	,	1	,	1	,	1	,	1	,	1	,	1	,	1	,	1	,	1	,	1	,	1	,	1	,	1	,	1	,	1	,	1	,	1	,	1	,	1	,	1	,	1	,	1	,	1	,	1	,	1	,	1	,	1	,	1	,	1	,	1	,	1	,	1	,	1	,	1	,	1	,	1	,	1	,	1	,	1	,	1	,	1	,	1	,	1	,	1	,	1	,	1	,	1	,	1	,	1	,	1	,	1	,	1	,	1	,	1	,	1	,	1	,	1	,	1	,	1	,	1	,	1	,	1	,	1	,	1	,	1	,	1	,	1	,	1	,	1	,	1	,	1	,	1	,	1	,	1	,	1	,	1	,	1	,	1	,	1	,	1	,	1	,	1	,	1	,	1	,	1	,	1	,	1	,	1	,	1	,	1	,	1	,	9	,	1	,	1	,	1	,	1	,	1	,	1	,	1	,	1	,	1	,	1	,	1	,	1	,	1	,	1	,	1	,	1	,	1	,	1	,	1	,	1	,	1	,	1	,	1	,	1	,	1	,	1	,	1	,	1	,	1	,	1	,	1	,	1	,	1	,	1	,	1	,	1	,	1	,	1	,	1	,	1	,	1	,	1	,	1	,	1	,	1	,	1	,	1	,	1	,	1	,	1	,	1
BottomLevels	,	1	,	1	,	1	,	1	,	1	,	1	,	1	,	1	,	1	,	1	,	1	,	1	,	1	,	1	,	1	,	1	,	1	,	1	,	1	,	1	,	1	,	1	,	1	,	1	,	1	,	1	,	1	,	1	,	1	,	1	,	1	,	1	,	1	,	1	,	1	,	1	,	1	,	1	,	1	,	1	,	1	,	1	,	1	,	1	,	1	,	1	,	1	,	1	,	1	,	1	,	1	,	1	,	1	,	1	,	1	,	1	,	1	,	1	,	1	,	1	,	1	,	1	,	1	,	1	,	1	,	1	,	1	,	1	,	1	,	1	,	1	,	1	,	1	,	1	,	1	,	1	,	1	,	1	,	1	,	1	,	1	,	1	,	1	,	1	,	1	,	1	,	1	,	1	,	1	,	1	,	1	,	1	,	1	,	1	,	1	,	1	,	1	,	1	,	1	,	1	,	1	,	1	,	1	,	1	,	1	,	1	,	1	,	1	,	1	,	1	,	1	,	1	,	1	,	1	,	1	,	1	,	1	,	1	,	1	,	1	,	1	,	1	,	1	,	1	,	1	,	1	,	1	,	1	,	1	,	1	,	1	,	1	,	1	,	1	,	1	,	1	,	1	,	1	,	1	,	1	,	1	,	1	,	1	,	1	,	1	,	1	,	1	,	1	,	1	,	1	,	1	,	1	,	1	,	1	,	1	,	1	,	1	,	1	,	1	,	1	,	1	,	1	,	1	,	1	,	1	,	1	,	1	,	1	,	1	,	1	,	1	,	1	,	1	,	1	,	1	,	1	,	1	,	1	,	1	,	1	,	1	,	1	,	1	,	1	,	1	,	1	,	1	,	1	,	1	,	1	,	1	,	1	,	1	,	1	,	1	,	1	,	1	,	1	,	1	,	1	,	1	,	1	,	1	,	1	,	1	,	1	,	1	,	1	,	1	,	1	,	1	,	1	,	1	,	1	,	1	,	1	,	1	,	1	,	1	,	1	,	1	,	1	,	1	,	1	,	1	,	1	,	1	,	1	,	1	,	1	,	1	,	1	,	1	,	1	,	1	,	1	,	1	,	1	,	1	,	1	,	1	,	1	,	1	,	1	,	1	,	1	,	1	,	1	,	1	,	1	,	1	,	1	,	1	,	1	,	1	,	1	,	1	,	1	,	1	,	1	,	1	,	1	,	1	,	1	,	1	,	1	,	1	,	1	,	1	,	1	,	1	,	1	,	1	,	1	,	1	,	1	,	1	,	1	,	1	,	1	,	1	,	1	,	1	,	1	,	1	,	1	,	1	,	1	,	1	,	1	,	1	,	1	,	1	,	1	,	1	,	1	,	1	,	1	,	1	,	1	,	1	,	1	,	1	,	1	,	1	,	1	,	1	,	1	,	1	,	1	,	1	,	1	,	1	,	1	,	1	,	1	,	1	,	1	,	1	,	1	,	1	,	1	,	1	,	1	,	1	,	1	,	1	,	1	,	1	,	1	,	1	,	1	,	1	,	1	,	1	,	1	,	1	,	1	,	1	,	1	,	1	,	1	,	1	,	1	,	1	,	1	,	1	,	1	,	1	,	1	,	1	,	1	,	1	,	1	,	1	,	1	,	1	,	1	,	1	,	1	,	1	,	1	,	1	,	1	,	1	,	1	,	1	,	1	,	1	,	1	,	1	,	1	,	1	,	1	,	1	,	1	,	1	,	1	,	1	,	1	,	1	,	1	,	1	,	1	,	1	,	1	,	1	,	1	,	1	,	1	,	1	,	1	,	1	,	1	,	1	,	1	,	1	,	1	,	1	,	1	,	1	,	1	,	1	,	1	,	1	,	1	,	1	,	1	,	1	,	1	,	1	,	1	,	1	,	1	,	1	,	1	,	1	,	1	,	1	,	1	,	1	,	1	,	1	,	1	,	1	,	1	,	1	,	1	,	1	,	1	,	1	,	1	,	1	,	1	,	1	,	1	,	1	,	1	,	1	,	1	,	1	,	1	,	1	,	1	,	1	,	1	,	1	,	1	,	1	,	1	,	1	,	1	,	1	,	1	,	1	,	1	,	1	,	1	,	1	,	1	,	1	,	1	,	1	,	1	,	1	,	1	,	1	,	1	,	1	,	1	,	1	,	1	,	1	,	1	,	1	,	1	,	1	,	1	,	1	,	1	,	1	,	1	,	1	,	1	,	1	,	1	,	1	,	1	,	1	,	1	,	1	,	1	,	1	,	1	,	1	,	1	,	1	,	1	,	1	,	1	,	1	,	1	,	1	,	1	,	1	,	1	,	1	,	1	,	1	,	1	,	1	,	1	,	1	,	1	,	1	,	1	,	1	,	1	,	1	,	1	,	1	,	1	,	1	,	1	,	1	,	1	,	1	,	1	,	1	,	1	,	1	,	1	,	1	,	1	,	1	,	1	,	1	,	1	,	1	,	1	,	1	,	1	,	1	,	1	,	1	,	1	,	1	,	1	,	1	,	1	,	1	,	1	,	1	,	1	,	1	,	1	,	1	,	1	,	1	,	1	,	1	,	1	,	1	,	1	,	1	,	1	,	1	,	1	,	1	,	1	,	1	,	1	,	1	,	1	,	1	,	1	,	1	,	1	,	1	,	1	,	1	,	1	,	1	,	1	,	1	,	1	,	1	,	1	,	1	,	1	,	1	,	1	,	1	,	1	,	1	,	1	,	1	,	1	,	1	,	1	,	1	,	1	,	1	,	1	,	1	,	1	,	1	,	1	,	1	,	1	,	1	,	1	,	1	,	1	,	1	,	1	,	1	,	1	,	1	,	1	,	1	,	1	,	1	,	1	,	1	,	1	,	1	,	1	,	1	,	1	,	1	,	1	,	1	,	1	,	1	,	1	,	1	,	1	,	1	,	1	,	1	,	1	,	1	,	1	,	1	,	1	,	1	,	1	,	1	,	1	,	1	,	1	,	1	,	1	,	1	,	1	,	1	,	1	,	1	,	1	,	1	,	1	,	1	,	1	,	1	,	1	,	1	,	1	,	1	,	1	,	1	,	1	,	1	,	1	,	1	,	1	,	1	,	1	,	1	,	1	,	1	,	1	,	1	,	1	,	1	,	1	,	1	,	1	,	1	,	1	,	1	,	1	,	1	,	1	,	1	,	1	,	1	,	1	,	1	,	1	,	1	,	1	,	1	,	1	,	1	,	1	,	1	,	1	,	1
TopLevelSize	,	64	,	64	,	64	,	64	,	64	,	64	,	64	,	64	,	64	,	64	,	64	,	64	,	64	,	64	,	64	,	64	,	64	,	64	,	64	,	64	,	64	,	64	,	64	,	64	,	64	,	64	,	64	,	64	,	64	,	64	,	64	,	64	,	64	,	64	,	64	,	64	,	64	,	64	,	64	,	64	,	64	,	64	,	64	,	64	,	64	,	64	,	64	,	64	,	64	,	64	,	64	,	64	,	64	,	64	,	64	,	64	,	64	,	64	,	64	,	64	,	64	,	64	,	64	,	64	,	64	,	64	,	64	,	64	,	64	,	64	,	64	,	64	,	64	,	64	,	64	,	64	,	64	,	64	,	64	,	64	,	64	,	64	,	64	,	64	,	64	,	64	,	64	,	64	,	64	,	64	,	64	,	64	,	64	,	64	,	64	,	64	,	64	,	64	,	64	,	64	,	64	,	64	,	64	,	64	,	64	,	64	,	64	,	64	,	64	,	64	,	64	,	64	,	64	,	64	,	64	,	64	,	64	,	64	,	64	,	64	,	64	,	64	,	64	,	64	,	64	,	64	,	64	,	64	,	64	,	64	,	64	,	64	,	64	,	64	,	64	,	64	,	64	,	64	,	64	,	64	,	64	,	64	,	64	,	64	,	64	,	64	,	64	,	64	,	64	,	64	,	64	,	64	,	64	,	64	,	64	,	64	,	64	,	64	,	64	,	64	,	64	,	64	,	64	,	64	,	64	,	64	,	64	,	64	,	64	,	64	,	64	,	64	,	64	,	64	,	64	,	64	,	64	,	64	,	64	,	64	,	64	,	64	,	64	,	64	,	64	,	64	,	64	,	64	,	64	,	64	,	64	,	64	,	64	,	64	,	64	,	64	,	64	,	64	,	64	,	64	,	64	,	64	,	64	,	64	,	64	,	64	,	64	,	64	,	64	,	64	,	64	,	64	,	64	,	64	,	64	,	64	,	64	,	64	,	64	,	64	,	64	,	64	,	64	,	64	,	64	,	64	,	64	,	64	,	64	,	64	,	64	,	64	,	64	,	64	,	64	,	64	,	64	,	64	,	64	,	64	,	64	,	64	,	64	,	64	,	64	,	64	,	64	,	64	,	64	,	64	,	64	,	64	,	64	,	64	,	64	,	64	,	64	,	64	,	64	,	64	,	64	,	64	,	64	,	64	,	64	,	64	,	64	,	64	,	64	,	64	,	64	,	64	,	64	,	64	,	64	,	64	,	64	,	64	,	64	,	64	,	64	,	64	,	64	,	64	,	64	,	64	,	64	,	64	,	64	,	64	,	64	,	64	,	64	,	64	,	64	,	64	,	64	,	64	,	64	,	64	,	64	,	64	,	64	,	64	,	64	,	64	,	64	,	64	,	64	,	64	,	64	,	64	,	64	,	64	,	64	,	64	,	64	,	64	,	64	,	64	,	64	,	64	,	64	,	64	,	64	,	64	,	64	,	64	,	64	,	64	,	64	,	64	,	64	,	64	,	64	,	64	,	64	,	64	,	64	,	64	,	64	,	64	,	64	,	64	,	64	,	64	,	64	,	64	,	64	,	64	,	64	,	64	,	64	,	64	,	64	,	64	,	64	,	64	,	64	,	64	,	64	,	64	,	64	,	64	,	64	,	64	,	64	,	64	,	64	,	64	,	64	,	64	,	64	,	64	,	64	,	64	,	64	,	64	,	64	,	64	,	64	,	64	,	64	,	64	,	64	,	64	,	64	,	64	,	64	,	64	,	64	,	64	,	64	,	64	,	64	,	64	,	64	,	64	,	64	,	64	,	64	,	64	,	64	,	64	,	64	,	64	,	64	,	64	,	64	,	64	,	64	,	64	,	64	,	64	,	64	,	64	,	64	,	64	,	64	,	64	,	64	,	64	,	64	,	64	,	64	,	64	,	64	,	64	,	64	,	64	,	64	,	64	,	64	,	64	,	64	,	64	,	64	,	64	,	64	,	64	,	64	,	64	,	64	,	64	,	64	,	64	,	64	,	64	,	64	,	64	,	64	,	64	,	64	,	64	,	64	,	64	,	64	,	64	,	64	,	64	,	64	,	64	,	64	,	64	,	64	,	64	,	64	,	64	,	64	,	64	,	64	,	64	,	64	,	64	,	64	,	64	,	64	,	64	,	64	,	64	,	64	,	64	,	64	,	64	,	64	,	64	,	64	,	64	,	64	,	64	,	64	,	64	,	64	,	64	,	64	,	64	,	64	,	64	,	64	,	64	,	64	,	64	,	64	,	64	,	64	,	64	,	64	,	64	,	64	,	64	,	64	,	64	,	64	,	64	,	64	,	64	,	64	,	64	,	64	,	64	,	64	,	64	,	64	,	64	,	64	,	64	,	64	,	64	,	64	,	64	,	64	,	64	,	64	,	64	,	64	,	64	,	64	,	64	,	64	,	64	,	64	,	64	,	64	,	64	,	64	,	64	,	64	,	64	,	64	,	64	,	64	,	64	,	64	,	64	,	64	,	64	,	64	,	64	,	64	,	64	,	64	,	64	,	64	,	64	,	64	,	64	,	64	,	64	,	64	,	64	,	64	,	64	,	64	,	64	,	64	,	64	,	64	,	64	,	64	,	64	,	64	,	64	,	64	,	64	,	64	,	64	,	64	,	64	,	64	,	64	,	64	,	64	,	64	,	64	,	64	,	64	,	64	,	64	,	64	,	64	,	64	,	64	,	64	,	64	,	64	,	64	,	64	,	64	,	64	,	64	,	64	,	64	,	64	,	64	,	64	,	64	,	64	,	64	,	64	,	64	,	64	,	64	,	64	,	64	,	64	,	64	,	64	,	64	,	64	,	64	,	64	,	64	,	64	,	64	,	64	,	64	,	64	,	64	,	64	,	64	,	64	,	64	,	64	,	64	,	64	,	64	,	64	,	64	,	64	,	64	,	64	,	64	,	64	,	64	,	64	,	64	,	64	,	64	,	64	,	64	,	64	,	64	,	64	,	64	,	64	,	64	,	64	,	64	,	64	,	64	,	64	,	64	,	64	,	64	,	64	,	64	,	64	,	64	,	64	,	64	,	64	,	64	,	64	,	64	,	64	,	64	,	64	,	64	,	64	,	64	,	64	,	64	,	64	,	64	,	64	,	64	,	64	,	64	,	64	,	64	,	64	,	64	,	64	,	64	,	64	,	64	,	64	,	64	,	64
BottomLevelsSize	,	1024	,	655744	,	209280	,	323712	,	22016	,	54528	,	66304	,	66304	,	66304	,	54528	,	54528	,	54528	,	66304	,	129792	,	129792	,	129792	,	129792	,	64512	,	64512	,	64512	,	64512	,	7808	,	7808	,	7808	,	7808	,	403200	,	5120	,	198400	,	198400	,	198400	,	198400	,	21888	,	21888	,	15232	,	15232	,	15232	,	17792	,	17792	,	17792	,	64640	,	64640	,	64640	,	64640	,	1331200	,	361472	,	361472	,	95488	,	643200	,	719232	,	37760	,	1930752	,	7047680	,	2062976	,	1860480	,	1826304	,	51968	,	12672	,	1408	,	215808	,	24504192	,	1862272	,	151424	,	92160	,	79616	,	23552	,	21888	,	18432	,	19328	,	17792	,	1142272	,	12800	,	18560	,	92160	,	36864	,	6784	,	45184	,	404096	,	325504	,	18560	,	74624	,	29568	,	72064	,	33664	,	40192	,	18560	,	18560	,	33536	,	52864	,	18432	,	39552	,	39424	,	122240	,	134656	,	193408	,	76288	,	30336	,	157312	,	286208	,	18560	,	18560	,	115584	,	206720	,	104704	,	27008	,	27008	,	27008	,	27008	,	16896	,	27008	,	139904	,	38528	,	224384	,	44544	,	18560	,	18560	,	18560	,	79744	,	54528	,	102272	,	206720	,	240128	,	18560	,	18560	,	6912	,	176640	,	168192	,	316288	,	307840	,	18560	,	18560	,	31232	,	175616	,	21888	,	16896	,	51968	,	58624	,	118144	,	176640	,	35328	,	114688	,	128000	,	109824	,	273664	,	114688	,	128000	,	109824	,	1113856	,	37760	,	76288	,	13568	,	21888	,	23552	,	130688	,	72192	,	215936	,	148992	,	18560	,	18560	,	18560	,	18560	,	18560	,	18560	,	18560	,	18560	,	14336	,	27008	,	1152	,	17024	,	13568	,	18560	,	18560	,	38656	,	29568	,	43648	,	10112	,	1920	,	768	,	5248	,	6784	,	6208	,	896	,	768	,	896	,	768	,	8576	,	69504	,	14336	,	10240	,	896	,	1152	,	768	,	768	,	896	,	6016	,	8576	,	15232	,	9344	,	18560	,	6016	,	6208	,	6016	,	9344	,	896	,	896	,	896	,	7808	,	10112	,	7808	,	7808	,	12800	,	7808	,	7808	,	7808	,	7808	,	7808	,	6016	,	6016	,	6016	,	6016	,	6016	,	6016	,	6016	,	12672	,	12672	,	8576	,	8576	,	8576	,	8576	,	10112	,	10112	,	10112	,	10112	,	10112	,	10112	,	10112	,	10112	,	10112	,	10112	,	14464	,	6016	,	27776	,	17024	,	8576	,	7680	,	7680	,	1920	,	38528	,	21120	,	18560	,	149888	,	149888	,	149888	,	149888	,	77184	,	77184	,	10112	,	896	,	896	,	10112	,	9344	,	1024	,	6016	,	6016	,	6016	,	6016	,	6208	,	6208	,	20992	,	1408	,	5120	,	896	,	1664	,	47872	,	1792	,	1792	,	1792	,	1792	,	1792	,	1792	,	1792	,	1792	,	1792	,	1792	,	1792	,	1792	,	1792	,	1792	,	1792	,	1792	,	1792	,	1792	,	1792	,	156544	,	156544	,	1152	,	6784	,	6784	,	6784	,	6784	,	6784	,	156544	,	10112	,	11136	,	10112	,	12800	,	11136	,	10112	,	5120	,	5120	,	5120	,	5120	,	32896	,	27008	,	7808	,	1792	,	1792	,	1792	,	1792	,	1792	,	1792	,	1792	,	1792	,	1792	,	1792	,	1792	,	1792	,	38656	,	29568	,	43648	,	10112	,	1920	,	768	,	5248	,	6784	,	6208	,	896	,	768	,	896	,	768	,	8576	,	69504	,	14336	,	10240	,	896	,	1152	,	768	,	768	,	896	,	6016	,	8576	,	15232	,	9344	,	18560	,	6016	,	6208	,	6016	,	9344	,	896	,	896	,	896	,	7808	,	10112	,	7808	,	7808	,	12800	,	7808	,	7808	,	7808	,	7808	,	7808	,	6016	,	6016	,	6016	,	6016	,	6016	,	6016	,	6016	,	12672	,	12672	,	8576	,	8576	,	8576	,	8576	,	10112	,	10112	,	10112	,	10112	,	10112	,	10112	,	10112	,	10112	,	10112	,	10112	,	14464	,	6016	,	27776	,	17024	,	8576	,	7680	,	7680	,	1920	,	38528	,	21120	,	18560	,	149888	,	149888	,	149888	,	149888	,	77184	,	77184	,	10112	,	896	,	896	,	10112	,	9344	,	1024	,	6016	,	6016	,	6016	,	6016	,	6208	,	6208	,	20992	,	1408	,	5120	,	896	,	1664	,	47872	,	1792	,	1792	,	1792	,	1792	,	1792	,	1792	,	1792	,	1792	,	1792	,	1792	,	1792	,	1792	,	1792	,	1792	,	1792	,	1792	,	1792	,	1792	,	1792	,	156544	,	156544	,	1152	,	6784	,	6784	,	6784	,	6784	,	6784	,	156544	,	10112	,	11136	,	10112	,	12800	,	11136	,	10112	,	5120	,	5120	,	5120	,	5120	,	32896	,	27008	,	7808	,	1792	,	1792	,	1792	,	1792	,	1792	,	1792	,	1792	,	1792	,	1792	,	1792	,	1792	,	1792	,	194944	,	110464	,	194944	,	194944	,	110464	,	194944	,	49408	,	106240	,	112128	,	169088	,	58624	,	38656	,	72832	,	449920	,	53632	,	89728	,	86272	,	72832	,	72832	,	53632	,	106240	,	58624	,	169088	,	106240	,	58624	,	169088	,	9344	,	6016	,	6016	,	6016	,	6016	,	10112	,	10112	,	10112	,	6016	,	11904	,	9344	,	9344	,	20992	,	120576	,	10112	,	10240	,	127360	,	7552	,	1024	,	25344	,	14336	,	13568	,	13568	,	13568	,	13568	,	13568	,	13568	,	13568	,	13568	,	13568	,	13568	,	13568	,	13568	,	13568	,	13568	,	13568	,	13568	,	13568	,	13568	,	13568	,	13568	,	509440	,	26112	,	10240	,	10240	,	36992	,	15232	,	85376	,	26112	,	26112	,	1920	,	42880	,	42880	,	684160	,	902400	,	115584	,	115584	,	411520	,	125568	,	29568	,	23552	,	86272	,	21120	,	19328	,	1019520	,	653056	,	587008	,	1183360	,	1545344	,	913280	,	980864	,	639872	,	1092992	,	1193344	,	1424896	,	1182464	,	1556224	,	1577856	,	1577856	,	21888	,	142336	,	73728	,	73728	,	45184	,	73728	,	21888	,	355456	,	142336	,	926592	,	6016	,	16768	,	1792	,	11008	,	1577856	,	142336	,	1044480	,	21888	,	73728	,	142336	,	388992	,	47744	,	626304	,	883072	,	142336	,	73728	,	142336	,	21888	,	73728	,	262784	,	142336	,	1577856	,	639872	,	388992	,	1577856	,	1577856	,	250240	,	356480	,	45312	,	1558656	,	52864	,	42752	,	23552	,	8576	,	8576	,	6016	,	7808	,	194944	,	194944	,	49408	,	35328	,	42880	,	42880	,	88704	,	88704	,	95488	,	79488	,	315392	,	232576	,	238592	,	500096	,	402432	,	500096	,	22784	,	14336	,	16896	,	16896	,	9344	,	94720	,	164864	,	353024	,	1985920	,	412160	,	93568	,	10112	,	252800	,	4480	,	252800	,	4480	,	252800	,	4480	,	252800	,	4480	,	82432	,	4864	,	82432	,	4864	,	82432	,	4864	,	82432	,	4864	,	15616	,	1323392	,	346496	,	3840	,	4480	,	12160	,	6656	,	59520	,	389632	,	3840	,	4480	,	12160	,	6656	,	59520	,	389632	,	82560	,	23040	,	26752	,	28416	,	93824	,	770688	,	162816	,	978688	,	526336	,	76928	,	30336	,	82688	,	216960	,	23168	,	1345024	,	88064	,	146688
Index	,	0	,	1	,	2	,	3	,	4	,	5	,	6	,	7	,	8	,	9	,	10	,	11	,	12	,	13	,	14	,	15	,	16	,	17	,	18	,	19	,	20	,	21	,	22	,	23	,	24	,	25	,	26	,	27	,	28	,	29	,	30	,	31	,	32	,	33	,	34	,	35	,	36	,	37	,	38	,	39	,	40	,	41	,	42	,	43	,	44	,	45	,	46	,	47	,	48	,	49	,	50	,	51	,	52	,	53	,	54	,	55	,	56	,	57	,	58	,	59	,	60	,	61	,	62	,	63	,	64	,	65	,	66	,	67	,	68	,	69	,	70	,	71	,	72	,	73	,	74	,	75	,	76	,	77	,	78	,	79	,	80	,	81	,	82	,	83	,	84	,	85	,	86	,	87	,	88	,	89	,	90	,	91	,	92	,	93	,	94	,	95	,	96	,	97	,	98	,	99	,	100	,	101	,	102	,	103	,	104	,	105	,	106	,	107	,	108	,	109	,	110	,	111	,	112	,	113	,	114	,	115	,	116	,	117	,	118	,	119	,	120	,	121	,	122	,	123	,	124	,	125	,	126	,	127	,	128	,	129	,	130	,	131	,	132	,	133	,	134	,	135	,	136	,	137	,	138	,	139	,	140	,	141	,	142	,	143	,	144	,	145	,	146	,	147	,	148	,	149	,	150	,	151	,	152	,	153	,	154	,	155	,	156	,	157	,	158	,	159	,	160	,	161	,	162	,	163	,	164	,	165	,	166	,	167	,	168	,	169	,	170	,	171	,	172	,	173	,	174	,	175	,	176	,	177	,	178	,	179	,	180	,	181	,	182	,	183	,	184	,	185	,	186	,	187	,	188	,	189	,	190	,	191	,	192	,	193	,	194	,	195	,	196	,	197	,	198	,	199	,	200	,	201	,	202	,	203	,	204	,	205	,	206	,	207	,	208	,	209	,	210	,	211	,	212	,	213	,	214	,	215	,	216	,	217	,	218	,	219	,	220	,	221	,	222	,	223	,	224	,	225	,	226	,	227	,	228	,	229	,	230	,	231	,	232	,	233	,	234	,	235	,	236	,	237	,	238	,	239	,	240	,	241	,	242	,	243	,	244	,	245	,	246	,	247	,	248	,	249	,	250	,	251	,	252	,	253	,	254	,	255	,	256	,	257	,	258	,	259	,	260	,	261	,	262	,	263	,	264	,	265	,	266	,	267	,	268	,	269	,	270	,	271	,	272	,	273	,	274	,	275	,	276	,	277	,	278	,	279	,	280	,	281	,	282	,	283	,	284	,	285	,	286	,	287	,	288	,	289	,	290	,	291	,	292	,	293	,	294	,	295	,	296	,	297	,	298	,	299	,	300	,	301	,	302	,	303	,	304	,	305	,	306	,	307	,	308	,	309	,	310	,	311	,	312	,	313	,	314	,	315	,	316	,	317	,	318	,	319	,	320	,	321	,	322	,	323	,	324	,	325	,	326	,	327	,	328	,	329	,	330	,	331	,	332	,	333	,	334	,	335	,	336	,	337	,	338	,	339	,	340	,	341	,	342	,	343	,	344	,	345	,	346	,	347	,	348	,	349	,	350	,	351	,	352	,	353	,	354	,	355	,	356	,	357	,	358	,	359	,	360	,	361	,	362	,	363	,	364	,	365	,	366	,	367	,	368	,	369	,	370	,	371	,	372	,	373	,	374	,	375	,	376	,	377	,	378	,	379	,	380	,	381	,	382	,	383	,	384	,	385	,	386	,	387	,	388	,	389	,	390	,	391	,	392	,	393	,	394	,	395	,	396	,	397	,	398	,	399	,	400	,	401	,	402	,	403	,	404	,	405	,	406	,	407	,	408	,	409	,	410	,	411	,	412	,	413	,	414	,	415	,	416	,	417	,	418	,	419	,	420	,	421	,	422	,	423	,	424	,	425	,	426	,	427	,	428	,	429	,	430	,	431	,	432	,	433	,	434	,	435	,	436	,	437	,	438	,	439	,	440	,	441	,	442	,	443	,	444	,	445	,	446	,	447	,	448	,	449	,	450	,	451	,	452	,	453	,	454	,	455	,	456	,	457	,	458	,	459	,	460	,	461	,	462	,	463	,	464	,	465	,	466	,	467	,	468	,	469	,	470	,	471	,	472	,	473	,	474	,	475	,	476	,	477	,	478	,	479	,	480	,	481	,	482	,	483	,	484	,	485	,	486	,	487	,	488	,	489	,	490	,	491	,	492	,	493	,	494	,	495	,	496	,	497	,	498	,	499	,	500	,	501	,	502	,	503	,	504	,	505	,	506	,	507	,	508	,	509	,	510	,	511	,	512	,	513	,	514	,	515	,	516	,	517	,	518	,	519	,	520	,	521	,	522	,	523	,	524	,	525	,	526	,	527	,	528	,	529	,	530	,	531	,	532	,	533	,	534	,	535	,	536	,	537	,	538	,	539	,	540	,	541	,	542	,	543	,	544	,	545	,	546	,	547	,	548	,	549	,	550	,	551	,	552	,	553	,	554	,	555	,	556	,	557	,	558	,	559	,	560	,	561	,	562	,	563	,	564	,	565	,	566	,	567	,	568	,	569	,	570	,	571	,	572	,	573	,	574	,	575	,	576	,	577	,	578	,	579	,	580	,	581	,	582	,	583	,	584	,	585	,	586	,	587	,	588	,	589	,	590	,	591	,	592	,	593	,	594	,	595	,	596	,	597	,	598	,	599	,	600	,	601	,	602	,	603	,	604	,	605	,	606	,	607	,	608	,	609	,	610	,	611	,	612	,	613	,	614	,	615	,	616	,	617	,	618	,	619	,	620	,	621	,	622	,	623	,	624	,	625	,	626	,	627	,	628	,	629	,	630	,	631	,	632	,	633	,	634	,	635	,	636	,	637	,	638	,	639	,	640	,	641	,	642	,	643	,	644	,	645	,	646	,	647	,	648	,	649	,	650	,	651	,	652	,	653	,	654	,	655	,	656	,	657	,	658	,	659	,	660	,	661	,	662	,	663	,	664	,	665	,	666	,	667	,	668	,	669	,	670	,	671	,	672	,	673	,	674	,	675	,	676	,	677	,	678	,	679	,	680	,	681	,	682	,	683	,	684	,	685	,	686	,	687	,	688	,	689	,	690	,	691	,	692	,	693	,	694	,	695	,	696	,	697	,	698	,	699	,	700	,	701	,	702	,	703	,	704	,	705	,	706	,	707	,	708

FpsAggregator: 
FPS	,	1	,	1	,	1	,	2	,	1	,	1	,	1	,	1	,	1	,	1	,	1	,	1	,	1	,	1	,	1	,	1	,	1	,	1	,	1	,	1	,	1	,	1	,	1	,	1	,	1	,	1	,	1	,	1	,	1	,	1	,	1	,	1	,	1	,	1	,	1	,	1	,	1	,	1	,	1	,	1	,	1	,	1	,	1	,	1	,	1	,	1	,	1	,	1	,	1	,	1	,	1	,	1	,	1	,	1	,	1	,	1	,	1	,	1	,	1	,	1	,	1	,	1	,	1	,	1	,	1	,	1	,	1	,	1	,	1	,	1	,	1	,	1	,	1	,	1	,	1	,	1	,	1	,	1	,	1	,	1	,	1	,	1	,	1	,	1	,	1	,	1	,	1	,	1	,	1	,	1	,	1	,	1	,	1	,	1	,	1	,	1	,	1	,	1	,	1	,	1	,	1	,	1	,	1	,	1	,	1	,	1	,	1	,	1	,	1	,	1	,	1	,	1	,	1	,	1	,	1	,	1	,	1	,	1	,	1	,	1	,	1	,	1	,	1	,	1	,	1	,	1	,	1	,	1	,	1	,	1	,	1	,	1	,	1	,	1	,	1	,	1	,	1	,	1	,	1	,	1	,	1	,	1	,	1	,	1	,	1	,	1	,	1	,	1	,	1	,	1	,	1	,	1	,	1	,	1	,	1	,	1	,	1	,	1	,	1	,	1	,	1	,	1	,	1	,	1	,	1	,	1	,	1	,	1	,	1	,	1	,	1	,	1	,	1	,	1	,	1	,	1	,	1	,	1	,	1	,	1	,	1	,	1	,	1	,	1	,	1	,	1	,	1	,	1	,	1	,	1	,	1	,	1	,	1	,	1	,	1	,	1	,	1	,	1	,	1	,	1	,	1	,	1	,	1	,	1	,	1	,	1	,	1	,	1	,	1	,	1	,	1	,	1	,	1	,	1	,	1	,	1	,	1	,	1	,	1	,	1	,	1	,	1	,	1	,	1	,	1	,	1	,	1	,	1	,	1	,	1	,	1	,	1	,	1	,	1	,	1	,	1	,	1	,	1	,	1	,	1	,	1	,	1	,	1	,	1	,	1	,	1	,	1	,	1	,	1	,	1	,	1	,	1	,	1	,	1	,	1	,	1	,	1	,	1	,	1	,	1	,	1	,	1	,	1	,	1	,	1	,	1	,	1	,	1	,	1	,	1	,	1	,	1	,	1	,	1	,	1	,	1	,	1	,	1	,	1	,	1	,	1	,	1	,	1	,	1	,	1	,	1	,	1	,	1	,	1	,	1	,	1	,	1	,	1	,	1	,	1	,	1	,	1	,	1	,	1	,	1	,	1	,	1	,	1	,	1	,	1	,	1	,	1	,	1	,	1	,	1	,	1	,	1	,	1	,	1	,	1	,	1	,	1	,	1	,	1	,	1	,	1	,	1	,	1	,	1	,	1	,	1	,	1	,	1	,	1	,	1	,	1	,	1	,	1	,	1	,	1	,	1	,	1	,	1	,	1	,	1	,	1	,	1	,	1	,	1	,	1	,	1	,	1	,	1	,	1	,	1	,	1	,	1	,	1	,	1	,	1	,	1	,	1	,	1	,	1	,	1	,	1	,	1	,	1	,	1	,	1	,	1	,	1	,	1	,	1	,	1	,	1	,	1	,	1	,	1	,	1	,	1	,	1	,	1	,	1	,	1	,	1	,	1	,	1	,	1	,	1	,	1	,	1	,	1	,	1	,	1	,	1	,	1	,	1	,	1	,	1	,	1	,	1	,	1	,	1	,	1	,	1	,	1	,	1	,	1	,	1	,	1	,	1	,	1	,	1	,	1	,	1	,	1	,	1	,	1	,	1	,	1	,	1	,	1	,	1	,	1	,	1	,	1	,	1	,	1	,	1	,	1	,	1	,	1	,	1	,	1	,	1	,	1	,	1	,	1	,	1	,	1	,	1	,	1	,	1	,	1	,	1	,	1	,	1	,	1	,	1	,	1	,	1	,	1	,	1	,	1	,	1	,	1	,	1	,	1	,	1	,	1	,	1	,	1	,	1	,	1	,	1	,	1	,	1	,	1	,	1	,	1	,	1	,	1	,	1	,	1	,	1	,	1	,	1	,	1	,	1	,	1	,	1	,	1	,	1	,	1	,	1	,	1	,	1	,	1	,	1	,	1	,	1	,	1	,	1	,	1	,	1	,	1	,	1	,	1	,	1	,	1	,	1	,	1	,	1	,	1	,	1	,	1	,	1	,	1	,	1	,	1	,	1	,	1	,	1	,	1	,	1	,	1	,	1	,	1	,	1	,	1	,	1	,	1	,	1	,	1	,	1	,	1	,	1	,	1	,	1	,	1	,	1	,	1	,	1	,	1	,	1	,	1	,	1	,	1	,	1	,	1	,	1	,	1	,	1	,	1	,	1	,	1	,	1	,	1	,	1	,	1	,	1	,	1	,	1	,	1	,	1	,	1	,	1	,	1	,	1	,	1	,	1	,	1	,	1	,	1	,	1	,	1	,	1	,	1	,	1	,	1	,	1	,	1	,	1	,	1	,	1	,	1	,	1	,	1	,	1	,	1	,	1	,	1	,	1	,	1	,	1	,	1	,	1	,	1	,	1	,	1	,	1	,	1	,	1	,	1	,	1	,	1	,	1	,	1	,	1	,	1	,	1	,	1	,	1	,	1	,	1	,	1	,	1	,	1	,	1	,	1	,	1	,	1	,	1	,	1	,	1	,	1	,	1	,	1	,	1	,	1	,	1	,	1	,	1	,	1	,	1	,	1	,	1	,	1	,	1	,	1	,	1	,	1	,	1	,	1	,	1	,	1	,	1	,	1	,	1	,	1	,	1	,	1	,	1	,	1	,	1	,	1	,	1	,	1	,	1	,	1	,	1	,	1	,	1	,	1	,	1	,	1	,	1	,	1	,	1	,	1	,	1	,	1	,	1	,	1	,	1	,	1	,	1	,	1	,	1	,	1	,	1	,	1	,	1	,	1	,	1	,	1	,	1	,	1	,	1	,	1	,	1	,	1	,	1	,	1	,	1	,	1	,	1	,	1	,	1	,	1	,	1	,	1	,	1	,	1	,	1	,	1	,	1	,	1	,	1	,	1	,	1	,	1	,	1	,	1	,	1	,	1	,	1	,	1	,	1	,	1	,	1	,	1	,	1	,	1	,	1	,	1	,	1	,	1
UPS	,	13	,	61	,	161	,	128	,	108	,	108	,	108	,	108	,	108	,	108	,	108	,	108	,	108	,	108	,	108	,	108	,	108	,	108	,	108	,	108	,	108	,	108	,	108	,	108	,	108	,	108	,	108	,	108	,	108	,	108	,	108	,	108	,	108	,	108	,	108	,	108	,	108	,	108	,	108	,	108	,	108	,	108	,	108	,	108	,	108	,	108	,	108	,	108	,	108	,	108	,	108	,	108	,	108	,	108	,	108	,	108	,	108	,	108	,	108	,	108	,	108	,	108	,	108	,	108	,	108	,	108	,	108	,	108	,	108	,	108	,	108	,	108	,	108	,	108	,	108	,	108	,	108	,	108	,	108	,	108	,	108	,	108	,	108	,	108	,	108	,	108	,	108	,	108	,	108	,	108	,	108	,	108	,	108	,	108	,	108	,	108	,	108	,	108	,	108	,	108	,	108	,	108	,	108	,	108	,	108	,	108	,	108	,	108	,	108	,	108	,	108	,	108	,	108	,	108	,	108	,	108	,	108	,	108	,	108	,	108	,	108	,	108	,	108	,	108	,	108	,	108	,	108	,	108	,	108	,	108	,	108	,	108	,	108	,	108	,	108	,	108	,	108	,	108	,	108	,	108	,	108	,	108	,	108	,	108	,	108	,	108	,	108	,	108	,	108	,	108	,	108	,	108	,	108	,	108	,	108	,	108	,	108	,	108	,	108	,	108	,	108	,	108	,	108	,	108	,	108	,	108	,	108	,	108	,	108	,	108	,	108	,	108	,	108	,	108	,	108	,	108	,	108	,	108	,	108	,	108	,	108	,	108	,	108	,	108	,	108	,	108	,	108	,	108	,	108	,	108	,	108	,	108	,	108	,	108	,	108	,	108	,	108	,	108	,	108	,	108	,	108	,	108	,	108	,	108	,	108	,	108	,	108	,	108	,	108	,	108	,	108	,	108	,	108	,	108	,	108	,	108	,	108	,	108	,	108	,	108	,	108	,	108	,	108	,	108	,	108	,	108	,	108	,	108	,	108	,	108	,	108	,	108	,	108	,	108	,	108	,	108	,	108	,	108	,	108	,	108	,	108	,	108	,	108	,	108	,	108	,	108	,	108	,	108	,	108	,	108	,	108	,	108	,	108	,	108	,	108	,	108	,	108	,	108	,	108	,	108	,	108	,	108	,	108	,	108	,	108	,	108	,	108	,	108	,	108	,	108	,	108	,	108	,	108	,	108	,	108	,	108	,	108	,	108	,	108	,	108	,	108	,	108	,	108	,	108	,	108	,	108	,	108	,	108	,	108	,	108	,	108	,	108	,	108	,	108	,	108	,	108	,	108	,	108	,	108	,	108	,	108	,	108	,	108	,	108	,	108	,	108	,	108	,	108	,	108	,	108	,	108	,	108	,	108	,	108	,	108	,	108	,	108	,	108	,	108	,	108	,	108	,	108	,	108	,	108	,	108	,	108	,	108	,	108	,	108	,	108	,	108	,	108	,	108	,	108	,	108	,	108	,	108	,	108	,	108	,	108	,	108	,	108	,	108	,	108	,	108	,	108	,	108	,	108	,	108	,	108	,	108	,	108	,	108	,	108	,	108	,	108	,	108	,	108	,	108	,	108	,	108	,	108	,	108	,	108	,	108	,	108	,	108	,	108	,	108	,	108	,	108	,	108	,	108	,	108	,	108	,	108	,	108	,	108	,	108	,	108	,	108	,	108	,	108	,	108	,	108	,	108	,	108	,	108	,	108	,	108	,	108	,	108	,	108	,	108	,	108	,	108	,	108	,	108	,	108	,	108	,	108	,	108	,	108	,	108	,	108	,	108	,	108	,	108	,	108	,	108	,	108	,	108	,	108	,	108	,	108	,	108	,	108	,	108	,	108	,	108	,	108	,	108	,	108	,	108	,	108	,	108	,	108	,	108	,	108	,	108	,	108	,	108	,	108	,	108	,	108	,	108	,	108	,	108	,	108	,	108	,	108	,	108	,	108	,	108	,	108	,	108	,	108	,	108	,	108	,	108	,	108	,	108	,	108	,	108	,	108	,	108	,	108	,	108	,	108	,	108	,	108	,	108	,	108	,	108	,	108	,	108	,	108	,	108	,	108	,	108	,	108	,	108	,	108	,	108	,	108	,	108	,	108	,	108	,	108	,	108	,	108	,	108	,	108	,	108	,	108	,	108	,	108	,	108	,	108	,	108	,	108	,	108	,	108	,	108	,	108	,	108	,	108	,	108	,	108	,	108	,	108	,	108	,	108	,	108	,	108	,	108	,	108	,	108	,	108	,	108	,	108	,	108	,	108	,	108	,	108	,	108	,	108	,	108	,	108	,	108	,	108	,	108	,	108	,	108	,	108	,	108	,	108	,	108	,	108	,	108	,	108	,	108	,	108	,	108	,	108	,	108	,	108	,	108	,	108	,	108	,	108	,	108	,	108	,	108	,	108	,	108	,	108	,	108	,	108	,	108	,	108	,	108	,	108	,	108	,	108	,	108	,	108	,	108	,	108	,	108	,	108	,	108	,	108	,	108	,	108	,	108	,	108	,	108	,	108	,	108	,	108	,	108	,	108	,	108	,	108	,	108	,	108	,	108	,	108	,	108	,	108	,	108	,	108	,	108	,	108	,	108	,	108	,	108	,	108	,	108	,	108	,	108	,	108	,	108	,	108	,	108	,	108	,	108	,	108	,	108	,	108	,	108	,	108	,	108	,	108	,	108	,	108	,	108	,	108	,	108	,	108	,	108	,	108	,	108	,	108	,	108	,	108	,	108	,	108	,	108	,	108	,	108	,	108	,	108	,	108	,	108	,	108	,	108	,	108	,	108	,	108	,	108	,	108	,	108	,	108	,	108	,	108	,	108	,	108	,	108	,	108	,	108	,	108	,	108	,	108	,	108	,	108	,	108	,	108	,	108	,	108	,	108	,	108	,	108	,	108	,	108	,	108	,	108	,	108	,	108	,	108	,	108	,	108	,	108	,	108	,	108	,	108	,	108	,	108	,	108	,	108	,	108	,	108	,	108	,	108	,	108	,	108	,	108	,	108	,	108	,	108	,	108	,	108	,	108	,	108	,	108	,	108	,	108	,	108	,	108	,	108	,	108	,	108	,	108	,	108	,	108	,	108	,	108	,	108	,	108	,	108	,	108	,	108	,	108	,	108	,	108	,	108	,	108	,	108	,	108	,	108	,	108	,	108	,	108
FrameTime	,	1238.02	,	2680.98	,	1772.79	,	1079.42	,	3819.72	,	3819.72	,	3819.72	,	3819.72	,	3819.72	,	3819.72	,	3819.72	,	3819.72	,	3819.72	,	3819.72	,	3819.72	,	3819.72	,	3819.72	,	3819.72	,	3819.72	,	3819.72	,	3819.72	,	3819.72	,	3819.72	,	3819.72	,	3819.72	,	3819.72	,	3819.72	,	3819.72	,	3819.72	,	3819.72	,	3819.72	,	3819.72	,	3819.72	,	3819.72	,	3819.72	,	3819.72	,	3819.72	,	3819.72	,	3819.72	,	3819.72	,	3819.72	,	3819.72	,	3819.72	,	3819.72	,	3819.72	,	3819.72	,	3819.72	,	3819.72	,	3819.72	,	3819.72	,	3819.72	,	3819.72	,	3819.72	,	3819.72	,	3819.72	,	3819.72	,	3819.72	,	3819.72	,	3819.72	,	3819.72	,	3819.72	,	3819.72	,	3819.72	,	3819.72	,	3819.72	,	3819.72	,	3819.72	,	3819.72	,	3819.72	,	3819.72	,	3819.72	,	3819.72	,	3819.72	,	3819.72	,	3819.72	,	3819.72	,	3819.72	,	3819.72	,	3819.72	,	3819.72	,	3819.72	,	3819.72	,	3819.72	,	3819.72	,	3819.72	,	3819.72	,	3819.72	,	3819.72	,	3819.72	,	3819.72	,	3819.72	,	3819.72	,	3819.72	,	3819.72	,	3819.72	,	3819.72	,	3819.72	,	3819.72	,	3819.72	,	3819.72	,	3819.72	,	3819.72	,	3819.72	,	3819.72	,	3819.72	,	3819.72	,	3819.72	,	3819.72	,	3819.72	,	3819.72	,	3819.72	,	3819.72	,	3819.72	,	3819.72	,	3819.72	,	3819.72	,	3819.72	,	3819.72	,	3819.72	,	3819.72	,	3819.72	,	3819.72	,	3819.72	,	3819.72	,	3819.72	,	3819.72	,	3819.72	,	3819.72	,	3819.72	,	3819.72	,	3819.72	,	3819.72	,	3819.72	,	3819.72	,	3819.72	,	3819.72	,	3819.72	,	3819.72	,	3819.72	,	3819.72	,	3819.72	,	3819.72	,	3819.72	,	3819.72	,	3819.72	,	3819.72	,	3819.72	,	3819.72	,	3819.72	,	3819.72	,	3819.72	,	3819.72	,	3819.72	,	3819.72	,	3819.72	,	3819.72	,	3819.72	,	3819.72	,	3819.72	,	3819.72	,	3819.72	,	3819.72	,	3819.72	,	3819.72	,	3819.72	,	3819.72	,	3819.72	,	3819.72	,	3819.72	,	3819.72	,	3819.72	,	3819.72	,	3819.72	,	3819.72	,	3819.72	,	3819.72	,	3819.72	,	3819.72	,	3819.72	,	3819.72	,	3819.72	,	3819.72	,	3819.72	,	3819.72	,	3819.72	,	3819.72	,	3819.72	,	3819.72	,	3819.72	,	3819.72	,	3819.72	,	3819.72	,	3819.72	,	3819.72	,	3819.72	,	3819.72	,	3819.72	,	3819.72	,	3819.72	,	3819.72	,	3819.72	,	3819.72	,	3819.72	,	3819.72	,	3819.72	,	3819.72	,	3819.72	,	3819.72	,	3819.72	,	3819.72	,	3819.72	,	3819.72	,	3819.72	,	3819.72	,	3819.72	,	3819.72	,	3819.72	,	3819.72	,	3819.72	,	3819.72	,	3819.72	,	3819.72	,	3819.72	,	3819.72	,	3819.72	,	3819.72	,	3819.72	,	3819.72	,	3819.72	,	3819.72	,	3819.72	,	3819.72	,	3819.72	,	3819.72	,	3819.72	,	3819.72	,	3819.72	,	3819.72	,	3819.72	,	3819.72	,	3819.72	,	3819.72	,	3819.72	,	3819.72	,	3819.72	,	3819.72	,	3819.72	,	3819.72	,	3819.72	,	3819.72	,	3819.72	,	3819.72	,	3819.72	,	3819.72	,	3819.72	,	3819.72	,	3819.72	,	3819.72	,	3819.72	,	3819.72	,	3819.72	,	3819.72	,	3819.72	,	3819.72	,	3819.72	,	3819.72	,	3819.72	,	3819.72	,	3819.72	,	3819.72	,	3819.72	,	3819.72	,	3819.72	,	3819.72	,	3819.72	,	3819.72	,	3819.72	,	3819.72	,	3819.72	,	3819.72	,	3819.72	,	3819.72	,	3819.72	,	3819.72	,	3819.72	,	3819.72	,	3819.72	,	3819.72	,	3819.72	,	3819.72	,	3819.72	,	3819.72	,	3819.72	,	3819.72	,	3819.72	,	3819.72	,	3819.72	,	3819.72	,	3819.72	,	3819.72	,	3819.72	,	3819.72	,	3819.72	,	3819.72	,	3819.72	,	3819.72	,	3819.72	,	3819.72	,	3819.72	,	3819.72	,	3819.72	,	3819.72	,	3819.72	,	3819.72	,	3819.72	,	3819.72	,	3819.72	,	3819.72	,	3819.72	,	3819.72	,	3819.72	,	3819.72	,	3819.72	,	3819.72	,	3819.72	,	3819.72	,	3819.72	,	3819.72	,	3819.72	,	3819.72	,	3819.72	,	3819.72	,	3819.72	,	3819.72	,	3819.72	,	3819.72	,	3819.72	,	3819.72	,	3819.72	,	3819.72	,	3819.72	,	3819.72	,	3819.72	,	3819.72	,	3819.72	,	3819.72	,	3819.72	,	3819.72	,	3819.72	,	3819.72	,	3819.72	,	3819.72	,	3819.72	,	3819.72	,	3819.72	,	3819.72	,	3819.72	,	3819.72	,	3819.72	,	3819.72	,	3819.72	,	3819.72	,	3819.72	,	3819.72	,	3819.72	,	3819.72	,	3819.72	,	3819.72	,	3819.72	,	3819.72	,	3819.72	,	3819.72	,	3819.72	,	3819.72	,	3819.72	,	3819.72	,	3819.72	,	3819.72	,	3819.72	,	3819.72	,	3819.72	,	3819.72	,	3819.72	,	3819.72	,	3819.72	,	3819.72	,	3819.72	,	3819.72	,	3819.72	,	3819.72	,	3819.72	,	3819.72	,	3819.72	,	3819.72	,	3819.72	,	3819.72	,	3819.72	,	3819.72	,	3819.72	,	3819.72	,	3819.72	,	3819.72	,	3819.72	,	3819.72	,	3819.72	,	3819.72	,	3819.72	,	3819.72	,	3819.72	,	3819.72	,	3819.72	,	3819.72	,	3819.72	,	3819.72	,	3819.72	,	3819.72	,	3819.72	,	3819.72	,	3819.72	,	3819.72	,	3819.72	,	3819.72	,	3819.72	,	3819.72	,	3819.72	,	3819.72	,	3819.72	,	3819.72	,	3819.72	,	3819.72	,	3819.72	,	3819.72	,	3819.72	,	3819.72	,	3819.72	,	3819.72	,	3819.72	,	3819.72	,	3819.72	,	3819.72	,	3819.72	,	3819.72	,	3819.72	,	3819.72	,	3819.72	,	3819.72	,	3819.72	,	3819.72	,	3819.72	,	3819.72	,	3819.72	,	3819.72	,	3819.72	,	3819.72	,	3819.72	,	3819.72	,	3819.72	,	3819.72	,	3819.72	,	3819.72	,	3819.72	,	3819.72	,	3819.72	,	3819.72	,	3819.72	,	3819.72	,	3819.72	,	3819.72	,	3819.72	,	3819.72	,	3819.72	,	3819.72	,	3819.72	,	3819.72	,	3819.72	,	3819.72	,	3819.72	,	3819.72	,	3819.72	,	3819.72	,	3819.72	,	3819.72	,	3819.72	,	3819.72	,	3819.72	,	3819.72	,	3819.72	,	3819.72	,	3819.72	,	3819.72	,	3819.72	,	3819.72	,	3819.72	,	3819.72	,	3819.72	,	3819.72	,	3819.72	,	3819.72	,	3819.72	,	3819.72	,	3819.72	,	3819.72	,	3819.72	,	3819.72	,	3819.72	,	3819.72	,	3819.72	,	3819.72	,	3819.72	,	3819.72	,	3819.72	,	3819.72	,	3819.72	,	3819.72	,	3819.72	,	3819.72	,	3819.72	,	3819.72	,	3819.72	,	3819.72	,	3819.72	,	3819.72	,	3819.72	,	3819.72	,	3819.72	,	3819.72	,	3819.72	,	3819.72	,	3819.72	,	3819.72	,	3819.72	,	3819.72	,	3819.72	,	3819.72	,	3819.72	,	3819.72	,	3819.72	,	3819.72	,	3819.72	,	3819.72	,	3819.72	,	3819.72	,	3819.72	,	3819.72	,	3819.72	,	3819.72	,	3819.72	,	3819.72	,	3819.72	,	3819.72	,	3819.72	,	3819.72	,	3819.72	,	3819.72	,	3819.72	,	3819.72	,	3819.72	,	3819.72	,	3819.72	,	3819.72	,	3819.72	,	3819.72	,	3819.72	,	3819.72	,	3819.72	,	3819.72	,	3819.72	,	3819.72	,	3819.72	,	3819.72	,	3819.72	,	3819.72	,	3819.72	,	3819.72	,	3819.72	,	3819.72	,	3819.72	,	3819.72	,	3819.72	,	3819.72	,	3819.72	,	3819.72	,	3819.72	,	3819.72	,	3819.72	,	3819.72	,	3819.72	,	3819.72	,	3819.72	,	3819.72	,	3819.72	,	3819.72	,	3819.72	,	3819.72	,	3819.72	,	3819.72	,	3819.72	,	3819.72	,	3819.72	,	3819.72	,	3819.72	,	3819.72	,	3819.72	,	3819.72	,	3819.72	,	3819.72	,	3819.72	,	3819.72	,	3819.72	,	3819.72	,	3819.72	,	3819.72	,	3819.72	,	3819.72	,	3819.72	,	3819.72	,	3819.72	,	3819.72	,	3819.72	,	3819.72	,	3819.72	,	3819.72	,	3819.72	,	3819.72	,	3819.72	,	3819.72	,	3819.72	,	3819.72	,	3819.72	,	3819.72	,	3819.72	,	3819.72	,	3819.72	,	3819.72	,	3819.72	,	3819.72	,	3819.72	,	3819.72	,	3819.72	,	3819.72	,	3819.72	,	3819.72	,	3819.72	,	3819.72	,	3819.72	,	3819.72	,	3819.72	,	3819.72	,	3819.72	,	3819.72	,	3819.72	,	3819.72	,	3819.72	,	3819.72	,	3819.72	,	3819.72	,	3819.72	,	3819.72	,	3819.72	,	3819.72	,	3819.72	,	3819.72	,	3819.72	,	3819.72	,	3819.72	,	3819.72	,	3819.72	,	3819.72	,	3819.72	,	3819.72	,	3819.72	,	3819.72	,	3819.72	,	3819.72	,	3819.72	,	3819.72	,	3819.72	,	3819.72	,	3819.72	,	3819.72	,	3819.72	,	3819.72	,	3819.72	,	3819.72	,	3819.72	,	3819.72	,	3819.72	,	3819.72	,	3819.72	,	3819.72	,	3819.72	,	3819.72	,	3819.72	,	3819.72	,	3819.72	,	3819.72	,	3819.72	,	3819.72	,	3819.72	,	3819.72	,	3819.72	,	3819.72	,	3819.72	,	3819.72	,	3819.72	,	3819.72	,	3819.72	,	3819.72	,	3819.72	,	3819.72	,	3819.72	,	3819.72	,	3819.72	,	3819.72
GigaRays/s	,	0	,	0	,	0	,	0	,	0	,	0	,	0	,	0	,	0	,	0	,	0	,	0	,	0	,	0	,	0	,	0	,	0	,	0	,	0	,	0	,	0	,	0	,	0	,	0	,	0	,	0	,	0	,	0	,	0	,	0	,	0	,	0	,	0	,	0	,	0	,	0	,	0	,	0	,	0	,	0	,	0	,	0	,	0	,	0	,	0	,	0	,	0	,	0	,	0	,	0	,	0	,	0	,	0	,	0	,	0	,	0	,	0	,	0	,	0	,	0	,	0	,	0	,	0	,	0	,	0	,	0	,	0	,	0	,	0	,	0	,	0	,	0	,	0	,	0	,	0	,	0	,	0	,	0	,	0	,	0	,	0	,	0	,	0	,	0	,	0	,	0	,	0	,	0	,	0	,	0	,	0	,	0	,	0	,	0	,	0	,	0	,	0	,	0	,	0	,	0	,	0	,	0	,	0	,	0	,	0	,	0	,	0	,	0	,	0	,	0	,	0	,	0	,	0	,	0	,	0	,	0	,	0	,	0	,	0	,	0	,	0	,	0	,	0	,	0	,	0	,	0	,	0	,	0	,	0	,	0	,	0	,	0	,	0	,	0	,	0	,	0	,	0	,	0	,	0	,	0	,	0	,	0	,	0	,	0	,	0	,	0	,	0	,	0	,	0	,	0	,	0	,	0	,	0	,	0	,	0	,	0	,	0	,	0	,	0	,	0	,	0	,	0	,	0	,	0	,	0	,	0	,	0	,	0	,	0	,	0	,	0	,	0	,	0	,	0	,	0	,	0	,	0	,	0	,	0	,	0	,	0	,	0	,	0	,	0	,	0	,	0	,	0	,	0	,	0	,	0	,	0	,	0	,	0	,	0	,	0	,	0	,	0	,	0	,	0	,	0	,	0	,	0	,	0	,	0	,	0	,	0	,	0	,	0	,	0	,	0	,	0	,	0	,	0	,	0	,	0	,	0	,	0	,	0	,	0	,	0	,	0	,	0	,	0	,	0	,	0	,	0	,	0	,	0	,	0	,	0	,	0	,	0	,	0	,	0	,	0	,	0	,	0	,	0	,	0	,	0	,	0	,	0	,	0	,	0	,	0	,	0	,	0	,	0	,	0	,	0	,	0	,	0	,	0	,	0	,	0	,	0	,	0	,	0	,	0	,	0	,	0	,	0	,	0	,	0	,	0	,	0	,	0	,	0	,	0	,	0	,	0	,	0	,	0	,	0	,	0	,	0	,	0	,	0	,	0	,	0	,	0	,	0	,	0	,	0	,	0	,	0	,	0	,	0	,	0	,	0	,	0	,	0	,	0	,	0	,	0	,	0	,	0	,	0	,	0	,	0	,	0	,	0	,	0	,	0	,	0	,	0	,	0	,	0	,	0	,	0	,	0	,	0	,	0	,	0	,	0	,	0	,	0	,	0	,	0	,	0	,	0	,	0	,	0	,	0	,	0	,	0	,	0	,	0	,	0	,	0	,	0	,	0	,	0	,	0	,	0	,	0	,	0	,	0	,	0	,	0	,	0	,	0	,	0	,	0	,	0	,	0	,	0	,	0	,	0	,	0	,	0	,	0	,	0	,	0	,	0	,	0	,	0	,	0	,	0	,	0	,	0	,	0	,	0	,	0	,	0	,	0	,	0	,	0	,	0	,	0	,	0	,	0	,	0	,	0	,	0	,	0	,	0	,	0	,	0	,	0	,	0	,	0	,	0	,	0	,	0	,	0	,	0	,	0	,	0	,	0	,	0	,	0	,	0	,	0	,	0	,	0	,	0	,	0	,	0	,	0	,	0	,	0	,	0	,	0	,	0	,	0	,	0	,	0	,	0	,	0	,	0	,	0	,	0	,	0	,	0	,	0	,	0	,	0	,	0	,	0	,	0	,	0	,	0	,	0	,	0	,	0	,	0	,	0	,	0	,	0	,	0	,	0	,	0	,	0	,	0	,	0	,	0	,	0	,	0	,	0	,	0	,	0	,	0	,	0	,	0	,	0	,	0	,	0	,	0	,	0	,	0	,	0	,	0	,	0	,	0	,	0	,	0	,	0	,	0	,	0	,	0	,	0	,	0	,	0	,	0	,	0	,	0	,	0	,	0	,	0	,	0	,	0	,	0	,	0	,	0	,	0	,	0	,	0	,	0	,	0	,	0	,	0	,	0	,	0	,	0	,	0	,	0	,	0	,	0	,	0	,	0	,	0	,	0	,	0	,	0	,	0	,	0	,	0	,	0	,	0	,	0	,	0	,	0	,	0	,	0	,	0	,	0	,	0	,	0	,	0	,	0	,	0	,	0	,	0	,	0	,	0	,	0	,	0	,	0	,	0	,	0	,	0	,	0	,	0	,	0	,	0	,	0	,	0	,	0	,	0	,	0	,	0	,	0	,	0	,	0	,	0	,	0	,	0	,	0	,	0	,	0	,	0	,	0	,	0	,	0	,	0	,	0	,	0	,	0	,	0	,	0	,	0	,	0	,	0	,	0	,	0	,	0	,	0	,	0	,	0	,	0	,	0	,	0	,	0	,	0	,	0	,	0	,	0	,	0	,	0	,	0	,	0	,	0	,	0	,	0	,	0	,	0	,	0	,	0	,	0	,	0	,	0	,	0	,	0	,	0	,	0	,	0	,	0	,	0	,	0	,	0	,	0	,	0	,	0	,	0	,	0	,	0	,	0	,	0	,	0	,	0	,	0	,	0	,	0	,	0	,	0	,	0	,	0	,	0	,	0	,	0	,	0	,	0	,	0	,	0	,	0	,	0	,	0	,	0	,	0	,	0	,	0	,	0	,	0	,	0	,	0	,	0	,	0	,	0	,	0	,	0	,	0	,	0	,	0	,	0	,	0	,	0	,	0	,	0	,	0	,	0	,	0	,	0	,	0	,	0	,	0	,	0	,	0	,	0	,	0	,	0	,	0	,	0	,	0	,	0	,	0	,	0	,	0	,	0	,	0	,	0	,	0	,	0	,	0	,	0	,	0	,	0	,	0	,	0	,	0	,	0	,	0	,	0	,	0	,	0	,	0	,	0	,	0	,	0	,	0	,	0	,	0	,	0	,	0	,	0	,	0	,	0	,	0	,	0	,	0	,	0	,	0	,	0	,	0	,	0	,	0	,	0	,	0	,	0	,	0	,	0	,	0	,	0	,	0	,	0	,	0	,	0	,	0	,	0	,	0	,	0	,	0	,	0	,	0
Index	,	0	,	1	,	2	,	3	,	4	,	5	,	6	,	7	,	8	,	9	,	10	,	11	,	12	,	13	,	14	,	15	,	16	,	17	,	18	,	19	,	20	,	21	,	22	,	23	,	24	,	25	,	26	,	27	,	28	,	29	,	30	,	31	,	32	,	33	,	34	,	35	,	36	,	37	,	38	,	39	,	40	,	41	,	42	,	43	,	44	,	45	,	46	,	47	,	48	,	49	,	50	,	51	,	52	,	53	,	54	,	55	,	56	,	57	,	58	,	59	,	60	,	61	,	62	,	63	,	64	,	65	,	66	,	67	,	68	,	69	,	70	,	71	,	72	,	73	,	74	,	75	,	76	,	77	,	78	,	79	,	80	,	81	,	82	,	83	,	84	,	85	,	86	,	87	,	88	,	89	,	90	,	91	,	92	,	93	,	94	,	95	,	96	,	97	,	98	,	99	,	100	,	101	,	102	,	103	,	104	,	105	,	106	,	107	,	108	,	109	,	110	,	111	,	112	,	113	,	114	,	115	,	116	,	117	,	118	,	119	,	120	,	121	,	122	,	123	,	124	,	125	,	126	,	127	,	128	,	129	,	130	,	131	,	132	,	133	,	134	,	135	,	136	,	137	,	138	,	139	,	140	,	141	,	142	,	143	,	144	,	145	,	146	,	147	,	148	,	149	,	150	,	151	,	152	,	153	,	154	,	155	,	156	,	157	,	158	,	159	,	160	,	161	,	162	,	163	,	164	,	165	,	166	,	167	,	168	,	169	,	170	,	171	,	172	,	173	,	174	,	175	,	176	,	177	,	178	,	179	,	180	,	181	,	182	,	183	,	184	,	185	,	186	,	187	,	188	,	189	,	190	,	191	,	192	,	193	,	194	,	195	,	196	,	197	,	198	,	199	,	200	,	201	,	202	,	203	,	204	,	205	,	206	,	207	,	208	,	209	,	210	,	211	,	212	,	213	,	214	,	215	,	216	,	217	,	218	,	219	,	220	,	221	,	222	,	223	,	224	,	225	,	226	,	227	,	228	,	229	,	230	,	231	,	232	,	233	,	234	,	235	,	236	,	237	,	238	,	239	,	240	,	241	,	242	,	243	,	244	,	245	,	246	,	247	,	248	,	249	,	250	,	251	,	252	,	253	,	254	,	255	,	256	,	257	,	258	,	259	,	260	,	261	,	262	,	263	,	264	,	265	,	266	,	267	,	268	,	269	,	270	,	271	,	272	,	273	,	274	,	275	,	276	,	277	,	278	,	279	,	280	,	281	,	282	,	283	,	284	,	285	,	286	,	287	,	288	,	289	,	290	,	291	,	292	,	293	,	294	,	295	,	296	,	297	,	298	,	299	,	300	,	301	,	302	,	303	,	304	,	305	,	306	,	307	,	308	,	309	,	310	,	311	,	312	,	313	,	314	,	315	,	316	,	317	,	318	,	319	,	320	,	321	,	322	,	323	,	324	,	325	,	326	,	327	,	328	,	329	,	330	,	331	,	332	,	333	,	334	,	335	,	336	,	337	,	338	,	339	,	340	,	341	,	342	,	343	,	344	,	345	,	346	,	347	,	348	,	349	,	350	,	351	,	352	,	353	,	354	,	355	,	356	,	357	,	358	,	359	,	360	,	361	,	362	,	363	,	364	,	365	,	366	,	367	,	368	,	369	,	370	,	371	,	372	,	373	,	374	,	375	,	376	,	377	,	378	,	379	,	380	,	381	,	382	,	383	,	384	,	385	,	386	,	387	,	388	,	389	,	390	,	391	,	392	,	393	,	394	,	395	,	396	,	397	,	398	,	399	,	400	,	401	,	402	,	403	,	404	,	405	,	406	,	407	,	408	,	409	,	410	,	411	,	412	,	413	,	414	,	415	,	416	,	417	,	418	,	419	,	420	,	421	,	422	,	423	,	424	,	425	,	426	,	427	,	428	,	429	,	430	,	431	,	432	,	433	,	434	,	435	,	436	,	437	,	438	,	439	,	440	,	441	,	442	,	443	,	444	,	445	,	446	,	447	,	448	,	449	,	450	,	451	,	452	,	453	,	454	,	455	,	456	,	457	,	458	,	459	,	460	,	461	,	462	,	463	,	464	,	465	,	466	,	467	,	468	,	469	,	470	,	471	,	472	,	473	,	474	,	475	,	476	,	477	,	478	,	479	,	480	,	481	,	482	,	483	,	484	,	485	,	486	,	487	,	488	,	489	,	490	,	491	,	492	,	493	,	494	,	495	,	496	,	497	,	498	,	499	,	500	,	501	,	502	,	503	,	504	,	505	,	506	,	507	,	508	,	509	,	510	,	511	,	512	,	513	,	514	,	515	,	516	,	517	,	518	,	519	,	520	,	521	,	522	,	523	,	524	,	525	,	526	,	527	,	528	,	529	,	530	,	531	,	532	,	533	,	534	,	535	,	536	,	537	,	538	,	539	,	540	,	541	,	542	,	543	,	544	,	545	,	546	,	547	,	548	,	549	,	550	,	551	,	552	,	553	,	554	,	555	,	556	,	557	,	558	,	559	,	560	,	561	,	562	,	563	,	564	,	565	,	566	,	567	,	568	,	569	,	570	,	571	,	572	,	573	,	574	,	575	,	576	,	577	,	578	,	579	,	580	,	581	,	582	,	583	,	584	,	585	,	586	,	587	,	588	,	589	,	590	,	591	,	592	,	593	,	594	,	595	,	596	,	597	,	598	,	599	,	600	,	601	,	602	,	603	,	604	,	605	,	606	,	607	,	608	,	609	,	610	,	611	,	612	,	613	,	614	,	615	,	616	,	617	,	618	,	619	,	620	,	621	,	622	,	623	,	624	,	625	,	626	,	627	,	628	,	629	,	630	,	631	,	632	,	633	,	634	,	635	,	636	,	637	,	638	,	639	,	640	,	641	,	642	,	643	,	644	,	645	,	646	,	647	,	648	,	649	,	650	,	651	,	652	,	653	,	654	,	655	,	656	,	657	,	658	,	659	,	660	,	661	,	662	,	663	,	664	,	665	,	666	,	667	,	668	,	669	,	670	,	671	,	672	,	673	,	674	,	675	,	676	,	677	,	678	,	679	,	680	,	681	,	682	,	683	,	684	,	685	,	686	,	687	,	688	,	689	,	690	,	691	,	692	,	693	,	694	,	695	,	696	,	697	,	698	,	699	,	700	,	701	,	702	,	703	,	704	,	705	,	706	,	707	,	708	,	709	,	710	,	711	,	712	,	713


AccelerationStructure: 
Ray tracing acceleration structure building statistics: 
	Bottom Level Acceleration Structure: 
		Maximum [B]: 30815360
		Minimum [B]: 2688
		Currently Allocated [B]: 139551264
		Currently Created [num]: 658
		Current Average [B]: 212083
		Maximum Triangles [num]: 439546
		Minimum Triangles [num]: 2
		Total Triangles [num]: 1951229
		Maximum Meshes [num]: 9
		Minimum Meshes [num]: 1
		Total Meshes [num]: 692
	Top Level Acceleration Structure: 
		Maximum [B]: 42112
		Minimum [B]: 42112
		Currently Allocated [B]: 42112
		Total Allocated [B]: 42112
		Total Created [num]: 1
		Average Allocated [B]: 42112
		Maximum Instances [num]: 658
		Minimum Instances [num]: 658
		Total Instances [num]: 658
	Scratch Buffer: 
		Maximum [B]: 9230720
		Minimum [B]: 9230720
		Currently Allocated [B]: 9230720
		Total Allocated [B]: 9230720
		Total Created [num]: 1
		Average Allocated [B]: 9230720
ProfilingStack: 
[PROF] Profiling statistics: 
	Scopes entered : 5040
	Scopes exited : 5038
	Overhead per scope [ticks] : 164.5
	Threads entered : 3
	Threads exited : 0
	============================
		         Sum[Mt]   Parent[%]  Samples[num]       Avg[Mt]   Last/Curr[Mt]        Self[Mt]     Self[%] 	 Name

	main:

		   14580.832 Mt   100.000 %         1 x    14580.832 Mt    14580.832 Mt    12011.137 Mt    82.376 % 	 /

		      65.157 Mt     0.447 %         1 x       65.157 Mt        0.000 Mt        0.750 Mt     1.151 % 	 ./Initialize

		       1.626 Mt     2.495 %         1 x        1.626 Mt        0.000 Mt        1.626 Mt   100.000 % 	 ../ShadowMapRLInitialization

		       6.804 Mt    10.442 %         1 x        6.804 Mt        0.000 Mt        6.804 Mt   100.000 % 	 ../AmbientOcclusionRLInitialization

		       4.315 Mt     6.623 %         1 x        4.315 Mt        0.000 Mt        4.315 Mt   100.000 % 	 ../RasterResolveRLInitialization

		       5.138 Mt     7.886 %         1 x        5.138 Mt        0.000 Mt        5.138 Mt   100.000 % 	 ../DeferredRLInitialization

		      42.667 Mt    65.483 %         1 x       42.667 Mt        0.000 Mt        2.231 Mt     5.228 % 	 ../RayTracingRLInitialization

		      40.436 Mt    94.772 %         1 x       40.436 Mt        0.000 Mt       40.436 Mt   100.000 % 	 .../PipelineBuild

		       3.857 Mt     5.920 %         1 x        3.857 Mt        0.000 Mt        3.857 Mt   100.000 % 	 ../ResolveRLInitialization

		    2504.598 Mt    17.177 %         9 x      278.289 Mt     2437.238 Mt        3.332 Mt     0.133 % 	 ./Run

		    2490.407 Mt    99.433 %       706 x        3.527 Mt     2437.243 Mt      745.867 Mt    29.950 % 	 ../Update

		     878.971 Mt    35.294 %         1 x      878.971 Mt      878.971 Mt       95.656 Mt    10.883 % 	 .../ScenePrep

		      28.678 Mt     3.263 %         1 x       28.678 Mt       28.678 Mt       28.678 Mt   100.000 % 	 ..../SceneDesc-CreateScene

		       3.131 Mt     0.356 %         1 x        3.131 Mt        3.131 Mt        0.001 Mt     0.029 % 	 ..../ShadowMapRLPrep

		       3.131 Mt    99.971 %         1 x        3.131 Mt        3.131 Mt        1.101 Mt    35.157 % 	 ...../PrepareForRendering

		       2.030 Mt    64.843 %         1 x        2.030 Mt        2.030 Mt        2.030 Mt   100.000 % 	 ....../PrepareDrawBundle

		      19.954 Mt     2.270 %         1 x       19.954 Mt       19.954 Mt        0.002 Mt     0.009 % 	 ..../DeferredRLPrep

		      19.952 Mt    99.991 %         1 x       19.952 Mt       19.952 Mt        9.293 Mt    46.577 % 	 ...../PrepareForRendering

		       0.342 Mt     1.712 %         1 x        0.342 Mt        0.342 Mt        0.342 Mt   100.000 % 	 ....../PrepareMaterials

		       0.892 Mt     4.472 %         1 x        0.892 Mt        0.892 Mt        0.892 Mt   100.000 % 	 ....../BuildMaterialCache

		       9.425 Mt    47.239 %         1 x        9.425 Mt        9.425 Mt        9.425 Mt   100.000 % 	 ....../PrepareDrawBundle

		     496.526 Mt    56.489 %         1 x      496.526 Mt      496.526 Mt        3.262 Mt     0.657 % 	 ..../RayTracingRLPrep

		      16.585 Mt     3.340 %         1 x       16.585 Mt       16.585 Mt       16.585 Mt   100.000 % 	 ...../PrepareAccelerationStructures

		       0.340 Mt     0.068 %         1 x        0.340 Mt        0.340 Mt        0.340 Mt   100.000 % 	 ...../PrepareCache

		     263.921 Mt    53.153 %         1 x      263.921 Mt      263.921 Mt      263.921 Mt   100.000 % 	 ...../PipelineBuild

		       2.764 Mt     0.557 %         1 x        2.764 Mt        2.764 Mt        2.764 Mt   100.000 % 	 ...../BuildCache

		     206.998 Mt    41.689 %         1 x      206.998 Mt      206.998 Mt        0.001 Mt     0.001 % 	 ...../BuildAccelerationStructures

		     206.997 Mt    99.999 %         1 x      206.997 Mt      206.997 Mt        2.100 Mt     1.015 % 	 ....../AccelerationStructureBuild

		     204.385 Mt    98.738 %         1 x      204.385 Mt      204.385 Mt      204.385 Mt   100.000 % 	 ......./BuildBottomLevelAS

		       0.512 Mt     0.247 %         1 x        0.512 Mt        0.512 Mt        0.512 Mt   100.000 % 	 ......./BuildTopLevelAS

		       2.657 Mt     0.535 %         1 x        2.657 Mt        2.657 Mt        2.657 Mt   100.000 % 	 ...../BuildShaderTables

		     235.026 Mt    26.739 %         1 x      235.026 Mt      235.026 Mt      235.026 Mt   100.000 % 	 ..../GpuSidePrep

		     865.569 Mt    34.756 %       710 x        1.219 Mt        1.022 Mt      288.340 Mt    33.312 % 	 .../AccelerationStructureBuild

		     256.609 Mt    29.646 %       710 x        0.361 Mt        0.271 Mt      256.609 Mt   100.000 % 	 ..../BuildBottomLevelAS

		     320.620 Mt    37.042 %       710 x        0.452 Mt        0.413 Mt      320.620 Mt   100.000 % 	 ..../BuildTopLevelAS

		      10.866 Mt     0.434 %         8 x        1.358 Mt        0.501 Mt        0.006 Mt     0.052 % 	 ../Render

		      10.860 Mt    99.948 %         8 x        1.358 Mt        0.500 Mt        1.726 Mt    15.888 % 	 .../Render

		       9.135 Mt    84.112 %         8 x        1.142 Mt        0.392 Mt        9.135 Mt   100.000 % 	 ..../Present

	WindowThread:

		   14579.287 Mt   100.000 %         1 x    14579.287 Mt    14579.287 Mt    14579.287 Mt   100.000 % 	 /

	GpuThread:

		     391.485 Mt   100.000 %       717 x        0.546 Mt        0.481 Mt       14.465 Mt     3.695 % 	 /

		       0.011 Mt     0.003 %         8 x        0.001 Mt        0.002 Mt        0.011 Mt   100.000 % 	 ./Present

		     219.465 Mt    56.059 %         1 x      219.465 Mt      219.465 Mt        0.007 Mt     0.003 % 	 ./ScenePrep

		     219.457 Mt    99.997 %         1 x      219.457 Mt      219.457 Mt        0.002 Mt     0.001 % 	 ../AccelerationStructureBuild

		     219.176 Mt    99.872 %         1 x      219.176 Mt      219.176 Mt      219.176 Mt   100.000 % 	 .../BuildBottomLevelASGpu

		       0.279 Mt     0.127 %         1 x        0.279 Mt        0.279 Mt        0.279 Mt   100.000 % 	 .../BuildTopLevelASGpu

		     157.545 Mt    40.243 %       710 x        0.222 Mt        0.481 Mt        0.726 Mt     0.461 % 	 ./AccelerationStructureBuild

		     117.114 Mt    74.337 %       710 x        0.165 Mt        0.424 Mt      117.114 Mt   100.000 % 	 ../BuildBottomLevelASGpu

		      39.705 Mt    25.202 %       710 x        0.056 Mt        0.056 Mt       39.705 Mt   100.000 % 	 ../BuildTopLevelASGpu


	============================


