Configuration: 
Command line parameters  = 
Build type               = Release
Device name              = NVIDIA GeForce RTX 2080 Ti
Device memory MB         = 11049
Ray Tracing backend      = Hardware
Window width             = 1024
Window height            = 768
Window title             = Direct3D App
Back-buffer count        = 3
Fill Triangles           = enabled
Triangles Font Clock-Wise= disabled
Fast Build AS            = disabled
Target FPS               = 0
Target UPS               = 60
Tearing                  = enabled
VSync                    = disabled
GUI rendering            = disabled
Debug layer              = disabled
GPU validation           = disabled
GPU profiling            = enabled
Render mode              = Ray Tracing
Loaded scene file        = 
Using testing scene      = disabled
BLAS duplication         = disabled
Rays per pixel           = 8
Quality preset           = Medium
Rasterization Quality    : 
  AO                     = enabled
  AO kernel size         = 4
  Shadows                = enabled
  Shadow map resolution  = 4096
  Shadow PCF kernel size = 4
  Reflections            = disabled
Ray Tracing Quality      : 
  AO                     = enabled
  AO rays                = 4
  AO kernel size         = 4
  Shadows                = enabled
  Shadow rays            = 4
  Shadow kernel size     = 4
  Reflections            = disabled

ProfilingAggregator: 
Render	,	0.8953	,	0.4275	,	0.4275	,	0.4275	,	0.4275	,	0.4275	,	0.4275	,	0.4275	,	0.4275	,	0.4275	,	0.4275	,	0.4275	,	0.4275	,	0.4275	,	0.4275	,	0.4275	,	0.4275	,	0.4275	,	0.4275	,	0.4275	,	0.4275	,	0.4275	,	0.4275	,	0.4275	,	0.4275	,	0.4275	,	0.4275	,	0.4275	,	0.4275	,	0.4275	,	0.4275	,	0.4275	,	0.4275	,	0.4275	,	0.4275	,	0.4275	,	0.4275	,	0.4275	,	0.4275	,	0.4275	,	0.4275	,	0.4275	,	0.4275	,	0.4275	,	0.4275	,	0.4275	,	0.4275	,	0.4275	,	0.4275	,	0.4275	,	0.4275	,	0.4275	,	0.4275	,	0.4275	,	0.4275	,	0.4275	,	0.4275	,	0.4275	,	0.4275	,	0.4275	,	0.4275	,	0.4275	,	0.4275	,	0.4275	,	0.4275	,	0.4275	,	0.4275	,	0.4275	,	0.4275	,	0.4275	,	0.4275	,	0.4275	,	0.4275	,	0.4275	,	0.4275	,	0.4275	,	0.4275	,	0.4275	,	0.4275	,	0.4275	,	0.4275	,	0.4275	,	0.4275	,	0.4275	,	0.4275	,	0.4275	,	0.4275	,	0.4275	,	0.4275	,	0.4275	,	0.4275	,	0.4275	,	0.4275	,	0.4275	,	0.4275	,	0.4275	,	0.4275	,	0.4275	,	0.4275	,	0.4275	,	0.4275	,	0.4275	,	0.4275	,	0.4275	,	0.4275	,	0.4275	,	0.4275	,	0.4275	,	0.4275	,	0.4275	,	0.4275	,	0.4275	,	0.4275	,	0.4275	,	0.4275	,	0.4275	,	0.4275	,	0.4275	,	0.4275	,	0.4275	,	0.4275	,	0.4275	,	0.4275	,	0.4275	,	0.4275	,	0.4275	,	0.4275	,	0.4275	,	0.4275	,	0.4275	,	0.4275	,	0.4275	,	0.4275	,	0.4275	,	0.4275	,	0.4275	,	0.4275	,	0.4275	,	0.4275	,	0.4275	,	0.4275	,	0.4275	,	0.4275	,	0.4275	,	0.4275	,	0.4275	,	0.4275	,	0.4275	,	0.4275	,	0.4275	,	0.4275	,	0.4275	,	0.4275	,	0.4275	,	0.4275	,	0.4275	,	0.4275	,	0.4275	,	0.4275	,	0.4275	,	0.4275	,	0.4275	,	0.4275	,	0.4275	,	0.4275	,	0.4275	,	0.4275	,	0.4275	,	0.4275	,	0.4275	,	0.4275	,	0.4275	,	0.4275	,	0.4275	,	0.4275	,	0.4275	,	0.4275	,	0.4275	,	0.4275	,	0.4275	,	0.4275	,	0.4275	,	0.4275	,	0.4275	,	0.4275	,	0.4275	,	0.4275	,	0.4275	,	0.4275	,	0.4275	,	0.4275	,	0.4275	,	0.4275	,	0.4275	,	0.4275	,	0.4275	,	0.4275	,	0.4275	,	0.4275	,	0.4275	,	0.4275	,	0.4275	,	0.4275	,	0.4275	,	0.4275	,	0.4275	,	0.4275	,	0.4275	,	0.4275	,	0.4275	,	0.4275	,	0.4275	,	0.4275	,	0.4275	,	0.4275	,	0.4275	,	0.4275	,	0.4275	,	0.4275	,	0.4275	,	0.4275	,	0.4275	,	0.4275	,	0.4275	,	0.4275	,	0.4275	,	0.4275	,	0.4275	,	0.4275	,	0.4275	,	0.4275	,	0.4275	,	0.4275	,	0.4275	,	0.4275	,	0.4275	,	0.4275	,	0.4275	,	0.4275	,	0.4275	,	0.4275	,	0.4275	,	0.4275	,	0.4275	,	0.4275	,	0.4275	,	0.4275	,	0.4275	,	0.4275	,	0.4275	,	0.4275	,	0.4275	,	0.4275	,	0.4275	,	0.4275	,	0.4275	,	0.4275	,	0.4275	,	0.4275
Update	,	0.0635	,	442.496	,	444.795	,	447.007	,	448.93	,	450.675	,	452.493	,	454.835	,	456.89	,	458.49	,	460.243	,	461.862	,	463.393	,	465.539	,	467.443	,	469.109	,	471.057	,	472.587	,	474.087	,	475.835	,	477.684	,	479.195	,	480.689	,	482.231	,	483.714	,	485.268	,	487.344	,	489.056	,	490.709	,	492.251	,	493.747	,	495.257	,	496.732	,	498.211	,	499.728	,	501.279	,	502.956	,	505.458	,	507.425	,	509.058	,	510.73	,	512.277	,	513.811	,	515.366	,	516.953	,	518.47	,	520.656	,	522.39	,	523.969	,	525.429	,	526.928	,	528.448	,	529.92	,	531.432	,	532.916	,	534.38	,	535.975	,	537.79	,	539.427	,	540.97	,	542.557	,	544.443	,	546.24	,	548.018	,	550.203	,	551.849	,	554.584	,	557.481	,	559.667	,	561.504	,	563.295	,	565.041	,	566.709	,	568.449	,	571.705	,	573.775	,	575.35	,	576.854	,	578.503	,	580.053	,	581.537	,	583.04	,	584.482	,	586.175	,	588.028	,	589.681	,	591.163	,	592.715	,	594.174	,	595.656	,	597.095	,	598.556	,	600.008	,	601.422	,	603.247	,	605.009	,	606.774	,	608.24	,	609.696	,	611.137	,	612.575	,	613.959	,	615.369	,	616.875	,	618.391	,	620.322	,	621.813	,	623.268	,	624.716	,	626.265	,	627.786	,	629.198	,	630.901	,	632.624	,	634.341	,	636.013	,	637.889	,	639.465	,	640.95	,	642.432	,	643.926	,	645.347	,	647.134	,	648.699	,	650.171	,	651.647	,	653.685	,	656.088	,	657.678	,	659.202	,	661.124	,	662.724	,	664.357	,	665.96	,	667.496	,	669.282	,	671.41	,	673.199	,	674.76	,	676.314	,	677.81	,	679.322	,	680.859	,	682.425	,	683.994	,	685.575	,	687.662	,	689.233	,	690.907	,	692.67	,	694.547	,	696.393	,	697.968	,	699.488	,	700.994	,	702.502	,	704.387	,	706.157	,	707.674	,	709.162	,	710.672	,	712.156	,	713.663	,	715.128	,	716.657	,	718.158	,	720.042	,	721.836	,	723.428	,	725.071	,	726.679	,	728.196	,	729.708	,	731.224	,	732.744	,	734.254	,	735.856	,	737.767	,	739.528	,	741.061	,	742.579	,	744.078	,	745.584	,	747.204	,	748.898	,	750.565	,	752.509	,	755.056	,	757.484	,	759.685	,	762.047	,	764.639	,	766.396	,	768.089	,	770.359	,	772.518	,	774.871	,	777.001	,	779.391	,	781.369	,	783.271	,	784.913	,	787.173	,	789.392	,	791.269	,	792.884	,	794.42	,	795.894	,	797.352	,	798.757	,	800.19	,	801.701	,	803.548	,	805.571	,	807.407	,	808.914	,	810.555	,	812.111	,	813.575	,	815.015	,	816.465	,	818.208	,	820.152	,	822.345	,	823.867	,	825.325	,	826.835	,	828.283	,	831.923	,	835.326	,	839.576	,	844.294	,	846.821	,	853.82	,	864.776	,	867.983	,	871.589	,	880.464	,	882.86	,	884.839	,	887.196	,	889.455	,	891.262	,	892.929	,	894.534	,	896.182	,	897.76	,	900.916	,	902.909	,	905.427	,	908.105	,	910.196	,	912.106	,	914.115	,	916.016	,	917.859	,	919.842	,	922.038	,	923.679
Index	,	0	,	1	,	2	,	3	,	4	,	5	,	6	,	7	,	8	,	9	,	10	,	11	,	12	,	13	,	14	,	15	,	16	,	17	,	18	,	19	,	20	,	21	,	22	,	23	,	24	,	25	,	26	,	27	,	28	,	29	,	30	,	31	,	32	,	33	,	34	,	35	,	36	,	37	,	38	,	39	,	40	,	41	,	42	,	43	,	44	,	45	,	46	,	47	,	48	,	49	,	50	,	51	,	52	,	53	,	54	,	55	,	56	,	57	,	58	,	59	,	60	,	61	,	62	,	63	,	64	,	65	,	66	,	67	,	68	,	69	,	70	,	71	,	72	,	73	,	74	,	75	,	76	,	77	,	78	,	79	,	80	,	81	,	82	,	83	,	84	,	85	,	86	,	87	,	88	,	89	,	90	,	91	,	92	,	93	,	94	,	95	,	96	,	97	,	98	,	99	,	100	,	101	,	102	,	103	,	104	,	105	,	106	,	107	,	108	,	109	,	110	,	111	,	112	,	113	,	114	,	115	,	116	,	117	,	118	,	119	,	120	,	121	,	122	,	123	,	124	,	125	,	126	,	127	,	128	,	129	,	130	,	131	,	132	,	133	,	134	,	135	,	136	,	137	,	138	,	139	,	140	,	141	,	142	,	143	,	144	,	145	,	146	,	147	,	148	,	149	,	150	,	151	,	152	,	153	,	154	,	155	,	156	,	157	,	158	,	159	,	160	,	161	,	162	,	163	,	164	,	165	,	166	,	167	,	168	,	169	,	170	,	171	,	172	,	173	,	174	,	175	,	176	,	177	,	178	,	179	,	180	,	181	,	182	,	183	,	184	,	185	,	186	,	187	,	188	,	189	,	190	,	191	,	192	,	193	,	194	,	195	,	196	,	197	,	198	,	199	,	200	,	201	,	202	,	203	,	204	,	205	,	206	,	207	,	208	,	209	,	210	,	211	,	212	,	213	,	214	,	215	,	216	,	217	,	218	,	219	,	220	,	221	,	222	,	223	,	224	,	225	,	226	,	227	,	228	,	229	,	230	,	231	,	232	,	233	,	234	,	235	,	236	,	237	,	238	,	239	,	240	,	241	,	242	,	243	,	244	,	245	,	246	,	247	,	248	,	249	,	250	,	251	,	252	,	253	,	254	,	255	,	256	,	257	,	258

ProfilingBuildAggregator: 
BuildBottomLevelAS	,	0.3261	,	0.2879	,	0.2703	,	0.2508	,	0.2586	,	0.2097	,	0.4545	,	0.239	,	0.2058	,	0.2298	,	0.2184	,	0.2093	,	0.3722	,	0.2636	,	0.204	,	0.2561	,	0.2011	,	0.2053	,	0.2949	,	0.2524	,	0.1969	,	0.1949	,	0.2053	,	0.1894	,	0.2109	,	0.3457	,	0.1937	,	0.2015	,	0.1971	,	0.1971	,	0.2133	,	0.1906	,	0.2123	,	0.216	,	0.2164	,	0.2529	,	0.3251	,	0.2522	,	0.2142	,	0.24	,	0.2051	,	0.2141	,	0.2301	,	0.2166	,	0.2259	,	0.2191	,	0.2187	,	0.2008	,	0.191	,	0.2024	,	0.1973	,	0.2056	,	0.2319	,	0.2059	,	0.201	,	0.2032	,	0.204	,	0.2435	,	0.2055	,	0.2161	,	0.2825	,	0.2401	,	0.235	,	0.2402	,	0.2164	,	0.3484	,	0.3762	,	0.315	,	0.2387	,	0.2311	,	0.2262	,	0.2114	,	0.2268	,	0.4021	,	0.2715	,	0.2231	,	0.2216	,	0.2102	,	0.2042	,	0.2012	,	0.2103	,	0.1929	,	0.2469	,	0.2026	,	0.2471	,	0.2067	,	0.2139	,	0.2089	,	0.2095	,	0.2014	,	0.1937	,	0.2028	,	0.182	,	0.2638	,	0.2275	,	0.2036	,	0.2033	,	0.1934	,	0.1902	,	0.2031	,	0.1946	,	0.186	,	0.1863	,	0.2145	,	0.2233	,	0.2075	,	0.2034	,	0.2059	,	0.2589	,	0.1994	,	0.1879	,	0.2052	,	0.2173	,	0.2392	,	0.2151	,	0.1924	,	0.2032	,	0.2063	,	0.1871	,	0.2083	,	0.199	,	0.2175	,	0.202	,	0.2028	,	0.2004	,	0.2972	,	0.3192	,	0.2111	,	0.2077	,	0.2554	,	0.2058	,	0.22	,	0.1967	,	0.1974	,	0.199	,	0.2645	,	0.2225	,	0.2164	,	0.2168	,	0.2031	,	0.2024	,	0.2155	,	0.2158	,	0.2521	,	0.2147	,	0.37	,	0.1972	,	0.2213	,	0.2118	,	0.2372	,	0.2314	,	0.2094	,	0.2034	,	0.2184	,	0.1978	,	0.2336	,	0.2151	,	0.2113	,	0.2012	,	0.2017	,	0.2019	,	0.1965	,	0.199	,	0.1964	,	0.1997	,	0.2424	,	0.2097	,	0.2134	,	0.224	,	0.2149	,	0.2	,	0.2088	,	0.2025	,	0.2164	,	0.2034	,	0.217	,	0.2183	,	0.2206	,	0.1991	,	0.1986	,	0.1994	,	0.2049	,	0.2215	,	0.2183	,	0.2052	,	0.2452	,	0.2994	,	0.2714	,	0.2515	,	0.3122	,	0.3003	,	0.2242	,	0.2133	,	0.3046	,	0.2879	,	0.3451	,	0.2669	,	0.2865	,	0.2436	,	0.2538	,	0.2058	,	0.315	,	0.2276	,	0.2314	,	0.2052	,	0.1956	,	0.1925	,	0.1905	,	0.1947	,	0.1935	,	0.2285	,	0.2403	,	0.2597	,	0.2028	,	0.2064	,	0.2039	,	0.2093	,	0.2053	,	0.1916	,	0.1892	,	0.2314	,	0.2299	,	0.2454	,	0.214	,	0.1971	,	0.2043	,	0.2052	,	0.2153	,	0.2285	,	1.0912	,	0.5729	,	0.2117	,	0.5204	,	0.5749	,	0.1965	,	0.6057	,	6.3275	,	0.3139	,	0.2634	,	0.2955	,	0.2542	,	0.2312	,	0.2428	,	0.2411	,	0.2324	,	0.2153	,	0.6385	,	0.2555	,	0.3174	,	0.3405	,	0.2519	,	0.2411	,	0.2414	,	0.2353	,	0.2346	,	0.2807	,	0.3087	,	0.2317
BuildBottomLevelASGpu	,	0.37872	,	0.382912	,	0.01728	,	0.0152	,	0.015392	,	0.015232	,	0.018464	,	0.018432	,	0.0152	,	0.0152	,	0.014624	,	0.0152	,	0.333952	,	0.258112	,	0.015232	,	0.018624	,	0.014624	,	0.015168	,	0.177472	,	0.281184	,	0.015392	,	0.015232	,	0.0152	,	0.015392	,	0.0152	,	0.019008	,	0.0152	,	0.015584	,	0.0152	,	0.0152	,	0.0152	,	0.0152	,	0.0152	,	0.015392	,	0.015168	,	0.0152	,	0.018432	,	0.0152	,	0.0152	,	0.0152	,	0.0152	,	0.015392	,	0.015232	,	0.0152	,	0.0152	,	0.0152	,	0.015168	,	0.0152	,	0.015392	,	0.015392	,	0.015392	,	0.0152	,	0.015168	,	0.0152	,	0.0152	,	0.015232	,	0.0152	,	0.0152	,	0.0152	,	0.015392	,	0.015168	,	0.015392	,	0.014624	,	0.0152	,	0.0152	,	0.018848	,	0.018432	,	0.0152	,	0.015392	,	0.0152	,	0.0152	,	0.015168	,	0.0152	,	0.328224	,	0.017312	,	0.015168	,	0.0152	,	0.0152	,	0.0152	,	0.0152	,	0.015168	,	0.0152	,	0.015392	,	0.018464	,	0.015168	,	0.015392	,	0.015168	,	0.015424	,	0.015392	,	0.0152	,	0.0152	,	0.0152	,	0.015168	,	0.015232	,	0.015232	,	0.018432	,	0.015232	,	0.02224	,	0.015232	,	0.015392	,	0.015168	,	0.015232	,	0.015168	,	0.01536	,	0.0152	,	0.015168	,	0.01536	,	0.015168	,	0.015552	,	0.0152	,	0.0152	,	0.015168	,	0.0152	,	0.0152	,	0.015232	,	0.015392	,	0.01536	,	0.0152	,	0.0152	,	0.0152	,	0.015168	,	0.0152	,	0.0152	,	0.0152	,	0.015584	,	0.016352	,	0.018656	,	0.0152	,	0.0152	,	0.0152	,	0.015392	,	0.015552	,	0.0152	,	0.0152	,	0.015232	,	0.018656	,	0.0152	,	0.0152	,	0.015584	,	0.0152	,	0.015584	,	0.0152	,	0.0152	,	0.015392	,	0.0152	,	0.018656	,	0.015584	,	0.0152	,	0.0152	,	0.0152	,	0.015392	,	0.015168	,	0.0152	,	0.0152	,	0.0152	,	0.0152	,	0.018464	,	0.015584	,	0.0152	,	0.0152	,	0.01536	,	0.015168	,	0.015168	,	0.0152	,	0.0152	,	0.015168	,	0.015584	,	0.015584	,	0.0152	,	0.0152	,	0.0152	,	0.015392	,	0.015168	,	0.0152	,	0.0152	,	0.015392	,	0.015232	,	0.0152	,	0.015392	,	0.0152	,	0.015392	,	0.015392	,	0.0152	,	0.014624	,	0.015584	,	0.015392	,	0.0152	,	0.018656	,	0.015392	,	0.01536	,	0.015392	,	0.0152	,	0.014592	,	0.0152	,	0.015392	,	0.015584	,	0.0152	,	0.015584	,	0.015584	,	0.0152	,	0.015168	,	0.018816	,	0.018272	,	0.0152	,	0.0152	,	0.0152	,	0.015168	,	0.0152	,	0.0152	,	0.0152	,	0.014624	,	0.01984	,	0.015808	,	0.018464	,	0.0152	,	0.0152	,	0.0152	,	0.015232	,	0.015392	,	0.0152	,	0.0152	,	0.015584	,	0.0152	,	0.015424	,	0.0152	,	0.0152	,	0.0152	,	0.014624	,	0.0152	,	0.015168	,	0.015392	,	0.014624	,	0.015232	,	0.018656	,	0.015392	,	0.015392	,	0.0152	,	0.0152	,	0.0152	,	0.018656	,	0.018464	,	0.0152	,	0.0152	,	0.015232	,	0.0152	,	0.015424	,	0.929952	,	0.424256	,	0.492768	,	0.363808	,	0.331264	,	0.310592	,	0.391296	,	0.408448	,	0.32528	,	0.34528	,	0.191392	,	0.136256
BuildTopLevelAS	,	0.3995	,	0.429	,	0.5257	,	0.4414	,	0.4242	,	0.4249	,	0.5038	,	0.4633	,	0.3697	,	0.4448	,	0.3881	,	0.3769	,	0.3696	,	0.3704	,	0.4883	,	0.3738	,	0.3646	,	0.3612	,	0.3705	,	0.4051	,	0.3677	,	0.3649	,	0.3768	,	0.3602	,	0.3705	,	0.4722	,	0.3773	,	0.3738	,	0.3983	,	0.3696	,	0.3726	,	0.3635	,	0.3545	,	0.3707	,	0.3703	,	0.3774	,	0.4714	,	0.4297	,	0.3507	,	0.3993	,	0.376	,	0.3691	,	0.3926	,	0.3785	,	0.3808	,	0.4116	,	0.3719	,	0.3714	,	0.3559	,	0.3636	,	0.3807	,	0.3507	,	0.3728	,	0.3531	,	0.3636	,	0.4705	,	0.3406	,	0.4739	,	0.3997	,	0.3811	,	0.4791	,	0.4492	,	0.4201	,	0.8199	,	0.4	,	0.6934	,	0.6937	,	0.5188	,	0.3854	,	0.4012	,	0.4097	,	0.3795	,	0.4535	,	0.6971	,	0.4854	,	0.3601	,	0.3296	,	0.4071	,	0.3572	,	0.3661	,	0.3913	,	0.3522	,	0.4602	,	0.3288	,	0.3562	,	0.3568	,	0.3706	,	0.3615	,	0.3584	,	0.3487	,	0.3469	,	0.3511	,	0.345	,	0.4057	,	0.4008	,	0.3602	,	0.3569	,	0.3522	,	0.3529	,	0.3469	,	0.3239	,	0.338	,	0.4332	,	0.3661	,	0.5094	,	0.3628	,	0.3485	,	0.3481	,	0.4011	,	0.357	,	0.3415	,	0.3862	,	0.354	,	0.3923	,	0.4086	,	0.3668	,	0.3618	,	0.3559	,	0.3587	,	0.3647	,	0.3371	,	0.3585	,	0.4125	,	0.3434	,	0.3721	,	0.5224	,	0.4317	,	0.3786	,	0.3584	,	0.6868	,	0.4007	,	0.386	,	0.3616	,	0.3646	,	0.4021	,	0.5976	,	0.3844	,	0.3824	,	0.367	,	0.3747	,	0.3689	,	0.3723	,	0.3705	,	0.3677	,	0.3825	,	0.4981	,	0.3656	,	0.3796	,	0.404	,	0.4446	,	0.4002	,	0.3423	,	0.3622	,	0.34	,	0.3657	,	0.3746	,	0.3452	,	0.352	,	0.3401	,	0.3545	,	0.3412	,	0.3368	,	0.3303	,	0.4013	,	0.3325	,	0.3977	,	0.3657	,	0.3976	,	0.4391	,	0.4107	,	0.3453	,	0.3476	,	0.3421	,	0.3505	,	0.3458	,	0.4105	,	0.364	,	0.3997	,	0.3457	,	0.3603	,	0.3424	,	0.3404	,	0.4152	,	0.3504	,	0.3963	,	0.4371	,	0.5258	,	0.5229	,	0.5135	,	0.5062	,	0.4786	,	0.3805	,	0.3703	,	0.5663	,	0.4506	,	0.6109	,	0.6365	,	0.5786	,	0.4616	,	0.4063	,	0.3894	,	0.5974	,	0.4394	,	0.3534	,	0.3694	,	0.3582	,	0.359	,	0.3618	,	0.3354	,	0.3543	,	0.3777	,	0.3782	,	0.4942	,	0.3894	,	0.36	,	0.4182	,	0.3233	,	0.3585	,	0.3402	,	0.3777	,	0.384	,	0.3938	,	0.4282	,	0.349	,	0.3517	,	0.3589	,	0.333	,	0.6708	,	0.3708	,	0.8065	,	1.0554	,	0.7406	,	0.6648	,	0.4571	,	1.5543	,	0.5858	,	0.4762	,	0.5104	,	0.4528	,	0.547	,	0.5111	,	0.4537	,	0.4172	,	0.3775	,	0.3623	,	0.365	,	0.3567	,	0.3663	,	0.3786	,	0.4925	,	0.3875	,	0.3919	,	0.386	,	0.3338	,	0.3708	,	0.4618	,	0.3666	,	0.3697
BuildTopLevelASGpu	,	0.077984	,	0.077952	,	0.07984	,	0.079104	,	0.079104	,	0.079232	,	0.089632	,	0.08848	,	0.079104	,	0.078912	,	0.079104	,	0.07984	,	0.078912	,	0.078144	,	0.08016	,	0.089024	,	0.078912	,	0.079296	,	0.079488	,	0.077568	,	0.079296	,	0.07888	,	0.079072	,	0.080064	,	0.078688	,	0.088864	,	0.079584	,	0.079072	,	0.079872	,	0.08	,	0.079072	,	0.079808	,	0.079456	,	0.079104	,	0.079296	,	0.079072	,	0.088512	,	0.079264	,	0.079072	,	0.079488	,	0.080064	,	0.07984	,	0.078912	,	0.079072	,	0.078912	,	0.080256	,	0.079296	,	0.079264	,	0.078528	,	0.078688	,	0.078528	,	0.079296	,	0.078496	,	0.07872	,	0.078496	,	0.078816	,	0.07872	,	0.07872	,	0.078528	,	0.079136	,	0.07872	,	0.079104	,	0.07872	,	0.07872	,	0.078688	,	0.089984	,	0.08944	,	0.07984	,	0.078912	,	0.079648	,	0.080032	,	0.079872	,	0.079264	,	0.082144	,	0.07984	,	0.07968	,	0.079104	,	0.079264	,	0.079456	,	0.079264	,	0.079104	,	0.079264	,	0.078752	,	0.089408	,	0.079488	,	0.079296	,	0.079104	,	0.080032	,	0.079872	,	0.07984	,	0.080032	,	0.079648	,	0.079264	,	0.079264	,	0.078688	,	0.087904	,	0.079488	,	0.07872	,	0.079296	,	0.07888	,	0.079456	,	0.07984	,	0.07968	,	0.078688	,	0.080256	,	0.078688	,	0.079488	,	0.07872	,	0.07872	,	0.079456	,	0.078688	,	0.07872	,	0.079072	,	0.07872	,	0.079424	,	0.07968	,	0.078368	,	0.078912	,	0.078912	,	0.079456	,	0.079488	,	0.079488	,	0.07872	,	0.079488	,	0.07872	,	0.08352	,	0.089632	,	0.079072	,	0.079872	,	0.079104	,	0.079872	,	0.079104	,	0.080416	,	0.07984	,	0.078656	,	0.088864	,	0.080064	,	0.07984	,	0.079296	,	0.079104	,	0.079104	,	0.079488	,	0.07984	,	0.07872	,	0.079872	,	0.0896	,	0.079072	,	0.079104	,	0.080064	,	0.079104	,	0.079104	,	0.079872	,	0.080064	,	0.079648	,	0.078816	,	0.078688	,	0.087904	,	0.079104	,	0.079072	,	0.079872	,	0.079104	,	0.079072	,	0.079264	,	0.07888	,	0.079424	,	0.078688	,	0.079104	,	0.07872	,	0.078528	,	0.078688	,	0.078688	,	0.079072	,	0.07872	,	0.079488	,	0.07872	,	0.078784	,	0.07872	,	0.079296	,	0.079488	,	0.07872	,	0.07872	,	0.079872	,	0.07872	,	0.078688	,	0.079488	,	0.078752	,	0.079296	,	0.08848	,	0.078912	,	0.079104	,	0.079872	,	0.079104	,	0.079872	,	0.080224	,	0.080032	,	0.07888	,	0.079456	,	0.080992	,	0.079072	,	0.079104	,	0.079264	,	0.089632	,	0.088864	,	0.080256	,	0.079104	,	0.07888	,	0.079072	,	0.079072	,	0.07968	,	0.079488	,	0.07888	,	0.096768	,	0.083296	,	0.087904	,	0.079872	,	0.079296	,	0.079296	,	0.079488	,	0.079264	,	0.078912	,	0.079488	,	0.07872	,	0.079264	,	0.07888	,	0.078688	,	0.07872	,	0.078688	,	0.078688	,	0.07872	,	0.07952	,	0.07984	,	0.07872	,	0.079296	,	0.090016	,	0.079264	,	0.079072	,	0.078912	,	0.080256	,	0.079264	,	0.089248	,	0.086752	,	0.080256	,	0.079296	,	0.079712	,	0.080224	,	0.079264	,	0.086784	,	0.082496	,	0.08368	,	0.07984	,	0.084288	,	0.079488	,	0.079488	,	0.079296	,	0.080224	,	0.080256	,	0.084064	,	0.079488
Triangles	,	3625	,	3686	,	12	,	12	,	12	,	12	,	12	,	12	,	12	,	12	,	12	,	12	,	2271	,	316	,	12	,	12	,	12	,	12	,	116	,	969	,	12	,	12	,	12	,	12	,	12	,	12	,	12	,	12	,	12	,	12	,	12	,	12	,	12	,	12	,	12	,	12	,	12	,	12	,	12	,	12	,	12	,	12	,	12	,	12	,	12	,	12	,	12	,	12	,	12	,	12	,	12	,	12	,	12	,	12	,	12	,	12	,	12	,	12	,	12	,	12	,	12	,	12	,	12	,	12	,	12	,	12	,	12	,	12	,	12	,	12	,	12	,	12	,	12	,	1324	,	12	,	12	,	12	,	12	,	12	,	12	,	12	,	12	,	12	,	12	,	12	,	12	,	12	,	12	,	12	,	12	,	12	,	12	,	12	,	12	,	12	,	12	,	12	,	28	,	12	,	12	,	12	,	12	,	12	,	12	,	12	,	12	,	12	,	12	,	12	,	12	,	12	,	12	,	12	,	12	,	12	,	12	,	12	,	12	,	12	,	12	,	12	,	12	,	12	,	12	,	12	,	12	,	12	,	12	,	12	,	12	,	12	,	12	,	12	,	12	,	12	,	12	,	12	,	12	,	12	,	12	,	12	,	12	,	12	,	12	,	12	,	12	,	12	,	12	,	12	,	12	,	12	,	12	,	12	,	12	,	12	,	12	,	12	,	12	,	12	,	12	,	12	,	12	,	12	,	12	,	12	,	12	,	12	,	12	,	12	,	12	,	12	,	12	,	12	,	12	,	12	,	12	,	12	,	12	,	12	,	12	,	12	,	12	,	12	,	12	,	12	,	12	,	12	,	12	,	12	,	12	,	12	,	12	,	12	,	12	,	12	,	12	,	12	,	12	,	12	,	12	,	12	,	12	,	12	,	12	,	12	,	12	,	12	,	12	,	12	,	12	,	12	,	12	,	12	,	12	,	12	,	12	,	12	,	12	,	12	,	12	,	12	,	12	,	12	,	12	,	12	,	12	,	12	,	12	,	12	,	12	,	12	,	12	,	12	,	12	,	12	,	12	,	12	,	12	,	12	,	12	,	12	,	12	,	12	,	12	,	12	,	12	,	192472	,	638	,	1633	,	238	,	78	,	255	,	714	,	651	,	495	,	178	,	24	,	4
Meshes	,	1	,	1	,	1	,	1	,	1	,	1	,	1	,	1	,	1	,	1	,	1	,	1	,	2	,	2	,	1	,	1	,	1	,	1	,	1	,	2	,	1	,	1	,	1	,	1	,	1	,	1	,	1	,	1	,	1	,	1	,	1	,	1	,	1	,	1	,	1	,	1	,	1	,	1	,	1	,	1	,	1	,	1	,	1	,	1	,	1	,	1	,	1	,	1	,	1	,	1	,	1	,	1	,	1	,	1	,	1	,	1	,	1	,	1	,	1	,	1	,	1	,	1	,	1	,	1	,	1	,	1	,	1	,	1	,	1	,	1	,	1	,	1	,	1	,	3	,	1	,	1	,	1	,	1	,	1	,	1	,	1	,	1	,	1	,	1	,	1	,	1	,	1	,	1	,	1	,	1	,	1	,	1	,	1	,	1	,	1	,	1	,	1	,	2	,	1	,	1	,	1	,	1	,	1	,	1	,	1	,	1	,	1	,	1	,	1	,	1	,	1	,	1	,	1	,	1	,	1	,	1	,	1	,	1	,	1	,	1	,	1	,	1	,	1	,	1	,	1	,	1	,	1	,	1	,	1	,	1	,	1	,	1	,	1	,	1	,	1	,	1	,	1	,	1	,	1	,	1	,	1	,	1	,	1	,	1	,	1	,	1	,	1	,	1	,	1	,	1	,	1	,	1	,	1	,	1	,	1	,	1	,	1	,	1	,	1	,	1	,	1	,	1	,	1	,	1	,	1	,	1	,	1	,	1	,	1	,	1	,	1	,	1	,	1	,	1	,	1	,	1	,	1	,	1	,	1	,	1	,	1	,	1	,	1	,	1	,	1	,	1	,	1	,	1	,	1	,	1	,	1	,	1	,	1	,	1	,	1	,	1	,	1	,	1	,	1	,	1	,	1	,	1	,	1	,	1	,	1	,	1	,	1	,	1	,	1	,	1	,	1	,	1	,	1	,	1	,	1	,	1	,	1	,	1	,	1	,	1	,	1	,	1	,	1	,	1	,	1	,	1	,	1	,	1	,	1	,	1	,	1	,	1	,	1	,	1	,	1	,	1	,	1	,	1	,	1	,	1	,	1	,	1	,	1	,	1	,	1	,	1	,	1	,	1	,	1	,	1	,	1	,	1	,	1	,	1	,	1	,	1	,	1	,	1
BottomLevels	,	1	,	1	,	1	,	1	,	1	,	1	,	1	,	1	,	1	,	1	,	1	,	1	,	1	,	1	,	1	,	1	,	1	,	1	,	1	,	1	,	1	,	1	,	1	,	1	,	1	,	1	,	1	,	1	,	1	,	1	,	1	,	1	,	1	,	1	,	1	,	1	,	1	,	1	,	1	,	1	,	1	,	1	,	1	,	1	,	1	,	1	,	1	,	1	,	1	,	1	,	1	,	1	,	1	,	1	,	1	,	1	,	1	,	1	,	1	,	1	,	1	,	1	,	1	,	1	,	1	,	1	,	1	,	1	,	1	,	1	,	1	,	1	,	1	,	1	,	1	,	1	,	1	,	1	,	1	,	1	,	1	,	1	,	1	,	1	,	1	,	1	,	1	,	1	,	1	,	1	,	1	,	1	,	1	,	1	,	1	,	1	,	1	,	1	,	1	,	1	,	1	,	1	,	1	,	1	,	1	,	1	,	1	,	1	,	1	,	1	,	1	,	1	,	1	,	1	,	1	,	1	,	1	,	1	,	1	,	1	,	1	,	1	,	1	,	1	,	1	,	1	,	1	,	1	,	1	,	1	,	1	,	1	,	1	,	1	,	1	,	1	,	1	,	1	,	1	,	1	,	1	,	1	,	1	,	1	,	1	,	1	,	1	,	1	,	1	,	1	,	1	,	1	,	1	,	1	,	1	,	1	,	1	,	1	,	1	,	1	,	1	,	1	,	1	,	1	,	1	,	1	,	1	,	1	,	1	,	1	,	1	,	1	,	1	,	1	,	1	,	1	,	1	,	1	,	1	,	1	,	1	,	1	,	1	,	1	,	1	,	1	,	1	,	1	,	1	,	1	,	1	,	1	,	1	,	1	,	1	,	1	,	1	,	1	,	1	,	1	,	1	,	1	,	1	,	1	,	1	,	1	,	1	,	1	,	1	,	1	,	1	,	1	,	1	,	1	,	1	,	1	,	1	,	1	,	1	,	1	,	1	,	1	,	1	,	1	,	1	,	1	,	1	,	1	,	1	,	1	,	1	,	1	,	1	,	1	,	1	,	1	,	1	,	1	,	1	,	1	,	1	,	1	,	1	,	1	,	1	,	1	,	1	,	1	,	1	,	1	,	1	,	1	,	1	,	1	,	1	,	1	,	1	,	1
TopLevelSize	,	64	,	64	,	64	,	64	,	64	,	64	,	64	,	64	,	64	,	64	,	64	,	64	,	64	,	64	,	64	,	64	,	64	,	64	,	64	,	64	,	64	,	64	,	64	,	64	,	64	,	64	,	64	,	64	,	64	,	64	,	64	,	64	,	64	,	64	,	64	,	64	,	64	,	64	,	64	,	64	,	64	,	64	,	64	,	64	,	64	,	64	,	64	,	64	,	64	,	64	,	64	,	64	,	64	,	64	,	64	,	64	,	64	,	64	,	64	,	64	,	64	,	64	,	64	,	64	,	64	,	64	,	64	,	64	,	64	,	64	,	64	,	64	,	64	,	64	,	64	,	64	,	64	,	64	,	64	,	64	,	64	,	64	,	64	,	64	,	64	,	64	,	64	,	64	,	64	,	64	,	64	,	64	,	64	,	64	,	64	,	64	,	64	,	64	,	64	,	64	,	64	,	64	,	64	,	64	,	64	,	64	,	64	,	64	,	64	,	64	,	64	,	64	,	64	,	64	,	64	,	64	,	64	,	64	,	64	,	64	,	64	,	64	,	64	,	64	,	64	,	64	,	64	,	64	,	64	,	64	,	64	,	64	,	64	,	64	,	64	,	64	,	64	,	64	,	64	,	64	,	64	,	64	,	64	,	64	,	64	,	64	,	64	,	64	,	64	,	64	,	64	,	64	,	64	,	64	,	64	,	64	,	64	,	64	,	64	,	64	,	64	,	64	,	64	,	64	,	64	,	64	,	64	,	64	,	64	,	64	,	64	,	64	,	64	,	64	,	64	,	64	,	64	,	64	,	64	,	64	,	64	,	64	,	64	,	64	,	64	,	64	,	64	,	64	,	64	,	64	,	64	,	64	,	64	,	64	,	64	,	64	,	64	,	64	,	64	,	64	,	64	,	64	,	64	,	64	,	64	,	64	,	64	,	64	,	64	,	64	,	64	,	64	,	64	,	64	,	64	,	64	,	64	,	64	,	64	,	64	,	64	,	64	,	64	,	64	,	64	,	64	,	64	,	64	,	64	,	64	,	64	,	64	,	64	,	64	,	64	,	64	,	64	,	64	,	64	,	64	,	64	,	64	,	64	,	64	,	64	,	64	,	64	,	64	,	64	,	64	,	64	,	64	,	64	,	64	,	64	,	64	,	64	,	64
BottomLevelsSize	,	205056	,	208384	,	1152	,	1152	,	1152	,	1152	,	1152	,	1152	,	1152	,	1152	,	1152	,	1152	,	129792	,	20992	,	1152	,	1152	,	1152	,	1152	,	9344	,	57088	,	1152	,	1152	,	1152	,	1152	,	1152	,	1152	,	1152	,	1152	,	1152	,	1152	,	1152	,	1152	,	1152	,	1152	,	1152	,	1152	,	1152	,	1152	,	1152	,	1152	,	1152	,	1152	,	1152	,	1152	,	1152	,	1152	,	1152	,	1152	,	1152	,	1152	,	1152	,	1152	,	1152	,	1152	,	1152	,	1152	,	1152	,	1152	,	1152	,	1152	,	1152	,	1152	,	1152	,	1152	,	1152	,	1152	,	1152	,	1152	,	1152	,	1152	,	1152	,	1152	,	1152	,	77056	,	1152	,	1152	,	1152	,	1152	,	1152	,	1152	,	1152	,	1152	,	1152	,	1152	,	1152	,	1152	,	1152	,	1152	,	1152	,	1152	,	1152	,	1152	,	1152	,	1152	,	1152	,	1152	,	1152	,	1920	,	1152	,	1152	,	1152	,	1152	,	1152	,	1152	,	1152	,	1152	,	1152	,	1152	,	1152	,	1152	,	1152	,	1152	,	1152	,	1152	,	1152	,	1152	,	1152	,	1152	,	1152	,	1152	,	1152	,	1152	,	1152	,	1152	,	1152	,	1152	,	1152	,	1152	,	1152	,	1152	,	1152	,	1152	,	1152	,	1152	,	1152	,	1152	,	1152	,	1152	,	1152	,	1152	,	1152	,	1152	,	1152	,	1152	,	1152	,	1152	,	1152	,	1152	,	1152	,	1152	,	1152	,	1152	,	1152	,	1152	,	1152	,	1152	,	1152	,	1152	,	1152	,	1152	,	1152	,	1152	,	1152	,	1152	,	1152	,	1152	,	1152	,	1152	,	1152	,	1152	,	1152	,	1152	,	1152	,	1152	,	1152	,	1152	,	1152	,	1152	,	1152	,	1152	,	1152	,	1152	,	1152	,	1152	,	1152	,	1152	,	1152	,	1152	,	1152	,	1152	,	1152	,	1152	,	1152	,	1152	,	1152	,	1152	,	1152	,	1152	,	1152	,	1152	,	1152	,	1152	,	1152	,	1152	,	1152	,	1152	,	1152	,	1152	,	1152	,	1152	,	1152	,	1152	,	1152	,	1152	,	1152	,	1152	,	1152	,	1152	,	1152	,	1152	,	1152	,	1152	,	1152	,	1152	,	1152	,	1152	,	1152	,	1152	,	1152	,	1152	,	1152	,	1152	,	1152	,	1152	,	1152	,	1152	,	1152	,	1152	,	1152	,	1152	,	1152	,	1152	,	1152	,	1152	,	1152	,	1152	,	10731648	,	48768	,	119936	,	21120	,	10112	,	21376	,	54272	,	50432	,	39424	,	15872	,	5216	,	3712
Index	,	0	,	1	,	2	,	3	,	4	,	5	,	6	,	7	,	8	,	9	,	10	,	11	,	12	,	13	,	14	,	15	,	16	,	17	,	18	,	19	,	20	,	21	,	22	,	23	,	24	,	25	,	26	,	27	,	28	,	29	,	30	,	31	,	32	,	33	,	34	,	35	,	36	,	37	,	38	,	39	,	40	,	41	,	42	,	43	,	44	,	45	,	46	,	47	,	48	,	49	,	50	,	51	,	52	,	53	,	54	,	55	,	56	,	57	,	58	,	59	,	60	,	61	,	62	,	63	,	64	,	65	,	66	,	67	,	68	,	69	,	70	,	71	,	72	,	73	,	74	,	75	,	76	,	77	,	78	,	79	,	80	,	81	,	82	,	83	,	84	,	85	,	86	,	87	,	88	,	89	,	90	,	91	,	92	,	93	,	94	,	95	,	96	,	97	,	98	,	99	,	100	,	101	,	102	,	103	,	104	,	105	,	106	,	107	,	108	,	109	,	110	,	111	,	112	,	113	,	114	,	115	,	116	,	117	,	118	,	119	,	120	,	121	,	122	,	123	,	124	,	125	,	126	,	127	,	128	,	129	,	130	,	131	,	132	,	133	,	134	,	135	,	136	,	137	,	138	,	139	,	140	,	141	,	142	,	143	,	144	,	145	,	146	,	147	,	148	,	149	,	150	,	151	,	152	,	153	,	154	,	155	,	156	,	157	,	158	,	159	,	160	,	161	,	162	,	163	,	164	,	165	,	166	,	167	,	168	,	169	,	170	,	171	,	172	,	173	,	174	,	175	,	176	,	177	,	178	,	179	,	180	,	181	,	182	,	183	,	184	,	185	,	186	,	187	,	188	,	189	,	190	,	191	,	192	,	193	,	194	,	195	,	196	,	197	,	198	,	199	,	200	,	201	,	202	,	203	,	204	,	205	,	206	,	207	,	208	,	209	,	210	,	211	,	212	,	213	,	214	,	215	,	216	,	217	,	218	,	219	,	220	,	221	,	222	,	223	,	224	,	225	,	226	,	227	,	228	,	229	,	230	,	231	,	232	,	233	,	234	,	235	,	236	,	237	,	238	,	239	,	240	,	241	,	242	,	243	,	244	,	245	,	246	,	247	,	248	,	249	,	250	,	251	,	252	,	253	,	254	,	255	,	256	,	257

FpsAggregator: 
FPS	,	2	,	2	,	2	,	2	,	2	,	2	,	2	,	2	,	2	,	2	,	2	,	2	,	2	,	2	,	2	,	2	,	2	,	2	,	2	,	2	,	2	,	2	,	2	,	2	,	2	,	2	,	2	,	2	,	2	,	2	,	2	,	2	,	2	,	2	,	2	,	2	,	2	,	2	,	2	,	2	,	2	,	2	,	2	,	2	,	2	,	2	,	2	,	2	,	2	,	2	,	2	,	2	,	2	,	2	,	2	,	2	,	2	,	2	,	2	,	2	,	2	,	2	,	2	,	2	,	2	,	2	,	2	,	2	,	2	,	2	,	2	,	2	,	2	,	2	,	2	,	2	,	2	,	2	,	2	,	2	,	2	,	2	,	2	,	2	,	2	,	2	,	2	,	2	,	2	,	2	,	2	,	2	,	2	,	2	,	2	,	2	,	2	,	2	,	2	,	2	,	2	,	2	,	2	,	2	,	2	,	2	,	2	,	2	,	2	,	2	,	2	,	2	,	2	,	2	,	2	,	2	,	2	,	2	,	2	,	2	,	2	,	2	,	2	,	2	,	2	,	2	,	2	,	2	,	2	,	2	,	2	,	2	,	2	,	2	,	2	,	2	,	2	,	2	,	2	,	2	,	2	,	2	,	2	,	2	,	2	,	2	,	2	,	2	,	2	,	2	,	2	,	2	,	2	,	2	,	2	,	2	,	2	,	2	,	2	,	2	,	2	,	2	,	2	,	2	,	2	,	2	,	2	,	2	,	2	,	2	,	2	,	2	,	2	,	2	,	2	,	2	,	2	,	2	,	2	,	2	,	2	,	2	,	2	,	2	,	2	,	2	,	2	,	2	,	2	,	2	,	2	,	2	,	2	,	2	,	2	,	2	,	2	,	2	,	2	,	2	,	2	,	2	,	2	,	2	,	2	,	2	,	2	,	2	,	2	,	2	,	2	,	2	,	2	,	2	,	2	,	2	,	2	,	2	,	2	,	2	,	2	,	2	,	2	,	2	,	2	,	2	,	2	,	2	,	2	,	2	,	2	,	2	,	2	,	2	,	2	,	2	,	2	,	2	,	2	,	2	,	2	,	2	,	2	,	2	,	2	,	2	,	2	,	2	,	2	,	2	,	2	,	2	,	2	,	2	,	2	,	2	,	2	,	2	,	2
UPS	,	20	,	20	,	20	,	20	,	20	,	20	,	20	,	20	,	20	,	20	,	20	,	20	,	20	,	20	,	20	,	20	,	20	,	20	,	20	,	20	,	20	,	20	,	20	,	20	,	20	,	20	,	20	,	20	,	20	,	20	,	20	,	20	,	20	,	20	,	20	,	20	,	20	,	20	,	20	,	20	,	20	,	20	,	20	,	20	,	20	,	20	,	20	,	20	,	20	,	20	,	20	,	20	,	20	,	20	,	20	,	20	,	20	,	20	,	20	,	20	,	20	,	20	,	20	,	20	,	20	,	20	,	20	,	20	,	20	,	20	,	20	,	20	,	20	,	20	,	20	,	20	,	20	,	20	,	20	,	20	,	20	,	20	,	20	,	20	,	20	,	20	,	20	,	20	,	20	,	20	,	20	,	20	,	20	,	20	,	20	,	20	,	20	,	20	,	20	,	20	,	20	,	20	,	20	,	20	,	20	,	20	,	20	,	20	,	20	,	20	,	20	,	20	,	20	,	20	,	20	,	20	,	20	,	20	,	20	,	20	,	20	,	20	,	20	,	20	,	20	,	20	,	20	,	20	,	20	,	20	,	20	,	20	,	20	,	20	,	20	,	20	,	20	,	20	,	20	,	20	,	20	,	20	,	20	,	20	,	20	,	20	,	20	,	20	,	20	,	20	,	20	,	20	,	20	,	20	,	20	,	20	,	20	,	20	,	20	,	20	,	20	,	20	,	20	,	20	,	20	,	20	,	20	,	20	,	20	,	20	,	20	,	20	,	20	,	20	,	20	,	20	,	20	,	20	,	20	,	20	,	20	,	20	,	20	,	20	,	20	,	20	,	20	,	20	,	20	,	20	,	20	,	20	,	20	,	20	,	20	,	20	,	20	,	20	,	20	,	20	,	20	,	20	,	20	,	20	,	20	,	20	,	20	,	20	,	20	,	20	,	20	,	20	,	20	,	20	,	20	,	20	,	20	,	20	,	20	,	20	,	20	,	20	,	20	,	20	,	20	,	20	,	20	,	20	,	20	,	20	,	20	,	20	,	20	,	20	,	20	,	20	,	20	,	20	,	20	,	20	,	20	,	20	,	20	,	20	,	20	,	20	,	20	,	20	,	20	,	20	,	20	,	20	,	20	,	20	,	20	,	20	,	20	,	20	,	20
FrameTime	,	1436.61	,	1436.61	,	1436.61	,	1436.61	,	1436.61	,	1436.61	,	1436.61	,	1436.61	,	1436.61	,	1436.61	,	1436.61	,	1436.61	,	1436.61	,	1436.61	,	1436.61	,	1436.61	,	1436.61	,	1436.61	,	1436.61	,	1436.61	,	1436.61	,	1436.61	,	1436.61	,	1436.61	,	1436.61	,	1436.61	,	1436.61	,	1436.61	,	1436.61	,	1436.61	,	1436.61	,	1436.61	,	1436.61	,	1436.61	,	1436.61	,	1436.61	,	1436.61	,	1436.61	,	1436.61	,	1436.61	,	1436.61	,	1436.61	,	1436.61	,	1436.61	,	1436.61	,	1436.61	,	1436.61	,	1436.61	,	1436.61	,	1436.61	,	1436.61	,	1436.61	,	1436.61	,	1436.61	,	1436.61	,	1436.61	,	1436.61	,	1436.61	,	1436.61	,	1436.61	,	1436.61	,	1436.61	,	1436.61	,	1436.61	,	1436.61	,	1436.61	,	1436.61	,	1436.61	,	1436.61	,	1436.61	,	1436.61	,	1436.61	,	1436.61	,	1436.61	,	1436.61	,	1436.61	,	1436.61	,	1436.61	,	1436.61	,	1436.61	,	1436.61	,	1436.61	,	1436.61	,	1436.61	,	1436.61	,	1436.61	,	1436.61	,	1436.61	,	1436.61	,	1436.61	,	1436.61	,	1436.61	,	1436.61	,	1436.61	,	1436.61	,	1436.61	,	1436.61	,	1436.61	,	1436.61	,	1436.61	,	1436.61	,	1436.61	,	1436.61	,	1436.61	,	1436.61	,	1436.61	,	1436.61	,	1436.61	,	1436.61	,	1436.61	,	1436.61	,	1436.61	,	1436.61	,	1436.61	,	1436.61	,	1436.61	,	1436.61	,	1436.61	,	1436.61	,	1436.61	,	1436.61	,	1436.61	,	1436.61	,	1436.61	,	1436.61	,	1436.61	,	1436.61	,	1436.61	,	1436.61	,	1436.61	,	1436.61	,	1436.61	,	1436.61	,	1436.61	,	1436.61	,	1436.61	,	1436.61	,	1436.61	,	1436.61	,	1436.61	,	1436.61	,	1436.61	,	1436.61	,	1436.61	,	1436.61	,	1436.61	,	1436.61	,	1436.61	,	1436.61	,	1436.61	,	1436.61	,	1436.61	,	1436.61	,	1436.61	,	1436.61	,	1436.61	,	1436.61	,	1436.61	,	1436.61	,	1436.61	,	1436.61	,	1436.61	,	1436.61	,	1436.61	,	1436.61	,	1436.61	,	1436.61	,	1436.61	,	1436.61	,	1436.61	,	1436.61	,	1436.61	,	1436.61	,	1436.61	,	1436.61	,	1436.61	,	1436.61	,	1436.61	,	1436.61	,	1436.61	,	1436.61	,	1436.61	,	1436.61	,	1436.61	,	1436.61	,	1436.61	,	1436.61	,	1436.61	,	1436.61	,	1436.61	,	1436.61	,	1436.61	,	1436.61	,	1436.61	,	1436.61	,	1436.61	,	1436.61	,	1436.61	,	1436.61	,	1436.61	,	1436.61	,	1436.61	,	1436.61	,	1436.61	,	1436.61	,	1436.61	,	1436.61	,	1436.61	,	1436.61	,	1436.61	,	1436.61	,	1436.61	,	1436.61	,	1436.61	,	1436.61	,	1436.61	,	1436.61	,	1436.61	,	1436.61	,	1436.61	,	1436.61	,	1436.61	,	1436.61	,	1436.61	,	1436.61	,	1436.61	,	1436.61	,	1436.61	,	1436.61	,	1436.61	,	1436.61	,	1436.61	,	1436.61	,	1436.61	,	1436.61	,	1436.61	,	1436.61	,	1436.61	,	1436.61	,	1436.61	,	1436.61	,	1436.61	,	1436.61	,	1436.61	,	1436.61	,	1436.61	,	1436.61	,	1436.61	,	1436.61	,	1436.61	,	1436.61	,	1436.61	,	1436.61	,	1436.61	,	1436.61	,	1436.61	,	1436.61	,	1436.61	,	1436.61
GigaRays/s	,	0	,	0	,	0	,	0	,	0	,	0	,	0	,	0	,	0	,	0	,	0	,	0	,	0	,	0	,	0	,	0	,	0	,	0	,	0	,	0	,	0	,	0	,	0	,	0	,	0	,	0	,	0	,	0	,	0	,	0	,	0	,	0	,	0	,	0	,	0	,	0	,	0	,	0	,	0	,	0	,	0	,	0	,	0	,	0	,	0	,	0	,	0	,	0	,	0	,	0	,	0	,	0	,	0	,	0	,	0	,	0	,	0	,	0	,	0	,	0	,	0	,	0	,	0	,	0	,	0	,	0	,	0	,	0	,	0	,	0	,	0	,	0	,	0	,	0	,	0	,	0	,	0	,	0	,	0	,	0	,	0	,	0	,	0	,	0	,	0	,	0	,	0	,	0	,	0	,	0	,	0	,	0	,	0	,	0	,	0	,	0	,	0	,	0	,	0	,	0	,	0	,	0	,	0	,	0	,	0	,	0	,	0	,	0	,	0	,	0	,	0	,	0	,	0	,	0	,	0	,	0	,	0	,	0	,	0	,	0	,	0	,	0	,	0	,	0	,	0	,	0	,	0	,	0	,	0	,	0	,	0	,	0	,	0	,	0	,	0	,	0	,	0	,	0	,	0	,	0	,	0	,	0	,	0	,	0	,	0	,	0	,	0	,	0	,	0	,	0	,	0	,	0	,	0	,	0	,	0	,	0	,	0	,	0	,	0	,	0	,	0	,	0	,	0	,	0	,	0	,	0	,	0	,	0	,	0	,	0	,	0	,	0	,	0	,	0	,	0	,	0	,	0	,	0	,	0	,	0	,	0	,	0	,	0	,	0	,	0	,	0	,	0	,	0	,	0	,	0	,	0	,	0	,	0	,	0	,	0	,	0	,	0	,	0	,	0	,	0	,	0	,	0	,	0	,	0	,	0	,	0	,	0	,	0	,	0	,	0	,	0	,	0	,	0	,	0	,	0	,	0	,	0	,	0	,	0	,	0	,	0	,	0	,	0	,	0	,	0	,	0	,	0	,	0	,	0	,	0	,	0	,	0	,	0	,	0	,	0	,	0	,	0	,	0	,	0	,	0	,	0	,	0	,	0	,	0	,	0	,	0	,	0	,	0	,	0	,	0	,	0	,	0	,	0	,	0	,	0	,	0	,	0	,	0	,	0
Index	,	0	,	1	,	2	,	3	,	4	,	5	,	6	,	7	,	8	,	9	,	10	,	11	,	12	,	13	,	14	,	15	,	16	,	17	,	18	,	19	,	20	,	21	,	22	,	23	,	24	,	25	,	26	,	27	,	28	,	29	,	30	,	31	,	32	,	33	,	34	,	35	,	36	,	37	,	38	,	39	,	40	,	41	,	42	,	43	,	44	,	45	,	46	,	47	,	48	,	49	,	50	,	51	,	52	,	53	,	54	,	55	,	56	,	57	,	58	,	59	,	60	,	61	,	62	,	63	,	64	,	65	,	66	,	67	,	68	,	69	,	70	,	71	,	72	,	73	,	74	,	75	,	76	,	77	,	78	,	79	,	80	,	81	,	82	,	83	,	84	,	85	,	86	,	87	,	88	,	89	,	90	,	91	,	92	,	93	,	94	,	95	,	96	,	97	,	98	,	99	,	100	,	101	,	102	,	103	,	104	,	105	,	106	,	107	,	108	,	109	,	110	,	111	,	112	,	113	,	114	,	115	,	116	,	117	,	118	,	119	,	120	,	121	,	122	,	123	,	124	,	125	,	126	,	127	,	128	,	129	,	130	,	131	,	132	,	133	,	134	,	135	,	136	,	137	,	138	,	139	,	140	,	141	,	142	,	143	,	144	,	145	,	146	,	147	,	148	,	149	,	150	,	151	,	152	,	153	,	154	,	155	,	156	,	157	,	158	,	159	,	160	,	161	,	162	,	163	,	164	,	165	,	166	,	167	,	168	,	169	,	170	,	171	,	172	,	173	,	174	,	175	,	176	,	177	,	178	,	179	,	180	,	181	,	182	,	183	,	184	,	185	,	186	,	187	,	188	,	189	,	190	,	191	,	192	,	193	,	194	,	195	,	196	,	197	,	198	,	199	,	200	,	201	,	202	,	203	,	204	,	205	,	206	,	207	,	208	,	209	,	210	,	211	,	212	,	213	,	214	,	215	,	216	,	217	,	218	,	219	,	220	,	221	,	222	,	223	,	224	,	225	,	226	,	227	,	228	,	229	,	230	,	231	,	232	,	233	,	234	,	235	,	236	,	237	,	238	,	239	,	240	,	241	,	242	,	243	,	244	,	245	,	246	,	247	,	248	,	249	,	250	,	251	,	252	,	253	,	254	,	255	,	256	,	257	,	258


AccelerationStructure: 
Ray tracing acceleration structure building statistics: 
	Bottom Level Acceleration Structure: 
		Maximum [B]: 13496192
		Minimum [B]: 4480
		Currently Allocated [B]: 15463296
		Currently Created [num]: 247
		Current Average [B]: 62604
		Maximum Triangles [num]: 192472
		Minimum Triangles [num]: 12
		Total Triangles [num]: 207663
		Maximum Meshes [num]: 3
		Minimum Meshes [num]: 1
		Total Meshes [num]: 253
	Top Level Acceleration Structure: 
		Maximum [B]: 15808
		Minimum [B]: 15808
		Currently Allocated [B]: 15808
		Total Allocated [B]: 15808
		Total Created [num]: 1
		Average Allocated [B]: 15808
		Maximum Instances [num]: 247
		Minimum Instances [num]: 247
		Total Instances [num]: 247
	Scratch Buffer: 
		Maximum [B]: 4042240
		Minimum [B]: 4042240
		Currently Allocated [B]: 4042240
		Total Allocated [B]: 4042240
		Total Created [num]: 1
		Average Allocated [B]: 4042240
ProfilingStack: 
[PROF] Profiling statistics: 
	Scopes entered : 1783
	Scopes exited : 1781
	Overhead per scope [ticks] : 163.6
	Threads entered : 3
	Threads exited : 0
	============================
		         Sum[Mt]   Parent[%]  Samples[num]       Avg[Mt]   Last/Curr[Mt]        Self[Mt]     Self[%] 	 Name

	main:

		    4059.825 Mt   100.000 %         1 x     4059.825 Mt     4059.825 Mt     3040.088 Mt    74.882 % 	 /

		      62.252 Mt     1.533 %         1 x       62.252 Mt        0.000 Mt        0.717 Mt     1.152 % 	 ./Initialize

		       1.645 Mt     2.643 %         1 x        1.645 Mt        0.000 Mt        1.645 Mt   100.000 % 	 ../ShadowMapRLInitialization

		       6.437 Mt    10.341 %         1 x        6.437 Mt        0.000 Mt        6.437 Mt   100.000 % 	 ../AmbientOcclusionRLInitialization

		       4.265 Mt     6.852 %         1 x        4.265 Mt        0.000 Mt        4.265 Mt   100.000 % 	 ../RasterResolveRLInitialization

		       4.125 Mt     6.626 %         1 x        4.125 Mt        0.000 Mt        4.125 Mt   100.000 % 	 ../DeferredRLInitialization

		      41.398 Mt    66.501 %         1 x       41.398 Mt        0.000 Mt        1.853 Mt     4.475 % 	 ../RayTracingRLInitialization

		      39.545 Mt    95.525 %         1 x       39.545 Mt        0.000 Mt       39.545 Mt   100.000 % 	 .../PipelineBuild

		       3.664 Mt     5.886 %         1 x        3.664 Mt        0.000 Mt        3.664 Mt   100.000 % 	 ../ResolveRLInitialization

		     957.545 Mt    23.586 %         5 x      191.509 Mt      926.158 Mt        0.806 Mt     0.084 % 	 ./Run

		     948.215 Mt    99.026 %       175 x        5.418 Mt      926.163 Mt      236.793 Mt    24.973 % 	 ../Update

		     436.833 Mt    46.069 %         1 x      436.833 Mt      436.833 Mt       22.774 Mt     5.213 % 	 .../ScenePrep

		      17.710 Mt     4.054 %         1 x       17.710 Mt       17.710 Mt       17.710 Mt   100.000 % 	 ..../SceneDesc-CreateScene

		       1.291 Mt     0.296 %         1 x        1.291 Mt        1.291 Mt        0.001 Mt     0.093 % 	 ..../ShadowMapRLPrep

		       1.290 Mt    99.907 %         1 x        1.290 Mt        1.290 Mt        1.065 Mt    82.562 % 	 ...../PrepareForRendering

		       0.225 Mt    17.438 %         1 x        0.225 Mt        0.225 Mt        0.225 Mt   100.000 % 	 ....../PrepareDrawBundle

		       9.587 Mt     2.195 %         1 x        9.587 Mt        9.587 Mt        0.001 Mt     0.010 % 	 ..../DeferredRLPrep

		       9.586 Mt    99.990 %         1 x        9.586 Mt        9.586 Mt        8.345 Mt    87.051 % 	 ...../PrepareForRendering

		       0.222 Mt     2.311 %         1 x        0.222 Mt        0.222 Mt        0.222 Mt   100.000 % 	 ....../PrepareMaterials

		       0.592 Mt     6.177 %         1 x        0.592 Mt        0.592 Mt        0.592 Mt   100.000 % 	 ....../BuildMaterialCache

		       0.428 Mt     4.462 %         1 x        0.428 Mt        0.428 Mt        0.428 Mt   100.000 % 	 ....../PrepareDrawBundle

		     332.093 Mt    76.023 %         1 x      332.093 Mt      332.093 Mt        1.744 Mt     0.525 % 	 ..../RayTracingRLPrep

		       6.555 Mt     1.974 %         1 x        6.555 Mt        6.555 Mt        6.555 Mt   100.000 % 	 ...../PrepareAccelerationStructures

		       0.211 Mt     0.064 %         1 x        0.211 Mt        0.211 Mt        0.211 Mt   100.000 % 	 ...../PrepareCache

		     254.356 Mt    76.592 %         1 x      254.356 Mt      254.356 Mt      254.356 Mt   100.000 % 	 ...../PipelineBuild

		       1.387 Mt     0.418 %         1 x        1.387 Mt        1.387 Mt        1.387 Mt   100.000 % 	 ...../BuildCache

		      66.669 Mt    20.075 %         1 x       66.669 Mt       66.669 Mt        0.001 Mt     0.002 % 	 ...../BuildAccelerationStructures

		      66.668 Mt    99.998 %         1 x       66.668 Mt       66.668 Mt        1.119 Mt     1.678 % 	 ....../AccelerationStructureBuild

		      65.065 Mt    97.595 %         1 x       65.065 Mt       65.065 Mt       65.065 Mt   100.000 % 	 ......./BuildBottomLevelAS

		       0.484 Mt     0.726 %         1 x        0.484 Mt        0.484 Mt        0.484 Mt   100.000 % 	 ......./BuildTopLevelAS

		       1.172 Mt     0.353 %         1 x        1.172 Mt        1.172 Mt        1.172 Mt   100.000 % 	 ...../BuildShaderTables

		      53.378 Mt    12.219 %         1 x       53.378 Mt       53.378 Mt       53.378 Mt   100.000 % 	 ..../GpuSidePrep

		     274.589 Mt    28.959 %       259 x        1.060 Mt        0.924 Mt       99.177 Mt    36.118 % 	 .../AccelerationStructureBuild

		      68.230 Mt    24.848 %       259 x        0.263 Mt        0.232 Mt       68.230 Mt   100.000 % 	 ..../BuildBottomLevelAS

		     107.182 Mt    39.034 %       259 x        0.414 Mt        0.370 Mt      107.182 Mt   100.000 % 	 ..../BuildTopLevelAS

		       8.531 Mt     0.891 %         4 x        2.133 Mt        0.427 Mt        0.003 Mt     0.039 % 	 ../Render

		       8.527 Mt    99.961 %         4 x        2.132 Mt        0.427 Mt        1.060 Mt    12.434 % 	 .../Render

		       7.467 Mt    87.566 %         4 x        1.867 Mt        0.348 Mt        7.467 Mt   100.000 % 	 ..../Present

	WindowThread:

		    4058.230 Mt   100.000 %         1 x     4058.230 Mt     4058.230 Mt     4058.230 Mt   100.000 % 	 /

	GpuThread:

		      85.267 Mt   100.000 %       262 x        0.325 Mt        0.217 Mt        6.668 Mt     7.821 % 	 /

		       0.006 Mt     0.006 %         4 x        0.001 Mt        0.002 Mt        0.006 Mt   100.000 % 	 ./Present

		      46.546 Mt    54.588 %         1 x       46.546 Mt       46.546 Mt        0.007 Mt     0.015 % 	 ./ScenePrep

		      46.539 Mt    99.985 %         1 x       46.539 Mt       46.539 Mt        0.003 Mt     0.006 % 	 ../AccelerationStructureBuild

		      46.265 Mt    99.412 %         1 x       46.265 Mt       46.265 Mt       46.265 Mt   100.000 % 	 .../BuildBottomLevelASGpu

		       0.271 Mt     0.582 %         1 x        0.271 Mt        0.271 Mt        0.271 Mt   100.000 % 	 .../BuildTopLevelASGpu

		      32.047 Mt    37.584 %       259 x        0.124 Mt        0.217 Mt        0.381 Mt     1.188 % 	 ./AccelerationStructureBuild

		      10.896 Mt    34.001 %       259 x        0.042 Mt        0.136 Mt       10.896 Mt   100.000 % 	 ../BuildBottomLevelASGpu

		      20.770 Mt    64.811 %       259 x        0.080 Mt        0.079 Mt       20.770 Mt   100.000 % 	 ../BuildTopLevelASGpu


	============================


