Configuration: 
Command line parameters  = 
Build type               = Release
Device name              = NVIDIA GeForce RTX 2080 Ti
Device memory MB         = 11049
Ray Tracing backend      = Hardware
Window width             = 1161
Window height            = 1219
Window title             = Direct3D App
Back-buffer count        = 3
Fill Triangles           = enabled
Triangles Font Clock-Wise= disabled
Fast Build AS            = disabled
Target FPS               = 0
Target UPS               = 60
Tearing                  = enabled
VSync                    = disabled
GUI rendering            = disabled
Debug layer              = enabled
GPU validation           = disabled
GPU profiling            = enabled
Render mode              = Ray Tracing
Loaded scene file        = 
Using testing scene      = disabled
BLAS duplication         = disabled
Rays per pixel           = 8
Quality preset           = Medium
Rasterization Quality    : 
  AO                     = enabled
  AO kernel size         = 4
  Shadows                = enabled
  Shadow map resolution  = 4096
  Shadow PCF kernel size = 4
  Reflections            = disabled
Ray Tracing Quality      : 
  AO                     = enabled
  AO rays                = 4
  AO kernel size         = 4
  Shadows                = enabled
  Shadow rays            = 4
  Shadow kernel size     = 4
  Reflections            = disabled

ProfilingAggregator: 
Render	,	4.2176	,	60.8672	,	5.2369	,	5.2369	,	5.2369	,	5.2369	,	5.2369	,	5.2369	,	5.2369	,	5.2369	,	5.2369	,	5.2369	,	5.2369	,	5.2369	,	5.2369	,	5.2369	,	5.2369	,	5.2369	,	5.2369	,	5.2369	,	5.2369	,	5.2369	,	5.2369	,	5.2369	,	5.2369	,	5.2369	,	5.2369	,	5.2369	,	5.2369	,	5.2369	,	5.2369	,	5.2369	,	5.2369	,	5.2369	,	5.2369	,	5.2369	,	5.2369	,	5.2369	,	5.2369	,	5.2369	,	5.2369	,	5.2369	,	5.2369	,	5.2369	,	5.2369	,	5.2369	,	5.2369	,	5.2369	,	5.2369	,	5.2369	,	5.2369	,	5.2369	,	5.2369	,	5.2369	,	5.2369	,	5.2369	,	5.2369	,	5.2369	,	5.2369	,	5.2369	,	5.2369	,	5.2369	,	5.2369	,	5.2369	,	5.2369	,	5.2369	,	5.2369	,	5.2369	,	5.2369	,	5.2369	,	5.2369	,	5.2369	,	5.2369	,	5.2369	,	5.2369	,	5.2369	,	5.2369	,	5.2369	,	5.2369	,	5.2369	,	5.2369	,	5.2369	,	5.2369	,	5.2369	,	5.2369	,	5.2369	,	5.2369	,	5.2369	,	5.2369	,	5.2369	,	5.2369	,	5.2369	,	5.2369	,	5.2369	,	5.2369	,	5.2369	,	5.2369	,	5.2369	,	5.2369	,	5.2369	,	5.2369	,	5.2369	,	5.2369	,	5.2369	,	5.2369	,	5.2369	,	5.2369	,	5.2369	,	5.2369	,	5.2369	,	5.2369	,	5.2369	,	5.2369	,	5.2369	,	5.2369	,	5.2369	,	5.2369	,	5.2369	,	5.2369	,	5.2369	,	5.2369	,	5.2369	,	5.2369	,	5.2369	,	5.2369	,	5.2369	,	5.2369	,	5.2369	,	5.2369	,	5.2369	,	5.2369	,	5.2369	,	5.2369
Update	,	0.0226	,	0.1045	,	163.042	,	165.258	,	167.845	,	170.221	,	173.1	,	175.945	,	178.136	,	180.941	,	182.87	,	184.691	,	186.518	,	188.189	,	190.673	,	192.403	,	194.218	,	196.008	,	198.188	,	200.957	,	203.07	,	205.7	,	208.153	,	210.356	,	212.445	,	214.225	,	216.197	,	218.066	,	220.247	,	223.072	,	225.652	,	227.822	,	229.8	,	231.777	,	233.861	,	235.804	,	237.981	,	240.369	,	242.424	,	244.437	,	246.465	,	248.41	,	250.363	,	252.274	,	254.717	,	256.99	,	259.599	,	261.593	,	263.399	,	265.049	,	266.846	,	269.6	,	272.136	,	274.706	,	276.701	,	278.406	,	280.108	,	281.738	,	283.489	,	285.606	,	288.376	,	291.251	,	293.282	,	295.084	,	296.956	,	298.741	,	301.017	,	303.001	,	305.375	,	307.658	,	309.576	,	311.415	,	313.35	,	315.381	,	317.254	,	319.159	,	321.459	,	323.842	,	325.706	,	327.439	,	329.172	,	331.487	,	333.567	,	335.495	,	337.366	,	339.656	,	341.49	,	343.243	,	345.201	,	347.114	,	348.994	,	350.843	,	352.727	,	354.608	,	356.436	,	358.263	,	360.051	,	362.1	,	363.937	,	365.791	,	367.498	,	369.09	,	370.75	,	372.485	,	374.941	,	376.966	,	378.824	,	380.687	,	382.447	,	384.32	,	386.095	,	387.901	,	390.041	,	391.814	,	394.185	,	396.5	,	398.836	,	401.012	,	403.513	,	406.303	,	409.12	,	412.448	,	415.203	,	417.412	,	419.965	,	423.02	,	425.908	,	427.994	,	430.078	,	432.112	,	434.14	,	436.022	,	437.881
RayTracing	,	1.562	,	2.8442	,	1.7941	,	1.7941	,	1.7941	,	1.7941	,	1.7941	,	1.7941	,	1.7941	,	1.7941	,	1.7941	,	1.7941	,	1.7941	,	1.7941	,	1.7941	,	1.7941	,	1.7941	,	1.7941	,	1.7941	,	1.7941	,	1.7941	,	1.7941	,	1.7941	,	1.7941	,	1.7941	,	1.7941	,	1.7941	,	1.7941	,	1.7941	,	1.7941	,	1.7941	,	1.7941	,	1.7941	,	1.7941	,	1.7941	,	1.7941	,	1.7941	,	1.7941	,	1.7941	,	1.7941	,	1.7941	,	1.7941	,	1.7941	,	1.7941	,	1.7941	,	1.7941	,	1.7941	,	1.7941	,	1.7941	,	1.7941	,	1.7941	,	1.7941	,	1.7941	,	1.7941	,	1.7941	,	1.7941	,	1.7941	,	1.7941	,	1.7941	,	1.7941	,	1.7941	,	1.7941	,	1.7941	,	1.7941	,	1.7941	,	1.7941	,	1.7941	,	1.7941	,	1.7941	,	1.7941	,	1.7941	,	1.7941	,	1.7941	,	1.7941	,	1.7941	,	1.7941	,	1.7941	,	1.7941	,	1.7941	,	1.7941	,	1.7941	,	1.7941	,	1.7941	,	1.7941	,	1.7941	,	1.7941	,	1.7941	,	1.7941	,	1.7941	,	1.7941	,	1.7941	,	1.7941	,	1.7941	,	1.7941	,	1.7941	,	1.7941	,	1.7941	,	1.7941	,	1.7941	,	1.7941	,	1.7941	,	1.7941	,	1.7941	,	1.7941	,	1.7941	,	1.7941	,	1.7941	,	1.7941	,	1.7941	,	1.7941	,	1.7941	,	1.7941	,	1.7941	,	1.7941	,	1.7941	,	1.7941	,	1.7941	,	1.7941	,	1.7941	,	1.7941	,	1.7941	,	1.7941	,	1.7941	,	1.7941	,	1.7941	,	1.7941	,	1.7941	,	1.7941	,	1.7941	,	1.7941	,	1.7941	,	1.7941	,	1.7941
RayTracingGpu	,	1.83795	,	2.06474	,	2.05357	,	2.05357	,	2.05357	,	2.05357	,	2.05357	,	2.05357	,	2.05357	,	2.05357	,	2.05357	,	2.05357	,	2.05357	,	2.05357	,	2.05357	,	2.05357	,	2.05357	,	2.05357	,	2.05357	,	2.05357	,	2.05357	,	2.05357	,	2.05357	,	2.05357	,	2.05357	,	2.05357	,	2.05357	,	2.05357	,	2.05357	,	2.05357	,	2.05357	,	2.05357	,	2.05357	,	2.05357	,	2.05357	,	2.05357	,	2.05357	,	2.05357	,	2.05357	,	2.05357	,	2.05357	,	2.05357	,	2.05357	,	2.05357	,	2.05357	,	2.05357	,	2.05357	,	2.05357	,	2.05357	,	2.05357	,	2.05357	,	2.05357	,	2.05357	,	2.05357	,	2.05357	,	2.05357	,	2.05357	,	2.05357	,	2.05357	,	2.05357	,	2.05357	,	2.05357	,	2.05357	,	2.05357	,	2.05357	,	2.05357	,	2.05357	,	2.05357	,	2.05357	,	2.05357	,	2.05357	,	2.05357	,	2.05357	,	2.05357	,	2.05357	,	2.05357	,	2.05357	,	2.05357	,	2.05357	,	2.05357	,	2.05357	,	2.05357	,	2.05357	,	2.05357	,	2.05357	,	2.05357	,	2.05357	,	2.05357	,	2.05357	,	2.05357	,	2.05357	,	2.05357	,	2.05357	,	2.05357	,	2.05357	,	2.05357	,	2.05357	,	2.05357	,	2.05357	,	2.05357	,	2.05357	,	2.05357	,	2.05357	,	2.05357	,	2.05357	,	2.05357	,	2.05357	,	2.05357	,	2.05357	,	2.05357	,	2.05357	,	2.05357	,	2.05357	,	2.05357	,	2.05357	,	2.05357	,	2.05357	,	2.05357	,	2.05357	,	2.05357	,	2.05357	,	2.05357	,	2.05357	,	2.05357	,	2.05357	,	2.05357	,	2.05357	,	2.05357	,	2.05357	,	2.05357	,	2.05357	,	2.05357	,	2.05357
DeferredRLGpu	,	0.302144	,	0.298912	,	0.302304	,	0.302304	,	0.302304	,	0.302304	,	0.302304	,	0.302304	,	0.302304	,	0.302304	,	0.302304	,	0.302304	,	0.302304	,	0.302304	,	0.302304	,	0.302304	,	0.302304	,	0.302304	,	0.302304	,	0.302304	,	0.302304	,	0.302304	,	0.302304	,	0.302304	,	0.302304	,	0.302304	,	0.302304	,	0.302304	,	0.302304	,	0.302304	,	0.302304	,	0.302304	,	0.302304	,	0.302304	,	0.302304	,	0.302304	,	0.302304	,	0.302304	,	0.302304	,	0.302304	,	0.302304	,	0.302304	,	0.302304	,	0.302304	,	0.302304	,	0.302304	,	0.302304	,	0.302304	,	0.302304	,	0.302304	,	0.302304	,	0.302304	,	0.302304	,	0.302304	,	0.302304	,	0.302304	,	0.302304	,	0.302304	,	0.302304	,	0.302304	,	0.302304	,	0.302304	,	0.302304	,	0.302304	,	0.302304	,	0.302304	,	0.302304	,	0.302304	,	0.302304	,	0.302304	,	0.302304	,	0.302304	,	0.302304	,	0.302304	,	0.302304	,	0.302304	,	0.302304	,	0.302304	,	0.302304	,	0.302304	,	0.302304	,	0.302304	,	0.302304	,	0.302304	,	0.302304	,	0.302304	,	0.302304	,	0.302304	,	0.302304	,	0.302304	,	0.302304	,	0.302304	,	0.302304	,	0.302304	,	0.302304	,	0.302304	,	0.302304	,	0.302304	,	0.302304	,	0.302304	,	0.302304	,	0.302304	,	0.302304	,	0.302304	,	0.302304	,	0.302304	,	0.302304	,	0.302304	,	0.302304	,	0.302304	,	0.302304	,	0.302304	,	0.302304	,	0.302304	,	0.302304	,	0.302304	,	0.302304	,	0.302304	,	0.302304	,	0.302304	,	0.302304	,	0.302304	,	0.302304	,	0.302304	,	0.302304	,	0.302304	,	0.302304	,	0.302304	,	0.302304	,	0.302304	,	0.302304	,	0.302304	,	0.302304
RayTracingRLGpu	,	0.77392	,	1.00045	,	0.991936	,	0.991936	,	0.991936	,	0.991936	,	0.991936	,	0.991936	,	0.991936	,	0.991936	,	0.991936	,	0.991936	,	0.991936	,	0.991936	,	0.991936	,	0.991936	,	0.991936	,	0.991936	,	0.991936	,	0.991936	,	0.991936	,	0.991936	,	0.991936	,	0.991936	,	0.991936	,	0.991936	,	0.991936	,	0.991936	,	0.991936	,	0.991936	,	0.991936	,	0.991936	,	0.991936	,	0.991936	,	0.991936	,	0.991936	,	0.991936	,	0.991936	,	0.991936	,	0.991936	,	0.991936	,	0.991936	,	0.991936	,	0.991936	,	0.991936	,	0.991936	,	0.991936	,	0.991936	,	0.991936	,	0.991936	,	0.991936	,	0.991936	,	0.991936	,	0.991936	,	0.991936	,	0.991936	,	0.991936	,	0.991936	,	0.991936	,	0.991936	,	0.991936	,	0.991936	,	0.991936	,	0.991936	,	0.991936	,	0.991936	,	0.991936	,	0.991936	,	0.991936	,	0.991936	,	0.991936	,	0.991936	,	0.991936	,	0.991936	,	0.991936	,	0.991936	,	0.991936	,	0.991936	,	0.991936	,	0.991936	,	0.991936	,	0.991936	,	0.991936	,	0.991936	,	0.991936	,	0.991936	,	0.991936	,	0.991936	,	0.991936	,	0.991936	,	0.991936	,	0.991936	,	0.991936	,	0.991936	,	0.991936	,	0.991936	,	0.991936	,	0.991936	,	0.991936	,	0.991936	,	0.991936	,	0.991936	,	0.991936	,	0.991936	,	0.991936	,	0.991936	,	0.991936	,	0.991936	,	0.991936	,	0.991936	,	0.991936	,	0.991936	,	0.991936	,	0.991936	,	0.991936	,	0.991936	,	0.991936	,	0.991936	,	0.991936	,	0.991936	,	0.991936	,	0.991936	,	0.991936	,	0.991936	,	0.991936	,	0.991936	,	0.991936	,	0.991936	,	0.991936	,	0.991936	,	0.991936	,	0.991936	,	0.991936
ResolveRLGpu	,	0.75936	,	0.762304	,	0.75488	,	0.75488	,	0.75488	,	0.75488	,	0.75488	,	0.75488	,	0.75488	,	0.75488	,	0.75488	,	0.75488	,	0.75488	,	0.75488	,	0.75488	,	0.75488	,	0.75488	,	0.75488	,	0.75488	,	0.75488	,	0.75488	,	0.75488	,	0.75488	,	0.75488	,	0.75488	,	0.75488	,	0.75488	,	0.75488	,	0.75488	,	0.75488	,	0.75488	,	0.75488	,	0.75488	,	0.75488	,	0.75488	,	0.75488	,	0.75488	,	0.75488	,	0.75488	,	0.75488	,	0.75488	,	0.75488	,	0.75488	,	0.75488	,	0.75488	,	0.75488	,	0.75488	,	0.75488	,	0.75488	,	0.75488	,	0.75488	,	0.75488	,	0.75488	,	0.75488	,	0.75488	,	0.75488	,	0.75488	,	0.75488	,	0.75488	,	0.75488	,	0.75488	,	0.75488	,	0.75488	,	0.75488	,	0.75488	,	0.75488	,	0.75488	,	0.75488	,	0.75488	,	0.75488	,	0.75488	,	0.75488	,	0.75488	,	0.75488	,	0.75488	,	0.75488	,	0.75488	,	0.75488	,	0.75488	,	0.75488	,	0.75488	,	0.75488	,	0.75488	,	0.75488	,	0.75488	,	0.75488	,	0.75488	,	0.75488	,	0.75488	,	0.75488	,	0.75488	,	0.75488	,	0.75488	,	0.75488	,	0.75488	,	0.75488	,	0.75488	,	0.75488	,	0.75488	,	0.75488	,	0.75488	,	0.75488	,	0.75488	,	0.75488	,	0.75488	,	0.75488	,	0.75488	,	0.75488	,	0.75488	,	0.75488	,	0.75488	,	0.75488	,	0.75488	,	0.75488	,	0.75488	,	0.75488	,	0.75488	,	0.75488	,	0.75488	,	0.75488	,	0.75488	,	0.75488	,	0.75488	,	0.75488	,	0.75488	,	0.75488	,	0.75488	,	0.75488	,	0.75488	,	0.75488	,	0.75488	,	0.75488	,	0.75488
Index	,	0	,	1	,	2	,	3	,	4	,	5	,	6	,	7	,	8	,	9	,	10	,	11	,	12	,	13	,	14	,	15	,	16	,	17	,	18	,	19	,	20	,	21	,	22	,	23	,	24	,	25	,	26	,	27	,	28	,	29	,	30	,	31	,	32	,	33	,	34	,	35	,	36	,	37	,	38	,	39	,	40	,	41	,	42	,	43	,	44	,	45	,	46	,	47	,	48	,	49	,	50	,	51	,	52	,	53	,	54	,	55	,	56	,	57	,	58	,	59	,	60	,	61	,	62	,	63	,	64	,	65	,	66	,	67	,	68	,	69	,	70	,	71	,	72	,	73	,	74	,	75	,	76	,	77	,	78	,	79	,	80	,	81	,	82	,	83	,	84	,	85	,	86	,	87	,	88	,	89	,	90	,	91	,	92	,	93	,	94	,	95	,	96	,	97	,	98	,	99	,	100	,	101	,	102	,	103	,	104	,	105	,	106	,	107	,	108	,	109	,	110	,	111	,	112	,	113	,	114	,	115	,	116	,	117	,	118	,	119	,	120	,	121	,	122	,	123	,	124	,	125	,	126	,	127	,	128	,	129	,	130	,	131	,	132

ProfilingBuildAggregator: 
BuildBottomLevelAS	,	0.266	,	0.3333	,	0.4008	,	0.363	,	0.4709	,	0.4108	,	0.3604	,	0.5519	,	0.2788	,	0.2399	,	0.2807	,	0.224	,	0.394	,	0.2681	,	0.2703	,	0.2505	,	0.3429	,	0.5411	,	0.2984	,	0.3923	,	0.3654	,	0.3374	,	0.3209	,	0.2485	,	0.2936	,	0.2371	,	0.3483	,	0.4422	,	0.3654	,	0.3119	,	0.287	,	0.2664	,	0.3117	,	0.3096	,	0.2831	,	0.3314	,	0.3012	,	0.3424	,	0.2801	,	0.2902	,	0.3069	,	0.2832	,	0.2927	,	0.3082	,	0.5617	,	0.2648	,	0.2888	,	0.2603	,	0.2249	,	0.4257	,	0.3782	,	0.4053	,	0.2803	,	0.2429	,	0.2879	,	0.2302	,	0.2584	,	0.3818	,	0.2873	,	0.5084	,	0.2804	,	0.2474	,	0.2641	,	0.2459	,	0.3864	,	0.2675	,	0.3041	,	0.3026	,	0.2656	,	0.2429	,	0.3396	,	0.2773	,	0.2578	,	0.2483	,	0.2501	,	0.3174	,	0.2592	,	0.2291	,	0.2304	,	0.3319	,	0.3081	,	0.2741	,	0.2737	,	0.3384	,	0.2625	,	0.2438	,	0.3241	,	0.248	,	0.2675	,	0.2422	,	0.2365	,	0.2334	,	0.2483	,	0.2628	,	0.2525	,	0.299	,	0.2602	,	0.239	,	0.2302	,	0.211	,	0.2522	,	0.2308	,	0.3818	,	0.2812	,	0.278	,	0.2785	,	0.2439	,	0.2751	,	0.2501	,	0.2587	,	0.304	,	0.2539	,	0.3995	,	0.327	,	0.3355	,	0.2809	,	0.5001	,	0.3358	,	0.5093	,	0.5804	,	0.4978	,	0.2994	,	0.4427	,	0.5965	,	0.3648	,	0.2807	,	0.39	,	0.282	,	0.3195	,	0.2442	,	0.2528
BuildBottomLevelASGpu	,	0.01456	,	0.23376	,	0.32352	,	0.409472	,	0.349216	,	0.250592	,	0.2376	,	0.470432	,	0.166688	,	0.171488	,	0.140864	,	0.016256	,	0.14832	,	0.016128	,	0.163968	,	0.138304	,	0.38912	,	0.437216	,	0.241792	,	0.257184	,	0.268896	,	0.23024	,	0.23888	,	0.128064	,	0.188672	,	0.187392	,	0.259136	,	0.30528	,	0.311008	,	0.3056	,	0.219552	,	0.211488	,	0.21648	,	0.212064	,	0.220736	,	0.220224	,	0.220128	,	0.214464	,	0.209952	,	0.214304	,	0.216448	,	0.212192	,	0.215872	,	0.308352	,	0.301216	,	0.173184	,	0.116224	,	0.100256	,	0.105504	,	0.122528	,	0.114656	,	0.127904	,	0.126464	,	0.160736	,	0.146368	,	0.168352	,	0.222208	,	0.212064	,	0.217024	,	0.225312	,	0.216128	,	0.212512	,	0.212064	,	0.217728	,	0.216576	,	0.216128	,	0.226272	,	0.21856	,	0.214464	,	0.212064	,	0.220672	,	0.218816	,	0.219936	,	0.212064	,	0.22224	,	0.229536	,	0.21984	,	0.217824	,	0.21632	,	0.212064	,	0.214304	,	0.21616	,	0.217696	,	0.213024	,	0.216192	,	0.217984	,	0.218272	,	0.214912	,	0.215584	,	0.211648	,	0.216992	,	0.221184	,	0.211616	,	0.218272	,	0.216288	,	0.214624	,	0.220032	,	0.211808	,	0.099584	,	0.105216	,	0.114944	,	0.11056	,	0.222528	,	0.214592	,	0.21472	,	0.217568	,	0.214592	,	0.21456	,	0.21232	,	0.211616	,	0.212608	,	0.20768	,	0.19248	,	0.42528	,	0.512864	,	0.43936	,	0.652032	,	0.492864	,	0.559712	,	0.557376	,	0.617856	,	0.461792	,	0.62096	,	0.585728	,	0.65392	,	0.376544	,	0.236	,	0.336096	,	0.380928	,	0.37824	,	0.282752
BuildTopLevelAS	,	0.4461	,	0.4336	,	0.3862	,	0.3958	,	0.5763	,	0.3984	,	0.4053	,	0.3903	,	0.4215	,	0.4121	,	0.4029	,	0.4145	,	0.4455	,	0.4186	,	0.3966	,	0.3958	,	0.3665	,	0.4217	,	0.4095	,	0.4914	,	0.462	,	0.4595	,	0.3972	,	0.4103	,	0.402	,	0.3948	,	0.5126	,	0.5074	,	0.4338	,	0.4152	,	0.3997	,	0.4086	,	0.4052	,	0.3856	,	0.459	,	0.4257	,	0.4108	,	0.4141	,	0.3929	,	0.3968	,	0.4007	,	0.3954	,	0.4392	,	0.3802	,	0.4561	,	0.3639	,	0.3811	,	0.3448	,	0.3966	,	0.5405	,	0.5024	,	0.523	,	0.382	,	0.3651	,	0.3669	,	0.3506	,	0.3546	,	0.4916	,	0.823	,	0.502	,	0.3776	,	0.3639	,	0.3634	,	0.3572	,	0.4423	,	0.3653	,	0.4727	,	0.4034	,	0.3582	,	0.3506	,	0.3809	,	0.354	,	0.3686	,	0.3696	,	0.4644	,	0.4233	,	0.3642	,	0.3518	,	0.3476	,	0.4408	,	0.3995	,	0.3912	,	0.3523	,	0.3747	,	0.3592	,	0.3425	,	0.4418	,	0.3534	,	0.3644	,	0.3578	,	0.399	,	0.3943	,	0.3573	,	0.359	,	0.3568	,	0.4056	,	0.3674	,	0.3571	,	0.3676	,	0.3412	,	0.3556	,	0.3616	,	0.3993	,	0.4648	,	0.3592	,	0.3499	,	0.3397	,	0.3573	,	0.3693	,	0.3705	,	0.3581	,	0.3624	,	0.5052	,	0.4127	,	0.4235	,	0.3685	,	0.3672	,	0.6307	,	0.4255	,	0.4326	,	0.4707	,	0.3812	,	0.3982	,	0.6181	,	0.3951	,	0.3869	,	0.4934	,	0.39	,	0.3805	,	0.352	,	0.3775
BuildTopLevelASGpu	,	0.056576	,	0.055872	,	0.05488	,	0.058144	,	0.058528	,	0.059104	,	0.055328	,	0.059648	,	0.055456	,	0.054304	,	0.054048	,	0.05616	,	0.059392	,	0.055744	,	0.05504	,	0.054304	,	0.055456	,	0.05952	,	0.054464	,	0.055008	,	0.05504	,	0.055296	,	0.054176	,	0.05488	,	0.055168	,	0.054912	,	0.054176	,	0.058528	,	0.058272	,	0.054464	,	0.054336	,	0.054208	,	0.054176	,	0.054176	,	0.054208	,	0.05488	,	0.054336	,	0.054176	,	0.054208	,	0.054176	,	0.054176	,	0.054304	,	0.055168	,	0.058272	,	0.054496	,	0.055168	,	0.054624	,	0.054304	,	0.054176	,	0.054336	,	0.055008	,	0.058688	,	0.054592	,	0.054176	,	0.054304	,	0.05488	,	0.054464	,	0.054048	,	0.05616	,	0.05968	,	0.054464	,	0.054464	,	0.05488	,	0.055008	,	0.054336	,	0.054048	,	0.058816	,	0.05616	,	0.055328	,	0.054336	,	0.054176	,	0.054336	,	0.054176	,	0.055584	,	0.05616	,	0.059264	,	0.05472	,	0.055168	,	0.054624	,	0.054176	,	0.054176	,	0.054208	,	0.05488	,	0.055328	,	0.054624	,	0.054176	,	0.054336	,	0.055008	,	0.055296	,	0.055008	,	0.054464	,	0.054336	,	0.05488	,	0.055168	,	0.054336	,	0.054336	,	0.055136	,	0.055296	,	0.055136	,	0.054048	,	0.054464	,	0.054592	,	0.05856	,	0.054464	,	0.055008	,	0.054336	,	0.054336	,	0.05504	,	0.054016	,	0.055168	,	0.054176	,	0.054464	,	0.055008	,	0.058112	,	0.055168	,	0.05504	,	0.055456	,	0.05984	,	0.05856	,	0.056288	,	0.055168	,	0.055872	,	0.056	,	0.059808	,	0.05968	,	0.05632	,	0.055456	,	0.055008	,	0.05504	,	0.055168	,	0.055104
Triangles	,	32	,	4120	,	15584	,	45330	,	20655	,	7167	,	5600	,	46560	,	288	,	282	,	143	,	28	,	75	,	27	,	132	,	108	,	39389	,	52674	,	1812	,	2934	,	2305	,	1290	,	1919	,	122	,	1658	,	1658	,	8917	,	19389	,	19389	,	19389	,	3968	,	3968	,	3968	,	3968	,	3968	,	3968	,	3968	,	3968	,	3968	,	3968	,	3968	,	3968	,	3968	,	19389	,	19389	,	281	,	47	,	34	,	46	,	63	,	52	,	50	,	102	,	142	,	125	,	183	,	3968	,	3968	,	3968	,	3968	,	3968	,	3968	,	3968	,	3968	,	3968	,	3968	,	3968	,	3968	,	3968	,	3968	,	3968	,	3968	,	3968	,	3968	,	3968	,	3968	,	3968	,	3968	,	3968	,	3968	,	3968	,	3968	,	3968	,	3968	,	3968	,	3968	,	3968	,	3968	,	3968	,	3968	,	3968	,	3968	,	3968	,	3968	,	3968	,	3968	,	3968	,	3968	,	34	,	33	,	48	,	34	,	3968	,	3968	,	3968	,	3968	,	3968	,	3968	,	3968	,	3968	,	3968	,	1368	,	1658	,	7000	,	8584	,	7794	,	37536	,	6246	,	14409	,	23123	,	23437	,	9929	,	29460	,	23399	,	29275	,	1620	,	192	,	1572	,	1362	,	1999	,	306
Meshes	,	1	,	1	,	2	,	2	,	2	,	1	,	1	,	2	,	1	,	1	,	1	,	1	,	1	,	1	,	1	,	1	,	2	,	2	,	2	,	2	,	2	,	1	,	1	,	1	,	1	,	1	,	1	,	1	,	1	,	1	,	1	,	1	,	1	,	1	,	1	,	1	,	1	,	1	,	1	,	1	,	1	,	1	,	1	,	1	,	1	,	1	,	1	,	1	,	1	,	1	,	1	,	1	,	1	,	1	,	1	,	1	,	1	,	1	,	1	,	1	,	1	,	1	,	1	,	1	,	1	,	1	,	1	,	1	,	1	,	1	,	1	,	1	,	1	,	1	,	1	,	1	,	1	,	1	,	1	,	1	,	1	,	1	,	1	,	1	,	1	,	1	,	1	,	1	,	1	,	1	,	1	,	1	,	1	,	1	,	1	,	1	,	1	,	1	,	1	,	1	,	1	,	1	,	1	,	1	,	1	,	1	,	1	,	1	,	1	,	1	,	1	,	1	,	1	,	1	,	1	,	1	,	1	,	1	,	1	,	1	,	1	,	1	,	1	,	1	,	1	,	1	,	1	,	1	,	1	,	1	,	1
BottomLevels	,	1	,	1	,	1	,	1	,	1	,	1	,	1	,	1	,	1	,	1	,	1	,	1	,	1	,	1	,	1	,	1	,	1	,	1	,	1	,	1	,	1	,	1	,	1	,	1	,	1	,	1	,	1	,	1	,	1	,	1	,	1	,	1	,	1	,	1	,	1	,	1	,	1	,	1	,	1	,	1	,	1	,	1	,	1	,	1	,	1	,	1	,	1	,	1	,	1	,	1	,	1	,	1	,	1	,	1	,	1	,	1	,	1	,	1	,	1	,	1	,	1	,	1	,	1	,	1	,	1	,	1	,	1	,	1	,	1	,	1	,	1	,	1	,	1	,	1	,	1	,	1	,	1	,	1	,	1	,	1	,	1	,	1	,	1	,	1	,	1	,	1	,	1	,	1	,	1	,	1	,	1	,	1	,	1	,	1	,	1	,	1	,	1	,	1	,	1	,	1	,	1	,	1	,	1	,	1	,	1	,	1	,	1	,	1	,	1	,	1	,	1	,	1	,	1	,	1	,	1	,	1	,	1	,	1	,	1	,	1	,	1	,	1	,	1	,	1	,	1	,	1	,	1	,	1	,	1	,	1	,	1
TopLevelSize	,	64	,	64	,	64	,	64	,	64	,	64	,	64	,	64	,	64	,	64	,	64	,	64	,	64	,	64	,	64	,	64	,	64	,	64	,	64	,	64	,	64	,	64	,	64	,	64	,	64	,	64	,	64	,	64	,	64	,	64	,	64	,	64	,	64	,	64	,	64	,	64	,	64	,	64	,	64	,	64	,	64	,	64	,	64	,	64	,	64	,	64	,	64	,	64	,	64	,	64	,	64	,	64	,	64	,	64	,	64	,	64	,	64	,	64	,	64	,	64	,	64	,	64	,	64	,	64	,	64	,	64	,	64	,	64	,	64	,	64	,	64	,	64	,	64	,	64	,	64	,	64	,	64	,	64	,	64	,	64	,	64	,	64	,	64	,	64	,	64	,	64	,	64	,	64	,	64	,	64	,	64	,	64	,	64	,	64	,	64	,	64	,	64	,	64	,	64	,	64	,	64	,	64	,	64	,	64	,	64	,	64	,	64	,	64	,	64	,	64	,	64	,	64	,	64	,	64	,	64	,	64	,	64	,	64	,	64	,	64	,	64	,	64	,	64	,	64	,	64	,	64	,	64	,	64	,	64	,	64	,	64
BottomLevelsSize	,	2048	,	232576	,	871424	,	2529536	,	1154048	,	402432	,	315392	,	2598016	,	19328	,	18560	,	11008	,	1920	,	6912	,	1792	,	10240	,	9344	,	2198400	,	2939136	,	103936	,	166528	,	131456	,	74624	,	109824	,	10112	,	95488	,	95488	,	500096	,	1083776	,	1083776	,	1083776	,	224256	,	224256	,	224256	,	224256	,	224256	,	224256	,	224256	,	224256	,	224256	,	224256	,	224256	,	224256	,	224256	,	1083776	,	1083776	,	18560	,	5888	,	5120	,	5888	,	6784	,	6016	,	6016	,	8576	,	11008	,	10112	,	13440	,	224256	,	224256	,	224256	,	224256	,	224256	,	224256	,	224256	,	224256	,	224256	,	224256	,	224256	,	224256	,	224256	,	224256	,	224256	,	224256	,	224256	,	224256	,	224256	,	224256	,	224256	,	224256	,	224256	,	224256	,	224256	,	224256	,	224256	,	224256	,	224256	,	224256	,	224256	,	224256	,	224256	,	224256	,	224256	,	224256	,	224256	,	224256	,	224256	,	224256	,	224256	,	224256	,	5120	,	5120	,	6016	,	5120	,	224256	,	224256	,	224256	,	224256	,	224256	,	224256	,	224256	,	224256	,	224256	,	79488	,	95488	,	497280	,	605824	,	554368	,	2636544	,	440960	,	1014656	,	1624960	,	1646592	,	699264	,	2069760	,	1645952	,	2055680	,	119680	,	17536	,	114816	,	99072	,	146432	,	25088
Index	,	0	,	1	,	2	,	3	,	4	,	5	,	6	,	7	,	8	,	9	,	10	,	11	,	12	,	13	,	14	,	15	,	16	,	17	,	18	,	19	,	20	,	21	,	22	,	23	,	24	,	25	,	26	,	27	,	28	,	29	,	30	,	31	,	32	,	33	,	34	,	35	,	36	,	37	,	38	,	39	,	40	,	41	,	42	,	43	,	44	,	45	,	46	,	47	,	48	,	49	,	50	,	51	,	52	,	53	,	54	,	55	,	56	,	57	,	58	,	59	,	60	,	61	,	62	,	63	,	64	,	65	,	66	,	67	,	68	,	69	,	70	,	71	,	72	,	73	,	74	,	75	,	76	,	77	,	78	,	79	,	80	,	81	,	82	,	83	,	84	,	85	,	86	,	87	,	88	,	89	,	90	,	91	,	92	,	93	,	94	,	95	,	96	,	97	,	98	,	99	,	100	,	101	,	102	,	103	,	104	,	105	,	106	,	107	,	108	,	109	,	110	,	111	,	112	,	113	,	114	,	115	,	116	,	117	,	118	,	119	,	120	,	121	,	122	,	123	,	124	,	125	,	126	,	127	,	128	,	129	,	130

FpsAggregator: 
FPS	,	55	,	58	,	58	,	58	,	58	,	58	,	58	,	58	,	58	,	58	,	58	,	58	,	58	,	58	,	58	,	58	,	58	,	58	,	58	,	58	,	58	,	58	,	58	,	58	,	58	,	58	,	58	,	58	,	58	,	58	,	58	,	58	,	58	,	58	,	58	,	58	,	58	,	58	,	58	,	58	,	58	,	58	,	58	,	58	,	58	,	58	,	58	,	58	,	58	,	58	,	58	,	58	,	58	,	58	,	58	,	58	,	58	,	58	,	58	,	58	,	58	,	58	,	58	,	58	,	58	,	58	,	58	,	58	,	58	,	58	,	58	,	58	,	58	,	58	,	58	,	58	,	58	,	58	,	58	,	58	,	58	,	58	,	58	,	58	,	58	,	58	,	58	,	58	,	58	,	58	,	58	,	58	,	58	,	58	,	58	,	58	,	58	,	58	,	58	,	58	,	58	,	58	,	58	,	58	,	58	,	58	,	58	,	58	,	58	,	58	,	58	,	58	,	58	,	58	,	58	,	58	,	58	,	58	,	58	,	58	,	58	,	58	,	58	,	58	,	58	,	58	,	58	,	58	,	58	,	58	,	58	,	58	,	58
UPS	,	59	,	86	,	86	,	86	,	86	,	86	,	86	,	86	,	86	,	86	,	86	,	86	,	86	,	86	,	86	,	86	,	86	,	86	,	86	,	86	,	86	,	86	,	86	,	86	,	86	,	86	,	86	,	86	,	86	,	86	,	86	,	86	,	86	,	86	,	86	,	86	,	86	,	86	,	86	,	86	,	86	,	86	,	86	,	86	,	86	,	86	,	86	,	86	,	86	,	86	,	86	,	86	,	86	,	86	,	86	,	86	,	86	,	86	,	86	,	86	,	86	,	86	,	86	,	86	,	86	,	86	,	86	,	86	,	86	,	86	,	86	,	86	,	86	,	86	,	86	,	86	,	86	,	86	,	86	,	86	,	86	,	86	,	86	,	86	,	86	,	86	,	86	,	86	,	86	,	86	,	86	,	86	,	86	,	86	,	86	,	86	,	86	,	86	,	86	,	86	,	86	,	86	,	86	,	86	,	86	,	86	,	86	,	86	,	86	,	86	,	86	,	86	,	86	,	86	,	86	,	86	,	86	,	86	,	86	,	86	,	86	,	86	,	86	,	86	,	86	,	86	,	86	,	86	,	86	,	86	,	86	,	86	,	86
FrameTime	,	25.5638	,	18.2287	,	18.2287	,	18.2287	,	18.2287	,	18.2287	,	18.2287	,	18.2287	,	18.2287	,	18.2287	,	18.2287	,	18.2287	,	18.2287	,	18.2287	,	18.2287	,	18.2287	,	18.2287	,	18.2287	,	18.2287	,	18.2287	,	18.2287	,	18.2287	,	18.2287	,	18.2287	,	18.2287	,	18.2287	,	18.2287	,	18.2287	,	18.2287	,	18.2287	,	18.2287	,	18.2287	,	18.2287	,	18.2287	,	18.2287	,	18.2287	,	18.2287	,	18.2287	,	18.2287	,	18.2287	,	18.2287	,	18.2287	,	18.2287	,	18.2287	,	18.2287	,	18.2287	,	18.2287	,	18.2287	,	18.2287	,	18.2287	,	18.2287	,	18.2287	,	18.2287	,	18.2287	,	18.2287	,	18.2287	,	18.2287	,	18.2287	,	18.2287	,	18.2287	,	18.2287	,	18.2287	,	18.2287	,	18.2287	,	18.2287	,	18.2287	,	18.2287	,	18.2287	,	18.2287	,	18.2287	,	18.2287	,	18.2287	,	18.2287	,	18.2287	,	18.2287	,	18.2287	,	18.2287	,	18.2287	,	18.2287	,	18.2287	,	18.2287	,	18.2287	,	18.2287	,	18.2287	,	18.2287	,	18.2287	,	18.2287	,	18.2287	,	18.2287	,	18.2287	,	18.2287	,	18.2287	,	18.2287	,	18.2287	,	18.2287	,	18.2287	,	18.2287	,	18.2287	,	18.2287	,	18.2287	,	18.2287	,	18.2287	,	18.2287	,	18.2287	,	18.2287	,	18.2287	,	18.2287	,	18.2287	,	18.2287	,	18.2287	,	18.2287	,	18.2287	,	18.2287	,	18.2287	,	18.2287	,	18.2287	,	18.2287	,	18.2287	,	18.2287	,	18.2287	,	18.2287	,	18.2287	,	18.2287	,	18.2287	,	18.2287	,	18.2287	,	18.2287	,	18.2287	,	18.2287	,	18.2287	,	18.2287	,	18.2287	,	18.2287
GigaRays/s	,	0.402034	,	0.563809	,	0.563809	,	0.563809	,	0.563809	,	0.563809	,	0.563809	,	0.563809	,	0.563809	,	0.563809	,	0.563809	,	0.563809	,	0.563809	,	0.563809	,	0.563809	,	0.563809	,	0.563809	,	0.563809	,	0.563809	,	0.563809	,	0.563809	,	0.563809	,	0.563809	,	0.563809	,	0.563809	,	0.563809	,	0.563809	,	0.563809	,	0.563809	,	0.563809	,	0.563809	,	0.563809	,	0.563809	,	0.563809	,	0.563809	,	0.563809	,	0.563809	,	0.563809	,	0.563809	,	0.563809	,	0.563809	,	0.563809	,	0.563809	,	0.563809	,	0.563809	,	0.563809	,	0.563809	,	0.563809	,	0.563809	,	0.563809	,	0.563809	,	0.563809	,	0.563809	,	0.563809	,	0.563809	,	0.563809	,	0.563809	,	0.563809	,	0.563809	,	0.563809	,	0.563809	,	0.563809	,	0.563809	,	0.563809	,	0.563809	,	0.563809	,	0.563809	,	0.563809	,	0.563809	,	0.563809	,	0.563809	,	0.563809	,	0.563809	,	0.563809	,	0.563809	,	0.563809	,	0.563809	,	0.563809	,	0.563809	,	0.563809	,	0.563809	,	0.563809	,	0.563809	,	0.563809	,	0.563809	,	0.563809	,	0.563809	,	0.563809	,	0.563809	,	0.563809	,	0.563809	,	0.563809	,	0.563809	,	0.563809	,	0.563809	,	0.563809	,	0.563809	,	0.563809	,	0.563809	,	0.563809	,	0.563809	,	0.563809	,	0.563809	,	0.563809	,	0.563809	,	0.563809	,	0.563809	,	0.563809	,	0.563809	,	0.563809	,	0.563809	,	0.563809	,	0.563809	,	0.563809	,	0.563809	,	0.563809	,	0.563809	,	0.563809	,	0.563809	,	0.563809	,	0.563809	,	0.563809	,	0.563809	,	0.563809	,	0.563809	,	0.563809	,	0.563809	,	0.563809	,	0.563809	,	0.563809	,	0.563809	,	0.563809	,	0.563809
Index	,	0	,	1	,	2	,	3	,	4	,	5	,	6	,	7	,	8	,	9	,	10	,	11	,	12	,	13	,	14	,	15	,	16	,	17	,	18	,	19	,	20	,	21	,	22	,	23	,	24	,	25	,	26	,	27	,	28	,	29	,	30	,	31	,	32	,	33	,	34	,	35	,	36	,	37	,	38	,	39	,	40	,	41	,	42	,	43	,	44	,	45	,	46	,	47	,	48	,	49	,	50	,	51	,	52	,	53	,	54	,	55	,	56	,	57	,	58	,	59	,	60	,	61	,	62	,	63	,	64	,	65	,	66	,	67	,	68	,	69	,	70	,	71	,	72	,	73	,	74	,	75	,	76	,	77	,	78	,	79	,	80	,	81	,	82	,	83	,	84	,	85	,	86	,	87	,	88	,	89	,	90	,	91	,	92	,	93	,	94	,	95	,	96	,	97	,	98	,	99	,	100	,	101	,	102	,	103	,	104	,	105	,	106	,	107	,	108	,	109	,	110	,	111	,	112	,	113	,	114	,	115	,	116	,	117	,	118	,	119	,	120	,	121	,	122	,	123	,	124	,	125	,	126	,	127	,	128	,	129	,	130	,	131	,	132


AccelerationStructure: 
Ray tracing acceleration structure building statistics: 
	Bottom Level Acceleration Structure: 
		Maximum [B]: 3698560
		Minimum [B]: 6400
		Currently Allocated [B]: 43692032
		Currently Created [num]: 113
		Current Average [B]: 386655
		Maximum Triangles [num]: 52674
		Minimum Triangles [num]: 27
		Total Triangles [num]: 616006
		Maximum Meshes [num]: 2
		Minimum Meshes [num]: 1
		Total Meshes [num]: 122
	Top Level Acceleration Structure: 
		Maximum [B]: 7232
		Minimum [B]: 7232
		Currently Allocated [B]: 7232
		Total Allocated [B]: 7232
		Total Created [num]: 1
		Average Allocated [B]: 7232
		Maximum Instances [num]: 113
		Minimum Instances [num]: 113
		Total Instances [num]: 113
	Scratch Buffer: 
		Maximum [B]: 3011456
		Minimum [B]: 3011456
		Currently Allocated [B]: 3011456
		Total Allocated [B]: 3011456
		Total Created [num]: 1
		Average Allocated [B]: 3011456
ProfilingStack: 
[PROF] Profiling statistics: 
	Scopes entered : 9115
	Scopes exited : 9113
	Overhead per scope [ticks] : 163.5
	Threads entered : 3
	Threads exited : 0
	============================
		         Sum[Mt]   Parent[%]  Samples[num]       Avg[Mt]   Last/Curr[Mt]        Self[Mt]     Self[%] 	 Name

	main:

		   12435.625 Mt   100.000 %         1 x    12435.625 Mt    12435.625 Mt     8460.964 Mt    68.038 % 	 /

		      67.361 Mt     0.542 %         1 x       67.361 Mt        0.000 Mt        0.974 Mt     1.446 % 	 ./Initialize

		       1.770 Mt     2.627 %         1 x        1.770 Mt        0.000 Mt        1.770 Mt   100.000 % 	 ../ShadowMapRLInitialization

		       5.991 Mt     8.893 %         1 x        5.991 Mt        0.000 Mt        5.991 Mt   100.000 % 	 ../AmbientOcclusionRLInitialization

		       3.719 Mt     5.521 %         1 x        3.719 Mt        0.000 Mt        3.719 Mt   100.000 % 	 ../RasterResolveRLInitialization

		       3.935 Mt     5.841 %         1 x        3.935 Mt        0.000 Mt        3.935 Mt   100.000 % 	 ../DeferredRLInitialization

		      46.583 Mt    69.155 %         1 x       46.583 Mt        0.000 Mt        2.454 Mt     5.268 % 	 ../RayTracingRLInitialization

		      44.129 Mt    94.732 %         1 x       44.129 Mt        0.000 Mt       44.129 Mt   100.000 % 	 .../PipelineBuild

		       4.390 Mt     6.517 %         1 x        4.390 Mt        0.000 Mt        4.390 Mt   100.000 % 	 ../ResolveRLInitialization

		    3907.363 Mt    31.421 %       498 x        7.846 Mt      439.702 Mt       12.841 Mt     0.329 % 	 ./Run

		    1506.968 Mt    38.567 %       705 x        2.138 Mt      439.706 Mt      525.122 Mt    34.846 % 	 ../Update

		     534.633 Mt    35.477 %         3 x      178.211 Mt      158.968 Mt      145.138 Mt    27.147 % 	 .../ScenePrep

		      43.517 Mt     8.140 %         3 x       14.506 Mt        5.670 Mt       43.517 Mt   100.000 % 	 ..../SceneDesc-CreateScene

		       2.641 Mt     0.494 %         3 x        0.880 Mt        0.522 Mt        0.006 Mt     0.227 % 	 ..../ShadowMapRLPrep

		       2.635 Mt    99.773 %         3 x        0.878 Mt        0.521 Mt        1.470 Mt    55.782 % 	 ...../PrepareForRendering

		       1.165 Mt    44.218 %         3 x        0.388 Mt        0.384 Mt        1.165 Mt   100.000 % 	 ....../PrepareDrawBundle

		       7.282 Mt     1.362 %         3 x        2.427 Mt        2.203 Mt        0.003 Mt     0.041 % 	 ..../DeferredRLPrep

		       7.279 Mt    99.959 %         3 x        2.426 Mt        2.202 Mt        3.165 Mt    43.482 % 	 ...../PrepareForRendering

		       0.151 Mt     2.077 %         3 x        0.050 Mt        0.043 Mt        0.151 Mt   100.000 % 	 ....../PrepareMaterials

		       0.650 Mt     8.937 %         3 x        0.217 Mt        0.260 Mt        0.650 Mt   100.000 % 	 ....../BuildMaterialCache

		       3.312 Mt    45.504 %         3 x        1.104 Mt        1.122 Mt        3.312 Mt   100.000 % 	 ....../PrepareDrawBundle

		     166.383 Mt    31.121 %         3 x       55.461 Mt       55.191 Mt       26.494 Mt    15.924 % 	 ..../RayTracingRLPrep

		       9.591 Mt     5.764 %         3 x        3.197 Mt        3.785 Mt        9.591 Mt   100.000 % 	 ...../PrepareAccelerationStructures

		       0.136 Mt     0.082 %         3 x        0.045 Mt        0.043 Mt        0.136 Mt   100.000 % 	 ...../PrepareCache

		      32.900 Mt    19.773 %         3 x       10.967 Mt        9.318 Mt       32.900 Mt   100.000 % 	 ...../PipelineBuild

		       1.631 Mt     0.980 %         3 x        0.544 Mt        0.462 Mt        1.631 Mt   100.000 % 	 ...../BuildCache

		      93.760 Mt    56.352 %         3 x       31.253 Mt       27.976 Mt        0.003 Mt     0.004 % 	 ...../BuildAccelerationStructures

		      93.757 Mt    99.996 %         3 x       31.252 Mt       27.975 Mt        2.691 Mt     2.870 % 	 ....../AccelerationStructureBuild

		      89.596 Mt    95.562 %         3 x       29.865 Mt       26.490 Mt       89.596 Mt   100.000 % 	 ......./BuildBottomLevelAS

		       1.470 Mt     1.568 %         3 x        0.490 Mt        0.480 Mt        1.470 Mt   100.000 % 	 ......./BuildTopLevelAS

		       1.871 Mt     1.125 %         3 x        0.624 Mt        0.668 Mt        1.871 Mt   100.000 % 	 ...../BuildShaderTables

		     169.671 Mt    31.736 %         3 x       56.557 Mt       47.029 Mt      169.671 Mt   100.000 % 	 ..../GpuSidePrep

		     447.214 Mt    29.676 %       396 x        1.129 Mt        0.947 Mt      154.522 Mt    34.552 % 	 .../AccelerationStructureBuild

		     127.008 Mt    28.400 %       396 x        0.321 Mt        0.253 Mt      127.008 Mt   100.000 % 	 ..../BuildBottomLevelAS

		     165.684 Mt    37.048 %       396 x        0.418 Mt        0.378 Mt      165.684 Mt   100.000 % 	 ..../BuildTopLevelAS

		    2387.560 Mt    61.104 %       497 x        4.804 Mt        5.237 Mt        0.356 Mt     0.015 % 	 ../Render

		    2387.204 Mt    99.985 %       497 x        4.803 Mt        5.236 Mt      103.752 Mt     4.346 % 	 .../Render

		    1466.597 Mt    61.436 %       497 x        2.951 Mt        3.227 Mt     1466.597 Mt   100.000 % 	 ..../Present

		     816.855 Mt    34.218 %       495 x        1.650 Mt        1.794 Mt      815.965 Mt    99.891 % 	 ..../RayTracing

		       0.455 Mt     0.056 %       495 x        0.001 Mt        0.001 Mt        0.455 Mt   100.000 % 	 ...../DeferredRLPrep

		       0.436 Mt     0.053 %       495 x        0.001 Mt        0.001 Mt        0.436 Mt   100.000 % 	 ...../RayTracingRLPrep

	WindowThread:

		   12433.910 Mt   100.000 %         1 x    12433.910 Mt    12433.910 Mt    12433.910 Mt   100.000 % 	 /

	GpuThread:

		    1298.213 Mt   100.000 %       890 x        1.459 Mt        0.339 Mt       26.203 Mt     2.018 % 	 /

		       3.042 Mt     0.234 %       497 x        0.006 Mt        0.002 Mt        3.042 Mt   100.000 % 	 ./Present

		     150.751 Mt    11.612 %         3 x       50.250 Mt       41.971 Mt        0.011 Mt     0.007 % 	 ./ScenePrep

		     150.740 Mt    99.993 %         3 x       50.247 Mt       41.969 Mt        0.006 Mt     0.004 % 	 ../AccelerationStructureBuild

		     150.258 Mt    99.680 %         3 x       50.086 Mt       41.828 Mt      150.258 Mt   100.000 % 	 .../BuildBottomLevelASGpu

		       0.476 Mt     0.316 %         3 x        0.159 Mt        0.140 Mt        0.476 Mt   100.000 % 	 .../BuildTopLevelASGpu

		     126.967 Mt     9.780 %       396 x        0.321 Mt        0.339 Mt        0.441 Mt     0.348 % 	 ./AccelerationStructureBuild

		     103.191 Mt    81.273 %       396 x        0.261 Mt        0.283 Mt      103.191 Mt   100.000 % 	 ../BuildBottomLevelASGpu

		      23.335 Mt    18.379 %       396 x        0.059 Mt        0.055 Mt       23.335 Mt   100.000 % 	 ../BuildTopLevelASGpu

		     991.250 Mt    76.355 %       495 x        2.003 Mt        2.054 Mt        1.453 Mt     0.147 % 	 ./RayTracingGpu

		     149.437 Mt    15.076 %       495 x        0.302 Mt        0.302 Mt      149.437 Mt   100.000 % 	 ../DeferredRLGpu

		     453.161 Mt    45.716 %       495 x        0.915 Mt        0.992 Mt      453.161 Mt   100.000 % 	 ../RayTracingRLGpu

		     387.199 Mt    39.062 %       495 x        0.782 Mt        0.755 Mt      387.199 Mt   100.000 % 	 ../ResolveRLGpu


	============================


