Configuration: 
Command line parameters  = E:\programming\FIT-DIP\Masters-DXR-Main-git\build\Measurement\x64\Release\Measurement.exe --scene Sponza/Sponza.gltf --profile-builds --profile-output BuildsSponza 
Build type               = Release
Device name              = NVIDIA GeForce RTX 2080 Ti
Device memory MB         = 11049
Ray Tracing backend      = Hardware
Window width             = 1024
Window height            = 768
Window title             = Direct3D App
Back-buffer count        = 3
Fill Triangles           = enabled
Triangles Font Clock-Wise= enabled
Fast Build AS            = disabled
Target FPS               = 60
Target UPS               = 60
Tearing                  = disabled
VSync                    = disabled
GUI rendering            = enabled
Debug layer              = disabled
GPU validation           = disabled
GPU profiling            = enabled
Render mode              = Rasterization
Loaded scene file        = Sponza/Sponza.gltf
Using testing scene      = disabled
Duplication              = 1
Duplication in cube      = disabled
Duplication offset       = 10
BLAS duplication         = disabled
Rays per pixel           = 13
Quality preset           = High
Rasterization Quality    : 
  AO                     = enabled
  AO kernel size         = 4
  Shadows                = enabled
  Shadow map resolution  = 4096
  Shadow PCF kernel size = 4
  Reflections            = enabled
Ray Tracing Quality      : 
  AO                     = enabled
  AO rays                = 4
  AO kernel size         = 4
  Shadows                = enabled
  Shadow rays            = 4
  Shadow kernel size     = 4
  Reflections            = enabled

ProfilingAggregator: 

ProfilingBuildAggregator: 
BuildBottomLevelAS	,	1.8901	,	1.8901	,	1.8901	,	1.8901	,	1.8901	,	1.8901	,	1.8901	,	1.8901	,	1.8901	,	1.8901	,	1.8901	,	1.8901	,	1.8901	,	1.8901	,	1.8901	,	1.8901	,	1.8901	,	1.8901	,	1.8901	,	1.8901	,	1.8901	,	1.8901	,	1.8901	,	1.8901	,	1.8901	,	1.8901	,	1.8901	,	1.8901	,	1.8901	,	1.8901	,	1.8901	,	1.8901	,	1.8901	,	1.8901	,	1.8901	,	1.8901	,	1.8901	,	1.8901	,	1.8901	,	1.8901	,	1.8901	,	1.8901	,	1.8901	,	1.8901	,	1.8901	,	1.8901	,	1.8901	,	1.8901	,	1.8901	,	1.8901	,	1.8901	,	1.8901	,	1.8901	,	1.8901	,	1.8901	,	1.8901	,	1.8901	,	1.8901	,	1.8901	,	1.8901	,	1.8901	,	1.8901	,	1.8901	,	1.8901	,	1.8901	,	1.8901	,	1.8901	,	1.8901	,	1.8901	,	1.8901	,	1.8901	,	1.8901	,	1.8901	,	1.8901	,	1.8901	,	1.8901	,	1.8901	,	1.8901	,	1.8901	,	1.8901	,	1.8901	,	1.8901	,	1.8901	,	1.8901	,	1.8901	,	1.8901	,	1.8901	,	1.8901	,	1.8901	,	1.8901	,	1.8901	,	1.8901	,	1.8901	,	1.8901	,	1.8901	,	1.8901	,	1.8901	,	1.8901	,	1.8901	,	1.8901	,	1.8901	,	1.8901	,	1.8901	,	1.8901
BuildBottomLevelASGpu	,	1.5081	,	0.608992	,	0.397536	,	0.48064	,	0.401792	,	0.266144	,	0.290688	,	0.44416	,	0.450848	,	0.476128	,	0.16368	,	0.44064	,	0.393248	,	0.500192	,	0.2976	,	0.304544	,	0.278048	,	0.258112	,	0.232832	,	0.27744	,	0.229568	,	0.275648	,	0.235904	,	0.257088	,	0.2312	,	0.294144	,	0.249152	,	0.256864	,	0.250176	,	0.261312	,	0.228192	,	0.26032	,	0.249408	,	0.258688	,	0.23168	,	0.304896	,	0.22208	,	0.289248	,	0.234496	,	0.340128	,	0.203136	,	0.242432	,	0.183424	,	0.37328	,	0.229216	,	0.4936	,	0.207808	,	0.141312	,	0.433952	,	0.508704	,	0.712928	,	0.18768	,	0.24224	,	0.550432	,	0.755392	,	0.573024	,	0.545184	,	0.560544	,	0.564448	,	0.563424	,	0.546368	,	0.534304	,	0.564832	,	0.586208	,	0.494848	,	0.509152	,	0.52032	,	0.523872	,	0.508544	,	0.505984	,	0.52064	,	0.492448	,	0.499488	,	0.524608	,	0.142848	,	0.596384	,	0.143104	,	0.60128	,	0.143936	,	0.578464	,	0.163264	,	0.595904	,	0.379616	,	0.4584	,	0.395296	,	0.442272	,	0.3784	,	0.477824	,	0.391008	,	0.47344	,	0.372672	,	0.464128	,	0.39056	,	0.463232	,	0.374144	,	0.487104	,	0.5808	,	0.446592	,	0.410944	,	0.470368	,	0.398752	,	0.188096	,	0.642912	,	0.162272
BuildTopLevelAS	,	0.8052	,	0.8052	,	0.8052	,	0.8052	,	0.8052	,	0.8052	,	0.8052	,	0.8052	,	0.8052	,	0.8052	,	0.8052	,	0.8052	,	0.8052	,	0.8052	,	0.8052	,	0.8052	,	0.8052	,	0.8052	,	0.8052	,	0.8052	,	0.8052	,	0.8052	,	0.8052	,	0.8052	,	0.8052	,	0.8052	,	0.8052	,	0.8052	,	0.8052	,	0.8052	,	0.8052	,	0.8052	,	0.8052	,	0.8052	,	0.8052	,	0.8052	,	0.8052	,	0.8052	,	0.8052	,	0.8052	,	0.8052	,	0.8052	,	0.8052	,	0.8052	,	0.8052	,	0.8052	,	0.8052	,	0.8052	,	0.8052	,	0.8052	,	0.8052	,	0.8052	,	0.8052	,	0.8052	,	0.8052	,	0.8052	,	0.8052	,	0.8052	,	0.8052	,	0.8052	,	0.8052	,	0.8052	,	0.8052	,	0.8052	,	0.8052	,	0.8052	,	0.8052	,	0.8052	,	0.8052	,	0.8052	,	0.8052	,	0.8052	,	0.8052	,	0.8052	,	0.8052	,	0.8052	,	0.8052	,	0.8052	,	0.8052	,	0.8052	,	0.8052	,	0.8052	,	0.8052	,	0.8052	,	0.8052	,	0.8052	,	0.8052	,	0.8052	,	0.8052	,	0.8052	,	0.8052	,	0.8052	,	0.8052	,	0.8052	,	0.8052	,	0.8052	,	0.8052	,	0.8052	,	0.8052	,	0.8052	,	0.8052	,	0.8052	,	0.8052	,	0.8052
BuildTopLevelASGpu	,	0.08656	,	0.080064	,	0.083296	,	0.079232	,	0.078048	,	0.083296	,	0.07824	,	0.079488	,	0.083136	,	0.079072	,	0.078432	,	0.078816	,	0.083136	,	0.079424	,	0.078848	,	0.083552	,	0.07824	,	0.07824	,	0.078208	,	0.082912	,	0.078912	,	0.08352	,	0.079232	,	0.07904	,	0.078208	,	0.08272	,	0.078016	,	0.07904	,	0.083104	,	0.078208	,	0.07824	,	0.07824	,	0.082528	,	0.0784	,	0.0784	,	0.078208	,	0.082496	,	0.078048	,	0.077824	,	0.078432	,	0.083136	,	0.078848	,	0.078432	,	0.078432	,	0.08336	,	0.079232	,	0.07824	,	0.07904	,	0.083328	,	0.078432	,	0.079456	,	0.084128	,	0.078048	,	0.078464	,	0.079008	,	0.083744	,	0.078176	,	0.078848	,	0.079872	,	0.083296	,	0.078016	,	0.078016	,	0.082688	,	0.078848	,	0.078048	,	0.078208	,	0.083936	,	0.082112	,	0.078048	,	0.079232	,	0.082496	,	0.07824	,	0.078208	,	0.082912	,	0.079232	,	0.078432	,	0.078016	,	0.08272	,	0.079232	,	0.078624	,	0.08352	,	0.07984	,	0.07824	,	0.078016	,	0.083296	,	0.07824	,	0.078048	,	0.078016	,	0.08352	,	0.078432	,	0.078208	,	0.078208	,	0.082496	,	0.078432	,	0.078016	,	0.082528	,	0.082688	,	0.07824	,	0.078016	,	0.083136	,	0.078656	,	0.077856	,	0.082496	,	0.08272
Duplication	,	1	,	1	,	1	,	1	,	1	,	1	,	1	,	1	,	1	,	1	,	1	,	1	,	1	,	1	,	1	,	1	,	1	,	1	,	1	,	1	,	1	,	1	,	1	,	1	,	1	,	1	,	1	,	1	,	1	,	1	,	1	,	1	,	1	,	1	,	1	,	1	,	1	,	1	,	1	,	1	,	1	,	1	,	1	,	1	,	1	,	1	,	1	,	1	,	1	,	1	,	1	,	1	,	1	,	1	,	1	,	1	,	1	,	1	,	1	,	1	,	1	,	1	,	1	,	1	,	1	,	1	,	1	,	1	,	1	,	1	,	1	,	1	,	1	,	1	,	1	,	1	,	1	,	1	,	1	,	1	,	1	,	1	,	1	,	1	,	1	,	1	,	1	,	1	,	1	,	1	,	1	,	1	,	1	,	1	,	1	,	1	,	1	,	1	,	1	,	1	,	1	,	1	,	1	,	1
Triangles	,	262267	,	3640	,	468	,	2211	,	1362	,	108	,	280	,	2332	,	1456	,	2896	,	16	,	2332	,	1096	,	3680	,	204	,	204	,	148	,	160	,	112	,	160	,	112	,	160	,	112	,	160	,	112	,	160	,	112	,	160	,	112	,	160	,	112	,	160	,	112	,	160	,	112	,	440	,	32	,	280	,	54	,	242	,	24	,	82	,	24	,	556	,	50	,	3408	,	50	,	5	,	1360	,	3736	,	23208	,	18	,	64	,	5456	,	27796	,	5504	,	5504	,	5504	,	5504	,	5504	,	5504	,	5504	,	5504	,	11040	,	4864	,	4608	,	4864	,	4864	,	4608	,	4864	,	4608	,	4864	,	4608	,	4864	,	8	,	4957	,	8	,	4957	,	8	,	4957	,	8	,	4957	,	468	,	2211	,	468	,	2211	,	468	,	2211	,	400	,	2211	,	400	,	2211	,	400	,	2211	,	400	,	2211	,	9184	,	1521	,	1362	,	1521	,	1362	,	28	,	14484	,	10
Meshes	,	103	,	1	,	1	,	1	,	1	,	1	,	1	,	1	,	1	,	1	,	1	,	1	,	1	,	1	,	1	,	1	,	1	,	1	,	1	,	1	,	1	,	1	,	1	,	1	,	1	,	1	,	1	,	1	,	1	,	1	,	1	,	1	,	1	,	1	,	1	,	1	,	1	,	1	,	1	,	1	,	1	,	1	,	1	,	1	,	1	,	1	,	1	,	1	,	1	,	1	,	1	,	1	,	1	,	1	,	1	,	1	,	1	,	1	,	1	,	1	,	1	,	1	,	1	,	1	,	1	,	1	,	1	,	1	,	1	,	1	,	1	,	1	,	1	,	1	,	1	,	1	,	1	,	1	,	1	,	1	,	1	,	1	,	1	,	1	,	1	,	1	,	1	,	1	,	1	,	1	,	1	,	1	,	1	,	1	,	1	,	1	,	1	,	1	,	1	,	1	,	1	,	1	,	1	,	1
BottomLevels	,	1	,	1	,	1	,	1	,	1	,	1	,	1	,	1	,	1	,	1	,	1	,	1	,	1	,	1	,	1	,	1	,	1	,	1	,	1	,	1	,	1	,	1	,	1	,	1	,	1	,	1	,	1	,	1	,	1	,	1	,	1	,	1	,	1	,	1	,	1	,	1	,	1	,	1	,	1	,	1	,	1	,	1	,	1	,	1	,	1	,	1	,	1	,	1	,	1	,	1	,	1	,	1	,	1	,	1	,	1	,	1	,	1	,	1	,	1	,	1	,	1	,	1	,	1	,	1	,	1	,	1	,	1	,	1	,	1	,	1	,	1	,	1	,	1	,	1	,	1	,	1	,	1	,	1	,	1	,	1	,	1	,	1	,	1	,	1	,	1	,	1	,	1	,	1	,	1	,	1	,	1	,	1	,	1	,	1	,	1	,	1	,	1	,	1	,	1	,	1	,	1	,	1	,	1	,	1
TopLevelSize	,	64	,	64	,	64	,	64	,	64	,	64	,	64	,	64	,	64	,	64	,	64	,	64	,	64	,	64	,	64	,	64	,	64	,	64	,	64	,	64	,	64	,	64	,	64	,	64	,	64	,	64	,	64	,	64	,	64	,	64	,	64	,	64	,	64	,	64	,	64	,	64	,	64	,	64	,	64	,	64	,	64	,	64	,	64	,	64	,	64	,	64	,	64	,	64	,	64	,	64	,	64	,	64	,	64	,	64	,	64	,	64	,	64	,	64	,	64	,	64	,	64	,	64	,	64	,	64	,	64	,	64	,	64	,	64	,	64	,	64	,	64	,	64	,	64	,	64	,	64	,	64	,	64	,	64	,	64	,	64	,	64	,	64	,	64	,	64	,	64	,	64	,	64	,	64	,	64	,	64	,	64	,	64	,	64	,	64	,	64	,	64	,	64	,	64	,	64	,	64	,	64	,	64	,	64	,	64
BottomLevelsSize	,	14622208	,	260736	,	37504	,	158080	,	99072	,	11904	,	23168	,	168192	,	104832	,	206080	,	4864	,	168192	,	82560	,	261376	,	17792	,	17792	,	13952	,	15616	,	12032	,	15616	,	12032	,	15616	,	12032	,	15616	,	12032	,	15616	,	12032	,	15616	,	12032	,	15616	,	12032	,	15616	,	12032	,	15616	,	12032	,	35712	,	6528	,	23168	,	8192	,	21120	,	5216	,	10112	,	5216	,	43264	,	6784	,	246016	,	6784	,	3712	,	99072	,	267904	,	1631872	,	4864	,	8448	,	389504	,	1954560	,	390272	,	390272	,	390272	,	390272	,	390272	,	390272	,	390272	,	390272	,	777984	,	346880	,	326144	,	346880	,	346880	,	326144	,	346880	,	326144	,	346880	,	326144	,	346880	,	3840	,	353792	,	3840	,	353792	,	3840	,	353792	,	3840	,	353792	,	37504	,	158080	,	37504	,	158080	,	37504	,	158080	,	32256	,	158080	,	32256	,	158080	,	32256	,	158080	,	32256	,	158080	,	648576	,	109952	,	99072	,	109952	,	99072	,	6400	,	1021440	,	4096
Index	,	0	,	1	,	2	,	3	,	4	,	5	,	6	,	7	,	8	,	9	,	10	,	11	,	12	,	13	,	14	,	15	,	16	,	17	,	18	,	19	,	20	,	21	,	22	,	23	,	24	,	25	,	26	,	27	,	28	,	29	,	30	,	31	,	32	,	33	,	34	,	35	,	36	,	37	,	38	,	39	,	40	,	41	,	42	,	43	,	44	,	45	,	46	,	47	,	48	,	49	,	50	,	51	,	52	,	53	,	54	,	55	,	56	,	57	,	58	,	59	,	60	,	61	,	62	,	63	,	64	,	65	,	66	,	67	,	68	,	69	,	70	,	71	,	72	,	73	,	74	,	75	,	76	,	77	,	78	,	79	,	80	,	81	,	82	,	83	,	84	,	85	,	86	,	87	,	88	,	89	,	90	,	91	,	92	,	93	,	94	,	95	,	96	,	97	,	98	,	99	,	100	,	101	,	102	,	103

FpsAggregator: 
FPS	,	0	,	0	,	0	,	0	,	0	,	0	,	0	,	0	,	0	,	0	,	0	,	0	,	0	,	0	,	0	,	0	,	0	,	0	,	0	,	0	,	0	,	0	,	0	,	0	,	0	,	0	,	0	,	0	,	0	,	0	,	0	,	0	,	0	,	0	,	0	,	0	,	0	,	0	,	0	,	0	,	0	,	0	,	0	,	0	,	0	,	0	,	0	,	0	,	0	,	0	,	0	,	0	,	0	,	0	,	0	,	0	,	0	,	0	,	0	,	0	,	0	,	0	,	0	,	0	,	0	,	0	,	0	,	0	,	0	,	0	,	0	,	0	,	0	,	0	,	0	,	0	,	0	,	0	,	0	,	0	,	0	,	0	,	0	,	0	,	0	,	0	,	0	,	0	,	0	,	0	,	0	,	0	,	0	,	0	,	0	,	0	,	0	,	0	,	0	,	0	,	0	,	0	,	0	,	0
UPS	,	0	,	0	,	0	,	0	,	0	,	0	,	0	,	0	,	0	,	0	,	0	,	0	,	0	,	0	,	0	,	0	,	0	,	0	,	0	,	0	,	0	,	0	,	0	,	0	,	0	,	0	,	0	,	0	,	0	,	0	,	0	,	0	,	0	,	0	,	0	,	0	,	0	,	0	,	0	,	0	,	0	,	0	,	0	,	0	,	0	,	0	,	0	,	0	,	0	,	0	,	0	,	0	,	0	,	0	,	0	,	0	,	0	,	0	,	0	,	0	,	0	,	0	,	0	,	0	,	0	,	0	,	0	,	0	,	0	,	0	,	0	,	0	,	0	,	0	,	0	,	0	,	0	,	0	,	0	,	0	,	0	,	0	,	0	,	0	,	0	,	0	,	0	,	0	,	0	,	0	,	0	,	0	,	0	,	0	,	0	,	0	,	0	,	0	,	0	,	0	,	0	,	0	,	0	,	0
FrameTime	,	0	,	0	,	0	,	0	,	0	,	0	,	0	,	0	,	0	,	0	,	0	,	0	,	0	,	0	,	0	,	0	,	0	,	0	,	0	,	0	,	0	,	0	,	0	,	0	,	0	,	0	,	0	,	0	,	0	,	0	,	0	,	0	,	0	,	0	,	0	,	0	,	0	,	0	,	0	,	0	,	0	,	0	,	0	,	0	,	0	,	0	,	0	,	0	,	0	,	0	,	0	,	0	,	0	,	0	,	0	,	0	,	0	,	0	,	0	,	0	,	0	,	0	,	0	,	0	,	0	,	0	,	0	,	0	,	0	,	0	,	0	,	0	,	0	,	0	,	0	,	0	,	0	,	0	,	0	,	0	,	0	,	0	,	0	,	0	,	0	,	0	,	0	,	0	,	0	,	0	,	0	,	0	,	0	,	0	,	0	,	0	,	0	,	0	,	0	,	0	,	0	,	0	,	0	,	0
GigaRays/s	,	0	,	0	,	0	,	0	,	0	,	0	,	0	,	0	,	0	,	0	,	0	,	0	,	0	,	0	,	0	,	0	,	0	,	0	,	0	,	0	,	0	,	0	,	0	,	0	,	0	,	0	,	0	,	0	,	0	,	0	,	0	,	0	,	0	,	0	,	0	,	0	,	0	,	0	,	0	,	0	,	0	,	0	,	0	,	0	,	0	,	0	,	0	,	0	,	0	,	0	,	0	,	0	,	0	,	0	,	0	,	0	,	0	,	0	,	0	,	0	,	0	,	0	,	0	,	0	,	0	,	0	,	0	,	0	,	0	,	0	,	0	,	0	,	0	,	0	,	0	,	0	,	0	,	0	,	0	,	0	,	0	,	0	,	0	,	0	,	0	,	0	,	0	,	0	,	0	,	0	,	0	,	0	,	0	,	0	,	0	,	0	,	0	,	0	,	0	,	0	,	0	,	0	,	0	,	0
Index	,	0	,	1	,	2	,	3	,	4	,	5	,	6	,	7	,	8	,	9	,	10	,	11	,	12	,	13	,	14	,	15	,	16	,	17	,	18	,	19	,	20	,	21	,	22	,	23	,	24	,	25	,	26	,	27	,	28	,	29	,	30	,	31	,	32	,	33	,	34	,	35	,	36	,	37	,	38	,	39	,	40	,	41	,	42	,	43	,	44	,	45	,	46	,	47	,	48	,	49	,	50	,	51	,	52	,	53	,	54	,	55	,	56	,	57	,	58	,	59	,	60	,	61	,	62	,	63	,	64	,	65	,	66	,	67	,	68	,	69	,	70	,	71	,	72	,	73	,	74	,	75	,	76	,	77	,	78	,	79	,	80	,	81	,	82	,	83	,	84	,	85	,	86	,	87	,	88	,	89	,	90	,	91	,	92	,	93	,	94	,	95	,	96	,	97	,	98	,	99	,	100	,	101	,	102	,	103


AccelerationStructure: 
Ray tracing acceleration structure building statistics: 
	Bottom Level Acceleration Structure: 
		Maximum [B]: 18390656
		Minimum [B]: 18390656
		Currently Allocated [B]: 18390656
		Currently Created [num]: 1
		Current Average [B]: 18390656
		Maximum Triangles [num]: 262267
		Minimum Triangles [num]: 262267
		Total Triangles [num]: 262267
		Maximum Meshes [num]: 103
		Minimum Meshes [num]: 103
		Total Meshes [num]: 103
	Top Level Acceleration Structure: 
		Maximum [B]: 64
		Minimum [B]: 64
		Currently Allocated [B]: 64
		Total Allocated [B]: 64
		Total Created [num]: 1
		Average Allocated [B]: 64
		Maximum Instances [num]: 1
		Minimum Instances [num]: 1
		Total Instances [num]: 1
	Scratch Buffer: 
		Maximum [B]: 14995072
		Minimum [B]: 14995072
		Currently Allocated [B]: 14995072
		Total Allocated [B]: 14995072
		Total Created [num]: 1
		Average Allocated [B]: 14995072
ProfilingStack: 
[PROF] Profiling statistics: 
	Scopes entered : 741
	Scopes exited : 740
	Overhead per scope [ticks] : 102.7
	Threads entered : 3
	Threads exited : 0
	============================
		         Sum[Mt]   Parent[%]  Samples[num]       Avg[Mt]   Last/Curr[Mt]        Self[Mt]     Self[%] 	 Name

	main:

		    5345.306 Mt   100.000 %         1 x     5345.307 Mt     5345.306 Mt        0.360 Mt     0.007 % 	 /

		    5345.011 Mt    99.994 %         1 x     5345.012 Mt     5345.011 Mt      456.918 Mt     8.549 % 	 ./Main application loop

		       2.529 Mt     0.047 %         1 x        2.529 Mt        2.529 Mt        2.529 Mt   100.000 % 	 ../TexturedRLInitialization

		       1.203 Mt     0.023 %         1 x        1.203 Mt        1.203 Mt        1.203 Mt   100.000 % 	 ../ShadowMapRLInitialization

		       4.650 Mt     0.087 %         1 x        4.650 Mt        4.650 Mt        4.650 Mt   100.000 % 	 ../RasterResolveRLInitialization

		       3.804 Mt     0.071 %         1 x        3.804 Mt        3.804 Mt        3.804 Mt   100.000 % 	 ../ResolveRLInitialization

		     373.664 Mt     6.991 %       105 x        3.559 Mt        4.083 Mt      244.157 Mt    65.341 % 	 ../AccelerationStructureBuild

		      59.880 Mt    16.025 %       105 x        0.570 Mt        0.498 Mt       59.880 Mt   100.000 % 	 .../BuildBottomLevelAS

		      69.628 Mt    18.634 %       105 x        0.663 Mt        0.481 Mt       69.628 Mt   100.000 % 	 .../BuildTopLevelAS

		       2.753 Mt     0.052 %         1 x        2.753 Mt        2.753 Mt        2.753 Mt   100.000 % 	 ../AmbientOcclusionRLInitialization

		       4.820 Mt     0.090 %         1 x        4.820 Mt        4.820 Mt        4.820 Mt   100.000 % 	 ../DeferredRLInitialization

		      88.282 Mt     1.652 %         1 x       88.282 Mt       88.282 Mt        2.076 Mt     2.351 % 	 ../RayTracingRLInitialization

		      86.206 Mt    97.649 %         1 x       86.206 Mt       86.206 Mt       86.206 Mt   100.000 % 	 .../PipelineBuild

		    4406.387 Mt    82.439 %         1 x     4406.387 Mt     4406.387 Mt        0.284 Mt     0.006 % 	 ../Initialization

		    4406.103 Mt    99.994 %         1 x     4406.103 Mt     4406.103 Mt        2.810 Mt     0.064 % 	 .../ScenePrep

		    4317.190 Mt    97.982 %         1 x     4317.190 Mt     4317.190 Mt     1598.815 Mt    37.034 % 	 ..../SceneLoad

		    2016.137 Mt    46.700 %         1 x     2016.137 Mt     2016.137 Mt      591.970 Mt    29.362 % 	 ...../glTF-LoadScene

		    1424.167 Mt    70.638 %        69 x       20.640 Mt        0.006 Mt     1424.167 Mt   100.000 % 	 ....../glTF-LoadImageData

		     438.641 Mt    10.160 %         1 x      438.641 Mt      438.641 Mt      438.641 Mt   100.000 % 	 ...../glTF-CreateScene

		     263.596 Mt     6.106 %         1 x      263.596 Mt      263.596 Mt      263.596 Mt   100.000 % 	 ...../SceneDesc-CreateScene

		       1.688 Mt     0.038 %         1 x        1.688 Mt        1.688 Mt        0.001 Mt     0.036 % 	 ..../ShadowMapRLPrep

		       1.688 Mt    99.964 %         1 x        1.688 Mt        1.688 Mt        1.642 Mt    97.292 % 	 ...../PrepareForRendering

		       0.046 Mt     2.708 %         1 x        0.046 Mt        0.046 Mt        0.046 Mt   100.000 % 	 ....../PrepareDrawBundle

		       5.197 Mt     0.118 %         1 x        5.197 Mt        5.197 Mt        0.001 Mt     0.019 % 	 ..../TexturedRLPrep

		       5.196 Mt    99.981 %         1 x        5.196 Mt        5.196 Mt        5.155 Mt    99.211 % 	 ...../PrepareForRendering

		       0.001 Mt     0.021 %         1 x        0.001 Mt        0.001 Mt        0.001 Mt   100.000 % 	 ....../PrepareMaterials

		       0.040 Mt     0.768 %         1 x        0.040 Mt        0.040 Mt        0.040 Mt   100.000 % 	 ....../PrepareDrawBundle

		       5.013 Mt     0.114 %         1 x        5.013 Mt        5.013 Mt        0.001 Mt     0.012 % 	 ..../DeferredRLPrep

		       5.012 Mt    99.988 %         1 x        5.012 Mt        5.012 Mt        3.105 Mt    61.956 % 	 ...../PrepareForRendering

		       0.001 Mt     0.016 %         1 x        0.001 Mt        0.001 Mt        0.001 Mt   100.000 % 	 ....../PrepareMaterials

		       1.848 Mt    36.869 %         1 x        1.848 Mt        1.848 Mt        1.848 Mt   100.000 % 	 ....../BuildMaterialCache

		       0.058 Mt     1.159 %         1 x        0.058 Mt        0.058 Mt        0.058 Mt   100.000 % 	 ....../PrepareDrawBundle

		      46.058 Mt     1.045 %         1 x       46.058 Mt       46.058 Mt        4.181 Mt     9.078 % 	 ..../RayTracingRLPrep

		       0.074 Mt     0.162 %         1 x        0.074 Mt        0.074 Mt        0.074 Mt   100.000 % 	 ...../PrepareAccelerationStructures

		       0.001 Mt     0.002 %         1 x        0.001 Mt        0.001 Mt        0.001 Mt   100.000 % 	 ...../PrepareCache

		      29.085 Mt    63.150 %         1 x       29.085 Mt       29.085 Mt       29.085 Mt   100.000 % 	 ...../PipelineBuild

		       1.360 Mt     2.953 %         1 x        1.360 Mt        1.360 Mt        1.360 Mt   100.000 % 	 ...../BuildCache

		       8.456 Mt    18.360 %         1 x        8.456 Mt        8.456 Mt        0.000 Mt     0.006 % 	 ...../BuildAccelerationStructures

		       8.456 Mt    99.994 %         1 x        8.456 Mt        8.456 Mt        5.760 Mt    68.124 % 	 ....../AccelerationStructureBuild

		       1.890 Mt    22.353 %         1 x        1.890 Mt        1.890 Mt        1.890 Mt   100.000 % 	 ......./BuildBottomLevelAS

		       0.805 Mt     9.523 %         1 x        0.805 Mt        0.805 Mt        0.805 Mt   100.000 % 	 ......./BuildTopLevelAS

		       2.900 Mt     6.296 %         1 x        2.900 Mt        2.900 Mt        2.900 Mt   100.000 % 	 ...../BuildShaderTables

		      28.147 Mt     0.639 %         1 x       28.147 Mt       28.147 Mt       28.147 Mt   100.000 % 	 ..../GpuSidePrep

	WindowThread:

		    5341.788 Mt   100.000 %         1 x     5341.788 Mt     5341.788 Mt     5341.788 Mt   100.000 % 	 /

	GpuThread:

		     110.245 Mt   100.000 %       104 x        1.060 Mt        0.246 Mt       56.225 Mt    51.000 % 	 /

		       2.524 Mt     2.289 %         1 x        2.524 Mt        2.524 Mt        0.007 Mt     0.266 % 	 ./ScenePrep

		       2.517 Mt    99.734 %         1 x        2.517 Mt        2.517 Mt        0.001 Mt     0.048 % 	 ../AccelerationStructureBuild

		       2.426 Mt    96.397 %         1 x        2.426 Mt        2.426 Mt        2.426 Mt   100.000 % 	 .../BuildBottomLevelASGpu

		       0.089 Mt     3.555 %         1 x        0.089 Mt        0.089 Mt        0.089 Mt   100.000 % 	 .../BuildTopLevelASGpu

		      51.497 Mt    46.711 %       105 x        0.490 Mt        0.246 Mt        0.132 Mt     0.257 % 	 ./AccelerationStructureBuild

		      42.957 Mt    83.418 %       105 x        0.409 Mt        0.162 Mt       42.957 Mt   100.000 % 	 ../BuildBottomLevelASGpu

		       8.407 Mt    16.326 %       105 x        0.080 Mt        0.083 Mt        8.407 Mt   100.000 % 	 ../BuildTopLevelASGpu


	============================


