Configuration: 
Command line parameters  = 
Window width             = 1024
Window height            = 768
Window title             = Direct3D App
Back-buffer count        = 3
Fill Triangles           = enabled
Triangles Font Clock-Wise= disabled
Fast Build AS            = disabled
Target FPS               = 0
Target UPS               = 60
Tearing                  = enabled
VSync                    = disabled
GUI rendering            = disabled
Debug layer              = enabled
GPU validation           = disabled
GPU profiling            = enabled
Render mode              = Ray Tracing
Loaded scene file        = 
Using testing scene      = disabled
BLAS duplication         = disabled
Rays per pixel           = 14
Quality preset           = Medium
Rasterization Quality    : 
  AO                     = enabled
  AO kernel size         = 4
  Shadows                = enabled
  Shadow map resolution  = 4096
  Shadow PCF kernel size = 4
  Reflections            = disabled
Ray Tracing Quality      : 
  AO                     = enabled
  AO rays                = 4
  AO kernel size         = 4
  Shadows                = enabled
  Shadow rays            = 4
  Shadow kernel size     = 4
  Reflections            = disabled

ProfilingAggregator: 
Update	,	0	,	546.579	,	550.086	,	554.977	,	560.561	,	565.585	,	570.054	,	573.492	,	579.24	,	584.259	,	589.154	,	592.773	,	596.677	,	600.429	,	603.394	,	606.29	,	618.28	,	627.769	,	636.872	,	643.583	,	648.653	,	652.578	,	656.07	,	659.44	,	663.322	,	666.784	,	670.543	,	673.433	,	675.975	,	679.476	,	682.716	,	685.227	,	687.531	,	689.767	,	692.172	,	695.489	,	699.231	,	702.395	,	705.69	,	708.579	,	711.674	,	714.707	,	717.943	,	721.172	,	725.385	,	730.312	,	735.083	,	740.149	,	744.537	,	749.639	,	754.171	,	758.646	,	764.08	,	769.918	,	775.039	,	782.349	,	786.207	,	790.465	,	794.322	,	799.553	,	803.649	,	807.767
Index	,	0	,	1	,	2	,	3	,	4	,	5	,	6	,	7	,	8	,	9	,	10	,	11	,	12	,	13	,	14	,	15	,	16	,	17	,	18	,	19	,	20	,	21	,	22	,	23	,	24	,	25	,	26	,	27	,	28	,	29	,	30	,	31	,	32	,	33	,	34	,	35	,	36	,	37	,	38	,	39	,	40	,	41	,	42	,	43	,	44	,	45	,	46	,	47	,	48	,	49	,	50	,	51	,	52	,	53	,	54	,	55	,	56	,	57	,	58	,	59	,	60	,	61

ProfilingBuildAggregator: 
BuildBottomLevelAS	,	0.3304	,	0.3841	,	0.4672	,	0.5119	,	0.418	,	0.3935	,	0.3234	,	0.4854	,	0.3321	,	0.3707	,	0.3596	,	0.3409	,	0.3432	,	0.283	,	0.2857	,	0.4121	,	0.8872	,	0.6802	,	0.7213	,	0.5258	,	0.4282	,	0.2986	,	0.3266	,	0.5042	,	0.2951	,	0.3854	,	0.2657	,	0.2665	,	0.3535	,	0.3232	,	0.2973	,	0.2435	,	0.2417	,	0.271	,	0.3328	,	0.2676	,	0.272	,	0.3186	,	0.2787	,	0.2837	,	0.2896	,	0.3883	,	0.3558	,	0.4108	,	0.3693	,	0.3727	,	0.5158	,	0.3654	,	0.4458	,	0.4191	,	0.3983	,	0.3345	,	0.5308	,	0.6024	,	0.6046	,	0.3449	,	0.4296	,	0.3856	,	0.4671	,	0.4608	,	0.3911
BuildBottomLevelASGpu	,	0.381472	,	1.08374	,	1.5193	,	2.00733	,	1.64922	,	1.54237	,	1.09542	,	2.93194	,	0.820576	,	0.799456	,	0.642432	,	0.428416	,	0.635392	,	0.436896	,	0.752768	,	0.631488	,	1.94778	,	3.01571	,	1.14525	,	1.27926	,	1.24893	,	1.07805	,	1.11661	,	0.586304	,	1.18448	,	1.4096	,	0.80592	,	0.522176	,	0.450304	,	0.480384	,	0.444672	,	0.413536	,	0.410016	,	0.465472	,	0.585248	,	0.603744	,	0.618464	,	0.434144	,	0.40384	,	0.418784	,	0.407776	,	0.69088	,	0.756128	,	1.59443	,	2.56362	,	1.77206	,	2.5175	,	1.69101	,	2.06131	,	2.10886	,	2.27901	,	2.49949	,	2.47418	,	2.00442	,	3.59597	,	1.42467	,	0.858144	,	1.23402	,	1.4215	,	1.38611	,	1.04006
BuildTopLevelAS	,	0.5102	,	0.4427	,	0.5467	,	0.4915	,	0.5607	,	0.5765	,	0.5098	,	0.5018	,	0.913	,	0.7005	,	0.5625	,	0.656	,	0.5715	,	0.486	,	0.4759	,	7.4289	,	0.9075	,	0.8446	,	1.5505	,	0.5636	,	0.4754	,	0.4289	,	0.4427	,	0.5882	,	0.3858	,	0.4145	,	0.4329	,	0.4018	,	0.5762	,	0.525	,	0.4665	,	0.4017	,	0.3968	,	0.3985	,	0.5512	,	0.8033	,	0.4888	,	0.6011	,	0.4151	,	0.4788	,	0.4905	,	0.4818	,	0.5145	,	0.5188	,	0.486	,	0.5622	,	0.4446	,	0.525	,	0.4725	,	0.4362	,	0.4548	,	0.5006	,	0.5534	,	0.5817	,	0.545	,	0.4776	,	0.5901	,	0.6892	,	0.6268	,	0.5316	,	0.6312
BuildTopLevelASGpu	,	0.236672	,	0.23664	,	0.240192	,	0.264352	,	0.263456	,	0.596736	,	0.235776	,	0.284512	,	1.11517	,	1.1215	,	0.23488	,	0.236672	,	0.239456	,	0.234432	,	0.234848	,	0.234496	,	0.26576	,	0.295168	,	0.237504	,	0.262176	,	0.235808	,	0.235264	,	0.23616	,	0.235776	,	0.235776	,	0.236224	,	0.235136	,	0.23616	,	0.234816	,	0.23824	,	0.192288	,	0.19152	,	0.192416	,	0.19184	,	0.192384	,	0.22016	,	0.192	,	0.221888	,	0.19952	,	0.191456	,	0.196384	,	0.192	,	0.191936	,	0.208512	,	0.196384	,	0.220064	,	0.209344	,	0.194848	,	0.223328	,	0.196416	,	0.19552	,	0.225056	,	0.225056	,	0.194464	,	0.241568	,	0.195968	,	0.194912	,	0.195904	,	0.19552	,	0.194592	,	0.19504
Triangles	,	32	,	4120	,	15584	,	45330	,	20655	,	7167	,	5600	,	46560	,	288	,	282	,	143	,	28	,	75	,	27	,	132	,	108	,	39389	,	52674	,	1812	,	2934	,	2305	,	1290	,	1919	,	122	,	8917	,	19389	,	281	,	47	,	34	,	46	,	63	,	52	,	50	,	102	,	142	,	125	,	183	,	34	,	33	,	48	,	34	,	1658	,	1368	,	7000	,	8584	,	7794	,	37536	,	6246	,	14409	,	23123	,	23437	,	9929	,	29460	,	23399	,	29275	,	1620	,	192	,	1572	,	1362	,	1999	,	306
Meshes	,	1	,	1	,	2	,	2	,	2	,	1	,	1	,	2	,	1	,	1	,	1	,	1	,	1	,	1	,	1	,	1	,	2	,	2	,	2	,	2	,	2	,	1	,	1	,	1	,	1	,	1	,	1	,	1	,	1	,	1	,	1	,	1	,	1	,	1	,	1	,	1	,	1	,	1	,	1	,	1	,	1	,	1	,	1	,	1	,	1	,	1	,	1	,	1	,	1	,	1	,	1	,	1	,	1	,	1	,	1	,	1	,	1	,	1	,	1	,	1	,	1
BottomLevels	,	1	,	1	,	1	,	1	,	1	,	1	,	1	,	1	,	1	,	1	,	1	,	1	,	1	,	1	,	1	,	1	,	1	,	1	,	1	,	1	,	1	,	1	,	1	,	1	,	1	,	1	,	1	,	1	,	1	,	1	,	1	,	1	,	1	,	1	,	1	,	1	,	1	,	1	,	1	,	1	,	1	,	1	,	1	,	1	,	1	,	1	,	1	,	1	,	1	,	1	,	1	,	1	,	1	,	1	,	1	,	1	,	1	,	1	,	1	,	1	,	1
TopLevelSize	,	64	,	64	,	64	,	64	,	64	,	64	,	64	,	64	,	64	,	64	,	64	,	64	,	64	,	64	,	64	,	64	,	64	,	64	,	64	,	64	,	64	,	64	,	64	,	64	,	64	,	64	,	64	,	64	,	64	,	64	,	64	,	64	,	64	,	64	,	64	,	64	,	64	,	64	,	64	,	64	,	64	,	64	,	64	,	64	,	64	,	64	,	64	,	64	,	64	,	64	,	64	,	64	,	64	,	64	,	64	,	64	,	64	,	64	,	64	,	64	,	64
BottomLevelsSize	,	6528	,	233856	,	872832	,	2531072	,	1155712	,	403712	,	316672	,	2599424	,	20992	,	19840	,	12544	,	6256	,	8496	,	6256	,	12304	,	10752	,	2199808	,	2940416	,	105600	,	167936	,	132864	,	76032	,	111104	,	11392	,	501632	,	1085056	,	19840	,	7168	,	6800	,	7168	,	8320	,	7888	,	7888	,	10144	,	12544	,	11392	,	14976	,	6800	,	6800	,	7680	,	6800	,	97152	,	80896	,	498560	,	606720	,	555392	,	2637440	,	442240	,	1015680	,	1625856	,	1647488	,	700288	,	2071040	,	1646976	,	2056960	,	120832	,	18432	,	115712	,	100352	,	147456	,	26112
Index	,	0	,	1	,	2	,	3	,	4	,	5	,	6	,	7	,	8	,	9	,	10	,	11	,	12	,	13	,	14	,	15	,	16	,	17	,	18	,	19	,	20	,	21	,	22	,	23	,	24	,	25	,	26	,	27	,	28	,	29	,	30	,	31	,	32	,	33	,	34	,	35	,	36	,	37	,	38	,	39	,	40	,	41	,	42	,	43	,	44	,	45	,	46	,	47	,	48	,	49	,	50	,	51	,	52	,	53	,	54	,	55	,	56	,	57	,	58	,	59	,	60

FpsAggregator: 
FPS	,	0	,	0	,	0	,	0	,	0	,	0	,	0	,	0	,	0	,	0	,	0	,	0	,	0	,	0	,	0	,	0	,	0	,	0	,	0	,	0	,	0	,	0	,	0	,	0	,	0	,	0	,	0	,	0	,	0	,	0	,	0	,	0	,	0	,	0	,	0	,	0	,	0	,	0	,	0	,	0	,	0	,	0	,	0	,	0	,	0	,	0	,	0	,	0	,	0	,	0	,	0	,	0	,	0	,	0	,	0	,	0	,	0	,	0	,	0	,	0	,	0	,	0
UPS	,	0	,	0	,	0	,	0	,	0	,	0	,	0	,	0	,	0	,	0	,	0	,	0	,	0	,	0	,	0	,	0	,	0	,	0	,	0	,	0	,	0	,	0	,	0	,	0	,	0	,	0	,	0	,	0	,	0	,	0	,	0	,	0	,	0	,	0	,	0	,	0	,	0	,	0	,	0	,	0	,	0	,	0	,	0	,	0	,	0	,	0	,	0	,	0	,	0	,	0	,	0	,	0	,	0	,	0	,	0	,	0	,	0	,	0	,	0	,	0	,	0	,	0
FrameTime	,	inf	,	inf	,	inf	,	inf	,	inf	,	inf	,	inf	,	inf	,	inf	,	inf	,	inf	,	inf	,	inf	,	inf	,	inf	,	inf	,	inf	,	inf	,	inf	,	inf	,	inf	,	inf	,	inf	,	inf	,	inf	,	inf	,	inf	,	inf	,	inf	,	inf	,	inf	,	inf	,	inf	,	inf	,	inf	,	inf	,	inf	,	inf	,	inf	,	inf	,	inf	,	inf	,	inf	,	inf	,	inf	,	inf	,	inf	,	inf	,	inf	,	inf	,	inf	,	inf	,	inf	,	inf	,	inf	,	inf	,	inf	,	inf	,	inf	,	inf	,	inf	,	inf
GigaRays/s	,	0	,	0	,	0	,	0	,	0	,	0	,	0	,	0	,	0	,	0	,	0	,	0	,	0	,	0	,	0	,	0	,	0	,	0	,	0	,	0	,	0	,	0	,	0	,	0	,	0	,	0	,	0	,	0	,	0	,	0	,	0	,	0	,	0	,	0	,	0	,	0	,	0	,	0	,	0	,	0	,	0	,	0	,	0	,	0	,	0	,	0	,	0	,	0	,	0	,	0	,	0	,	0	,	0	,	0	,	0	,	0	,	0	,	0	,	0	,	0	,	0	,	0
Index	,	0	,	1	,	2	,	3	,	4	,	5	,	6	,	7	,	8	,	9	,	10	,	11	,	12	,	13	,	14	,	15	,	16	,	17	,	18	,	19	,	20	,	21	,	22	,	23	,	24	,	25	,	26	,	27	,	28	,	29	,	30	,	31	,	32	,	33	,	34	,	35	,	36	,	37	,	38	,	39	,	40	,	41	,	42	,	43	,	44	,	45	,	46	,	47	,	48	,	49	,	50	,	51	,	52	,	53	,	54	,	55	,	56	,	57	,	58	,	59	,	60	,	61


AccelerationStructure: 
Ray tracing acceleration structure building statistics: 
	Bottom Level Acceleration Structure: 
		Maximum [B]: 0
		Minimum [B]: 18446744073709551615
		Currently Allocated [B]: 0
		Currently Created [num]: 0
		Current Average [B]: 0
		Maximum Triangles [num]: 0
		Minimum Triangles [num]: 18446744073709551615
		Total Triangles [num]: 0
		Maximum Meshes [num]: 0
		Minimum Meshes [num]: 18446744073709551615
		Total Meshes [num]: 0
	Top Level Acceleration Structure: 
		Maximum [B]: 0
		Minimum [B]: 18446744073709551615
		Currently Allocated [B]: 0
		Total Allocated [B]: 0
		Total Created [num]: 0
		Average Allocated [B]: 0
		Maximum Instances [num]: 0
		Minimum Instances [num]: 18446744073709551615
		Total Instances [num]: 0
	Scratch Buffer: 
		Maximum [B]: 0
		Minimum [B]: 18446744073709551615
		Currently Allocated [B]: 0
		Total Allocated [B]: 0
		Total Created [num]: 0
		Average Allocated [B]: 0
ProfilingStack: 
[PROF] Profiling statistics: 
	Scopes entered : 385
	Scopes exited : 383
	Overhead per scope [ticks] : 163.9
	Threads entered : 3
	Threads exited : 0
	============================
		         Sum[Mt]   Parent[%]  Samples[num]       Avg[Mt]   Last/Curr[Mt]        Self[Mt]     Self[%] 	 Name

	main:

		    4085.505 Mt   100.000 %         1 x     4085.506 Mt     4085.505 Mt     3201.203 Mt    78.355 % 	 /

		      70.021 Mt     1.714 %         1 x       70.021 Mt        0.000 Mt        1.017 Mt     1.453 % 	 ./Initialize

		       3.095 Mt     4.420 %         1 x        3.095 Mt        0.000 Mt        3.095 Mt   100.000 % 	 ../TexturedRLInitialization

		       1.520 Mt     2.171 %         1 x        1.520 Mt        0.000 Mt        1.520 Mt   100.000 % 	 ../ShadowMapRLInitialization

		       6.200 Mt     8.854 %         1 x        6.200 Mt        0.000 Mt        6.200 Mt   100.000 % 	 ../AmbientOcclusionRLInitialization

		       5.002 Mt     7.143 %         1 x        5.002 Mt        0.000 Mt        5.002 Mt   100.000 % 	 ../RasterResolveRLInitialization

		       3.873 Mt     5.532 %         1 x        3.873 Mt        0.000 Mt        3.873 Mt   100.000 % 	 ../DeferredRLInitialization

		      44.700 Mt    63.837 %         1 x       44.700 Mt        0.000 Mt        1.436 Mt     3.212 % 	 ../RayTracingRLInitialization

		      43.264 Mt    96.788 %         1 x       43.264 Mt        0.000 Mt       43.264 Mt   100.000 % 	 .../PipelineBuild

		       4.615 Mt     6.590 %         1 x        4.615 Mt        0.000 Mt        4.615 Mt   100.000 % 	 ../ResolveRLInitialization

		     814.413 Mt    19.934 %         1 x      814.413 Mt      814.413 Mt        5.079 Mt     0.624 % 	 ./Run

		     809.347 Mt    99.378 %         1 x      809.348 Mt      809.347 Mt      203.257 Mt    25.114 % 	 ../Update

		     505.233 Mt    62.425 %         1 x      505.233 Mt      505.233 Mt      484.133 Mt    95.824 % 	 .../ScenePrep

		      21.100 Mt     4.176 %         1 x       21.100 Mt       21.100 Mt       21.100 Mt   100.000 % 	 ..../SceneDesc-CreateScene

		     100.858 Mt    12.462 %        62 x        1.627 Mt        1.413 Mt       34.267 Mt    33.976 % 	 .../AccelerationStructureBuild

		      25.114 Mt    24.900 %        62 x        0.405 Mt        0.391 Mt       25.114 Mt   100.000 % 	 ..../BuildBottomLevelAS

		      41.477 Mt    41.124 %        62 x        0.669 Mt        0.631 Mt       41.477 Mt   100.000 % 	 ..../BuildTopLevelAS

	WindowThread:

		    4083.398 Mt   100.000 %         1 x     4083.398 Mt     4083.398 Mt     4083.398 Mt   100.000 % 	 /

	GpuThread:

		      90.686 Mt   100.000 %        61 x        1.487 Mt        1.238 Mt       -0.621 Mt    -0.685 % 	 /

		      91.307 Mt   100.685 %        62 x        1.473 Mt        1.238 Mt        0.182 Mt     0.200 % 	 ./AccelerationStructureBuild

		      75.190 Mt    82.348 %        62 x        1.213 Mt        1.040 Mt       75.190 Mt   100.000 % 	 ../BuildBottomLevelASGpu

		      15.935 Mt    17.452 %        62 x        0.257 Mt        0.195 Mt       15.935 Mt   100.000 % 	 ../BuildTopLevelASGpu


	============================


