Configuration: 
Command line parameters  = 
Window width             = 1024
Window height            = 768
Window title             = Direct3D App
Back-buffer count        = 3
Fill Triangles           = enabled
Triangles Font Clock-Wise= disabled
Fast Build AS            = disabled
Target FPS               = 0
Target UPS               = 60
Tearing                  = enabled
VSync                    = disabled
GUI rendering            = disabled
Debug layer              = enabled
GPU validation           = disabled
GPU profiling            = enabled
Render mode              = Ray Tracing
Loaded scene file        = 
Using testing scene      = disabled
BLAS duplication         = disabled
Rays per pixel           = 34
Quality preset           = Ultra
Rasterization Quality    : 
  AO                     = enabled
  AO kernel size         = 16
  Shadows                = enabled
  Shadow map resolution  = 8192
  Shadow PCF kernel size = 8
  Reflections            = enabled
Ray Tracing Quality      : 
  AO                     = enabled
  AO rays                = 16
  AO kernel size         = 8
  Shadows                = enabled
  Shadow rays            = 8
  Shadow kernel size     = 8
  Reflections            = enabled

ProfilingAggregator: 
Render	,	1.3404	,	1.3404	,	1.3404	,	1.3404	,	1.3404	,	1.3404	,	1.3404	,	1.3404	,	1.3404	,	1.3404	,	1.3404	,	1.3404	,	1.3404	,	1.3404	,	1.3404	,	1.3404	,	1.3404	,	1.3404	,	1.3404	,	1.3404	,	1.3404	,	1.3404	,	1.3404	,	1.3404	,	1.3404	,	1.3404	,	1.3404	,	1.3404	,	1.3404	,	1.3404	,	1.3404	,	1.3404	,	1.3404	,	1.3404	,	1.3404	,	1.3404	,	1.3404	,	1.3404	,	1.3404	,	1.3404	,	1.3404	,	1.3404	,	1.3404	,	1.3404	,	1.3404	,	1.3404	,	1.3404	,	1.3404	,	1.3404	,	1.3404	,	1.3404	,	1.3404	,	1.3404	,	1.3404	,	1.3404	,	1.3404	,	1.3404	,	1.3404	,	1.3404	,	1.3404	,	1.3404	,	1.3404
Update	,	0.1115	,	92.0629	,	94.7903	,	97.9073	,	100.57	,	103.297	,	105.649	,	107.84	,	110.418	,	112.993	,	115.06	,	117.064	,	119.151	,	121.3	,	123.455	,	125.43	,	127.688	,	130.896	,	133.759	,	136.446	,	139.042	,	141.228	,	143.364	,	147.002	,	149.77	,	151.863	,	154.053	,	155.998	,	157.852	,	159.635	,	161.656	,	163.803	,	165.768	,	167.606	,	169.467	,	171.346	,	173.516	,	175.678	,	177.533	,	179.636	,	181.514	,	183.515	,	186.099	,	189.168	,	192.04	,	194.97	,	198.055	,	201.198	,	203.765	,	206.952	,	210.18	,	213.817	,	216.391	,	219.309	,	222.307	,	225.607	,	228.225	,	230.48	,	232.566	,	234.657	,	237.068	,	239.211
Index	,	0	,	1	,	2	,	3	,	4	,	5	,	6	,	7	,	8	,	9	,	10	,	11	,	12	,	13	,	14	,	15	,	16	,	17	,	18	,	19	,	20	,	21	,	22	,	23	,	24	,	25	,	26	,	27	,	28	,	29	,	30	,	31	,	32	,	33	,	34	,	35	,	36	,	37	,	38	,	39	,	40	,	41	,	42	,	43	,	44	,	45	,	46	,	47	,	48	,	49	,	50	,	51	,	52	,	53	,	54	,	55	,	56	,	57	,	58	,	59	,	60	,	61

ProfilingBuildAggregator: 
BuildBottomLevelAS	,	0.3188	,	0.3781	,	0.3634	,	0.3445	,	0.332	,	0.2709	,	0.2782	,	0.3711	,	0.2951	,	0.261	,	0.2752	,	0.2682	,	0.2481	,	0.2622	,	0.2432	,	0.2569	,	0.5354	,	0.4584	,	0.303	,	0.397	,	0.2572	,	0.2461	,	0.4224	,	0.392	,	0.265	,	0.2897	,	0.2468	,	0.2279	,	0.2362	,	0.2449	,	0.2351	,	0.2767	,	0.2481	,	0.2269	,	0.2342	,	0.2396	,	0.2698	,	0.2385	,	0.2414	,	0.2551	,	0.2677	,	0.3333	,	0.3104	,	0.365	,	0.3415	,	0.4066	,	0.4048	,	0.2949	,	0.3504	,	0.3773	,	0.411	,	0.3577	,	0.3343	,	0.2805	,	0.3601	,	0.2705	,	0.2454	,	0.2361	,	0.2311	,	0.3094	,	0.254
BuildBottomLevelASGpu	,	0.120704	,	0.328672	,	0.469312	,	0.613184	,	0.472	,	0.34144	,	0.340672	,	0.610496	,	0.24544	,	0.24624	,	0.200768	,	0.15136	,	0.210016	,	0.152736	,	0.23456	,	0.197856	,	0.568736	,	0.65536	,	0.34496	,	0.369216	,	0.384352	,	0.329824	,	0.345408	,	0.184224	,	0.363936	,	0.43616	,	0.248384	,	0.168064	,	0.14368	,	0.151168	,	0.176608	,	0.16416	,	0.16256	,	0.18048	,	0.22912	,	0.201152	,	0.24208	,	0.14224	,	0.151392	,	0.165152	,	0.15888	,	0.284416	,	0.307392	,	0.613984	,	0.750464	,	0.63584	,	0.950464	,	0.653312	,	0.770848	,	0.758528	,	0.902496	,	0.657088	,	0.901664	,	0.814752	,	0.889184	,	0.547168	,	0.337088	,	0.483712	,	0.54368	,	0.539712	,	0.4048
BuildTopLevelAS	,	0.4346	,	0.4695	,	0.4161	,	0.4045	,	0.4666	,	0.4116	,	0.4103	,	0.3768	,	0.3987	,	0.3971	,	0.4139	,	0.4185	,	0.4148	,	0.4058	,	0.4042	,	0.4125	,	0.464	,	0.5007	,	0.556	,	0.5004	,	0.4001	,	0.3891	,	0.594	,	0.4236	,	0.3768	,	0.3767	,	0.3735	,	0.37	,	0.3762	,	0.4485	,	0.3823	,	0.3874	,	0.3892	,	0.4128	,	0.3805	,	0.3809	,	0.3888	,	0.3778	,	0.3696	,	0.4055	,	0.4404	,	0.4721	,	0.5043	,	0.4714	,	0.4656	,	0.4462	,	0.4616	,	0.4119	,	0.4492	,	0.504	,	0.4302	,	0.404	,	0.4305	,	0.7342	,	0.3714	,	0.4387	,	0.3668	,	0.3805	,	0.3597	,	0.4345	,	0.3717
BuildTopLevelASGpu	,	0.078784	,	0.078976	,	0.080544	,	0.082528	,	0.078816	,	0.0784	,	0.078976	,	0.08192	,	0.079936	,	0.078176	,	0.078176	,	0.083104	,	0.083104	,	0.083488	,	0.078176	,	0.078784	,	0.083872	,	0.08352	,	0.078784	,	0.077824	,	0.079552	,	0.078944	,	0.082912	,	0.0784	,	0.07936	,	0.078336	,	0.077984	,	0.078208	,	0.078368	,	0.077984	,	0.077984	,	0.078368	,	0.079008	,	0.0792	,	0.078976	,	0.078176	,	0.078176	,	0.079136	,	0.078208	,	0.0792	,	0.078592	,	0.083488	,	0.083328	,	0.082144	,	0.081536	,	0.079936	,	0.082496	,	0.079584	,	0.079776	,	0.080544	,	0.08624	,	0.079776	,	0.081152	,	0.080736	,	0.079552	,	0.08096	,	0.080544	,	0.079744	,	0.080544	,	0.08016	,	0.080544
Triangles	,	32	,	4120	,	15584	,	45330	,	20655	,	5600	,	7167	,	46560	,	288	,	282	,	143	,	28	,	75	,	27	,	132	,	108	,	39389	,	52674	,	1812	,	2934	,	2305	,	1290	,	1919	,	122	,	8917	,	19389	,	281	,	47	,	34	,	46	,	63	,	52	,	50	,	102	,	142	,	125	,	183	,	34	,	33	,	48	,	34	,	1658	,	1368	,	7000	,	8584	,	7794	,	37536	,	6246	,	14409	,	23123	,	23437	,	9929	,	29460	,	23399	,	29275	,	1620	,	192	,	1572	,	1362	,	1999	,	306
Meshes	,	1	,	1	,	2	,	2	,	2	,	1	,	1	,	2	,	1	,	1	,	1	,	1	,	1	,	1	,	1	,	1	,	2	,	2	,	2	,	2	,	2	,	1	,	1	,	1	,	1	,	1	,	1	,	1	,	1	,	1	,	1	,	1	,	1	,	1	,	1	,	1	,	1	,	1	,	1	,	1	,	1	,	1	,	1	,	1	,	1	,	1	,	1	,	1	,	1	,	1	,	1	,	1	,	1	,	1	,	1	,	1	,	1	,	1	,	1	,	1	,	1
BottomLevels	,	1	,	1	,	1	,	1	,	1	,	1	,	1	,	1	,	1	,	1	,	1	,	1	,	1	,	1	,	1	,	1	,	1	,	1	,	1	,	1	,	1	,	1	,	1	,	1	,	1	,	1	,	1	,	1	,	1	,	1	,	1	,	1	,	1	,	1	,	1	,	1	,	1	,	1	,	1	,	1	,	1	,	1	,	1	,	1	,	1	,	1	,	1	,	1	,	1	,	1	,	1	,	1	,	1	,	1	,	1	,	1	,	1	,	1	,	1	,	1	,	1
TopLevelSize	,	64	,	64	,	64	,	64	,	64	,	64	,	64	,	64	,	64	,	64	,	64	,	64	,	64	,	64	,	64	,	64	,	64	,	64	,	64	,	64	,	64	,	64	,	64	,	64	,	64	,	64	,	64	,	64	,	64	,	64	,	64	,	64	,	64	,	64	,	64	,	64	,	64	,	64	,	64	,	64	,	64	,	64	,	64	,	64	,	64	,	64	,	64	,	64	,	64	,	64	,	64	,	64	,	64	,	64	,	64	,	64	,	64	,	64	,	64	,	64	,	64
BottomLevelsSize	,	6528	,	233856	,	872832	,	2531072	,	1155712	,	316672	,	403712	,	2599424	,	20992	,	19840	,	12544	,	6256	,	8496	,	6256	,	12304	,	10752	,	2199808	,	2940416	,	105600	,	167936	,	132864	,	76032	,	111104	,	11392	,	501632	,	1085056	,	19840	,	7168	,	6800	,	7168	,	8320	,	7888	,	7888	,	10144	,	12544	,	11392	,	14976	,	6800	,	6800	,	7680	,	6800	,	97152	,	80896	,	498560	,	606720	,	555392	,	2637440	,	442240	,	1015680	,	1625856	,	1647488	,	700288	,	2071040	,	1646976	,	2056960	,	120832	,	18432	,	115712	,	100352	,	147456	,	26112
Index	,	0	,	1	,	2	,	3	,	4	,	5	,	6	,	7	,	8	,	9	,	10	,	11	,	12	,	13	,	14	,	15	,	16	,	17	,	18	,	19	,	20	,	21	,	22	,	23	,	24	,	25	,	26	,	27	,	28	,	29	,	30	,	31	,	32	,	33	,	34	,	35	,	36	,	37	,	38	,	39	,	40	,	41	,	42	,	43	,	44	,	45	,	46	,	47	,	48	,	49	,	50	,	51	,	52	,	53	,	54	,	55	,	56	,	57	,	58	,	59	,	60

FpsAggregator: 
FPS	,	2	,	2	,	2	,	2	,	2	,	2	,	2	,	2	,	2	,	2	,	2	,	2	,	2	,	2	,	2	,	2	,	2	,	2	,	2	,	2	,	2	,	2	,	2	,	2	,	2	,	2	,	2	,	2	,	2	,	2	,	2	,	2	,	2	,	2	,	2	,	2	,	2	,	2	,	2	,	2	,	2	,	2	,	2	,	2	,	2	,	2	,	2	,	2	,	2	,	2	,	2	,	2	,	2	,	2	,	2	,	2	,	2	,	2	,	2	,	2	,	2	,	2
UPS	,	14	,	14	,	14	,	14	,	14	,	14	,	14	,	14	,	14	,	14	,	14	,	14	,	14	,	14	,	14	,	14	,	14	,	14	,	14	,	14	,	14	,	14	,	14	,	14	,	14	,	14	,	14	,	14	,	14	,	14	,	14	,	14	,	14	,	14	,	14	,	14	,	14	,	14	,	14	,	14	,	14	,	14	,	14	,	14	,	14	,	14	,	14	,	14	,	14	,	14	,	14	,	14	,	14	,	14	,	14	,	14	,	14	,	14	,	14	,	14	,	14	,	14
FrameTime	,	1033.14	,	1033.14	,	1033.14	,	1033.14	,	1033.14	,	1033.14	,	1033.14	,	1033.14	,	1033.14	,	1033.14	,	1033.14	,	1033.14	,	1033.14	,	1033.14	,	1033.14	,	1033.14	,	1033.14	,	1033.14	,	1033.14	,	1033.14	,	1033.14	,	1033.14	,	1033.14	,	1033.14	,	1033.14	,	1033.14	,	1033.14	,	1033.14	,	1033.14	,	1033.14	,	1033.14	,	1033.14	,	1033.14	,	1033.14	,	1033.14	,	1033.14	,	1033.14	,	1033.14	,	1033.14	,	1033.14	,	1033.14	,	1033.14	,	1033.14	,	1033.14	,	1033.14	,	1033.14	,	1033.14	,	1033.14	,	1033.14	,	1033.14	,	1033.14	,	1033.14	,	1033.14	,	1033.14	,	1033.14	,	1033.14	,	1033.14	,	1033.14	,	1033.14	,	1033.14	,	1033.14	,	1033.14
GigaRays/s	,	0	,	0	,	0	,	0	,	0	,	0	,	0	,	0	,	0	,	0	,	0	,	0	,	0	,	0	,	0	,	0	,	0	,	0	,	0	,	0	,	0	,	0	,	0	,	0	,	0	,	0	,	0	,	0	,	0	,	0	,	0	,	0	,	0	,	0	,	0	,	0	,	0	,	0	,	0	,	0	,	0	,	0	,	0	,	0	,	0	,	0	,	0	,	0	,	0	,	0	,	0	,	0	,	0	,	0	,	0	,	0	,	0	,	0	,	0	,	0	,	0	,	0
Index	,	0	,	1	,	2	,	3	,	4	,	5	,	6	,	7	,	8	,	9	,	10	,	11	,	12	,	13	,	14	,	15	,	16	,	17	,	18	,	19	,	20	,	21	,	22	,	23	,	24	,	25	,	26	,	27	,	28	,	29	,	30	,	31	,	32	,	33	,	34	,	35	,	36	,	37	,	38	,	39	,	40	,	41	,	42	,	43	,	44	,	45	,	46	,	47	,	48	,	49	,	50	,	51	,	52	,	53	,	54	,	55	,	56	,	57	,	58	,	59	,	60	,	61


AccelerationStructure: 
Ray tracing acceleration structure building statistics: 
	Bottom Level Acceleration Structure: 
		Maximum [B]: 0
		Minimum [B]: 18446744073709551615
		Currently Allocated [B]: 0
		Currently Created [num]: 0
		Current Average [B]: 0
		Maximum Triangles [num]: 0
		Minimum Triangles [num]: 18446744073709551615
		Total Triangles [num]: 0
		Maximum Meshes [num]: 0
		Minimum Meshes [num]: 18446744073709551615
		Total Meshes [num]: 0
	Top Level Acceleration Structure: 
		Maximum [B]: 0
		Minimum [B]: 18446744073709551615
		Currently Allocated [B]: 0
		Total Allocated [B]: 0
		Total Created [num]: 0
		Average Allocated [B]: 0
		Maximum Instances [num]: 0
		Minimum Instances [num]: 18446744073709551615
		Total Instances [num]: 0
	Scratch Buffer: 
		Maximum [B]: 0
		Minimum [B]: 18446744073709551615
		Currently Allocated [B]: 0
		Total Allocated [B]: 0
		Total Created [num]: 0
		Average Allocated [B]: 0
ProfilingStack: 
[PROF] Profiling statistics: 
	Scopes entered : 407
	Scopes exited : 405
	Overhead per scope [ticks] : 161
	Threads entered : 3
	Threads exited : 0
	============================
		         Sum[Mt]   Parent[%]  Samples[num]       Avg[Mt]   Last/Curr[Mt]        Self[Mt]     Self[%] 	 Name

	main:

		    2487.539 Mt   100.000 %         1 x     2487.540 Mt     2487.539 Mt     2162.409 Mt    86.930 % 	 /

		      65.322 Mt     2.626 %         1 x       65.322 Mt        0.000 Mt        0.655 Mt     1.003 % 	 ./Initialize

		       2.868 Mt     4.390 %         1 x        2.868 Mt        0.000 Mt        2.868 Mt   100.000 % 	 ../TexturedRLInitialization

		       1.345 Mt     2.059 %         1 x        1.345 Mt        0.000 Mt        1.345 Mt   100.000 % 	 ../ShadowMapRLInitialization

		       6.611 Mt    10.121 %         1 x        6.611 Mt        0.000 Mt        6.611 Mt   100.000 % 	 ../AmbientOcclusionRLInitialization

		       5.174 Mt     7.921 %         1 x        5.174 Mt        0.000 Mt        5.174 Mt   100.000 % 	 ../RasterResolveRLInitialization

		       3.708 Mt     5.677 %         1 x        3.708 Mt        0.000 Mt        3.708 Mt   100.000 % 	 ../DeferredRLInitialization

		      40.141 Mt    61.451 %         1 x       40.141 Mt        0.000 Mt        1.508 Mt     3.758 % 	 ../RayTracingRLInitialization

		      38.633 Mt    96.242 %         1 x       38.633 Mt        0.000 Mt       38.633 Mt   100.000 % 	 .../PipelineBuild

		       4.819 Mt     7.378 %         1 x        4.819 Mt        0.000 Mt        4.819 Mt   100.000 % 	 ../ResolveRLInitialization

		     259.873 Mt    10.447 %         3 x       86.624 Mt      241.073 Mt        1.082 Mt     0.416 % 	 ./Run

		     248.408 Mt    95.588 %        15 x       16.561 Mt      240.013 Mt       94.058 Mt    37.864 % 	 ../Update

		      80.740 Mt    32.503 %         1 x       80.740 Mt       80.740 Mt       51.002 Mt    63.168 % 	 .../ScenePrep

		      29.738 Mt    36.832 %         1 x       29.738 Mt       29.738 Mt       29.738 Mt   100.000 % 	 ..../SceneDesc-CreateScene

		      73.609 Mt    29.633 %        62 x        1.187 Mt        0.875 Mt       27.490 Mt    37.346 % 	 .../AccelerationStructureBuild

		      19.453 Mt    26.427 %        62 x        0.314 Mt        0.254 Mt       19.453 Mt   100.000 % 	 ..../BuildBottomLevelAS

		      26.667 Mt    36.227 %        62 x        0.430 Mt        0.372 Mt       26.667 Mt   100.000 % 	 ..../BuildTopLevelAS

		      10.390 Mt     3.998 %         2 x        5.195 Mt        0.000 Mt        0.003 Mt     0.027 % 	 ../Render

		      10.388 Mt    99.973 %         2 x        5.194 Mt        0.000 Mt       10.388 Mt   100.000 % 	 .../Render

	WindowThread:

		    2485.577 Mt   100.000 %         1 x     2485.577 Mt     2485.577 Mt     2485.577 Mt   100.000 % 	 /

	GpuThread:

		      29.326 Mt   100.000 %        63 x        0.465 Mt        0.487 Mt       -0.201 Mt    -0.685 % 	 /

		       0.002 Mt     0.008 %         2 x        0.001 Mt        0.000 Mt        0.002 Mt   100.000 % 	 ./Present

		      29.525 Mt   100.677 %        62 x        0.476 Mt        0.487 Mt        0.093 Mt     0.314 % 	 ./AccelerationStructureBuild

		      24.470 Mt    82.879 %        62 x        0.395 Mt        0.405 Mt       24.470 Mt   100.000 % 	 ../BuildBottomLevelASGpu

		       4.963 Mt    16.808 %        62 x        0.080 Mt        0.081 Mt        4.963 Mt   100.000 % 	 ../BuildTopLevelASGpu


	============================


