Configuration: 
Command line parameters  = 
Window width             = 1186
Window height            = 1219
Window title             = Direct3D App
Back-buffer count        = 3
Fill Triangles           = enabled
Triangles Font Clock-Wise= disabled
Fast Build AS            = disabled
Target FPS               = 0
Target UPS               = 60
Tearing                  = enabled
VSync                    = disabled
GUI rendering            = disabled
Debug layer              = enabled
GPU validation           = disabled
GPU profiling            = enabled
Render mode              = Ray Tracing
Loaded scene file        = 
Using testing scene      = disabled
BLAS duplication         = disabled
Rays per pixel           = 34
Quality preset           = Ultra
Rasterization Quality    : 
  AO                     = enabled
  AO kernel size         = 16
  Shadows                = enabled
  Shadow map resolution  = 8192
  Shadow PCF kernel size = 8
  Reflections            = enabled
Ray Tracing Quality      : 
  AO                     = enabled
  AO rays                = 16
  AO kernel size         = 8
  Shadows                = enabled
  Shadow rays            = 8
  Shadow kernel size     = 8
  Reflections            = enabled

ProfilingAggregator: 
Render	,	2441.4	,	89.6178	,	73.6807	,	84.1568	,	78.4566	,	75.2423	,	81.7014	,	69.0941	,	85.4258	,	72.4817	,	76.9538	,	71.1438	,	74.1745	,	86.0118	,	84.9415	,	69.8037	,	67.6666	,	69.9938	,	78.5946	,	69.2487	,	82.9074	,	83.4495	,	73.4991	,	70.5432	,	71.8748	,	78.4902	,	68.3238	,	68.1	,	73.3194	,	71.6674	,	75.1121	,	83.4448	,	71.7031	,	79.5925	,	74.0436	,	70.6175	,	83.352	,	77.0826	,	69.6937	,	68.2443	,	80.8961	,	77.5984	,	72.677	,	91.0585	,	75.2178	,	73.7657	,	70.8986	,	80.9444	,	70.6644	,	73.8489	,	75.2725	,	82.1341	,	82.1838	,	73.9467	,	75.4326	,	66.8887	,	71.4213	,	71.4212	,	89.5151	,	68.7278	,	73.6235	,	77.1245	,	73.7745	,	75.2417	,	83.0055	,	75.4207	,	77.6209	,	86.9328	,	72.2712	,	76.0258	,	78.9383	,	100.295	,	83.6831	,	75.4975	,	75.3355	,	81.953	,	76.5786	,	102.837	,	103.964	,	79.6173	,	83.2992	,	96.8828	,	83.9735	,	91.0378	,	72.7531	,	95.5432	,	73.3999	,	94.0275	,	71.0301	,	72.0883	,	72.909	,	75.9263	,	83.2679	,	75.8139	,	80.4293	,	73.9666	,	68.6852	,	78.3728	,	79.8411	,	72.3241	,	63.2672	,	64.6291	,	64.1256	,	64.4192	,	83.5257	,	64.1871	,	72.0188	,	67.1774	,	64.893	,	78.2639	,	82.217	,	70.8636	,	73.8138	,	67.3114	,	76.1712	,	77.6089	,	87.7955	,	83.5591	,	77.6823	,	74.8912	,	82.7354	,	62.2035	,	70.4833	,	72.6479	,	79.2346	,	73.7476	,	72.1827	,	73.592	,	83.9976	,	89.1328	,	80.367	,	78.0585	,	80.1543	,	82.72	,	87.0229	,	94.0457	,	80.5716	,	96.3422	,	79.3224	,	74.4869	,	81.9533	,	86.3575	,	73.4056	,	83.3377	,	72.981	,	71.6313	,	82.5382	,	96.6349	,	74.1874	,	86.7534	,	77.856	,	76.898	,	87.0895	,	72.5868	,	75.8108	,	79.1561	,	80.5182	,	73.1006	,	73.7414	,	71.6688	,	93.5171	,	82.2687	,	74.9573	,	22.9057	,	22.798	,	22.7145	,	23.2877	,	29.6562	,	22.9834	,	22.1947	,	23.4609	,	22.5503	,	22.6675	,	22.2689	,	22.234	,	23.8832	,	23.3831	,	20.2688	,	21.9915	,	20.104	,	21.213	,	20.7721	,	19.8008	,	23.4938	,	22.2284	,	25.2313	,	22.5956	,	99.3635	,	71.3016	,	69.0701	,	25.327	,	28.2462	,	23.0399	,	24.8945	,	26.8088	,	29.9997	,	25.4776	,	29.7843	,	24.4468	,	30.5972	,	25.4599	,	22.9228	,	22.9007	,	26.6397	,	27.0036	,	22.4806	,	22.9429	,	22.8437	,	27.5832	,	22.8434	,	24.848	,	22.7225	,	23.7563	,	24.8827	,	22.7248	,	25.4079	,	22.5904	,	22.8014	,	22.6813	,	22.9527	,	23.5204	,	23.2161	,	23.3773	,	25.5592	,	23.3538	,	22.4859	,	24.0219	,	23.8534	,	24.0401	,	27.3553	,	23.9534	,	26.1392	,	22.8395	,	22.8329	,	23.5597	,	23.3957	,	75.2819	,	78.727	,	85.0017	,	80.8985	,	80.0117	,	81.5091	,	85.1138	,	87.9517	,	76.5859	,	78.9364	,	84.6008	,	81.1361	,	78.7455	,	76.663	,	86.9252	,	75.5464	,	82.9051	,	75.1424	,	86.0457	,	98.3532	,	92.7811	,	81.8258	,	87.6587	,	83.885	,	73.3532	,	89.6668	,	89.2947	,	84.6218	,	77.3384	,	78.0621	,	77.0578	,	88.1904	,	81.2306	,	91.7532	,	84.044	,	76.0173	,	79.7113	,	93.8224	,	81.5105	,	81.5152	,	86.6863	,	81.688	,	82.2392	,	75.9125	,	75.9441	,	79.8439	,	89.7055	,	86.5891	,	79.5763	,	79.9222	,	77.6115	,	83.0502	,	80.9976	,	82.2508	,	89.3548	,	79.6886	,	86.7762	,	83.1621	,	84.7467	,	80.8255	,	78.323	,	80.079	,	74.8557	,	80.5064	,	83.5537	,	78.2953	,	81.4713	,	80.7037	,	76.2856	,	95.7983	,	77.186	,	76.3642	,	84.9975	,	75.959	,	76.1047	,	77.3273	,	94.2846	,	83.8783	,	89.7555	,	79.126	,	84.515	,	79.5817	,	79.6289	,	87.3184	,	77.1897	,	76.6214	,	76.0186	,	83.3801	,	96.6601	,	78.4573	,	92.7934	,	92.3212	,	86.3174	,	78.7934	,	86.8757	,	78.5665	,	86.6193	,	86.6095	,	84.5917	,	77.7619	,	83.9672	,	78.2978	,	78.9775	,	102.548	,	82.57	,	84.1818	,	83.6562	,	96.5942	,	103.446	,	84.0977	,	86.6961	,	83.1369	,	100.486	,	85.6121	,	94.6921	,	96.9996	,	84.8162	,	78.4613	,	71.8776	,	74.3635	,	86.5172	,	80.6018	,	81.1141	,	85.1727	,	83.1977	,	93.298	,	88.5806	,	104.731	,	80.4745	,	81.2994	,	98.7694	,	83.8078	,	82.1049	,	94.709	,	93.3831	,	78.222	,	79.2759	,	79.5263	,	75.3888	,	75.1946	,	79.2678	,	97.7376	,	74.5644	,	82.2294	,	81.879	,	86.1401	,	86.9442	,	77.7761	,	84.9865	,	102.957	,	76.793	,	107.385	,	79.6448	,	88.0014	,	89.1727	,	85.9705	,	82.9833	,	76.5895	,	75.8357	,	82.9574	,	80.8047	,	89.5045	,	78.9515	,	78.5932	,	95.5251	,	83.8358	,	94.4418	,	98.32	,	95.9658	,	83.3639	,	74.2803	,	86.2423	,	81.3576	,	78.4622	,	82.1725	,	76.7686	,	102.667	,	95.135	,	83.0456	,	77.2545	,	96.2818	,	76.4818	,	85.7064	,	75.1265	,	80.0473	,	83.5313	,	81.277	,	91.1708	,	94.2591	,	82.3709	,	93.9701	,	82.9978	,	88.4208	,	87.2409	,	84.5434	,	82.6384	,	93.7366	,	88.0463	,	84.6564	,	77.5299	,	82.7363	,	97.0238	,	82.6045	,	80.7684	,	88.4084	,	78.5085	,	82.8878	,	80.0993	,	77.3435	,	78.5768	,	89.3252	,	84.2382	,	90.6193	,	94.274	,	77.5044	,	79.075	,	82.1853	,	76.3517	,	90.7517	,	79.3225	,	77.9606	,	83.568	,	100.912	,	80.7998	,	81.4545	,	81.7606	,	80.4514	,	80.6292	,	82.1157	,	88.5325	,	79.2087	,	82.6959	,	88.6798	,	87.0898	,	85.4087	,	84.0161	,	103.439	,	80.0707	,	76.3415	,	103.385	,	88.6817	,	86.6229	,	105.151	,	79.3494	,	76.9896	,	79.0482	,	76.7494	,	76.7768	,	76.7096	,	80.4049	,	90.8576	,	85.0948	,	86.5607	,	87.0506	,	77.6667	,	79.7442	,	82.5879	,	78.8285	,	84.1481	,	74.8066	,	78.6797	,	81.5654	,	82.1074	,	90.1811	,	96.9972	,	84.1192	,	89.6213	,	86.5698	,	86.2481	,	86.9577	,	94.7365	,	81.3374	,	84.9274	,	106.564	,	78.8945	,	100.433	,	98.3065	,	98.1565	,	87.7126	,	95.4068	,	87.1716	,	108.067	,	90.9128	,	96.7608	,	91.2446	,	85.944	,	85.1544	,	99.9672	,	94.1022	,	85.431	,	93.592	,	95.5902	,	84.8401	,	83.6853	,	86.3476	,	107.446	,	130.627
Update	,	0.1534	,	0.1289	,	0.1299	,	0.409	,	0.1293	,	0.1288	,	0.1289	,	0.1286	,	0.1289	,	0.1285	,	0.1283	,	0.1402	,	0.1962	,	0.2036	,	0.1292	,	0.1349	,	0.1633	,	0.1284	,	0.1702	,	0.1281	,	0.2369	,	0.1808	,	0.1448	,	0.1305	,	0.1293	,	0.129	,	0.1287	,	0.1292	,	0.1284	,	0.149	,	0.1303	,	0.1787	,	0.1284	,	0.1321	,	0.1281	,	0.8148	,	0.1293	,	0.1287	,	0.1493	,	0.1299	,	0.1282	,	0.2719	,	0.129	,	0.1285	,	0.1982	,	0.1289	,	0.1287	,	0.1291	,	0.1528	,	0.1767	,	0.1307	,	0.1287	,	0.1295	,	0.1293	,	0.1283	,	0.1284	,	0.1284	,	0.1293	,	0.128	,	0.1287	,	0.1288	,	0.1299	,	0.1337	,	0.129	,	0.1287	,	0.1292	,	0.196	,	0.1288	,	0.1286	,	0.1286	,	0.129	,	0.1305	,	0.129	,	0.1375	,	0.1286	,	0.1286	,	0.1289	,	0.1343	,	0.2008	,	0.128	,	0.1297	,	0.2257	,	0.1974	,	0.1288	,	0.1385	,	0.8495	,	0.1351	,	0.1291	,	0.1287	,	0.1659	,	0.1289	,	0.1288	,	0.129	,	0.1286	,	0.1601	,	0.1286	,	0.1713	,	0.1287	,	0.1534	,	0.1314	,	0.1289	,	0.231	,	0.3087	,	0.1286	,	0.129	,	0.1292	,	0.1378	,	0.1293	,	0.1291	,	0.128	,	0.1275	,	0.1292	,	0.1289	,	0.1531	,	0.1302	,	0.1527	,	0.1957	,	0.1303	,	0.1287	,	0.1349	,	0.128	,	0.1287	,	0.1293	,	0.1293	,	0.1287	,	0.1289	,	0.1287	,	0.129	,	0.1286	,	0.2476	,	0.1805	,	0.1533	,	0.1416	,	0.2052	,	0.1463	,	0.1287	,	0.1696	,	0.1397	,	0.129	,	0.1525	,	0.1289	,	0.1301	,	0.1287	,	0.1289	,	0.1282	,	0.13	,	0.1412	,	0.1289	,	0.153	,	0.1814	,	0.1287	,	0.1662	,	0.131	,	0.136	,	0.1289	,	0.3146	,	0.1283	,	0.13	,	0.1291	,	0.1329	,	0.1285	,	0.1366	,	0.129	,	0.1301	,	0.1285	,	0.1299	,	0.1487	,	0.129	,	0.1373	,	0.1296	,	0.1311	,	0.1303	,	0.1287	,	0.1302	,	0.1296	,	0.2001	,	0.1296	,	0.1967	,	0.1466	,	0.1299	,	0.1519	,	0.1294	,	0.13	,	0.1397	,	0.1303	,	0.1298	,	0.1687	,	0.1292	,	0.1514	,	0.1295	,	0.1959	,	0.2078	,	0.1295	,	0.1982	,	0.1993	,	0.2096	,	0.1288	,	0.1924	,	0.129	,	0.1764	,	0.1299	,	0.1281	,	0.1296	,	0.1449	,	0.2538	,	0.1507	,	0.1467	,	0.13	,	0.1573	,	0.1292	,	0.235	,	0.1293	,	0.1302	,	0.1353	,	0.1295	,	0.1298	,	0.129	,	0.1293	,	0.1292	,	0.185	,	0.1292	,	0.1466	,	0.1304	,	0.1393	,	0.1725	,	0.1297	,	0.1286	,	0.1302	,	0.1328	,	0.1302	,	0.1327	,	0.1294	,	0.1296	,	0.2011	,	0.1337	,	0.1966	,	0.1442	,	0.1525	,	0.138	,	0.1287	,	0.2338	,	0.1344	,	0.1286	,	0.1287	,	0.1285	,	0.1288	,	0.1291	,	0.1284	,	0.1299	,	0.1285	,	0.4298	,	0.201	,	0.1285	,	0.128	,	0.1455	,	0.13	,	0.1293	,	0.1449	,	0.1283	,	0.1287	,	0.1301	,	0.1857	,	0.1976	,	0.1847	,	0.1454	,	0.1526	,	0.1285	,	0.1818	,	0.1285	,	0.1311	,	0.1305	,	0.1283	,	0.153	,	0.1295	,	0.129	,	0.1295	,	0.1966	,	0.1327	,	0.2259	,	0.1374	,	0.129	,	0.1288	,	0.1287	,	0.129	,	0.1291	,	0.2087	,	0.1305	,	0.1288	,	0.1287	,	0.1284	,	0.1296	,	0.1295	,	0.1296	,	0.1955	,	0.1998	,	0.1348	,	0.1957	,	0.1292	,	0.1397	,	0.1286	,	0.1288	,	0.1285	,	0.1394	,	0.1818	,	0.1282	,	0.1533	,	0.1287	,	0.1292	,	0.1283	,	0.1285	,	0.1286	,	0.1283	,	0.192	,	0.1284	,	0.1292	,	0.1284	,	0.1285	,	0.1285	,	0.1323	,	0.1545	,	0.1287	,	0.1965	,	0.1292	,	0.5501	,	0.1281	,	0.1287	,	0.1963	,	0.1294	,	0.2021	,	0.1527	,	0.1291	,	0.129	,	0.167	,	0.1287	,	0.1532	,	0.1312	,	0.1293	,	0.1289	,	0.1277	,	0.1302	,	0.1414	,	0.1292	,	0.1968	,	0.13	,	0.128	,	0.2215	,	0.1542	,	0.1287	,	0.1541	,	0.1525	,	0.1287	,	0.1293	,	0.2333	,	0.1286	,	0.1291	,	0.1314	,	0.1299	,	0.2007	,	0.1408	,	0.1499	,	0.1283	,	0.2511	,	0.1285	,	0.1299	,	0.1545	,	0.1356	,	0.1282	,	0.1292	,	0.1285	,	0.14	,	0.2075	,	0.1285	,	0.1951	,	0.1283	,	0.1288	,	0.2072	,	0.1292	,	0.1983	,	0.1286	,	0.1288	,	0.1284	,	0.1283	,	0.1297	,	0.1287	,	0.2013	,	0.1534	,	0.1291	,	0.1283	,	0.2028	,	0.1773	,	0.1284	,	0.1289	,	0.1322	,	0.1292	,	0.1609	,	0.1291	,	0.1677	,	0.1285	,	0.1285	,	0.2166	,	0.1297	,	0.1915	,	0.1286	,	0.342	,	0.1999	,	0.1294	,	0.1283	,	0.1299	,	0.1289	,	0.128	,	0.128	,	0.1287	,	0.1303	,	0.1294	,	0.1288	,	0.215	,	0.1289	,	0.1281	,	0.1289	,	0.129	,	0.1788	,	0.1284	,	0.1607	,	0.129	,	0.1284	,	0.2382	,	0.2184	,	0.1289	,	0.1961	,	0.1284	,	0.1285	,	0.129	,	0.1282	,	0.1285	,	0.1285	,	0.1291	,	0.1299	,	0.1284	,	0.1292	,	0.1418	,	0.1288	,	0.1282	,	0.1421	,	0.1285	,	0.1281	,	0.1681	,	0.1289	,	0.1287	,	0.1434	,	0.1348	,	0.1527	,	0.1295	,	0.1286	,	0.1291	,	0.1521	,	0.1298	,	0.1289	,	0.1345	,	0.1378	,	0.1531	,	0.129	,	0.1279	,	0.1284	,	0.1282	,	0.1348	,	0.1295	,	0.1425	,	0.1293	,	0.1958	,	0.1462	,	0.1283	,	0.1319	,	0.1282	,	0.1289	,	0.1326	,	0.1952	,	0.1286	,	0.4907	,	0.1284	,	0.1302	,	0.1287	,	0.1279	,	0.1289	,	0.1285	,	0.134	,	0.1759	,	0.1285	,	0.129	,	0.1288	,	0.3488	,	0.1345	,	0.129	,	0.1286	,	0.128	,	0.2384	,	0.1285	,	0.1533	,	0.1293	,	0.1281	,	0.1329	,	0.1313	,	0.1972	,	0.1286	,	0.1484	,	0.1285	,	0.129	,	0.129	,	0.1295	,	0.2098	,	0.1371	,	0.1284	,	0.1293	,	0.1384	,	0.1454	,	0.1474	,	0.1406	,	0.1289	,	0.18	,	0.1284	,	0.1284	,	0.1322	,	0.2454	,	0.1296	,	0.1285	,	0.1992	,	0.2508	,	0.1289	,	0.2485	,	0.1286	,	0.1299	,	0.1315	,	0.1291	,	0.1284
RayTracing	,	1698.47	,	72.5152	,	59.4047	,	69.781	,	63.9825	,	62.1465	,	68.8584	,	55.2438	,	69.2001	,	54.8219	,	61.7669	,	56.6258	,	56.9686	,	71.0187	,	69.0531	,	54.1615	,	53.6785	,	55.7396	,	62.4169	,	55.4165	,	68.5619	,	66.432	,	57.2759	,	56.7229	,	56.9001	,	64.6525	,	55.6887	,	52.7552	,	57.5	,	57.4413	,	61.5892	,	68.1443	,	57.8207	,	66.0153	,	61.2783	,	55.0707	,	68.7547	,	63.2226	,	56.5208	,	54.6597	,	62.4404	,	64.2516	,	59.272	,	75.6324	,	62.368	,	60.7198	,	58.4976	,	66.9117	,	58.6026	,	61.3267	,	61.2816	,	67.5676	,	62.8891	,	56.4887	,	61.5346	,	53.2823	,	57.8235	,	56.7152	,	72.7291	,	53.2841	,	59.0972	,	62.123	,	59.4705	,	59.0106	,	66.6624	,	60.3598	,	61.5086	,	72.1013	,	57.1426	,	61.7531	,	58.5018	,	78.1799	,	63.9262	,	61.0648	,	59.7299	,	62.7137	,	62.8945	,	84.0861	,	85.8951	,	62.2162	,	68.9849	,	81.2662	,	69.6563	,	78.0838	,	57.4789	,	75.5239	,	58.6446	,	81.104	,	57.8624	,	56.5663	,	59.4765	,	61.402	,	65.7629	,	60.9661	,	64.5185	,	58.3403	,	53.4403	,	62.9308	,	63.8358	,	56.2762	,	53.2776	,	52.9914	,	54.8172	,	54.451	,	70.8801	,	54.444	,	56.9976	,	57.9115	,	55.561	,	66.0075	,	70.7046	,	57.5238	,	62.7148	,	56.2287	,	63.1921	,	61.6177	,	72.6736	,	63.3144	,	58.5115	,	61.8557	,	61.9586	,	52.8562	,	57.9171	,	59.2062	,	66.4209	,	54.9944	,	59.3094	,	60.0774	,	66.785	,	60.9678	,	54.8547	,	55.0677	,	58.1171	,	60.6936	,	64.6479	,	70.492	,	58.4806	,	75.6426	,	58.844	,	53.6469	,	60.7758	,	65.4993	,	53.5333	,	63.4946	,	54.5205	,	53.1264	,	64.0992	,	76.3224	,	55.1237	,	67.4649	,	58.7853	,	56.8896	,	67.0842	,	52.6688	,	55.3741	,	59.5528	,	60.6892	,	54.1005	,	53.872	,	52.8444	,	73.5529	,	63.6439	,	55.732	,	6.6099	,	6.1576	,	6.3838	,	6.6569	,	13.3407	,	6.9476	,	6.161	,	6.84	,	6.2418	,	6.4101	,	6.0986	,	6.2307	,	6.8215	,	7.7228	,	6.0884	,	7.8909	,	6.0858	,	7.0879	,	6.1228	,	6.1426	,	7.2574	,	6.2518	,	8.0718	,	6.4587	,	7.1822	,	7.1822	,	7.1822	,	8.4882	,	9.289	,	6.8271	,	8.1742	,	9.8048	,	10.513	,	6.9042	,	8.0505	,	7.4512	,	10.1773	,	7.0162	,	6.3348	,	6.677	,	8.3322	,	8.553	,	6.2804	,	6.5145	,	6.5839	,	9.0984	,	6.2928	,	7.04	,	6.1566	,	7.3105	,	6.6475	,	6.2332	,	8.3138	,	6.3209	,	6.4829	,	6.4374	,	6.2854	,	6.5619	,	6.7833	,	6.6741	,	8.297	,	6.7876	,	6.4113	,	7.1294	,	6.8784	,	6.5772	,	8.9229	,	6.3363	,	7.555	,	6.2313	,	6.3889	,	6.46	,	6.92	,	56.7533	,	59.2331	,	62.4672	,	59.9683	,	59.9642	,	59.1532	,	62.5364	,	63.6988	,	55.8074	,	59.6587	,	62.3293	,	57.9308	,	57.2513	,	52.5262	,	69.5372	,	57.4946	,	63.1014	,	54.2575	,	60.2421	,	68.3786	,	66.6368	,	57.8083	,	62.0261	,	61.2599	,	53.5894	,	69.6998	,	66.4898	,	63.3973	,	60.2081	,	60.7183	,	52.1975	,	66.521	,	59.3861	,	71.6716	,	63.1148	,	53.1709	,	57.0505	,	71.0559	,	56.9987	,	57.219	,	64.8343	,	60.1247	,	63.2537	,	54.4325	,	54.4224	,	59.089	,	66.7904	,	64.5482	,	58.5437	,	59.6938	,	56.1166	,	59.4861	,	56.029	,	60.6092	,	68.2328	,	58.5268	,	59.7937	,	60.8664	,	62.3509	,	54.0614	,	55.7476	,	58.0671	,	53.9005	,	56.4984	,	61.0986	,	55.2485	,	58.1961	,	54.9419	,	53.208	,	70.3992	,	54.1002	,	53.6302	,	62.461	,	53.0061	,	54.4929	,	55.2509	,	72.5896	,	62.0043	,	66.9236	,	59.6185	,	63.764	,	56.9402	,	56.9665	,	63.6936	,	54.3155	,	55.7605	,	55.043	,	62.3924	,	75.5332	,	58.4636	,	71.8249	,	69.8895	,	64.9729	,	57.7409	,	65.7411	,	56.9214	,	60.6744	,	65.5517	,	65.6589	,	59.3319	,	66.1738	,	59.0549	,	54.8589	,	76.1029	,	57.4045	,	58.2156	,	57.3152	,	70.7185	,	78.5514	,	58.9672	,	61.3852	,	52.5932	,	74.9944	,	63.0778	,	68.5959	,	66.1397	,	59.3334	,	59.2457	,	54.0502	,	55.4443	,	68.1277	,	62.4333	,	60.1792	,	62.7084	,	59.6533	,	71.4721	,	66.8134	,	76.959	,	57.2826	,	56.8368	,	74.5035	,	54.6111	,	56.7218	,	67.5391	,	68.6007	,	55.8004	,	57.5315	,	58.5741	,	54.7896	,	53.7257	,	57.2797	,	75.627	,	53.6424	,	61.0102	,	60.4538	,	65.1886	,	65.1453	,	57.1624	,	64.2723	,	78.3981	,	56.15	,	86.0621	,	55.8483	,	65.0143	,	67.9502	,	62.2485	,	59.9748	,	55.6942	,	54.392	,	56.5925	,	60.1827	,	67.9717	,	58.0887	,	57.9478	,	74.8717	,	63.8404	,	74.5366	,	74.4813	,	74.2421	,	60.2782	,	53.4762	,	63.927	,	60.5208	,	57.5229	,	60.3041	,	55.4621	,	81.1879	,	73.9517	,	61.9018	,	55.807	,	72.6311	,	55.0985	,	61.8687	,	53.5923	,	57.2689	,	61.8187	,	57.1951	,	66.3969	,	68.978	,	56.2854	,	67.2013	,	56.352	,	61.571	,	60.286	,	59.2564	,	54.0225	,	66.3993	,	62.8963	,	60.6576	,	53.3319	,	58.9143	,	72.732	,	57.2788	,	56.1041	,	63.8191	,	53.9662	,	58.6524	,	55.8265	,	53.1381	,	53.6303	,	58.8828	,	59.4464	,	66.78	,	71.0873	,	53.6719	,	54.0676	,	58.7245	,	52.4452	,	65.2579	,	54.6786	,	53.6493	,	58.2561	,	55.7727	,	55.1458	,	54.1465	,	54.7815	,	52.628	,	53.9399	,	55.4039	,	60.4814	,	54.0539	,	57.2507	,	61.8632	,	60.2646	,	58.5033	,	57.558	,	71.0981	,	54.651	,	52.7196	,	79.5063	,	61.9468	,	59.0892	,	79.2186	,	57.7502	,	53.1056	,	54.6478	,	53.4127	,	53.1698	,	53.1277	,	53.9047	,	66.7036	,	63.0809	,	62.2909	,	62.1811	,	55.9577	,	57.6226	,	56.5716	,	55.732	,	61.8519	,	53.3117	,	54.9574	,	57.4584	,	58.9108	,	54.4508	,	66.3575	,	57.1598	,	63.2643	,	60.003	,	60.1751	,	58.6773	,	66.7999	,	54.8221	,	57.117	,	79.7059	,	52.9687	,	74.1796	,	71.8319	,	69.302	,	60.1353	,	66.3558	,	56.9006	,	78.2046	,	57.3297	,	62.1793	,	61.0717	,	61.396	,	57.7408	,	73.0018	,	68.1351	,	58.5293	,	65.1327	,	68.1524	,	55.5203	,	59.5923	,	56.1074	,	74.961	,	56.6571
RayTracingGpu	,	727.832	,	4.60909	,	5.0697	,	6.08445	,	5.90982	,	4.8239	,	5.15165	,	6.08698	,	7.15715	,	7.25872	,	7.43638	,	6.5167	,	6.48128	,	6.6057	,	5.78106	,	5.32787	,	5.32531	,	5.48742	,	5.65069	,	6.05718	,	6.17005	,	5.61005	,	7.42163	,	5.59987	,	5.26848	,	5.36474	,	4.80762	,	6.68682	,	7.80147	,	5.68637	,	5.46886	,	6.04928	,	5.50691	,	5.22918	,	4.96541	,	5.22266	,	5.55261	,	5.7231	,	5.23386	,	5.88323	,	6.39114	,	5.16266	,	5.41398	,	4.87754	,	4.88394	,	4.90035	,	4.54592	,	4.32422	,	4.4321	,	4.2825	,	4.98234	,	5.51709	,	7.22045	,	6.80877	,	5.72678	,	5.22893	,	5.57789	,	6.27248	,	7.28541	,	6.03485	,	6.32234	,	6.67862	,	5.89245	,	6.53683	,	6.26621	,	6.7	,	6.87843	,	6.61741	,	6.25501	,	5.81546	,	9.07085	,	7.54656	,	6.37261	,	6.05053	,	5.78083	,	5.84592	,	5.13274	,	5.85437	,	6.57437	,	6.64246	,	6.10525	,	5.00762	,	4.92275	,	4.69571	,	6.85622	,	6.1897	,	4.94067	,	4.12256	,	4.60765	,	5.42355	,	5.34141	,	5.8448	,	6.5687	,	6.36029	,	7.47846	,	7.13306	,	7.37386	,	6.82429	,	7.33757	,	7.96714	,	1.8728	,	1.40755	,	1.08112	,	1.15846	,	1.62214	,	1.29274	,	1.44349	,	1.10461	,	1.09389	,	1.28682	,	1.36499	,	2.5352	,	2.53475	,	2.7872	,	3.44931	,	4.15789	,	4.25117	,	11.7044	,	10.3962	,	3.1953	,	9.01882	,	1.35517	,	1.83347	,	5.18691	,	4.78944	,	9.80688	,	4.97562	,	5.40006	,	7.92192	,	17.4284	,	15.6516	,	14.9842	,	13.8522	,	13.7523	,	13.7941	,	13.9383	,	13.9284	,	12.5113	,	12.5313	,	12.7882	,	12.6126	,	12.3271	,	11.9789	,	10.5791	,	10.1017	,	10.1823	,	10.5161	,	11.05	,	10.9798	,	11.0864	,	10.8184	,	11.0854	,	11.3698	,	10.866	,	11.4206	,	11.0441	,	10.8617	,	11.1573	,	10.9532	,	10.9564	,	11.1015	,	10.8319	,	11.047	,	10.5149	,	10.3715	,	10.274	,	10.3923	,	10.138	,	10.1379	,	10.4039	,	10.2334	,	10.4263	,	10.4276	,	10.3532	,	10.1844	,	10.2744	,	7.91418	,	8.24464	,	8.34045	,	8.13869	,	8.13098	,	8.62406	,	7.97216	,	10.3426	,	10.1402	,	10.4704	,	10.3937	,	10.1798	,	10.1798	,	10.1798	,	10.118	,	10.425	,	10.3859	,	10.5115	,	10.4773	,	10.358	,	10.5485	,	10.6153	,	10.1496	,	10.3471	,	10.5079	,	10.2913	,	10.3346	,	10.4307	,	10.4724	,	10.33	,	10.1978	,	10.2868	,	10.4889	,	10.4195	,	10.4701	,	10.3062	,	10.4295	,	10.4206	,	10.4964	,	10.5515	,	10.3718	,	10.4707	,	10.3795	,	10.4056	,	10.9398	,	10.5208	,	10.3047	,	10.4408	,	10.5221	,	10.0929	,	10.4564	,	10.7391	,	10.414	,	10.4487	,	10.4937	,	10.6312	,	10.0255	,	10.1366	,	10.4855	,	10.526	,	10.9789	,	10.2676	,	13.0605	,	12.84	,	11.6021	,	13.8848	,	13.5348	,	13.5378	,	12.5754	,	11.2992	,	13.8394	,	14.9777	,	13.1896	,	15.8346	,	8.95251	,	9.25856	,	10.6552	,	12.7431	,	15.3363	,	19.3768	,	17.5884	,	16.1901	,	14.5676	,	13.8303	,	11.2788	,	11.3743	,	11.9372	,	11.6618	,	8.65469	,	8.25216	,	16.4992	,	13.2353	,	13.4201	,	11.6946	,	11.7682	,	14.2607	,	14.0874	,	13.9078	,	12.472	,	11.8741	,	12.7006	,	12.6359	,	10.3564	,	13.3566	,	13.2409	,	12.0205	,	11.7958	,	12.0756	,	10.5896	,	11.8663	,	13.2813	,	13.1738	,	14.977	,	13.3257	,	13.0205	,	12.4168	,	13.9219	,	13.8631	,	13.7851	,	13.6038	,	13.8012	,	13.753	,	12.9001	,	14.8278	,	14.095	,	14.2996	,	14.7953	,	14.6588	,	15.0741	,	14.7913	,	14.8108	,	14.3734	,	14.4357	,	14.8513	,	13.2911	,	13.5074	,	13.3326	,	13.266	,	13.373	,	11.397	,	12.4928	,	12.1911	,	13.9574	,	15.0151	,	14.1818	,	12.5566	,	11.088	,	10.483	,	10.5058	,	10.9049	,	12.2959	,	12.9852	,	13.2905	,	12.9999	,	13.212	,	13.0576	,	12.6937	,	12.1184	,	9.74838	,	10.4548	,	9.43549	,	10.9833	,	15.9893	,	16.3837	,	16.7573	,	17.1869	,	17.3021	,	16.7299	,	16.7473	,	16.6357	,	17.0955	,	17.0918	,	15.5994	,	14.0656	,	15.3197	,	16.487	,	16.8838	,	8.66064	,	8.92333	,	9.47427	,	7.16643	,	9.36419	,	11.7685	,	13.422	,	13.7063	,	13.0569	,	13.3095	,	13.7196	,	14.492	,	15.8127	,	15.8497	,	15.4043	,	17.1904	,	16.7464	,	14.8719	,	12.6932	,	12.3248	,	12.5099	,	12.5208	,	12.2745	,	12.6651	,	12.5855	,	11.7425	,	12.4497	,	12.8441	,	12.8959	,	12.8614	,	12.3439	,	12.3948	,	13.5221	,	12.7242	,	12.9814	,	14.4686	,	12.9759	,	12.5689	,	12.9888	,	13.6129	,	13.0673	,	12.9554	,	12.3741	,	12.8038	,	12.9549	,	12.6239	,	12.0946	,	12.6136	,	11.4798	,	11.6899	,	12.9906	,	12.7618	,	12.6478	,	12.5164	,	12.4424	,	12.7132	,	12.7538	,	12.7478	,	12.7189	,	12.5102	,	12.6626	,	13.0151	,	13.1117	,	13.5041	,	13.0698	,	13.4331	,	13.2988	,	13.3027	,	13.0942	,	13.5971	,	15.184	,	16.3626	,	17.4212	,	18.0492	,	17.5897	,	17.2134	,	16.7894	,	16.1146	,	16.1663	,	16.0521	,	16.4396	,	15.9874	,	16.0515	,	15.8582	,	16.0466	,	16.0632	,	16.1101	,	16.1303	,	16.1999	,	16.2214	,	16.097	,	15.3215	,	16.4445	,	21.4505	,	16.2097	,	15.6919	,	15.0488	,	15.1576	,	15.2182	,	15.2034	,	16.0189	,	17.0584	,	16.7	,	16.0452	,	16.9674	,	17.0681	,	16.5096	,	18.8321	,	18.9524	,	19.6887	,	18.6155	,	18.4241	,	18.1866	,	16.9324	,	17.1133	,	17.686	,	15.2546	,	18.5009	,	18.074	,	17.7868	,	17.4197	,	15.4231	,	15.1369	,	15.542	,	16.0793	,	14.3558	,	13.2605	,	15.5893	,	16.0741	,	14.8775	,	15.6932	,	15.4217	,	15.512	,	13.5057	,	13.635	,	13.8864	,	14.0415	,	13.5078	,	14.2975	,	17.7084	,	14.8918	,	13.409	,	13.352	,	15.4607	,	15.6079	,	14.8023	,	25.8212	,	22.3233	,	18.5014	,	17.657	,	17.5954	,	18.0589	,	18.2744	,	19.1132	,	17.8004	,	17.6869	,	17.5549	,	17.7756	,	17.7585	,	17.6939	,	19.5919	,	19.4259	,	19.1684	,	18.6773	,	21.1068	,	25.4631	,	25.2052	,	18.7449	,	16.2681	,	16.3439	,	16.2787	,	16.3726	,	17.7084	,	18.6083	,	18.29	,	17.4639	,	15.0631	,	21.4255	,	21.5556	,	64.628
DeferredRLGpu	,	7.79338	,	0.788128	,	0.864352	,	0.933216	,	0.893248	,	0.768384	,	0.855104	,	1.00758	,	1.12128	,	1.13248	,	1.11392	,	1.01683	,	1.00211	,	1.16381	,	0.988096	,	0.914368	,	1.0665	,	1.05651	,	1.14944	,	1.0449	,	0.955168	,	0.875552	,	1.36752	,	1.16509	,	1.14058	,	1.12006	,	1.12682	,	1.34637	,	1.01814	,	0.779392	,	0.780448	,	0.79456	,	0.775072	,	0.768064	,	0.792288	,	0.837056	,	0.909184	,	0.823968	,	0.779936	,	0.872512	,	0.89824	,	0.797824	,	1.04454	,	0.780064	,	0.794816	,	0.796512	,	0.793888	,	0.762496	,	0.765696	,	0.787264	,	0.88192	,	1.01683	,	1.08422	,	1.10694	,	0.971584	,	1.04877	,	0.741952	,	0.90912	,	1.07805	,	0.899744	,	0.9664	,	0.987744	,	0.908032	,	1.04099	,	0.975456	,	0.948352	,	0.981888	,	0.987104	,	0.948416	,	0.922496	,	0.775264	,	0.709856	,	0.990912	,	0.922816	,	0.950784	,	0.92288	,	0.788032	,	0.766272	,	0.839456	,	0.881568	,	0.808096	,	0.797216	,	0.832288	,	0.955456	,	1.0391	,	0.866912	,	0.9856	,	0.71648	,	0.857664	,	1.35376	,	0.810976	,	0.907936	,	0.986688	,	0.973088	,	1.55466	,	1.10573	,	1.14838	,	1.06506	,	1.06957	,	1.17603	,	1.5897	,	1.13181	,	0.831744	,	0.890464	,	1.00541	,	1.01747	,	0.912608	,	0.836992	,	0.850048	,	1.01338	,	1.09139	,	1.04842	,	1.04822	,	1.16016	,	1.58733	,	1.22227	,	1.24822	,	1.28163	,	1.10061	,	0.956544	,	1.0056	,	1.07648	,	1.54874	,	1.21267	,	1.12422	,	1.12205	,	1.06682	,	1.15648	,	1.15219	,	1.01533	,	0.930144	,	0.91216	,	0.840352	,	0.852448	,	0.903808	,	0.904288	,	0.913568	,	0.850112	,	0.841952	,	0.844384	,	0.837856	,	0.84064	,	0.79264	,	0.74496	,	0.734272	,	0.73664	,	0.7336	,	0.756512	,	0.755616	,	0.75552	,	0.752192	,	0.755296	,	0.752448	,	0.763072	,	0.750528	,	0.756608	,	0.764544	,	0.761184	,	0.7528	,	0.756544	,	0.757568	,	0.75376	,	0.755488	,	0.759392	,	0.759392	,	0.759392	,	0.759392	,	0.759392	,	0.759392	,	0.759392	,	0.759392	,	0.759392	,	0.759392	,	0.759392	,	0.759392	,	0.759392	,	0.759392	,	0.759392	,	0.759392	,	0.759392	,	0.759392	,	0.759392	,	0.759392	,	0.759392	,	0.759392	,	0.759392	,	0.759392	,	0.759392	,	0.759392	,	0.759392	,	0.759392	,	0.759392	,	0.759392	,	0.759392	,	0.759392	,	0.759392	,	0.759392	,	0.759392	,	0.759392	,	0.759392	,	0.759392	,	0.759392	,	0.759392	,	0.759392	,	0.759392	,	0.759392	,	0.759392	,	0.759392	,	0.759392	,	0.759392	,	0.759392	,	0.759392	,	0.759392	,	0.759392	,	0.759392	,	0.759392	,	0.759392	,	0.759392	,	0.759392	,	0.759392	,	0.759392	,	0.759392	,	0.759392	,	0.759392	,	0.759392	,	0.759392	,	0.759392	,	0.759392	,	0.759392	,	0.759392	,	0.759392	,	0.759392	,	0.759392	,	0.759392	,	0.759392	,	0.759392	,	0.755424	,	0.720064	,	0.856096	,	0.846048	,	0.819712	,	0.84912	,	0.774624	,	0.77216	,	0.74944	,	0.719712	,	0.844576	,	0.847168	,	0.740992	,	0.822944	,	0.622368	,	0.683936	,	0.762528	,	0.815456	,	0.863968	,	0.849888	,	0.815456	,	0.7552	,	0.867968	,	0.876576	,	0.772256	,	0.789664	,	0.743968	,	0.724544	,	0.654912	,	0.699584	,	1.01142	,	0.94128	,	0.927264	,	0.854848	,	0.858816	,	0.977248	,	1.01363	,	1.02666	,	0.88576	,	0.822624	,	0.892672	,	0.870496	,	0.734368	,	0.761312	,	0.72064	,	0.754272	,	0.945472	,	1.00422	,	0.648192	,	0.728256	,	0.859232	,	0.921344	,	0.886944	,	0.84368	,	0.810624	,	0.764768	,	0.772256	,	0.991008	,	0.989152	,	0.994848	,	0.99008	,	0.795488	,	0.785888	,	0.815584	,	0.755968	,	0.78112	,	0.824416	,	0.80736	,	0.806496	,	0.801088	,	0.799392	,	0.770272	,	0.807744	,	0.867136	,	0.81792	,	0.825024	,	0.818592	,	0.819936	,	0.827872	,	0.739936	,	1.10544	,	0.965984	,	1.12288	,	0.91808	,	0.748608	,	0.77984	,	0.75456	,	0.688864	,	0.675456	,	0.766944	,	0.880224	,	0.91072	,	0.877152	,	0.883456	,	0.8976	,	0.908	,	0.934976	,	0.885152	,	0.850784	,	0.881824	,	0.854592	,	0.843072	,	0.960288	,	0.95408	,	0.994784	,	0.943904	,	0.8048	,	0.844032	,	0.886688	,	0.876544	,	0.834624	,	0.851456	,	0.933568	,	0.917632	,	1.01472	,	1.03462	,	0.950624	,	0.782592	,	0.783456	,	0.724704	,	0.65024	,	0.697792	,	0.765824	,	0.815168	,	0.820352	,	0.828448	,	0.838976	,	0.854112	,	0.845632	,	0.87664	,	0.882176	,	0.877856	,	0.911584	,	0.90496	,	0.87616	,	0.784	,	0.766688	,	0.782784	,	0.794048	,	0.797824	,	0.79792	,	0.797664	,	0.776352	,	0.796416	,	0.795008	,	0.795168	,	0.79392	,	0.794368	,	0.797024	,	0.816064	,	0.799712	,	0.819328	,	0.85568	,	0.824608	,	0.785696	,	0.794368	,	0.818304	,	0.82224	,	0.800544	,	0.803296	,	0.799232	,	0.806272	,	0.8008	,	0.78304	,	0.767872	,	0.762976	,	0.765888	,	0.802752	,	0.802304	,	0.80352	,	0.804288	,	0.793408	,	0.803456	,	0.800576	,	0.805408	,	0.80192	,	0.815072	,	0.795904	,	0.797856	,	0.821568	,	0.839424	,	0.83088	,	0.828128	,	0.827392	,	0.804896	,	0.811232	,	0.832512	,	0.872192	,	0.888832	,	0.921152	,	0.923456	,	0.924608	,	0.91168	,	0.899264	,	0.87104	,	0.865312	,	0.86496	,	0.866144	,	0.855744	,	0.867744	,	0.86128	,	0.861056	,	0.860096	,	0.861216	,	0.863232	,	0.863264	,	0.854912	,	0.861792	,	0.88256	,	0.89088	,	1.09933	,	0.832672	,	0.747936	,	0.631616	,	0.639808	,	0.877312	,	0.756608	,	0.899136	,	0.891936	,	0.975712	,	0.862976	,	0.89744	,	0.906432	,	1.01846	,	1.11251	,	1.08032	,	1.26992	,	0.981952	,	0.981152	,	0.977536	,	0.955808	,	0.971712	,	0.993952	,	0.91888	,	1.15082	,	0.858272	,	0.887968	,	0.946176	,	0.905376	,	0.933024	,	0.855488	,	0.999168	,	0.995328	,	0.82272	,	1.03226	,	1.11888	,	0.968192	,	1.06474	,	0.917408	,	1.12621	,	0.780192	,	0.758592	,	0.820512	,	0.790944	,	0.675584	,	0.737696	,	1.10355	,	0.914304	,	0.829792	,	0.826656	,	0.809984	,	0.914176	,	0.923488	,	1.07382	,	1.0664	,	0.95696	,	0.83584	,	0.839904	,	0.866816	,	0.8704	,	0.960544	,	0.968448	,	0.965792	,	0.971296	,	0.967616	,	0.973888	,	0.96544	,	0.922816	,	0.915712	,	0.90048	,	0.940032	,	0.92192	,	0.9776	,	1.00467	,	0.963296	,	0.928672	,	0.913952	,	0.900864	,	0.906112	,	0.99696	,	1.32963	,	1.0296	,	1.01414	,	0.844736	,	0.962848	,	0.96032	,	8.48787
RayTracingRLGpu	,	0.039424	,	2.83523	,	3.21421	,	4.09034	,	3.988	,	3.15526	,	3.39818	,	4.16246	,	5.0543	,	5.09917	,	5.24736	,	4.4689	,	4.44141	,	4.31574	,	3.756	,	3.44694	,	3.30013	,	3.42349	,	3.51344	,	3.95958	,	4.15581	,	3.69274	,	4.6983	,	3.47792	,	3.17283	,	3.31133	,	2.68509	,	4.2753	,	5.50618	,	3.89965	,	3.70202	,	4.28515	,	3.81846	,	3.5496	,	3.2505	,	3.46934	,	3.6327	,	3.87363	,	3.52685	,	4.08941	,	4.30851	,	3.42304	,	3.45875	,	3.18614	,	3.15763	,	3.18128	,	2.73187	,	2.5232	,	2.65574	,	2.5016	,	2.82992	,	3.26179	,	4.80528	,	4.31232	,	3.54963	,	3.16221	,	3.82208	,	4.08534	,	4.90445	,	4.10662	,	4.33622	,	4.63382	,	3.97267	,	4.34787	,	4.24608	,	4.70941	,	4.74426	,	4.44717	,	4.29318	,	3.73286	,	7.21558	,	5.90646	,	4.2977	,	3.924	,	3.77648	,	3.87654	,	3.42595	,	4.16352	,	4.70413	,	4.72595	,	4.29277	,	3.23398	,	2.73456	,	2.47424	,	4.61824	,	4.33626	,	3.01165	,	2.38595	,	2.63085	,	3.11968	,	3.59402	,	3.99814	,	4.53389	,	4.3479	,	4.71248	,	4.84374	,	5.00582	,	4.6168	,	4.99587	,	5.39152	,	0.13136	,	0.12736	,	0.116352	,	0.122688	,	0.471424	,	0.129056	,	0.396544	,	0.122912	,	0.117856	,	0.126272	,	0.127584	,	0.677472	,	0.677088	,	0.746176	,	0.78128	,	2.41062	,	2.46422	,	9.8776	,	8.81696	,	1.8201	,	7.57149	,	0.127904	,	0.131776	,	3.04112	,	2.79818	,	5.83814	,	2.71206	,	2.95344	,	5.3384	,	12.7576	,	11.334	,	10.9481	,	10.1004	,	9.98858	,	10.0154	,	10.0986	,	10.1225	,	8.77296	,	8.7999	,	8.88141	,	8.85542	,	8.59693	,	8.31712	,	7.03578	,	6.5129	,	6.55354	,	6.92026	,	7.40992	,	7.34621	,	7.4673	,	7.2959	,	7.47216	,	7.71805	,	7.22682	,	7.79363	,	7.43251	,	7.21168	,	7.50874	,	7.32003	,	7.30618	,	7.47418	,	7.29027	,	7.42157	,	7.58877	,	7.48346	,	7.40448	,	7.47152	,	7.34819	,	7.25142	,	7.48512	,	7.39904	,	7.50634	,	7.53642	,	7.46246	,	7.36189	,	7.43878	,	7.91331	,	8.24378	,	8.33565	,	8.13747	,	8.13008	,	8.62218	,	7.97114	,	7.44419	,	7.34038	,	7.58378	,	7.58429	,	7.27821	,	7.27821	,	7.27821	,	7.3375	,	7.52832	,	7.49888	,	7.62426	,	7.59443	,	7.46102	,	7.67098	,	7.72237	,	7.28646	,	7.45238	,	7.57696	,	7.44819	,	7.46656	,	7.45706	,	7.60531	,	7.46464	,	7.32144	,	7.39062	,	7.60374	,	7.50714	,	7.58928	,	7.41059	,	7.54397	,	7.45878	,	7.61309	,	7.64259	,	7.46298	,	7.54989	,	7.47939	,	7.49581	,	7.90771	,	7.57251	,	7.49786	,	7.54531	,	7.63488	,	7.31482	,	7.4832	,	7.81523	,	7.36976	,	7.56102	,	7.5903	,	7.61722	,	7.24362	,	7.32253	,	7.4896	,	7.62467	,	7.3151	,	6.74598	,	9.29542	,	9.19187	,	7.90275	,	9.85872	,	9.85357	,	9.9311	,	8.92784	,	7.78582	,	9.97747	,	11.2117	,	9.54861	,	11.6906	,	5.38742	,	4.96998	,	6.20896	,	7.90214	,	10.6602	,	15.0173	,	13.6386	,	12.435	,	10.5366	,	9.62714	,	6.69827	,	6.75158	,	7.7329	,	7.45955	,	4.58282	,	4.25174	,	11.3868	,	8.80522	,	8.82192	,	7.70144	,	7.63395	,	9.1368	,	8.97878	,	8.6656	,	7.79696	,	7.38314	,	7.72944	,	8.37901	,	6.59424	,	9.44554	,	9.71462	,	8.25398	,	7.93082	,	8.07683	,	7.14125	,	8.14045	,	9.51392	,	9.32061	,	11.2018	,	9.56493	,	9.2673	,	8.73843	,	10.2342	,	9.92003	,	9.86122	,	9.69606	,	9.89994	,	10.055	,	9.29424	,	10.9853	,	10.4235	,	10.5975	,	11.0609	,	10.9234	,	11.3363	,	11.0475	,	11.1031	,	10.6897	,	10.7283	,	11.0681	,	9.5703	,	9.61062	,	9.60608	,	9.54509	,	9.63427	,	7.75088	,	8.34979	,	8.40906	,	9.95494	,	11.2697	,	10.5164	,	8.86899	,	7.42326	,	7.02486	,	6.9337	,	7.27434	,	8.26998	,	8.90746	,	9.24854	,	9.08211	,	9.32947	,	9.24611	,	8.85824	,	8.3176	,	5.85539	,	6.43712	,	5.73747	,	7.07594	,	12.107	,	12.3655	,	12.8564	,	13.4217	,	13.6354	,	12.9755	,	12.9264	,	12.8363	,	13.3476	,	13.3281	,	11.7455	,	10.2141	,	11.4091	,	12.5608	,	13.0985	,	5.09232	,	4.77286	,	5.23779	,	3.20474	,	5.79942	,	8.08621	,	9.6761	,	9.95027	,	9.31626	,	9.67242	,	10.0524	,	10.7469	,	12.0081	,	12.0587	,	11.7425	,	13.2656	,	13.0178	,	11.0851	,	9.01821	,	8.66739	,	8.93904	,	8.8344	,	8.69142	,	8.95136	,	8.90579	,	8.07622	,	8.81542	,	9.06762	,	9.1143	,	9.0351	,	8.75712	,	8.79162	,	9.71466	,	9.12336	,	9.35283	,	10.427	,	9.36653	,	8.88506	,	9.13363	,	9.80461	,	9.45392	,	9.19248	,	8.77488	,	9.09917	,	9.14499	,	8.81907	,	8.51037	,	8.96202	,	7.83174	,	8.0119	,	9.39139	,	9.07408	,	8.93309	,	8.90941	,	8.86403	,	9.02112	,	9.06602	,	9.05104	,	9.0328	,	8.8929	,	8.94285	,	9.29424	,	9.39718	,	9.78333	,	9.35408	,	9.69123	,	9.58195	,	9.44813	,	9.37427	,	9.84496	,	11.405	,	12.5643	,	13.5855	,	14.2167	,	13.8431	,	13.3928	,	12.9706	,	12.3216	,	12.3704	,	12.2664	,	12.5282	,	12.2229	,	12.2545	,	12.0659	,	12.2592	,	12.2951	,	12.318	,	12.3362	,	12.3991	,	12.4334	,	12.305	,	11.4927	,	12.6216	,	17.438	,	12.4463	,	12.0228	,	11.4692	,	11.6053	,	11.4401	,	11.5362	,	12.2186	,	13.2485	,	12.7886	,	12.2243	,	13.126	,	13.1188	,	12.5472	,	14.7751	,	14.7933	,	15.4767	,	14.6616	,	14.3651	,	14.2605	,	13.0366	,	13.2294	,	13.6875	,	11.4184	,	14.4256	,	14.4316	,	13.9814	,	13.4821	,	11.5953	,	11.2957	,	11.7413	,	12.1641	,	10.428	,	9.60074	,	11.6415	,	12.0312	,	10.9529	,	11.7064	,	11.5547	,	11.4573	,	9.87306	,	9.94614	,	10.1325	,	10.3149	,	9.89194	,	10.6304	,	13.5768	,	11.0569	,	9.64819	,	9.60205	,	11.7065	,	11.7379	,	10.9698	,	21.8802	,	18.316	,	14.6022	,	13.9089	,	13.8434	,	14.2818	,	14.4841	,	15.2218	,	13.9121	,	13.7804	,	13.655	,	13.8783	,	13.8168	,	13.782	,	15.7212	,	15.576	,	15.3275	,	14.8025	,	17.2421	,	21.5929	,	21.2765	,	14.8484	,	12.3907	,	12.4917	,	12.5183	,	12.526	,	13.7801	,	14.3284	,	14.3155	,	13.5474	,	11.3096	,	17.547	,	17.5211	,	47.6413
ResolveRLGpu	,	0.447392	,	0.983072	,	0.98896	,	1.05715	,	1.02595	,	0.89776	,	0.896576	,	0.915456	,	0.977696	,	1.02493	,	1.0727	,	1.02867	,	1.03216	,	1.12419	,	1.03491	,	0.963936	,	0.95632	,	1.00358	,	0.984384	,	1.05005	,	1.05702	,	1.03958	,	1.35267	,	0.95456	,	0.952192	,	0.931776	,	0.993568	,	1.06288	,	1.27427	,	1.00493	,	0.983392	,	0.967616	,	0.911648	,	0.907872	,	0.920384	,	0.914432	,	1.00822	,	1.02384	,	0.924448	,	0.919328	,	1.18054	,	0.940384	,	0.906624	,	0.909024	,	0.92736	,	0.920064	,	1.01773	,	1.03539	,	1.00883	,	0.991168	,	1.26902	,	1.23523	,	1.328	,	1.38669	,	1.20314	,	1.0159	,	1.01126	,	1.27539	,	1.29923	,	1.02672	,	1.01635	,	1.05418	,	1.00864	,	1.14554	,	1.04006	,	1.03981	,	1.14998	,	1.18013	,	1.0113	,	1.15853	,	1.07837	,	0.926016	,	1.0815	,	1.20147	,	1.05107	,	1.0441	,	0.916512	,	0.92272	,	1.02851	,	1.03296	,	1.00189	,	0.974784	,	1.35392	,	1.26301	,	1.19603	,	0.983936	,	0.940896	,	1.0184	,	1.11712	,	0.94736	,	0.933664	,	0.932864	,	1.04547	,	1.03782	,	1.20842	,	1.18026	,	1.21702	,	1.13933	,	1.26979	,	1.39718	,	0.149408	,	0.146208	,	0.130912	,	0.143456	,	0.143104	,	0.143392	,	0.13152	,	0.14256	,	0.124	,	0.143616	,	0.144	,	0.806976	,	0.807424	,	0.876576	,	1.07843	,	0.522272	,	0.536	,	0.542112	,	0.475872	,	0.41536	,	0.439616	,	0.146912	,	0.148704	,	0.930944	,	0.864544	,	2.84461	,	1.19427	,	1.28653	,	1.42739	,	3.65315	,	3.38451	,	3.12128	,	2.90902	,	2.90787	,	2.8729	,	2.93357	,	2.89002	,	2.88618	,	2.88739	,	3.0607	,	2.91334	,	2.88742	,	2.86784	,	2.79616	,	2.85277	,	2.88931	,	2.85766	,	2.87619	,	2.87629	,	2.86074	,	2.76707	,	2.85536	,	2.89597	,	2.87411	,	2.87437	,	2.85286	,	2.88362	,	2.88474	,	2.87747	,	2.89117	,	2.86819	,	2.7855	,	2.86717	,	2.92512	,	2.88691	,	2.86678	,	2.91878	,	2.78877	,	2.88538	,	2.91491	,	2.83315	,	2.91766	,	2.8873	,	2.88934	,	2.82032	,	2.8344	,	2.95133	,	2.95133	,	2.872	,	2.88918	,	2.88918	,	2.88918	,	2.88918	,	2.89376	,	2.79818	,	2.88563	,	2.8072	,	2.90045	,	2.90045	,	2.90045	,	2.77933	,	2.89482	,	2.88464	,	2.88541	,	2.88109	,	2.89555	,	2.87594	,	2.89149	,	2.86192	,	2.89373	,	2.92989	,	2.84189	,	2.86656	,	2.97165	,	2.8648	,	2.86394	,	2.87482	,	2.89507	,	2.88	,	2.91053	,	2.87962	,	2.89459	,	2.88442	,	2.96032	,	2.88176	,	2.90774	,	2.90749	,	2.91923	,	2.89901	,	2.90806	,	3.03066	,	2.94666	,	2.80547	,	2.89354	,	2.88608	,	2.77686	,	2.97206	,	2.92243	,	3.04298	,	2.88627	,	2.90179	,	3.01245	,	2.78064	,	2.81267	,	2.99203	,	2.89901	,	2.90534	,	2.79654	,	2.90566	,	2.79971	,	2.87834	,	3.17354	,	2.90464	,	2.83277	,	2.8961	,	2.79178	,	3.01504	,	2.91654	,	2.89661	,	3.31872	,	2.94058	,	3.60214	,	3.68182	,	4.02208	,	3.80928	,	3.50707	,	3.13216	,	2.99722	,	3.15837	,	3.32262	,	3.8055	,	3.83011	,	3.45622	,	3.47443	,	3.41411	,	3.29834	,	4.09875	,	3.48515	,	3.6681	,	3.13462	,	3.27309	,	4.14467	,	4.09216	,	4.21322	,	3.78666	,	3.66592	,	4.07578	,	3.38394	,	3.02621	,	3.14723	,	2.80224	,	3.00998	,	2.91581	,	2.99277	,	2.79782	,	2.99555	,	2.90573	,	2.92784	,	2.88582	,	2.91341	,	2.94042	,	2.91117	,	2.9104	,	2.94989	,	2.93181	,	2.9105	,	2.90957	,	2.90115	,	2.81818	,	3.02301	,	2.91258	,	2.91901	,	2.90739	,	2.92275	,	2.92771	,	2.93939	,	2.90614	,	2.90973	,	2.89574	,	2.91334	,	2.90106	,	3.06966	,	2.90467	,	2.8991	,	2.90902	,	2.9007	,	3.03402	,	2.81293	,	2.87715	,	2.82214	,	2.91478	,	2.90614	,	2.90714	,	2.76762	,	2.89421	,	2.86112	,	3.14374	,	3.16464	,	3.16259	,	3.03302	,	2.98278	,	2.9008	,	2.89843	,	2.90973	,	3.04058	,	3.13286	,	2.84118	,	3.06144	,	2.91885	,	3.06192	,	2.90422	,	2.81834	,	2.85869	,	2.90787	,	2.92765	,	2.91987	,	2.9105	,	2.90806	,	2.91808	,	2.92746	,	2.89344	,	2.8897	,	2.83123	,	2.7833	,	3.36538	,	3.5095	,	3.30963	,	2.86406	,	2.91466	,	2.92858	,	2.93414	,	2.91008	,	2.79549	,	2.81078	,	2.89731	,	2.92522	,	2.90518	,	2.7824	,	3.0105	,	2.81974	,	2.90701	,	2.88746	,	2.88714	,	2.7856	,	2.88906	,	2.78323	,	2.91126	,	2.87978	,	2.88624	,	2.8337	,	2.97834	,	2.98342	,	3.02912	,	2.79008	,	2.80362	,	2.9889	,	2.79933	,	2.80739	,	3.18285	,	2.78307	,	2.89584	,	3.05731	,	2.98739	,	2.78694	,	2.96061	,	2.79395	,	2.89786	,	3.0015	,	3.00134	,	2.79946	,	2.8808	,	2.88234	,	2.90886	,	2.79424	,	2.88349	,	2.90758	,	2.80083	,	2.78256	,	2.88659	,	2.88557	,	2.88886	,	2.88208	,	2.79946	,	2.92106	,	2.91994	,	2.88918	,	2.87872	,	2.88288	,	2.90925	,	2.88688	,	3.04794	,	2.90534	,	2.91693	,	2.9049	,	2.90682	,	2.91277	,	2.90502	,	2.81984	,	2.90723	,	2.91613	,	2.91965	,	2.92509	,	2.91747	,	3.04365	,	2.90432	,	2.92605	,	2.92874	,	2.92342	,	2.89907	,	2.92787	,	2.92858	,	2.93587	,	2.92819	,	2.92794	,	2.94448	,	2.92851	,	2.91062	,	2.92874	,	2.9191	,	2.94602	,	2.91011	,	2.89846	,	2.90832	,	2.89683	,	2.91466	,	2.93421	,	2.95002	,	2.94147	,	3.04026	,	2.94189	,	2.94269	,	3.0751	,	2.9383	,	2.96694	,	3.07504	,	2.94432	,	2.93699	,	2.90874	,	3.00147	,	2.91408	,	2.92224	,	2.77978	,	2.91587	,	2.98835	,	2.92051	,	2.90416	,	2.94269	,	2.91402	,	2.93066	,	2.83494	,	2.91245	,	2.92227	,	2.95261	,	2.91843	,	2.94707	,	2.92643	,	2.84915	,	2.92835	,	2.93008	,	2.93354	,	2.93824	,	2.92371	,	3.02442	,	2.91837	,	2.92691	,	2.9215	,	2.94096	,	2.95418	,	2.90736	,	2.86515	,	2.93939	,	2.93914	,	2.90912	,	2.90835	,	2.90832	,	2.91805	,	2.9272	,	2.91334	,	2.93808	,	2.92666	,	2.92762	,	2.96224	,	2.94198	,	2.94	,	2.93152	,	2.9367	,	2.92774	,	2.93885	,	2.88998	,	2.92221	,	2.92826	,	2.94256	,	2.93546	,	2.85677	,	2.93853	,	2.92944	,	2.94541	,	2.94262	,	2.90016	,	2.90637	,	2.91318	,	3.07133	,	8.46006
Index	,	0	,	1	,	2	,	3	,	4	,	5	,	6	,	7	,	8	,	9	,	10	,	11	,	12	,	13	,	14	,	15	,	16	,	17	,	18	,	19	,	20	,	21	,	22	,	23	,	24	,	25	,	26	,	27	,	28	,	29	,	30	,	31	,	32	,	33	,	34	,	35	,	36	,	37	,	38	,	39	,	40	,	41	,	42	,	43	,	44	,	45	,	46	,	47	,	48	,	49	,	50	,	51	,	52	,	53	,	54	,	55	,	56	,	57	,	58	,	59	,	60	,	61	,	62	,	63	,	64	,	65	,	66	,	67	,	68	,	69	,	70	,	71	,	72	,	73	,	74	,	75	,	76	,	77	,	78	,	79	,	80	,	81	,	82	,	83	,	84	,	85	,	86	,	87	,	88	,	89	,	90	,	91	,	92	,	93	,	94	,	95	,	96	,	97	,	98	,	99	,	100	,	101	,	102	,	103	,	104	,	105	,	106	,	107	,	108	,	109	,	110	,	111	,	112	,	113	,	114	,	115	,	116	,	117	,	118	,	119	,	120	,	121	,	122	,	123	,	124	,	125	,	126	,	127	,	128	,	129	,	130	,	131	,	132	,	133	,	134	,	135	,	136	,	137	,	138	,	139	,	140	,	141	,	142	,	143	,	144	,	145	,	146	,	147	,	148	,	149	,	150	,	151	,	152	,	153	,	154	,	155	,	156	,	157	,	158	,	159	,	160	,	161	,	162	,	163	,	164	,	165	,	166	,	167	,	168	,	169	,	170	,	171	,	172	,	173	,	174	,	175	,	176	,	177	,	178	,	179	,	180	,	181	,	182	,	183	,	184	,	185	,	186	,	187	,	188	,	189	,	190	,	191	,	192	,	193	,	194	,	195	,	196	,	197	,	198	,	199	,	200	,	201	,	202	,	203	,	204	,	205	,	206	,	207	,	208	,	209	,	210	,	211	,	212	,	213	,	214	,	215	,	216	,	217	,	218	,	219	,	220	,	221	,	222	,	223	,	224	,	225	,	226	,	227	,	228	,	229	,	230	,	231	,	232	,	233	,	234	,	235	,	236	,	237	,	238	,	239	,	240	,	241	,	242	,	243	,	244	,	245	,	246	,	247	,	248	,	249	,	250	,	251	,	252	,	253	,	254	,	255	,	256	,	257	,	258	,	259	,	260	,	261	,	262	,	263	,	264	,	265	,	266	,	267	,	268	,	269	,	270	,	271	,	272	,	273	,	274	,	275	,	276	,	277	,	278	,	279	,	280	,	281	,	282	,	283	,	284	,	285	,	286	,	287	,	288	,	289	,	290	,	291	,	292	,	293	,	294	,	295	,	296	,	297	,	298	,	299	,	300	,	301	,	302	,	303	,	304	,	305	,	306	,	307	,	308	,	309	,	310	,	311	,	312	,	313	,	314	,	315	,	316	,	317	,	318	,	319	,	320	,	321	,	322	,	323	,	324	,	325	,	326	,	327	,	328	,	329	,	330	,	331	,	332	,	333	,	334	,	335	,	336	,	337	,	338	,	339	,	340	,	341	,	342	,	343	,	344	,	345	,	346	,	347	,	348	,	349	,	350	,	351	,	352	,	353	,	354	,	355	,	356	,	357	,	358	,	359	,	360	,	361	,	362	,	363	,	364	,	365	,	366	,	367	,	368	,	369	,	370	,	371	,	372	,	373	,	374	,	375	,	376	,	377	,	378	,	379	,	380	,	381	,	382	,	383	,	384	,	385	,	386	,	387	,	388	,	389	,	390	,	391	,	392	,	393	,	394	,	395	,	396	,	397	,	398	,	399	,	400	,	401	,	402	,	403	,	404	,	405	,	406	,	407	,	408	,	409	,	410	,	411	,	412	,	413	,	414	,	415	,	416	,	417	,	418	,	419	,	420	,	421	,	422	,	423	,	424	,	425	,	426	,	427	,	428	,	429	,	430	,	431	,	432	,	433	,	434	,	435	,	436	,	437	,	438	,	439	,	440	,	441	,	442	,	443	,	444	,	445	,	446	,	447	,	448	,	449	,	450	,	451	,	452	,	453	,	454	,	455	,	456	,	457	,	458	,	459	,	460	,	461	,	462	,	463	,	464	,	465	,	466	,	467	,	468	,	469	,	470	,	471	,	472	,	473	,	474	,	475	,	476	,	477	,	478	,	479	,	480	,	481	,	482	,	483	,	484	,	485	,	486	,	487	,	488	,	489	,	490	,	491	,	492	,	493	,	494	,	495	,	496	,	497	,	498	,	499	,	500	,	501	,	502	,	503	,	504	,	505	,	506	,	507	,	508	,	509	,	510	,	511	,	512	,	513	,	514	,	515	,	516	,	517	,	518	,	519	,	520	,	521	,	522	,	523	,	524	,	525	,	526	,	527	,	528	,	529	,	530	,	531	,	532

ProfilingBuildAggregator: 
BuildBottomLevelAS	,	1445.09
BuildBottomLevelASGpu	,	718.588
BuildTopLevelAS	,	0.765
BuildTopLevelASGpu	,	0.874272
Triangles	,	3872254
Meshes	,	3368
BottomLevels	,	3226
TopLevelSize	,	206464
BottomLevelsSize	,	231065056
Index	,	0

FpsAggregator: 
FPS	,	1	,	8	,	9	,	9	,	8	,	8	,	9	,	8	,	10	,	10	,	10	,	9	,	9	,	10	,	9	,	9	,	7	,	9	,	9	,	9	,	9	,	9	,	9	,	9	,	9	,	10	,	10	,	9	,	9	,	9	,	9	,	9	,	9	,	10	,	9	,	9	,	9	,	9	,	9	,	7	,	8	,	8	,	9	,	10	,	10	,	9	,	9	,	10	,	10	,	10	,	10	,	10	,	10	,	10	,	10	,	10	,	8	,	10	,	9	,	8	,	7	,	9	,	8	,	9	,	7	,	9	,	8	,	8	,	8	,	8	,	7	,	5	,	7	,	7	,	7	,	8	,	7	,	8	,	8	,	8	,	8	,	8	,	8	,	8	,	9	,	7	,	9	,	8	,	10	,	8	,	9	,	10	,	10	,	8	,	10	,	9	,	10	,	10	,	10	,	11	,	11	,	11	,	10	,	10	,	11	,	10	,	11	,	9	,	11	,	10	,	11	,	11	,	11	,	11	,	11	,	11	,	10	,	11	,	10	,	11	,	11	,	11	,	11	,	11	,	10	,	11	,	11	,	11	,	11	,	11	,	9	,	10	,	10	,	9	,	9	,	9	,	3	,	6	,	9	,	8	,	9	,	9	,	9	,	10	,	9	,	10	,	9	,	9	,	9	,	9	,	9	,	8	,	9	,	9	,	9	,	9	,	9	,	9	,	9	,	9	,	9	,	9	,	9	,	11	,	18	,	18	,	18	,	18	,	18	,	18	,	18	,	18	,	18	,	18	,	17	,	18	,	18	,	18	,	18	,	19	,	19	,	18	,	19	,	18	,	18	,	18	,	18	,	15	,	10	,	10	,	14	,	6	,	16	,	16	,	18	,	17	,	16	,	16	,	18	,	2	,	9	,	15	,	13	,	16	,	15	,	16	,	17	,	17	,	17	,	17	,	17	,	17	,	17	,	17	,	17	,	17	,	17	,	17	,	17	,	18	,	17	,	17	,	17	,	17	,	17	,	17	,	16	,	17	,	19	,	18	,	19	,	21	,	19	,	19	,	21	,	20	,	21	,	9	,	10	,	9	,	10	,	9	,	10	,	8	,	9	,	10	,	10	,	9	,	9	,	9	,	9	,	10	,	9	,	10	,	10	,	9	,	9	,	10	,	9	,	9	,	10	,	10	,	10	,	9	,	10	,	9	,	10	,	9	,	10	,	9	,	10	,	9	,	10	,	9	,	10	,	9	,	10	,	9	,	9	,	8	,	8	,	8	,	9	,	8	,	9	,	9	,	9	,	8	,	7	,	8	,	7	,	9	,	8	,	9	,	8	,	9	,	8	,	9	,	8	,	7	,	7	,	7	,	8	,	8	,	8	,	8	,	8	,	9	,	8	,	9	,	8	,	9	,	8	,	8	,	9	,	8	,	9	,	8	,	9	,	9	,	8	,	8	,	8	,	9	,	8	,	9	,	9	,	10	,	9	,	10	,	9	,	10	,	9	,	10	,	9	,	10	,	9	,	10	,	9	,	10	,	9	,	10	,	8	,	9	,	9	,	10	,	9	,	9	,	9	,	10	,	10	,	9	,	10	,	9	,	10	,	10	,	9	,	8	,	10	,	8	,	8	,	8	,	8	,	8	,	8	,	9	,	7	,	8	,	8	,	8	,	8	,	9	,	8	,	8	,	8	,	8	,	9	,	8	,	9	,	8	,	8	,	9	,	8	,	9	,	8	,	8	,	9	,	7	,	8	,	8	,	8	,	9	,	8	,	8	,	8	,	9	,	9	,	9	,	9	,	9	,	9	,	8	,	9	,	8	,	8	,	9	,	7	,	9	,	9	,	9	,	9	,	9	,	8	,	8	,	8	,	9	,	8	,	9	,	8	,	9	,	8	,	9	,	8	,	8	,	8	,	7	,	7	,	8	,	7	,	8	,	8	,	7	,	3	,	8	,	8	,	8	,	8	,	8	,	9	,	8	,	9	,	9	,	9	,	9	,	8	,	8	,	8	,	8	,	8	,	9	,	10	,	9	,	9	,	8	,	8	,	8	,	9	,	8	,	9	,	9	,	9	,	9	,	9	,	9	,	8	,	8	,	8	,	9	,	8	,	9	,	8	,	8	,	8	,	7	,	9	,	9	,	9	,	9	,	9	,	9	,	8	,	8	,	9	,	8	,	8	,	8	,	8	,	7	,	8	,	9	,	9	,	9	,	9	,	9	,	9	,	9	,	10	,	9	,	9	,	8	,	8	,	8	,	8	,	8	,	8	,	8	,	8	,	8	,	8	,	8	,	9	,	8	,	9	,	8	,	8	,	8	,	7	,	7	,	7	,	7	,	7	,	7	,	7	,	6	,	7	,	7	,	7	,	8	,	8	,	8	,	8	,	1	,	1
UPS	,	1200	,	977	,	61	,	67	,	62	,	68	,	62	,	63	,	64	,	67	,	61	,	64	,	65	,	65	,	61	,	67	,	58	,	66	,	63	,	63	,	62	,	64	,	63	,	63	,	62	,	65	,	66	,	59	,	64	,	64	,	64	,	61	,	67	,	66	,	61	,	61	,	64	,	62	,	65	,	62	,	63	,	60	,	66	,	67	,	67	,	61	,	65	,	63	,	66	,	62	,	63	,	61	,	66	,	63	,	64	,	64	,	61	,	65	,	67	,	65	,	61	,	71	,	63	,	67	,	59	,	66	,	67	,	60	,	68	,	64	,	65	,	55	,	67	,	67	,	58	,	75	,	63	,	66	,	60	,	61	,	67	,	70	,	63	,	64	,	65	,	61	,	64	,	63	,	67	,	66	,	63	,	65	,	63	,	60	,	65	,	64	,	62	,	63	,	65	,	65	,	63	,	61	,	63	,	69	,	66	,	66	,	64	,	64	,	66	,	64	,	66	,	64	,	63	,	62	,	64	,	63	,	60	,	65	,	62	,	64	,	64	,	63	,	61	,	65	,	63	,	64	,	64	,	65	,	65	,	65	,	61	,	65	,	65	,	60	,	65	,	67	,	28	,	890	,	62	,	63	,	61	,	60	,	63	,	66	,	62	,	66	,	64	,	67	,	62	,	64	,	60	,	64	,	62	,	62	,	60	,	62	,	68	,	63	,	64	,	61	,	60	,	61	,	62	,	64	,	63	,	62	,	62	,	63	,	61	,	62	,	63	,	63	,	63	,	61	,	61	,	63	,	62	,	62	,	63	,	63	,	62	,	63	,	62	,	60	,	63	,	60	,	63	,	56	,	66	,	66	,	65	,	23	,	187	,	62	,	62	,	61	,	62	,	62	,	61	,	8	,	2645	,	60	,	64	,	65	,	61	,	265	,	61	,	61	,	61	,	63	,	62	,	63	,	60	,	62	,	62	,	60	,	63	,	64	,	61	,	64	,	62	,	61	,	64	,	61	,	61	,	61	,	61	,	62	,	62	,	61	,	63	,	62	,	61	,	60	,	65	,	64	,	61	,	63	,	65	,	63	,	62	,	65	,	65	,	60	,	68	,	64	,	64	,	59	,	62	,	62	,	65	,	61	,	65	,	64	,	64	,	61	,	64	,	65	,	64	,	61	,	63	,	62	,	66	,	69	,	66	,	64	,	62	,	65	,	62	,	64	,	61	,	63	,	64	,	62	,	64	,	60	,	62	,	60	,	64	,	61	,	65	,	64	,	64	,	59	,	67	,	59	,	67	,	62	,	63	,	61	,	63	,	66	,	66	,	66	,	62	,	65	,	64	,	66	,	63	,	65	,	62	,	62	,	65	,	68	,	69	,	61	,	67	,	64	,	61	,	67	,	68	,	65	,	62	,	65	,	63	,	66	,	64	,	61	,	62	,	66	,	68	,	61	,	66	,	63	,	62	,	64	,	65	,	66	,	65	,	64	,	66	,	65	,	62	,	63	,	61	,	62	,	61	,	61	,	65	,	63	,	65	,	64	,	61	,	60	,	61	,	67	,	60	,	61	,	63	,	62	,	67	,	64	,	67	,	66	,	62	,	65	,	59	,	60	,	68	,	66	,	63	,	65	,	70	,	60	,	69	,	66	,	63	,	64	,	63	,	62	,	68	,	70	,	60	,	67	,	61	,	62	,	62	,	66	,	66	,	62	,	66	,	64	,	65	,	63	,	64	,	62	,	67	,	59	,	65	,	59	,	64	,	71	,	61	,	64	,	61	,	63	,	65	,	65	,	67	,	64	,	65	,	66	,	63	,	68	,	64	,	67	,	60	,	66	,	64	,	67	,	66	,	67	,	63	,	64	,	65	,	67	,	63	,	66	,	60	,	65	,	60	,	65	,	62	,	63	,	61	,	57	,	66	,	64	,	62	,	70	,	68	,	62	,	26	,	116	,	65	,	66	,	59	,	63	,	66	,	61	,	65	,	66	,	65	,	66	,	61	,	67	,	68	,	64	,	60	,	66	,	66	,	63	,	63	,	64	,	62	,	62	,	64	,	59	,	69	,	65	,	64	,	64	,	67	,	64	,	60	,	64	,	63	,	68	,	61	,	64	,	62	,	61	,	62	,	61	,	65	,	66	,	65	,	61	,	63	,	62	,	68	,	62	,	67	,	62	,	61	,	61	,	61	,	62	,	61	,	63	,	67	,	66	,	67	,	62	,	63	,	65	,	66	,	66	,	64	,	64	,	63	,	64	,	61	,	61	,	63	,	65	,	67	,	66	,	60	,	64	,	68	,	60	,	66	,	68	,	63	,	65	,	62	,	64	,	64	,	65	,	66	,	65	,	62	,	62	,	63	,	64	,	64	,	65	,	67	,	64	,	63	,	8	,	5028
FrameTime	,	15352.3	,	131.302	,	113.4	,	124.65	,	132.1	,	135.766	,	116.639	,	130.324	,	108.205	,	109.265	,	100.618	,	124.857	,	113.814	,	111.343	,	118.786	,	116.591	,	144.961	,	115.993	,	118.755	,	116.108	,	113.863	,	120.976	,	112.996	,	119.335	,	113.418	,	108.528	,	108.099	,	111.501	,	117.39	,	119.415	,	119.222	,	113.496	,	121.814	,	110.326	,	114.037	,	114.609	,	118.418	,	114.229	,	121.162	,	148.957	,	128.607	,	126.888	,	120.942	,	111.941	,	111.075	,	112.081	,	121.387	,	105.191	,	106.563	,	104.664	,	106.833	,	101.456	,	108.815	,	104.111	,	107.46	,	107.183	,	126.101	,	110.09	,	130.384	,	137.935	,	151.417	,	118.155	,	131.298	,	123.865	,	143.838	,	123.121	,	136.659	,	126.927	,	141.524	,	133.484	,	154.824	,	201.465	,	148.028	,	154.39	,	164.569	,	134.74	,	149.961	,	139.275	,	126.166	,	126.57	,	147.002	,	137.384	,	133.658	,	130.172	,	118.793	,	148.918	,	114.768	,	135.445	,	112.967	,	132.617	,	114.367	,	107.948	,	106.667	,	126.327	,	106.889	,	118.299	,	102.1	,	112.431	,	101.574	,	98.6033	,	93.4523	,	92.6971	,	114.192	,	107.616	,	103.614	,	105.675	,	101.36	,	113.446	,	100.296	,	106.821	,	100.217	,	95.571	,	96.9209	,	93.2021	,	96.5295	,	96.1156	,	101.008	,	97.9192	,	103.124	,	97.158	,	97.4566	,	92.3192	,	94.6651	,	98.4346	,	105.382	,	97.1321	,	96.5879	,	97.3978	,	100.259	,	98.5392	,	112.953	,	108.254	,	107.506	,	112.86	,	122.641	,	126.082	,	4752	,	167.816	,	114.613	,	129.688	,	113.742	,	113.077	,	114.334	,	110.31	,	114.627	,	109.469	,	120.278	,	125.36	,	112.018	,	120.656	,	113.564	,	129.897	,	116.421	,	112.498	,	111.49	,	119.098	,	122.539	,	116.535	,	116.209	,	113.244	,	113.585	,	112.057	,	113.697	,	92.9622	,	58.0477	,	57.0892	,	57.2902	,	58.5009	,	57.2267	,	56.5609	,	58.5897	,	58.3363	,	58.3762	,	56.4869	,	59.8672	,	58.5162	,	57.1712	,	57.4764	,	58.0799	,	54.9726	,	54.7111	,	57.3916	,	54.7412	,	56.7121	,	57.6023	,	56.351	,	58.1605	,	67.4723	,	106.249	,	109.828	,	74.3954	,	405.267	,	65.8031	,	65.4477	,	57.028	,	61.6843	,	62.7158	,	64.674	,	56.9461	,	21596.1	,	112.043	,	68.7822	,	81.9109	,	66.2276	,	291.636	,	66.5069	,	59.2575	,	60.0643	,	59.9727	,	62.2302	,	60.0012	,	62.2557	,	59.0523	,	60.6068	,	59.8364	,	60.2374	,	61.6425	,	62.2123	,	59.8945	,	58.7286	,	60.823	,	60.6341	,	61.6671	,	60.4465	,	59.4379	,	60.3437	,	62.8879	,	61.1639	,	54.5677	,	56.5034	,	55.7087	,	47.6821	,	55.5987	,	53.6148	,	51.4294	,	51.4828	,	51.8685	,	112.896	,	109.483	,	117.522	,	102.125	,	121.429	,	108.882	,	134.014	,	116.247	,	106.463	,	108.346	,	111.787	,	111.203	,	115.247	,	121.969	,	100.272	,	119.791	,	105.688	,	108.224	,	112.37	,	119.866	,	106.95	,	119.696	,	112.37	,	104.34	,	103.706	,	114.389	,	123.283	,	112.806	,	112.997	,	105.73	,	120.033	,	102.369	,	120.37	,	100.538	,	116.076	,	105.57	,	116.925	,	106.318	,	112.963	,	101.636	,	115.789	,	115.023	,	128.582	,	133.878	,	132.507	,	121.185	,	125.298	,	119.169	,	114.566	,	120.493	,	130.228	,	148.959	,	130.141	,	148.428	,	119.079	,	140.834	,	119.307	,	131.001	,	118.232	,	135.676	,	123.375	,	135.696	,	149.576	,	148.715	,	147.315	,	135.984	,	142.22	,	139.075	,	130.785	,	135.176	,	119.016	,	128.813	,	125.294	,	138.227	,	121.896	,	136.592	,	127.738	,	118.611	,	137.205	,	115.043	,	126.7	,	115.777	,	130.599	,	132.194	,	129.084	,	136.36	,	119.996	,	131.14	,	112.434	,	121.192	,	110.307	,	120.17	,	106.041	,	123.914	,	106.573	,	116.066	,	103.355	,	113.038	,	102.697	,	114.34	,	102.292	,	119.063	,	107.549	,	117.588	,	106.399	,	128.711	,	111.64	,	113.334	,	111.069	,	111.445	,	112.667	,	116.183	,	107.567	,	109.054	,	117.212	,	111.115	,	124.484	,	100.53	,	108.858	,	111.772	,	127.78	,	111.507	,	140.738	,	127.108	,	141.574	,	140.281	,	132.138	,	136.344	,	121.938	,	153.743	,	129.362	,	131.886	,	131.964	,	144.471	,	123.394	,	129.966	,	136.054	,	128.068	,	126.433	,	115.884	,	139.741	,	120.142	,	134.114	,	132.251	,	120.544	,	133.42	,	115.158	,	137.303	,	130.475	,	121.295	,	145.844	,	129.492	,	126.71	,	140.17	,	123.813	,	127.607	,	132.372	,	126.043	,	117.487	,	120.763	,	120.914	,	121.818	,	118.14	,	123.792	,	135.126	,	117.655	,	142.983	,	132.427	,	122.287	,	143.458	,	121.097	,	118.845	,	123.67	,	122.909	,	124.038	,	135.847	,	132.03	,	133.247	,	123.967	,	131.896	,	121.072	,	125.638	,	119.066	,	127.136	,	119.748	,	130.098	,	131.982	,	125.69	,	146.502	,	148.886	,	130.397	,	156.419	,	140.634	,	139.728	,	149.837	,	445.927	,	127.696	,	141.754	,	127.92	,	126.243	,	130.87	,	120.682	,	126.662	,	122.821	,	121.17	,	120.27	,	123.163	,	125.854	,	140.842	,	141.696	,	132.615	,	125.181	,	121.9	,	108.726	,	115.734	,	120.875	,	130.714	,	129.5	,	127.203	,	120.177	,	126.65	,	126.583	,	116.904	,	122.468	,	114.761	,	122.89	,	119.04	,	127.074	,	134.667	,	130.628	,	125.838	,	126.366	,	117.969	,	129.597	,	128.978	,	130.253	,	143.282	,	117.587	,	125.629	,	118.915	,	112.616	,	117.749	,	115.465	,	139.498	,	129.03	,	123.534	,	129.239	,	128.843	,	126.41	,	130.224	,	144.524	,	127.566	,	116.278	,	122.52	,	123.977	,	122.633	,	115.418	,	116.126	,	119.111	,	110.918	,	123.871	,	116.72	,	133.722	,	136.231	,	127.709	,	129.753	,	128.376	,	128.353	,	136.219	,	140.319	,	135.718	,	125.657	,	135.336	,	123.185	,	126.566	,	123.94	,	140.017	,	131.462	,	133.896	,	151.25	,	154.526	,	150.919	,	154.126	,	159.141	,	155.381	,	149.082	,	168.626	,	150.915	,	151.206	,	151.303	,	134.15	,	137.54	,	135.567	,	130.918	,	83802	,	1025.99
GigaRays/s	,	0.000461032	,	0.0919859	,	0.106507	,	0.0968942	,	0.09143	,	0.0889616	,	0.10355	,	0.0926758	,	0.11162	,	0.110538	,	0.120037	,	0.0967343	,	0.10612	,	0.108475	,	0.101678	,	0.103592	,	0.0833181	,	0.104126	,	0.101704	,	0.104023	,	0.106074	,	0.099837	,	0.106888	,	0.10121	,	0.10649	,	0.111288	,	0.11173	,	0.108321	,	0.102887	,	0.101142	,	0.101306	,	0.106417	,	0.0991504	,	0.109475	,	0.105912	,	0.105384	,	0.101994	,	0.105734	,	0.0996843	,	0.0810833	,	0.0939132	,	0.0951854	,	0.0998657	,	0.107896	,	0.108737	,	0.10776	,	0.0994993	,	0.114819	,	0.11334	,	0.115397	,	0.113054	,	0.119046	,	0.110994	,	0.11601	,	0.112394	,	0.112685	,	0.0957798	,	0.109709	,	0.0926336	,	0.0875624	,	0.0797659	,	0.102221	,	0.0919888	,	0.097509	,	0.083969	,	0.0980978	,	0.0883797	,	0.0951567	,	0.0853417	,	0.0904821	,	0.0780107	,	0.0599503	,	0.081592	,	0.07823	,	0.073391	,	0.0896385	,	0.0805406	,	0.0867197	,	0.09573	,	0.095425	,	0.0821617	,	0.0879135	,	0.0903641	,	0.0927842	,	0.101672	,	0.0811044	,	0.105237	,	0.0891724	,	0.106916	,	0.0910739	,	0.105607	,	0.111887	,	0.11323	,	0.0956086	,	0.112994	,	0.102097	,	0.184014	,	0.167106	,	0.184966	,	0.19054	,	0.0143602	,	0.0144771	,	0.011752	,	0.0124702	,	0.0129518	,	0.0126992	,	0.0132398	,	0.0118293	,	0.0133804	,	0.012563	,	0.0133908	,	0.0280836	,	0.0276925	,	0.0287974	,	0.0278048	,	0.0698112	,	0.0664298	,	0.232986	,	0.221228	,	0.0690622	,	0.234092	,	0.0290728	,	0.0283524	,	0.0681666	,	0.0636728	,	0.124345	,	0.0833639	,	0.0826706	,	0.120467	,	0.463041	,	0.403953	,	0.421487	,	0.42442	,	0.404285	,	0.372042	,	0.361889	,	0.00960178	,	0.271891	,	0.398103	,	0.351827	,	0.401152	,	0.403508	,	0.399075	,	0.413632	,	0.398055	,	0.416807	,	0.379352	,	0.363972	,	0.407325	,	0.378162	,	0.40178	,	0.351259	,	0.391921	,	0.405588	,	0.409254	,	0.38311	,	0.372352	,	0.391536	,	0.392634	,	0.402913	,	0.401704	,	0.407183	,	0.401309	,	0.49082	,	0.786037	,	0.799234	,	0.796431	,	0.779948	,	0.797314	,	0.806699	,	0.778766	,	0.782149	,	0.781615	,	0.807757	,	0.762147	,	0.779744	,	0.774615	,	0.770502	,	0.762496	,	0.805596	,	0.809446	,	0.77164	,	0.809001	,	0.804549	,	0.792115	,	0.809705	,	0.784512	,	0.676243	,	0.429439	,	0.415448	,	0.613313	,	0.112587	,	0.693397	,	0.697162	,	0.800093	,	0.739696	,	0.727531	,	0.705503	,	0.801244	,	0.00211277	,	0.407233	,	0.663364	,	0.55704	,	0.688952	,	0.156454	,	0.686059	,	0.76999	,	0.759647	,	0.760808	,	0.733207	,	0.760446	,	0.732907	,	0.772666	,	0.752848	,	0.762541	,	0.757464	,	0.740198	,	0.733418	,	0.7618	,	0.776924	,	0.750171	,	0.752508	,	0.739902	,	0.754843	,	0.767653	,	0.756129	,	0.725539	,	0.745991	,	0.836166	,	0.80752	,	0.81904	,	0.956913	,	0.820661	,	0.851027	,	0.887191	,	0.886269	,	0.879679	,	0.404157	,	0.416757	,	0.388249	,	0.446783	,	0.375755	,	0.419056	,	0.34047	,	0.392506	,	0.428576	,	0.42113	,	0.408165	,	0.41031	,	0.395911	,	0.374093	,	0.455038	,	0.380894	,	0.43172	,	0.421603	,	0.406048	,	0.380657	,	0.426626	,	0.381197	,	0.406049	,	0.437296	,	0.43997	,	0.398881	,	0.370104	,	0.404478	,	0.403797	,	0.431548	,	0.380126	,	0.445719	,	0.379063	,	0.453837	,	0.393085	,	0.432203	,	0.390231	,	0.429161	,	0.403917	,	0.44893	,	0.39406	,	0.396684	,	0.354852	,	0.340816	,	0.344343	,	0.376513	,	0.364152	,	0.382881	,	0.398267	,	0.378673	,	0.350369	,	0.306311	,	0.350603	,	0.307407	,	0.383171	,	0.323981	,	0.38244	,	0.3483	,	0.385916	,	0.336297	,	0.369829	,	0.33625	,	0.305046	,	0.306812	,	0.309728	,	0.335537	,	0.320825	,	0.328079	,	0.348875	,	0.337542	,	0.383374	,	0.354215	,	0.364164	,	0.330092	,	0.374317	,	0.334044	,	0.357198	,	0.384683	,	0.332552	,	0.396616	,	0.360124	,	0.3941	,	0.349371	,	0.345157	,	0.353472	,	0.334611	,	0.380243	,	0.347931	,	0.405819	,	0.376492	,	0.413643	,	0.379694	,	0.430285	,	0.36822	,	0.428136	,	0.393119	,	0.441465	,	0.403647	,	0.444292	,	0.399051	,	0.446054	,	0.383223	,	0.42425	,	0.38803	,	0.428836	,	0.354498	,	0.408702	,	0.402593	,	0.410806	,	0.40942	,	0.404979	,	0.392723	,	0.424178	,	0.418394	,	0.389273	,	0.410635	,	0.366533	,	0.453871	,	0.41915	,	0.40822	,	0.35708	,	0.409191	,	0.324203	,	0.358969	,	0.322289	,	0.32526	,	0.345303	,	0.33465	,	0.374188	,	0.29678	,	0.352714	,	0.345962	,	0.345758	,	0.315825	,	0.369772	,	0.351073	,	0.335364	,	0.356278	,	0.360884	,	0.393734	,	0.326515	,	0.37978	,	0.340216	,	0.345008	,	0.378516	,	0.341985	,	0.396217	,	0.332314	,	0.349704	,	0.37617	,	0.312852	,	0.352359	,	0.360094	,	0.325516	,	0.368522	,	0.357564	,	0.344693	,	0.362	,	0.388364	,	0.377828	,	0.377358	,	0.374554	,	0.386218	,	0.368583	,	0.337668	,	0.387808	,	0.319113	,	0.344549	,	0.373118	,	0.318056	,	0.376785	,	0.383925	,	0.368946	,	0.371233	,	0.367853	,	0.335876	,	0.345584	,	0.34243	,	0.368063	,	0.345936	,	0.376864	,	0.363168	,	0.383213	,	0.358888	,	0.381029	,	0.350717	,	0.345711	,	0.363016	,	0.311448	,	0.306461	,	0.349913	,	0.291701	,	0.324443	,	0.326545	,	0.304516	,	0.102321	,	0.357315	,	0.32188	,	0.356688	,	0.361427	,	0.34865	,	0.378083	,	0.360232	,	0.371497	,	0.376561	,	0.379378	,	0.370465	,	0.362543	,	0.323963	,	0.32201	,	0.344061	,	0.364494	,	0.374304	,	0.419658	,	0.394245	,	0.377478	,	0.349065	,	0.352338	,	0.3587	,	0.379671	,	0.360266	,	0.360456	,	0.390299	,	0.372568	,	0.397589	,	0.371288	,	0.383296	,	0.359063	,	0.338818	,	0.349295	,	0.362591	,	0.361076	,	0.386776	,	0.352074	,	0.353764	,	0.350301	,	0.318446	,	0.388033	,	0.363195	,	0.383699	,	0.40516	,	0.387499	,	0.395166	,	0.327085	,	0.353621	,	0.369354	,	0.353049	,	0.354134	,	0.360949	,	0.350377	,	0.315711	,	0.357678	,	0.392401	,	0.372411	,	0.368033	,	0.372066	,	0.395326	,	0.392914	,	0.383068	,	0.411362	,	0.368349	,	0.390915	,	0.341213	,	0.33493	,	0.357278	,	0.351651	,	0.355423	,	0.355485	,	0.334957	,	0.325171	,	0.336194	,	0.363112	,	0.337144	,	0.3704	,	0.360505	,	0.368144	,	0.325873	,	0.347079	,	0.340769	,	0.30167	,	0.295275	,	0.302333	,	0.296042	,	0.286713	,	0.29365	,	0.306057	,	0.270585	,	0.30234	,	0.301758	,	0.301564	,	0.340125	,	0.331742	,	0.336569	,	0.348522	,	0.00054447	,	0.0444717
Index	,	0	,	1	,	2	,	3	,	4	,	5	,	6	,	7	,	8	,	9	,	10	,	11	,	12	,	13	,	14	,	15	,	16	,	17	,	18	,	19	,	20	,	21	,	22	,	23	,	24	,	25	,	26	,	27	,	28	,	29	,	30	,	31	,	32	,	33	,	34	,	35	,	36	,	37	,	38	,	39	,	40	,	41	,	42	,	43	,	44	,	45	,	46	,	47	,	48	,	49	,	50	,	51	,	52	,	53	,	54	,	55	,	56	,	57	,	58	,	59	,	60	,	61	,	62	,	63	,	64	,	65	,	66	,	67	,	68	,	69	,	70	,	71	,	72	,	73	,	74	,	75	,	76	,	77	,	78	,	79	,	80	,	81	,	82	,	83	,	84	,	85	,	86	,	87	,	88	,	89	,	90	,	91	,	92	,	93	,	94	,	95	,	96	,	97	,	98	,	99	,	100	,	101	,	102	,	103	,	104	,	105	,	106	,	107	,	108	,	109	,	110	,	111	,	112	,	113	,	114	,	115	,	116	,	117	,	118	,	119	,	120	,	121	,	122	,	123	,	124	,	125	,	126	,	127	,	128	,	129	,	130	,	131	,	132	,	133	,	134	,	135	,	136	,	137	,	138	,	139	,	140	,	141	,	142	,	143	,	144	,	145	,	146	,	147	,	148	,	149	,	150	,	151	,	152	,	153	,	154	,	155	,	156	,	157	,	158	,	159	,	160	,	161	,	162	,	163	,	164	,	165	,	166	,	167	,	168	,	169	,	170	,	171	,	172	,	173	,	174	,	175	,	176	,	177	,	178	,	179	,	180	,	181	,	182	,	183	,	184	,	185	,	186	,	187	,	188	,	189	,	190	,	191	,	192	,	193	,	194	,	195	,	196	,	197	,	198	,	199	,	200	,	201	,	202	,	203	,	204	,	205	,	206	,	207	,	208	,	209	,	210	,	211	,	212	,	213	,	214	,	215	,	216	,	217	,	218	,	219	,	220	,	221	,	222	,	223	,	224	,	225	,	226	,	227	,	228	,	229	,	230	,	231	,	232	,	233	,	234	,	235	,	236	,	237	,	238	,	239	,	240	,	241	,	242	,	243	,	244	,	245	,	246	,	247	,	248	,	249	,	250	,	251	,	252	,	253	,	254	,	255	,	256	,	257	,	258	,	259	,	260	,	261	,	262	,	263	,	264	,	265	,	266	,	267	,	268	,	269	,	270	,	271	,	272	,	273	,	274	,	275	,	276	,	277	,	278	,	279	,	280	,	281	,	282	,	283	,	284	,	285	,	286	,	287	,	288	,	289	,	290	,	291	,	292	,	293	,	294	,	295	,	296	,	297	,	298	,	299	,	300	,	301	,	302	,	303	,	304	,	305	,	306	,	307	,	308	,	309	,	310	,	311	,	312	,	313	,	314	,	315	,	316	,	317	,	318	,	319	,	320	,	321	,	322	,	323	,	324	,	325	,	326	,	327	,	328	,	329	,	330	,	331	,	332	,	333	,	334	,	335	,	336	,	337	,	338	,	339	,	340	,	341	,	342	,	343	,	344	,	345	,	346	,	347	,	348	,	349	,	350	,	351	,	352	,	353	,	354	,	355	,	356	,	357	,	358	,	359	,	360	,	361	,	362	,	363	,	364	,	365	,	366	,	367	,	368	,	369	,	370	,	371	,	372	,	373	,	374	,	375	,	376	,	377	,	378	,	379	,	380	,	381	,	382	,	383	,	384	,	385	,	386	,	387	,	388	,	389	,	390	,	391	,	392	,	393	,	394	,	395	,	396	,	397	,	398	,	399	,	400	,	401	,	402	,	403	,	404	,	405	,	406	,	407	,	408	,	409	,	410	,	411	,	412	,	413	,	414	,	415	,	416	,	417	,	418	,	419	,	420	,	421	,	422	,	423	,	424	,	425	,	426	,	427	,	428	,	429	,	430	,	431	,	432	,	433	,	434	,	435	,	436	,	437	,	438	,	439	,	440	,	441	,	442	,	443	,	444	,	445	,	446	,	447	,	448	,	449	,	450	,	451	,	452	,	453	,	454	,	455	,	456	,	457	,	458	,	459	,	460	,	461	,	462	,	463	,	464	,	465	,	466	,	467	,	468	,	469	,	470	,	471	,	472	,	473	,	474	,	475	,	476	,	477	,	478	,	479	,	480	,	481	,	482	,	483	,	484	,	485	,	486	,	487	,	488	,	489	,	490	,	491	,	492	,	493	,	494	,	495	,	496	,	497	,	498	,	499	,	500	,	501	,	502	,	503	,	504	,	505	,	506	,	507	,	508	,	509	,	510	,	511	,	512	,	513	,	514	,	515	,	516	,	517	,	518	,	519	,	520	,	521	,	522	,	523	,	524	,	525	,	526	,	527	,	528	,	529	,	530	,	531	,	532


AccelerationStructure: 
Ray tracing acceleration structure building statistics: 
	Bottom Level Acceleration Structure: 
		Maximum [B]: 24505856
		Minimum [B]: 4128
		Currently Allocated [B]: 231065056
		Currently Created [num]: 3226
		Current Average [B]: 71625
		Maximum Triangles [num]: 439546
		Minimum Triangles [num]: 8
		Total Triangles [num]: 3872254
		Maximum Meshes [num]: 4
		Minimum Meshes [num]: 1
		Total Meshes [num]: 3368
	Top Level Acceleration Structure: 
		Maximum [B]: 206464
		Minimum [B]: 206464
		Currently Allocated [B]: 206464
		Total Allocated [B]: 206464
		Total Created [num]: 1
		Average Allocated [B]: 206464
		Maximum Instances [num]: 3226
		Minimum Instances [num]: 3226
		Total Instances [num]: 3226
	Scratch Buffer: 
		Maximum [B]: 3638272
		Minimum [B]: 3638272
		Currently Allocated [B]: 3638272
		Total Allocated [B]: 3638272
		Total Created [num]: 1
		Average Allocated [B]: 3638272
ProfilingStack: 
[PROF] Profiling statistics: 
	Scopes entered : 120870
	Scopes exited : 120870
	Overhead per scope [ticks] : 161.5
	Threads entered : 3
	Threads exited : 0
	============================
		         Sum[Mt]   Parent[%]  Samples[num]       Avg[Mt]   Last/Curr[Mt]        Self[Mt]     Self[%] 	 Name

	main:

		  747786.865 Mt   100.000 %         1 x   747786.865 Mt   747786.865 Mt   365272.447 Mt    48.847 % 	 /

		      70.934 Mt     0.009 %         1 x       70.934 Mt        0.000 Mt        0.819 Mt     1.155 % 	 ./Initialize

		       3.013 Mt     4.248 %         1 x        3.013 Mt        0.000 Mt        3.013 Mt   100.000 % 	 ../TexturedRLInitialization

		       1.426 Mt     2.010 %         1 x        1.426 Mt        0.000 Mt        1.426 Mt   100.000 % 	 ../ShadowMapRLInitialization

		       6.784 Mt     9.563 %         1 x        6.784 Mt        0.000 Mt        6.784 Mt   100.000 % 	 ../AmbientOcclusionRLInitialization

		       5.147 Mt     7.256 %         1 x        5.147 Mt        0.000 Mt        5.147 Mt   100.000 % 	 ../RasterResolveRLInitialization

		       4.387 Mt     6.185 %         1 x        4.387 Mt        0.000 Mt        4.387 Mt   100.000 % 	 ../DeferredRLInitialization

		      44.927 Mt    63.337 %         1 x       44.927 Mt        0.000 Mt        1.462 Mt     3.254 % 	 ../RayTracingRLInitialization

		      43.465 Mt    96.746 %         1 x       43.465 Mt        0.000 Mt       43.465 Mt   100.000 % 	 .../PipelineBuild

		       4.430 Mt     6.246 %         1 x        4.430 Mt        0.000 Mt        4.430 Mt   100.000 % 	 ../ResolveRLInitialization

		  382443.484 Mt    51.143 %      5247 x       72.888 Mt       89.147 Mt      847.330 Mt     0.222 % 	 ./Run

		   21153.765 Mt     5.531 %     44845 x        0.472 Mt        0.173 Mt    13072.586 Mt    61.798 % 	 ../Update

		    4177.358 Mt    19.748 %         1 x     4177.358 Mt        0.000 Mt     4104.114 Mt    98.247 % 	 .../ScenePrep

		      73.244 Mt     1.753 %         1 x       73.244 Mt        0.000 Mt       73.244 Mt   100.000 % 	 ..../SceneDesc-CreateScene

		    3903.821 Mt    18.454 %      3478 x        1.122 Mt        0.000 Mt     1373.588 Mt    35.186 % 	 .../AccelerationStructureBuild

		     977.428 Mt    25.038 %      3478 x        0.281 Mt        0.000 Mt      977.428 Mt   100.000 % 	 ..../BuildBottomLevelAS

		    1552.805 Mt    39.777 %      3478 x        0.446 Mt        0.000 Mt     1552.805 Mt   100.000 % 	 ..../BuildTopLevelAS

		  360442.389 Mt    94.247 %      5247 x       68.695 Mt       87.520 Mt        6.890 Mt     0.002 % 	 ../Render

		  360435.498 Mt    99.998 %      5247 x       68.694 Mt       87.518 Mt   103911.334 Mt    28.829 % 	 .../Render

		  254868.517 Mt    70.711 %      5208 x       48.938 Mt       56.443 Mt   253213.435 Mt    99.351 % 	 ..../RayTracing

		      84.581 Mt     0.033 %      4005 x        0.021 Mt        0.002 Mt        6.499 Mt     7.684 % 	 ...../DeferredRLPrep

		      78.082 Mt    92.316 %         1 x       78.082 Mt        0.000 Mt       10.776 Mt    13.801 % 	 ....../PrepareForRendering

		       0.893 Mt     1.143 %         1 x        0.893 Mt        0.000 Mt        0.893 Mt   100.000 % 	 ......./PrepareMaterials

		       1.739 Mt     2.227 %         1 x        1.739 Mt        0.000 Mt        1.739 Mt   100.000 % 	 ......./BuildMaterialCache

		      64.675 Mt    82.829 %         1 x       64.675 Mt        0.000 Mt       64.675 Mt   100.000 % 	 ......./PrepareDrawBundle

		    1570.500 Mt     0.616 %      5208 x        0.302 Mt        0.004 Mt       26.792 Mt     1.706 % 	 ...../RayTracingRLPrep

		      78.328 Mt     4.987 %         1 x       78.328 Mt        0.000 Mt       78.328 Mt   100.000 % 	 ....../PrepareAccelerationStructures

		       0.775 Mt     0.049 %         1 x        0.775 Mt        0.000 Mt        0.775 Mt   100.000 % 	 ....../PrepareCache

		       6.647 Mt     0.423 %         1 x        6.647 Mt        0.000 Mt        6.647 Mt   100.000 % 	 ....../BuildCache

		    1451.818 Mt    92.443 %         1 x     1451.818 Mt        0.000 Mt        0.002 Mt     0.000 % 	 ....../BuildAccelerationStructures

		    1451.816 Mt   100.000 %         1 x     1451.816 Mt        0.000 Mt        5.964 Mt     0.411 % 	 ......./AccelerationStructureBuild

		    1445.087 Mt    99.536 %         1 x     1445.087 Mt        0.000 Mt     1445.087 Mt   100.000 % 	 ......../BuildBottomLevelAS

		       0.765 Mt     0.053 %         1 x        0.765 Mt        0.000 Mt        0.765 Mt   100.000 % 	 ......../BuildTopLevelAS

		       6.139 Mt     0.391 %         1 x        6.139 Mt        0.000 Mt        6.139 Mt   100.000 % 	 ....../BuildShaderTables

		    1655.647 Mt     0.459 %        25 x       66.226 Mt        0.000 Mt     1640.870 Mt    99.107 % 	 ..../Rasterization

		       0.037 Mt     0.002 %        25 x        0.001 Mt        0.000 Mt        0.037 Mt   100.000 % 	 ...../DeferredRLPrep

		      14.741 Mt     0.890 %        25 x        0.590 Mt        0.000 Mt        0.111 Mt     0.750 % 	 ...../ShadowMapRLPrep

		      14.631 Mt    99.250 %         1 x       14.631 Mt        0.000 Mt        5.183 Mt    35.428 % 	 ....../PrepareForRendering

		       9.447 Mt    64.572 %         1 x        9.447 Mt        0.000 Mt        9.447 Mt   100.000 % 	 ......./PrepareDrawBundle

		       0.001 Mt     0.000 %         1 x        0.001 Mt        0.001 Mt        0.001 Mt   100.000 % 	 ./Destroy

	WindowThread:

		  747784.729 Mt   100.000 %         1 x   747784.729 Mt   747784.729 Mt   747784.729 Mt   100.000 % 	 /

	GpuThread:

		   61346.432 Mt   100.000 %      8724 x        7.032 Mt       22.547 Mt       -0.978 Mt    -0.002 % 	 /

		     385.973 Mt     0.629 %      5247 x        0.074 Mt        0.161 Mt      385.973 Mt   100.000 % 	 ./Present

		    1487.657 Mt     2.425 %      3478 x        0.428 Mt        0.000 Mt        6.810 Mt     0.458 % 	 ./AccelerationStructureBuild

		    1080.710 Mt    72.645 %      3478 x        0.311 Mt        0.000 Mt     1080.710 Mt   100.000 % 	 ../BuildBottomLevelASGpu

		     400.138 Mt    26.897 %      3478 x        0.115 Mt        0.000 Mt      400.138 Mt   100.000 % 	 ../BuildTopLevelASGpu

		   59433.446 Mt    96.882 %      5208 x       11.412 Mt       22.386 Mt       13.556 Mt     0.023 % 	 ./RayTracingGpu

		    3638.064 Mt     6.121 %      4005 x        0.908 Mt        0.977 Mt     3638.064 Mt   100.000 % 	 ../DeferredRLGpu

		     719.464 Mt     1.211 %         1 x      719.464 Mt        0.000 Mt        0.002 Mt     0.000 % 	 ../AccelerationStructureBuild

		     718.588 Mt    99.878 %         1 x      718.588 Mt        0.000 Mt      718.588 Mt   100.000 % 	 .../BuildBottomLevelASGpu

		       0.874 Mt     0.122 %         1 x        0.874 Mt        0.000 Mt        0.874 Mt   100.000 % 	 .../BuildTopLevelASGpu

		   42339.355 Mt    71.238 %      5208 x        8.130 Mt       18.322 Mt    42339.355 Mt   100.000 % 	 ../RayTracingRLGpu

		   12723.007 Mt    21.407 %      5098 x        2.496 Mt        3.086 Mt    12723.007 Mt   100.000 % 	 ../ResolveRLGpu

		      40.333 Mt     0.066 %        25 x        1.613 Mt        0.000 Mt        0.106 Mt     0.263 % 	 ./RasterizationGpu

		      19.925 Mt    49.402 %        25 x        0.797 Mt        0.000 Mt       19.925 Mt   100.000 % 	 ../DeferredRLGpu

		      18.837 Mt    46.704 %        25 x        0.753 Mt        0.000 Mt       18.837 Mt   100.000 % 	 ../ShadowMapRLGpu

		       1.414 Mt     3.506 %        25 x        0.057 Mt        0.000 Mt        1.414 Mt   100.000 % 	 ../AmbientOcclusionRLGpu

		       0.051 Mt     0.126 %        25 x        0.002 Mt        0.000 Mt        0.051 Mt   100.000 % 	 ../RasterResolveRLGpu


	============================


