Configuration: 
Command line parameters  = 
Window width             = 1024
Window height            = 768
Window title             = Direct3D App
Back-buffer count        = 3
Fill Triangles           = enabled
Triangles Font Clock-Wise= disabled
Fast Build AS            = disabled
Target FPS               = 0
Target UPS               = 60
Tearing                  = enabled
VSync                    = disabled
GUI rendering            = disabled
Debug layer              = enabled
GPU validation           = disabled
GPU profiling            = enabled
Render mode              = Ray Tracing
Loaded scene file        = 
Using testing scene      = disabled
BLAS duplication         = disabled
Rays per pixel           = 14
Quality preset           = High
Rasterization Quality    : 
  AO                     = enabled
  AO kernel size         = 4
  Shadows                = enabled
  Shadow map resolution  = 4096
  Shadow PCF kernel size = 4
  Reflections            = enabled
Ray Tracing Quality      : 
  AO                     = enabled
  AO rays                = 4
  AO kernel size         = 4
  Shadows                = enabled
  Shadow rays            = 4
  Shadow kernel size     = 4
  Reflections            = enabled

ProfilingAggregator: 
Update	,	536.607	,	538.561	,	540.888	,	543.381	,	545.485	,	547.399	,	550.54	,	552.958	,	555.049	,	557.971	,	559.768	,	561.417	,	563.194	,	566.41	,	568.441	,	570.206	,	572.504	,	575.717	,	577.877	,	579.914	,	582.849	,	584.833	,	586.666	,	589.015	,	591.822	,	594.516	,	596.501	,	599.497	,	601.493	,	603.53	,	606.174	,	607.876	,	609.505	,	611.172	,	612.895	,	615.094	,	617.138	,	618.796	,	620.833	,	622.943	,	624.611	,	626.372	,	628.149	,	630.412	,	632.895	,	635.296	,	637.677	,	639.854	,	642.011	,	644.201	,	646.66	,	649.258	,	652.138	,	654.871	,	657.496	,	659.487	,	661.244	,	663.431	,	665.556	,	667.918	,	670.316
Index	,	0	,	1	,	2	,	3	,	4	,	5	,	6	,	7	,	8	,	9	,	10	,	11	,	12	,	13	,	14	,	15	,	16	,	17	,	18	,	19	,	20	,	21	,	22	,	23	,	24	,	25	,	26	,	27	,	28	,	29	,	30	,	31	,	32	,	33	,	34	,	35	,	36	,	37	,	38	,	39	,	40	,	41	,	42	,	43	,	44	,	45	,	46	,	47	,	48	,	49	,	50	,	51	,	52	,	53	,	54	,	55	,	56	,	57	,	58	,	59	,	60

ProfilingBuildAggregator: 
BuildBottomLevelAS	,	0.282	,	0.2622	,	0.3138	,	0.3166	,	0.2816	,	0.2755	,	0.4259	,	0.3264	,	0.2566	,	0.2748	,	0.2293	,	0.2185	,	0.2144	,	0.302	,	0.2852	,	0.2237	,	0.2783	,	0.4688	,	0.2458	,	0.2914	,	0.3385	,	0.2609	,	0.2189	,	0.2915	,	0.5927	,	0.3166	,	0.2346	,	0.3417	,	0.2547	,	0.3936	,	0.2579	,	0.2212	,	0.226	,	0.2432	,	0.23	,	0.3215	,	0.252	,	0.2216	,	0.2453	,	0.3874	,	0.2173	,	0.2445	,	0.2825	,	0.302	,	0.3157	,	0.336	,	0.2951	,	0.2659	,	0.2662	,	0.291	,	0.3382	,	0.2724	,	0.3566	,	0.3448	,	0.3161	,	0.248	,	0.2304	,	0.2686	,	0.2844	,	0.2995	,	0.2413
BuildBottomLevelASGpu	,	0.088064	,	0.23328	,	0.320448	,	0.41344	,	0.333792	,	0.237856	,	0.25024	,	0.44064	,	0.166912	,	0.172736	,	0.140512	,	0.09552	,	0.137184	,	0.110016	,	0.1648	,	0.138144	,	0.393248	,	0.453376	,	0.242656	,	0.2584	,	0.281696	,	0.23088	,	0.240736	,	0.128576	,	0.258112	,	0.32272	,	0.176192	,	0.1272	,	0.100416	,	0.105536	,	0.12288	,	0.114496	,	0.115648	,	0.12832	,	0.160384	,	0.158304	,	0.168864	,	0.099552	,	0.10608	,	0.11552	,	0.110816	,	0.189664	,	0.206176	,	0.427488	,	0.536288	,	0.45712	,	0.731392	,	0.463456	,	0.555264	,	0.546624	,	0.640096	,	0.482496	,	0.635168	,	0.523392	,	0.649472	,	0.37408	,	0.235904	,	0.337536	,	0.386688	,	0.391552	,	0.283072
BuildTopLevelAS	,	0.4502	,	0.3806	,	0.4461	,	0.3881	,	0.3863	,	0.3874	,	0.5074	,	0.3843	,	0.3697	,	0.4587	,	0.373	,	0.3574	,	0.4362	,	0.5012	,	0.4048	,	0.3552	,	0.4432	,	0.4313	,	0.4206	,	0.3893	,	0.5425	,	0.3753	,	0.3451	,	0.4132	,	0.5722	,	0.5765	,	0.3791	,	0.5547	,	0.4201	,	0.4413	,	0.4388	,	0.354	,	0.3464	,	0.363	,	0.3621	,	0.4255	,	0.3673	,	0.3614	,	0.4497	,	0.3729	,	0.35	,	0.348	,	0.3486	,	0.3809	,	0.4158	,	0.3783	,	0.3586	,	0.3747	,	0.3725	,	0.3732	,	0.435	,	0.5501	,	0.3921	,	0.703	,	0.3876	,	0.37	,	0.3672	,	0.3781	,	0.3885	,	0.4161	,	0.3513
BuildTopLevelASGpu	,	0.055264	,	0.055296	,	0.056704	,	0.060704	,	0.056	,	0.055584	,	0.05824	,	0.060448	,	0.054592	,	0.05488	,	0.056	,	0.05488	,	0.05472	,	0.060288	,	0.05616	,	0.055584	,	0.05712	,	0.061248	,	0.055712	,	0.05584	,	0.06032	,	0.05488	,	0.055296	,	0.055296	,	0.05504	,	0.059872	,	0.055424	,	0.06016	,	0.054752	,	0.05488	,	0.055008	,	0.05488	,	0.054752	,	0.05616	,	0.05504	,	0.059872	,	0.055584	,	0.054752	,	0.055712	,	0.054624	,	0.05504	,	0.055168	,	0.055584	,	0.059168	,	0.06112	,	0.056384	,	0.056416	,	0.056	,	0.056544	,	0.056544	,	0.056544	,	0.060992	,	0.060864	,	0.05696	,	0.060832	,	0.056256	,	0.055584	,	0.056	,	0.055584	,	0.06112	,	0.055712
Triangles	,	32	,	4120	,	15584	,	45330	,	20655	,	7167	,	5600	,	46560	,	288	,	282	,	143	,	28	,	75	,	27	,	132	,	108	,	39389	,	52674	,	1812	,	2934	,	2305	,	1290	,	1919	,	122	,	8917	,	19389	,	281	,	47	,	34	,	46	,	63	,	52	,	50	,	102	,	142	,	125	,	183	,	34	,	33	,	48	,	34	,	1658	,	1368	,	7000	,	8584	,	7794	,	37536	,	6246	,	14409	,	23123	,	23437	,	9929	,	29460	,	23399	,	29275	,	1620	,	192	,	1572	,	1362	,	1999	,	306
Meshes	,	1	,	1	,	2	,	2	,	2	,	1	,	1	,	2	,	1	,	1	,	1	,	1	,	1	,	1	,	1	,	1	,	2	,	2	,	2	,	2	,	2	,	1	,	1	,	1	,	1	,	1	,	1	,	1	,	1	,	1	,	1	,	1	,	1	,	1	,	1	,	1	,	1	,	1	,	1	,	1	,	1	,	1	,	1	,	1	,	1	,	1	,	1	,	1	,	1	,	1	,	1	,	1	,	1	,	1	,	1	,	1	,	1	,	1	,	1	,	1	,	1
BottomLevels	,	1	,	1	,	1	,	1	,	1	,	1	,	1	,	1	,	1	,	1	,	1	,	1	,	1	,	1	,	1	,	1	,	1	,	1	,	1	,	1	,	1	,	1	,	1	,	1	,	1	,	1	,	1	,	1	,	1	,	1	,	1	,	1	,	1	,	1	,	1	,	1	,	1	,	1	,	1	,	1	,	1	,	1	,	1	,	1	,	1	,	1	,	1	,	1	,	1	,	1	,	1	,	1	,	1	,	1	,	1	,	1	,	1	,	1	,	1	,	1	,	1
TopLevelSize	,	64	,	64	,	64	,	64	,	64	,	64	,	64	,	64	,	64	,	64	,	64	,	64	,	64	,	64	,	64	,	64	,	64	,	64	,	64	,	64	,	64	,	64	,	64	,	64	,	64	,	64	,	64	,	64	,	64	,	64	,	64	,	64	,	64	,	64	,	64	,	64	,	64	,	64	,	64	,	64	,	64	,	64	,	64	,	64	,	64	,	64	,	64	,	64	,	64	,	64	,	64	,	64	,	64	,	64	,	64	,	64	,	64	,	64	,	64	,	64	,	64
BottomLevelsSize	,	6528	,	233856	,	872832	,	2531072	,	1155712	,	403712	,	316672	,	2599424	,	20992	,	19840	,	12544	,	6256	,	8496	,	6256	,	12304	,	10752	,	2199808	,	2940416	,	105600	,	167936	,	132864	,	76032	,	111104	,	11392	,	501632	,	1085056	,	19840	,	7168	,	6800	,	7168	,	8320	,	7888	,	7888	,	10144	,	12544	,	11392	,	14976	,	6800	,	6800	,	7680	,	6800	,	97152	,	80896	,	498560	,	606720	,	555392	,	2637440	,	442240	,	1015680	,	1625856	,	1647488	,	700288	,	2071040	,	1646976	,	2056960	,	120832	,	18432	,	115712	,	100352	,	147456	,	26112
Index	,	0	,	1	,	2	,	3	,	4	,	5	,	6	,	7	,	8	,	9	,	10	,	11	,	12	,	13	,	14	,	15	,	16	,	17	,	18	,	19	,	20	,	21	,	22	,	23	,	24	,	25	,	26	,	27	,	28	,	29	,	30	,	31	,	32	,	33	,	34	,	35	,	36	,	37	,	38	,	39	,	40	,	41	,	42	,	43	,	44	,	45	,	46	,	47	,	48	,	49	,	50	,	51	,	52	,	53	,	54	,	55	,	56	,	57	,	58	,	59	,	60

FpsAggregator: 
FPS	,	0	,	0	,	0	,	0	,	0	,	0	,	0	,	0	,	0	,	0	,	0	,	0	,	0	,	0	,	0	,	0	,	0	,	0	,	0	,	0	,	0	,	0	,	0	,	0	,	0	,	0	,	0	,	0	,	0	,	0	,	0	,	0	,	0	,	0	,	0	,	0	,	0	,	0	,	0	,	0	,	0	,	0	,	0	,	0	,	0	,	0	,	0	,	0	,	0	,	0	,	0	,	0	,	0	,	0	,	0	,	0	,	0	,	0	,	0	,	0	,	0
UPS	,	0	,	0	,	0	,	0	,	0	,	0	,	0	,	0	,	0	,	0	,	0	,	0	,	0	,	0	,	0	,	0	,	0	,	0	,	0	,	0	,	0	,	0	,	0	,	0	,	0	,	0	,	0	,	0	,	0	,	0	,	0	,	0	,	0	,	0	,	0	,	0	,	0	,	0	,	0	,	0	,	0	,	0	,	0	,	0	,	0	,	0	,	0	,	0	,	0	,	0	,	0	,	0	,	0	,	0	,	0	,	0	,	0	,	0	,	0	,	0	,	0
FrameTime	,	0	,	0	,	0	,	0	,	0	,	0	,	0	,	0	,	0	,	0	,	0	,	0	,	0	,	0	,	0	,	0	,	0	,	0	,	0	,	0	,	0	,	0	,	0	,	0	,	0	,	0	,	0	,	0	,	0	,	0	,	0	,	0	,	0	,	0	,	0	,	0	,	0	,	0	,	0	,	0	,	0	,	0	,	0	,	0	,	0	,	0	,	0	,	0	,	0	,	0	,	0	,	0	,	0	,	0	,	0	,	0	,	0	,	0	,	0	,	0	,	0
GigaRays/s	,	0	,	0	,	0	,	0	,	0	,	0	,	0	,	0	,	0	,	0	,	0	,	0	,	0	,	0	,	0	,	0	,	0	,	0	,	0	,	0	,	0	,	0	,	0	,	0	,	0	,	0	,	0	,	0	,	0	,	0	,	0	,	0	,	0	,	0	,	0	,	0	,	0	,	0	,	0	,	0	,	0	,	0	,	0	,	0	,	0	,	0	,	0	,	0	,	0	,	0	,	0	,	0	,	0	,	0	,	0	,	0	,	0	,	0	,	0	,	0	,	0
Index	,	0	,	1	,	2	,	3	,	4	,	5	,	6	,	7	,	8	,	9	,	10	,	11	,	12	,	13	,	14	,	15	,	16	,	17	,	18	,	19	,	20	,	21	,	22	,	23	,	24	,	25	,	26	,	27	,	28	,	29	,	30	,	31	,	32	,	33	,	34	,	35	,	36	,	37	,	38	,	39	,	40	,	41	,	42	,	43	,	44	,	45	,	46	,	47	,	48	,	49	,	50	,	51	,	52	,	53	,	54	,	55	,	56	,	57	,	58	,	59	,	60


AccelerationStructure: 
Ray tracing acceleration structure building statistics: 
	Bottom Level Acceleration Structure: 
		Maximum [B]: 0
		Minimum [B]: 18446744073709551615
		Currently Allocated [B]: 0
		Currently Created [num]: 0
		Current Average [B]: 0
		Maximum Triangles [num]: 0
		Minimum Triangles [num]: 18446744073709551615
		Total Triangles [num]: 0
		Maximum Meshes [num]: 0
		Minimum Meshes [num]: 18446744073709551615
		Total Meshes [num]: 0
	Top Level Acceleration Structure: 
		Maximum [B]: 0
		Minimum [B]: 18446744073709551615
		Currently Allocated [B]: 0
		Total Allocated [B]: 0
		Total Created [num]: 0
		Average Allocated [B]: 0
		Maximum Instances [num]: 0
		Minimum Instances [num]: 18446744073709551615
		Total Instances [num]: 0
	Scratch Buffer: 
		Maximum [B]: 0
		Minimum [B]: 18446744073709551615
		Currently Allocated [B]: 0
		Total Allocated [B]: 0
		Total Created [num]: 0
		Average Allocated [B]: 0
ProfilingStack: 
[PROF] Profiling statistics: 
	Scopes entered : 385
	Scopes exited : 383
	Overhead per scope [ticks] : 164.4
	Threads entered : 3
	Threads exited : 0
	============================
		         Sum[Mt]   Parent[%]  Samples[num]       Avg[Mt]   Last/Curr[Mt]        Self[Mt]     Self[%] 	 Name

	main:

		    1492.408 Mt   100.000 %         1 x     1492.408 Mt     1492.407 Mt      759.217 Mt    50.872 % 	 /

		      62.219 Mt     4.169 %         1 x       62.219 Mt       62.219 Mt        0.685 Mt     1.101 % 	 ./Initialize

		       2.441 Mt     3.923 %         1 x        2.441 Mt        2.441 Mt        2.441 Mt   100.000 % 	 ../TexturedRLInitialization

		       1.670 Mt     2.683 %         1 x        1.670 Mt        1.670 Mt        1.670 Mt   100.000 % 	 ../ShadowMapRLInitialization

		       6.620 Mt    10.641 %         1 x        6.620 Mt        6.620 Mt        6.620 Mt   100.000 % 	 ../AmbientOcclusionRLInitialization

		       4.204 Mt     6.757 %         1 x        4.204 Mt        4.204 Mt        4.204 Mt   100.000 % 	 ../RasterResolveRLInitialization

		       3.852 Mt     6.192 %         1 x        3.852 Mt        3.852 Mt        3.852 Mt   100.000 % 	 ../DeferredRLInitialization

		      38.944 Mt    62.592 %         1 x       38.944 Mt       38.944 Mt        1.245 Mt     3.197 % 	 ../RayTracingRLInitialization

		      37.699 Mt    96.803 %         1 x       37.699 Mt       37.699 Mt       37.699 Mt   100.000 % 	 .../PipelineBuild

		       3.802 Mt     6.110 %         1 x        3.802 Mt        3.802 Mt        3.802 Mt   100.000 % 	 ../ResolveRLInitialization

		     671.037 Mt    44.963 %         1 x      671.037 Mt      671.037 Mt        0.003 Mt     0.000 % 	 ./Run

		     671.041 Mt   100.001 %         1 x      671.041 Mt      671.041 Mt       89.616 Mt    13.355 % 	 ../Update

		     508.523 Mt    75.781 %         1 x      508.523 Mt      508.523 Mt      503.644 Mt    99.040 % 	 .../ScenePrep

		       4.880 Mt     0.960 %         1 x        4.880 Mt        4.880 Mt        4.880 Mt   100.000 % 	 ..../SceneDesc-CreateScene

		      72.901 Mt    10.864 %        62 x        1.176 Mt        1.395 Mt       28.679 Mt    39.340 % 	 .../AccelerationStructureBuild

		      18.420 Mt    25.267 %        62 x        0.297 Mt        0.241 Mt       18.420 Mt   100.000 % 	 ..../BuildBottomLevelAS

		      25.802 Mt    35.394 %        62 x        0.416 Mt        0.351 Mt       25.802 Mt   100.000 % 	 ..../BuildTopLevelAS

	WindowThread:

		    1490.566 Mt   100.000 %         1 x     1490.566 Mt     1490.566 Mt     1490.566 Mt   100.000 % 	 /

	GpuThread:

		      20.732 Mt   100.000 %        61 x        0.340 Mt        0.340 Mt       -0.144 Mt    -0.696 % 	 /

		      20.876 Mt   100.696 %        62 x        0.337 Mt        0.340 Mt        0.054 Mt     0.258 % 	 ./AccelerationStructureBuild

		      17.305 Mt    82.894 %        62 x        0.279 Mt        0.283 Mt       17.305 Mt   100.000 % 	 ../BuildBottomLevelASGpu

		       3.517 Mt    16.848 %        62 x        0.057 Mt        0.056 Mt        3.517 Mt   100.000 % 	 ../BuildTopLevelASGpu


	============================


