Configuration: 
Command line parameters  = 
Window width             = 1024
Window height            = 768
Window title             = Direct3D App
Back-buffer count        = 3
Fill Triangles           = enabled
Triangles Font Clock-Wise= disabled
Fast Build AS            = disabled
Target FPS               = 0
Target UPS               = 60
Tearing                  = enabled
VSync                    = disabled
GUI rendering            = disabled
Debug layer              = enabled
GPU validation           = disabled
GPU profiling            = enabled
Render mode              = Ray Tracing
Loaded scene file        = 
Using testing scene      = disabled
BLAS duplication         = disabled
Rays per pixel           = 9
Quality preset           = Medium
Rasterization Quality    : 
  AO                     = enabled
  AO kernel size         = 4
  Shadows                = enabled
  Shadow map resolution  = 4096
  Shadow PCF kernel size = 4
  Reflections            = disabled
Ray Tracing Quality      : 
  AO                     = enabled
  AO rays                = 4
  AO kernel size         = 4
  Shadows                = enabled
  Shadow rays            = 4
  Shadow kernel size     = 4
  Reflections            = disabled

ProfilingAggregator: 
Render	,	1.2817	,	1.2817	,	1.2817	,	1.2817	,	1.2817	,	1.2817	,	1.2817	,	1.2817	,	1.2817	,	1.2817	,	1.2817	,	1.2817	,	1.2817	,	1.2817	,	1.2817	,	1.2817	,	1.2817	,	1.2817	,	1.2817	,	1.2817	,	1.2817	,	1.2817	,	1.2817	,	1.2817	,	1.2817	,	1.2817	,	1.2817	,	1.2817	,	1.2817	,	1.2817	,	1.2817	,	1.2817	,	1.2817	,	1.2817	,	1.2817	,	1.2817	,	1.2817	,	1.2817	,	1.2817	,	1.2817	,	1.2817	,	1.2817	,	1.2817	,	1.2817	,	1.2817	,	1.2817	,	1.2817	,	1.2817	,	1.2817	,	1.2817	,	1.2817	,	1.2817	,	1.2817	,	1.2817	,	1.2817	,	1.2817	,	1.2817	,	1.2817	,	1.2817	,	1.2817	,	1.2817	,	1.2817
Update	,	0.054	,	101.32	,	104.151	,	107.445	,	111.344	,	115.302	,	118.522	,	121.261	,	125.581	,	129.244	,	132.93	,	135.956	,	138.363	,	140.631	,	142.906	,	146.372	,	149.73	,	155.412	,	165.455	,	169.025	,	172.167	,	175.18	,	178.074	,	180.863	,	183.889	,	186.841	,	189.883	,	192.691	,	195.167	,	197.459	,	200.339	,	203.06	,	205.576	,	207.912	,	210.3	,	212.626	,	215.032	,	217.835	,	220.386	,	223.408	,	227.252	,	230.41	,	233.993	,	236.712	,	239.907	,	243.14	,	246.165	,	250.667	,	254.848	,	258.234	,	261.493	,	265.863	,	272.258	,	276.541	,	280.147	,	285.239	,	288.594	,	291.361	,	295.725	,	300.349	,	303.727	,	306.444
Index	,	0	,	1	,	2	,	3	,	4	,	5	,	6	,	7	,	8	,	9	,	10	,	11	,	12	,	13	,	14	,	15	,	16	,	17	,	18	,	19	,	20	,	21	,	22	,	23	,	24	,	25	,	26	,	27	,	28	,	29	,	30	,	31	,	32	,	33	,	34	,	35	,	36	,	37	,	38	,	39	,	40	,	41	,	42	,	43	,	44	,	45	,	46	,	47	,	48	,	49	,	50	,	51	,	52	,	53	,	54	,	55	,	56	,	57	,	58	,	59	,	60	,	61

ProfilingBuildAggregator: 
BuildBottomLevelAS	,	0.3033	,	0.2974	,	0.3397	,	0.4517	,	0.3433	,	0.2921	,	0.2795	,	0.5092	,	0.3846	,	0.3726	,	0.3327	,	0.2983	,	0.2486	,	0.2979	,	0.2875	,	0.3074	,	0.4651	,	0.632	,	0.3012	,	0.3337	,	0.2878	,	0.2808	,	0.2668	,	0.3305	,	0.3038	,	0.3342	,	0.2833	,	0.2779	,	0.2552	,	0.3187	,	0.3203	,	0.2863	,	0.2655	,	0.2637	,	0.2725	,	0.3251	,	0.2713	,	0.2765	,	0.3298	,	0.299	,	0.2821	,	0.2862	,	0.2694	,	0.3146	,	0.287	,	0.2777	,	0.451	,	0.3222	,	0.3308	,	0.3656	,	0.4123	,	0.3618	,	0.4175	,	0.3781	,	0.53	,	0.3394	,	0.2868	,	0.2801	,	0.4586	,	0.3365	,	0.2851
BuildBottomLevelASGpu	,	0.25808	,	0.718624	,	0.988736	,	1.31187	,	1.70797	,	0.796352	,	0.760096	,	1.39162	,	0.562592	,	0.563008	,	0.438816	,	0.295712	,	0.426816	,	0.300832	,	0.507808	,	0.505024	,	2.27325	,	2.02093	,	0.792192	,	0.795456	,	0.830496	,	0.719872	,	0.7856	,	0.403744	,	0.808896	,	0.942496	,	0.543872	,	0.358048	,	0.319232	,	0.327744	,	0.381472	,	0.354976	,	0.352	,	0.393984	,	0.414432	,	0.366272	,	0.438144	,	0.254848	,	0.271872	,	0.375776	,	0.36432	,	0.558752	,	0.535392	,	1.14022	,	1.324	,	1.15331	,	2.37402	,	1.3057	,	1.3783	,	1.39261	,	2.23459	,	1.83424	,	1.72288	,	1.40982	,	1.83709	,	0.968832	,	0.608864	,	1.4896	,	1.59635	,	0.975328	,	0.731456
BuildTopLevelAS	,	0.4701	,	0.4085	,	0.4159	,	0.4147	,	0.4021	,	0.4035	,	0.405	,	0.4834	,	0.5953	,	0.4839	,	0.4825	,	0.4494	,	0.4072	,	0.4598	,	1.186	,	0.491	,	0.4492	,	0.5065	,	0.4791	,	0.5119	,	0.4174	,	0.4852	,	0.4202	,	0.5019	,	0.4735	,	0.4552	,	0.457	,	0.447	,	0.427	,	0.4824	,	0.605	,	0.5248	,	0.4386	,	0.4344	,	0.434	,	0.5329	,	0.4533	,	0.4566	,	0.503	,	0.4647	,	0.4096	,	0.4932	,	0.4787	,	0.4299	,	0.4203	,	0.3773	,	0.3952	,	0.4162	,	0.4103	,	0.3821	,	0.4552	,	0.4973	,	0.4454	,	0.4482	,	0.5992	,	0.4704	,	0.4693	,	0.4322	,	0.4696	,	0.4549	,	0.475
BuildTopLevelASGpu	,	0.16928	,	0.168	,	0.171328	,	0.196192	,	0.181248	,	0.1744	,	0.166336	,	0.19616	,	0.170144	,	0.171392	,	0.165888	,	0.167168	,	0.166752	,	0.1672	,	0.165888	,	0.195392	,	0.233376	,	0.212992	,	0.167552	,	0.165888	,	0.166336	,	0.166688	,	0.165664	,	0.166336	,	0.167168	,	0.166208	,	0.166752	,	0.167552	,	0.167552	,	0.166752	,	0.166336	,	0.1656	,	0.167488	,	0.166848	,	0.137536	,	0.137248	,	0.138304	,	0.138272	,	0.138272	,	0.168672	,	0.17008	,	0.166944	,	0.138272	,	0.155264	,	0.141856	,	0.14128	,	0.168992	,	0.166912	,	0.142528	,	0.14144	,	0.161248	,	0.163712	,	0.173984	,	0.140032	,	0.172576	,	0.140512	,	0.139712	,	0.538496	,	0.170784	,	0.1432	,	0.139776
Triangles	,	32	,	4120	,	15584	,	45330	,	20655	,	7167	,	5600	,	46560	,	288	,	282	,	143	,	28	,	75	,	27	,	132	,	108	,	39389	,	52674	,	1812	,	2934	,	2305	,	1290	,	1919	,	122	,	8917	,	19389	,	281	,	47	,	34	,	46	,	63	,	52	,	50	,	102	,	142	,	125	,	183	,	34	,	33	,	48	,	34	,	1658	,	1368	,	7000	,	8584	,	7794	,	37536	,	6246	,	14409	,	23123	,	23437	,	9929	,	29460	,	23399	,	29275	,	1620	,	192	,	1572	,	1362	,	1999	,	306
Meshes	,	1	,	1	,	2	,	2	,	2	,	1	,	1	,	2	,	1	,	1	,	1	,	1	,	1	,	1	,	1	,	1	,	2	,	2	,	2	,	2	,	2	,	1	,	1	,	1	,	1	,	1	,	1	,	1	,	1	,	1	,	1	,	1	,	1	,	1	,	1	,	1	,	1	,	1	,	1	,	1	,	1	,	1	,	1	,	1	,	1	,	1	,	1	,	1	,	1	,	1	,	1	,	1	,	1	,	1	,	1	,	1	,	1	,	1	,	1	,	1	,	1
BottomLevels	,	1	,	1	,	1	,	1	,	1	,	1	,	1	,	1	,	1	,	1	,	1	,	1	,	1	,	1	,	1	,	1	,	1	,	1	,	1	,	1	,	1	,	1	,	1	,	1	,	1	,	1	,	1	,	1	,	1	,	1	,	1	,	1	,	1	,	1	,	1	,	1	,	1	,	1	,	1	,	1	,	1	,	1	,	1	,	1	,	1	,	1	,	1	,	1	,	1	,	1	,	1	,	1	,	1	,	1	,	1	,	1	,	1	,	1	,	1	,	1	,	1
TopLevelSize	,	64	,	64	,	64	,	64	,	64	,	64	,	64	,	64	,	64	,	64	,	64	,	64	,	64	,	64	,	64	,	64	,	64	,	64	,	64	,	64	,	64	,	64	,	64	,	64	,	64	,	64	,	64	,	64	,	64	,	64	,	64	,	64	,	64	,	64	,	64	,	64	,	64	,	64	,	64	,	64	,	64	,	64	,	64	,	64	,	64	,	64	,	64	,	64	,	64	,	64	,	64	,	64	,	64	,	64	,	64	,	64	,	64	,	64	,	64	,	64	,	64
BottomLevelsSize	,	6528	,	233856	,	872832	,	2531072	,	1155712	,	403712	,	316672	,	2599424	,	20992	,	19840	,	12544	,	6256	,	8496	,	6256	,	12304	,	10752	,	2199808	,	2940416	,	105600	,	167936	,	132864	,	76032	,	111104	,	11392	,	501632	,	1085056	,	19840	,	7168	,	6800	,	7168	,	8320	,	7888	,	7888	,	10144	,	12544	,	11392	,	14976	,	6800	,	6800	,	7680	,	6800	,	97152	,	80896	,	498560	,	606720	,	555392	,	2637440	,	442240	,	1015680	,	1625856	,	1647488	,	700288	,	2071040	,	1646976	,	2056960	,	120832	,	18432	,	115712	,	100352	,	147456	,	26112
Index	,	0	,	1	,	2	,	3	,	4	,	5	,	6	,	7	,	8	,	9	,	10	,	11	,	12	,	13	,	14	,	15	,	16	,	17	,	18	,	19	,	20	,	21	,	22	,	23	,	24	,	25	,	26	,	27	,	28	,	29	,	30	,	31	,	32	,	33	,	34	,	35	,	36	,	37	,	38	,	39	,	40	,	41	,	42	,	43	,	44	,	45	,	46	,	47	,	48	,	49	,	50	,	51	,	52	,	53	,	54	,	55	,	56	,	57	,	58	,	59	,	60

FpsAggregator: 
FPS	,	2	,	2	,	2	,	2	,	2	,	2	,	2	,	2	,	2	,	2	,	2	,	2	,	2	,	2	,	2	,	2	,	2	,	2	,	2	,	2	,	2	,	2	,	2	,	2	,	2	,	2	,	2	,	2	,	2	,	2	,	2	,	2	,	2	,	2	,	2	,	2	,	2	,	2	,	2	,	2	,	2	,	2	,	2	,	2	,	2	,	2	,	2	,	2	,	2	,	2	,	2	,	2	,	2	,	2	,	2	,	2	,	2	,	2	,	2	,	2	,	2	,	2
UPS	,	15	,	15	,	15	,	15	,	15	,	15	,	15	,	15	,	15	,	15	,	15	,	15	,	15	,	15	,	15	,	15	,	15	,	15	,	15	,	15	,	15	,	15	,	15	,	15	,	15	,	15	,	15	,	15	,	15	,	15	,	15	,	15	,	15	,	15	,	15	,	15	,	15	,	15	,	15	,	15	,	15	,	15	,	15	,	15	,	15	,	15	,	15	,	15	,	15	,	15	,	15	,	15	,	15	,	15	,	15	,	15	,	15	,	15	,	15	,	15	,	15	,	15
FrameTime	,	1122.58	,	1122.58	,	1122.58	,	1122.58	,	1122.58	,	1122.58	,	1122.58	,	1122.58	,	1122.58	,	1122.58	,	1122.58	,	1122.58	,	1122.58	,	1122.58	,	1122.58	,	1122.58	,	1122.58	,	1122.58	,	1122.58	,	1122.58	,	1122.58	,	1122.58	,	1122.58	,	1122.58	,	1122.58	,	1122.58	,	1122.58	,	1122.58	,	1122.58	,	1122.58	,	1122.58	,	1122.58	,	1122.58	,	1122.58	,	1122.58	,	1122.58	,	1122.58	,	1122.58	,	1122.58	,	1122.58	,	1122.58	,	1122.58	,	1122.58	,	1122.58	,	1122.58	,	1122.58	,	1122.58	,	1122.58	,	1122.58	,	1122.58	,	1122.58	,	1122.58	,	1122.58	,	1122.58	,	1122.58	,	1122.58	,	1122.58	,	1122.58	,	1122.58	,	1122.58	,	1122.58	,	1122.58
GigaRays/s	,	0	,	0	,	0	,	0	,	0	,	0	,	0	,	0	,	0	,	0	,	0	,	0	,	0	,	0	,	0	,	0	,	0	,	0	,	0	,	0	,	0	,	0	,	0	,	0	,	0	,	0	,	0	,	0	,	0	,	0	,	0	,	0	,	0	,	0	,	0	,	0	,	0	,	0	,	0	,	0	,	0	,	0	,	0	,	0	,	0	,	0	,	0	,	0	,	0	,	0	,	0	,	0	,	0	,	0	,	0	,	0	,	0	,	0	,	0	,	0	,	0	,	0
Index	,	0	,	1	,	2	,	3	,	4	,	5	,	6	,	7	,	8	,	9	,	10	,	11	,	12	,	13	,	14	,	15	,	16	,	17	,	18	,	19	,	20	,	21	,	22	,	23	,	24	,	25	,	26	,	27	,	28	,	29	,	30	,	31	,	32	,	33	,	34	,	35	,	36	,	37	,	38	,	39	,	40	,	41	,	42	,	43	,	44	,	45	,	46	,	47	,	48	,	49	,	50	,	51	,	52	,	53	,	54	,	55	,	56	,	57	,	58	,	59	,	60	,	61


AccelerationStructure: 
Ray tracing acceleration structure building statistics: 
	Bottom Level Acceleration Structure: 
		Maximum [B]: 0
		Minimum [B]: 18446744073709551615
		Currently Allocated [B]: 0
		Currently Created [num]: 0
		Current Average [B]: 0
		Maximum Triangles [num]: 0
		Minimum Triangles [num]: 18446744073709551615
		Total Triangles [num]: 0
		Maximum Meshes [num]: 0
		Minimum Meshes [num]: 18446744073709551615
		Total Meshes [num]: 0
	Top Level Acceleration Structure: 
		Maximum [B]: 0
		Minimum [B]: 18446744073709551615
		Currently Allocated [B]: 0
		Total Allocated [B]: 0
		Total Created [num]: 0
		Average Allocated [B]: 0
		Maximum Instances [num]: 0
		Minimum Instances [num]: 18446744073709551615
		Total Instances [num]: 0
	Scratch Buffer: 
		Maximum [B]: 0
		Minimum [B]: 18446744073709551615
		Currently Allocated [B]: 0
		Total Allocated [B]: 0
		Total Created [num]: 0
		Average Allocated [B]: 0
ProfilingStack: 
[PROF] Profiling statistics: 
	Scopes entered : 408
	Scopes exited : 406
	Overhead per scope [ticks] : 160.9
	Threads entered : 3
	Threads exited : 0
	============================
		         Sum[Mt]   Parent[%]  Samples[num]       Avg[Mt]   Last/Curr[Mt]        Self[Mt]     Self[%] 	 Name

	main:

		    2744.236 Mt   100.000 %         1 x     2744.236 Mt     2744.235 Mt     2343.430 Mt    85.395 % 	 /

		      75.802 Mt     2.762 %         1 x       75.802 Mt        0.000 Mt        0.696 Mt     0.919 % 	 ./Initialize

		       3.001 Mt     3.959 %         1 x        3.001 Mt        0.000 Mt        3.001 Mt   100.000 % 	 ../TexturedRLInitialization

		       1.411 Mt     1.861 %         1 x        1.411 Mt        0.000 Mt        1.411 Mt   100.000 % 	 ../ShadowMapRLInitialization

		       7.564 Mt     9.978 %         1 x        7.564 Mt        0.000 Mt        7.564 Mt   100.000 % 	 ../AmbientOcclusionRLInitialization

		       5.704 Mt     7.525 %         1 x        5.704 Mt        0.000 Mt        5.704 Mt   100.000 % 	 ../RasterResolveRLInitialization

		       4.131 Mt     5.449 %         1 x        4.131 Mt        0.000 Mt        4.131 Mt   100.000 % 	 ../DeferredRLInitialization

		      47.058 Mt    62.080 %         1 x       47.058 Mt        0.000 Mt        1.622 Mt     3.446 % 	 ../RayTracingRLInitialization

		      45.437 Mt    96.554 %         1 x       45.437 Mt        0.000 Mt       45.437 Mt   100.000 % 	 .../PipelineBuild

		       6.238 Mt     8.229 %         1 x        6.238 Mt        0.000 Mt        6.238 Mt   100.000 % 	 ../ResolveRLInitialization

		     325.079 Mt    11.846 %         3 x      108.360 Mt      307.671 Mt        0.346 Mt     0.106 % 	 ./Run

		     315.711 Mt    97.118 %        16 x       19.732 Mt      307.350 Mt      147.911 Mt    46.850 % 	 ../Update

		      83.940 Mt    26.588 %         1 x       83.940 Mt       83.940 Mt       56.881 Mt    67.763 % 	 .../ScenePrep

		      27.059 Mt    32.237 %         1 x       27.059 Mt       27.059 Mt       27.059 Mt   100.000 % 	 ..../SceneDesc-CreateScene

		      83.860 Mt    26.562 %        62 x        1.353 Mt        1.111 Mt       33.086 Mt    39.454 % 	 .../AccelerationStructureBuild

		      21.289 Mt    25.386 %        62 x        0.343 Mt        0.285 Mt       21.289 Mt   100.000 % 	 ..../BuildBottomLevelAS

		      29.485 Mt    35.160 %        62 x        0.476 Mt        0.475 Mt       29.485 Mt   100.000 % 	 ..../BuildTopLevelAS

		       9.030 Mt     2.778 %         2 x        4.515 Mt        0.000 Mt        0.011 Mt     0.123 % 	 ../Render

		       9.019 Mt    99.877 %         2 x        4.510 Mt        0.000 Mt        9.019 Mt   100.000 % 	 .../Render

	WindowThread:

		    2741.939 Mt   100.000 %         1 x     2741.939 Mt     2741.939 Mt     2741.939 Mt   100.000 % 	 /

	GpuThread:

		      64.574 Mt   100.000 %        63 x        1.025 Mt        0.874 Mt       -0.431 Mt    -0.668 % 	 /

		       0.003 Mt     0.005 %         2 x        0.001 Mt        0.000 Mt        0.003 Mt   100.000 % 	 ./Present

		      65.002 Mt   100.663 %        62 x        1.048 Mt        0.874 Mt        0.198 Mt     0.304 % 	 ./AccelerationStructureBuild

		      54.253 Mt    83.464 %        62 x        0.875 Mt        0.731 Mt       54.253 Mt   100.000 % 	 ../BuildBottomLevelASGpu

		      10.551 Mt    16.232 %        62 x        0.170 Mt        0.140 Mt       10.551 Mt   100.000 % 	 ../BuildTopLevelASGpu


	============================


