Configuration: 
Command line parameters  = 
Window width             = 1024
Window height            = 768
Window title             = Direct3D App
Back-buffer count        = 3
Fill Triangles           = enabled
Triangles Font Clock-Wise= disabled
Fast Build AS            = disabled
Target FPS               = 0
Target UPS               = 60
Tearing                  = enabled
VSync                    = disabled
GUI rendering            = disabled
Debug layer              = enabled
GPU validation           = disabled
GPU profiling            = enabled
Render mode              = Ray Tracing
Loaded scene file        = 
Using testing scene      = disabled
BLAS duplication         = disabled
Rays per pixel           = 9
Quality preset           = Medium
Rasterization Quality    : 
  AO                     = enabled
  AO kernel size         = 4
  Shadows                = enabled
  Shadow map resolution  = 4096
  Shadow PCF kernel size = 4
  Reflections            = disabled
Ray Tracing Quality      : 
  AO                     = enabled
  AO rays                = 4
  AO kernel size         = 4
  Shadows                = enabled
  Shadow rays            = 4
  Shadow kernel size     = 4
  Reflections            = disabled

ProfilingAggregator: 
Render	,	0.7376	,	0.7376	,	0.7376	,	0.7376	,	0.7376	,	0.7376	,	0.7376	,	0.7376	,	0.7376	,	0.7376	,	0.7376	,	0.7376	,	0.7376	,	0.7376	,	0.7376	,	0.7376	,	0.7376	,	0.7376	,	0.7376	,	0.7376	,	0.7376	,	0.7376	,	0.7376	,	0.7376	,	0.7376	,	0.7376	,	0.7376	,	0.7376	,	0.7376	,	0.7376	,	0.7376	,	0.7376	,	0.7376	,	0.7376	,	0.7376	,	0.7376	,	0.7376	,	0.7376	,	0.7376	,	0.7376	,	0.7376	,	0.7376	,	0.7376	,	0.7376	,	0.7376	,	0.7376	,	0.7376	,	0.7376	,	0.7376	,	0.7376	,	0.7376	,	0.7376	,	0.7376	,	0.7376	,	0.7376	,	0.7376	,	0.7376	,	0.7376	,	0.7376	,	0.7376	,	0.7376	,	0.7376
Update	,	0.0525	,	87.0314	,	89.6999	,	93.3445	,	97.6979	,	101.083	,	103.777	,	106.374	,	110.818	,	114.271	,	116.799	,	118.955	,	120.844	,	122.826	,	125.147	,	128.103	,	130.346	,	133.303	,	136.454	,	138.965	,	141.53	,	144.683	,	147.401	,	150.189	,	152.658	,	155.689	,	158.33	,	160.88	,	162.885	,	164.84	,	166.792	,	168.909	,	171.275	,	173.972	,	176.796	,	179.127	,	181.333	,	183.563	,	185.929	,	187.998	,	189.997	,	192.079	,	194.649	,	196.953	,	199.682	,	202.7	,	205.942	,	209.448	,	212.429	,	215.612	,	219.87	,	223.842	,	227.344	,	230.998	,	234.694	,	238.657	,	242.202	,	245.165	,	247.77	,	250.662	,	253.443	,	256.036
Index	,	0	,	1	,	2	,	3	,	4	,	5	,	6	,	7	,	8	,	9	,	10	,	11	,	12	,	13	,	14	,	15	,	16	,	17	,	18	,	19	,	20	,	21	,	22	,	23	,	24	,	25	,	26	,	27	,	28	,	29	,	30	,	31	,	32	,	33	,	34	,	35	,	36	,	37	,	38	,	39	,	40	,	41	,	42	,	43	,	44	,	45	,	46	,	47	,	48	,	49	,	50	,	51	,	52	,	53	,	54	,	55	,	56	,	57	,	58	,	59	,	60	,	61

ProfilingBuildAggregator: 
BuildBottomLevelAS	,	0.2764	,	0.2461	,	0.3862	,	0.4842	,	0.3956	,	0.3026	,	0.2603	,	0.4776	,	0.3223	,	0.2769	,	0.2515	,	0.2158	,	0.2169	,	0.2468	,	0.3166	,	0.2651	,	0.3508	,	0.3626	,	0.2289	,	0.2823	,	0.2842	,	0.2997	,	0.3108	,	0.2534	,	0.2865	,	0.2966	,	0.2392	,	0.2426	,	0.246	,	0.235	,	0.2428	,	0.2705	,	0.2929	,	0.2916	,	0.2632	,	0.2486	,	0.2442	,	0.2463	,	0.2494	,	0.2417	,	0.2471	,	0.2447	,	0.2599	,	0.2889	,	0.2792	,	0.3369	,	0.3293	,	0.274	,	0.2963	,	0.3349	,	0.3499	,	0.3062	,	0.3613	,	0.3258	,	0.4562	,	0.3068	,	0.3267	,	0.255	,	0.3364	,	0.3515	,	0.265
BuildBottomLevelASGpu	,	0.21104	,	0.559776	,	0.788608	,	0.95456	,	0.803072	,	0.572864	,	0.56688	,	1.47523	,	0.399872	,	0.40912	,	0.330496	,	0.222528	,	0.323712	,	0.228	,	0.387904	,	0.325376	,	0.922784	,	1.13424	,	0.571744	,	0.614816	,	0.665184	,	0.551296	,	0.576736	,	0.319904	,	0.626976	,	0.750112	,	0.412128	,	0.271328	,	0.234496	,	0.246816	,	0.289856	,	0.2688	,	0.265824	,	0.302528	,	0.38	,	0.346912	,	0.39984	,	0.233408	,	0.248672	,	0.270752	,	0.260736	,	0.447776	,	0.490464	,	1.02669	,	1.25779	,	1.06758	,	1.58618	,	1.11165	,	1.32326	,	1.99645	,	1.55322	,	1.11747	,	1.58483	,	1.73648	,	1.60957	,	0.906336	,	0.567488	,	0.81408	,	0.922048	,	0.911264	,	0.676384
BuildTopLevelAS	,	0.4633	,	0.388	,	0.5791	,	0.4423	,	0.5374	,	0.4161	,	0.4305	,	0.47	,	0.4987	,	0.426	,	0.4252	,	0.3832	,	0.4226	,	0.492	,	0.4737	,	0.4168	,	0.4119	,	0.3999	,	0.5097	,	0.3964	,	0.4492	,	0.4801	,	0.4665	,	0.4025	,	0.417	,	0.3884	,	0.3809	,	0.3869	,	0.3882	,	0.391	,	0.4917	,	0.4617	,	0.4477	,	0.4549	,	0.4342	,	0.4365	,	0.433	,	0.4668	,	0.3918	,	0.3871	,	0.3636	,	0.4085	,	0.4249	,	0.3838	,	0.4335	,	0.4309	,	0.3843	,	0.3976	,	0.3968	,	0.4253	,	0.4083	,	0.5644	,	0.4101	,	0.4181	,	0.519	,	0.4394	,	0.4688	,	0.4185	,	0.502	,	0.3972	,	0.4028
BuildTopLevelASGpu	,	0.130816	,	0.131328	,	0.130784	,	0.130752	,	0.125664	,	0.124544	,	0.125344	,	0.132928	,	0.12592	,	0.12432	,	0.124512	,	0.124832	,	0.124256	,	0.123968	,	0.124256	,	0.125056	,	0.127808	,	0.131072	,	0.124512	,	0.124256	,	0.130592	,	0.125344	,	0.124832	,	0.130272	,	0.130816	,	0.125664	,	0.12432	,	0.124832	,	0.123968	,	0.124832	,	0.124512	,	0.123968	,	0.124	,	0.125344	,	0.124288	,	0.124512	,	0.125344	,	0.124832	,	0.124832	,	0.12512	,	0.124832	,	0.124576	,	0.125344	,	0.130528	,	0.127328	,	0.126976	,	0.129984	,	0.127008	,	0.126752	,	0.140928	,	0.133504	,	0.13328	,	0.128928	,	0.130272	,	0.128416	,	0.46672	,	0.127872	,	0.126464	,	0.126976	,	0.126816	,	0.1264
Triangles	,	32	,	4120	,	15584	,	45330	,	20655	,	7167	,	5600	,	46560	,	288	,	282	,	143	,	28	,	75	,	27	,	132	,	108	,	39389	,	52674	,	1812	,	2934	,	2305	,	1290	,	1919	,	122	,	8917	,	19389	,	281	,	47	,	34	,	46	,	63	,	52	,	50	,	102	,	142	,	125	,	183	,	34	,	33	,	48	,	34	,	1658	,	1368	,	7000	,	8584	,	7794	,	37536	,	6246	,	14409	,	23123	,	23437	,	9929	,	29460	,	23399	,	29275	,	1620	,	192	,	1572	,	1362	,	1999	,	306
Meshes	,	1	,	1	,	2	,	2	,	2	,	1	,	1	,	2	,	1	,	1	,	1	,	1	,	1	,	1	,	1	,	1	,	2	,	2	,	2	,	2	,	2	,	1	,	1	,	1	,	1	,	1	,	1	,	1	,	1	,	1	,	1	,	1	,	1	,	1	,	1	,	1	,	1	,	1	,	1	,	1	,	1	,	1	,	1	,	1	,	1	,	1	,	1	,	1	,	1	,	1	,	1	,	1	,	1	,	1	,	1	,	1	,	1	,	1	,	1	,	1	,	1
BottomLevels	,	1	,	1	,	1	,	1	,	1	,	1	,	1	,	1	,	1	,	1	,	1	,	1	,	1	,	1	,	1	,	1	,	1	,	1	,	1	,	1	,	1	,	1	,	1	,	1	,	1	,	1	,	1	,	1	,	1	,	1	,	1	,	1	,	1	,	1	,	1	,	1	,	1	,	1	,	1	,	1	,	1	,	1	,	1	,	1	,	1	,	1	,	1	,	1	,	1	,	1	,	1	,	1	,	1	,	1	,	1	,	1	,	1	,	1	,	1	,	1	,	1
TopLevelSize	,	64	,	64	,	64	,	64	,	64	,	64	,	64	,	64	,	64	,	64	,	64	,	64	,	64	,	64	,	64	,	64	,	64	,	64	,	64	,	64	,	64	,	64	,	64	,	64	,	64	,	64	,	64	,	64	,	64	,	64	,	64	,	64	,	64	,	64	,	64	,	64	,	64	,	64	,	64	,	64	,	64	,	64	,	64	,	64	,	64	,	64	,	64	,	64	,	64	,	64	,	64	,	64	,	64	,	64	,	64	,	64	,	64	,	64	,	64	,	64	,	64
BottomLevelsSize	,	6528	,	233856	,	872832	,	2531072	,	1155712	,	403712	,	316672	,	2599424	,	20992	,	19840	,	12544	,	6256	,	8496	,	6256	,	12304	,	10752	,	2199808	,	2940416	,	105600	,	167936	,	132864	,	76032	,	111104	,	11392	,	501632	,	1085056	,	19840	,	7168	,	6800	,	7168	,	8320	,	7888	,	7888	,	10144	,	12544	,	11392	,	14976	,	6800	,	6800	,	7680	,	6800	,	97152	,	80896	,	498560	,	606720	,	555392	,	2637440	,	442240	,	1015680	,	1625856	,	1647488	,	700288	,	2071040	,	1646976	,	2056960	,	120832	,	18432	,	115712	,	100352	,	147456	,	26112
Index	,	0	,	1	,	2	,	3	,	4	,	5	,	6	,	7	,	8	,	9	,	10	,	11	,	12	,	13	,	14	,	15	,	16	,	17	,	18	,	19	,	20	,	21	,	22	,	23	,	24	,	25	,	26	,	27	,	28	,	29	,	30	,	31	,	32	,	33	,	34	,	35	,	36	,	37	,	38	,	39	,	40	,	41	,	42	,	43	,	44	,	45	,	46	,	47	,	48	,	49	,	50	,	51	,	52	,	53	,	54	,	55	,	56	,	57	,	58	,	59	,	60

FpsAggregator: 
FPS	,	2	,	2	,	2	,	2	,	2	,	2	,	2	,	2	,	2	,	2	,	2	,	2	,	2	,	2	,	2	,	2	,	2	,	2	,	2	,	2	,	2	,	2	,	2	,	2	,	2	,	2	,	2	,	2	,	2	,	2	,	2	,	2	,	2	,	2	,	2	,	2	,	2	,	2	,	2	,	2	,	2	,	2	,	2	,	2	,	2	,	2	,	2	,	2	,	2	,	2	,	2	,	2	,	2	,	2	,	2	,	2	,	2	,	2	,	2	,	2	,	2	,	2
UPS	,	16	,	16	,	16	,	16	,	16	,	16	,	16	,	16	,	16	,	16	,	16	,	16	,	16	,	16	,	16	,	16	,	16	,	16	,	16	,	16	,	16	,	16	,	16	,	16	,	16	,	16	,	16	,	16	,	16	,	16	,	16	,	16	,	16	,	16	,	16	,	16	,	16	,	16	,	16	,	16	,	16	,	16	,	16	,	16	,	16	,	16	,	16	,	16	,	16	,	16	,	16	,	16	,	16	,	16	,	16	,	16	,	16	,	16	,	16	,	16	,	16	,	16
FrameTime	,	1167.59	,	1167.59	,	1167.59	,	1167.59	,	1167.59	,	1167.59	,	1167.59	,	1167.59	,	1167.59	,	1167.59	,	1167.59	,	1167.59	,	1167.59	,	1167.59	,	1167.59	,	1167.59	,	1167.59	,	1167.59	,	1167.59	,	1167.59	,	1167.59	,	1167.59	,	1167.59	,	1167.59	,	1167.59	,	1167.59	,	1167.59	,	1167.59	,	1167.59	,	1167.59	,	1167.59	,	1167.59	,	1167.59	,	1167.59	,	1167.59	,	1167.59	,	1167.59	,	1167.59	,	1167.59	,	1167.59	,	1167.59	,	1167.59	,	1167.59	,	1167.59	,	1167.59	,	1167.59	,	1167.59	,	1167.59	,	1167.59	,	1167.59	,	1167.59	,	1167.59	,	1167.59	,	1167.59	,	1167.59	,	1167.59	,	1167.59	,	1167.59	,	1167.59	,	1167.59	,	1167.59	,	1167.59
GigaRays/s	,	0	,	0	,	0	,	0	,	0	,	0	,	0	,	0	,	0	,	0	,	0	,	0	,	0	,	0	,	0	,	0	,	0	,	0	,	0	,	0	,	0	,	0	,	0	,	0	,	0	,	0	,	0	,	0	,	0	,	0	,	0	,	0	,	0	,	0	,	0	,	0	,	0	,	0	,	0	,	0	,	0	,	0	,	0	,	0	,	0	,	0	,	0	,	0	,	0	,	0	,	0	,	0	,	0	,	0	,	0	,	0	,	0	,	0	,	0	,	0	,	0	,	0
Index	,	0	,	1	,	2	,	3	,	4	,	5	,	6	,	7	,	8	,	9	,	10	,	11	,	12	,	13	,	14	,	15	,	16	,	17	,	18	,	19	,	20	,	21	,	22	,	23	,	24	,	25	,	26	,	27	,	28	,	29	,	30	,	31	,	32	,	33	,	34	,	35	,	36	,	37	,	38	,	39	,	40	,	41	,	42	,	43	,	44	,	45	,	46	,	47	,	48	,	49	,	50	,	51	,	52	,	53	,	54	,	55	,	56	,	57	,	58	,	59	,	60	,	61


AccelerationStructure: 
Ray tracing acceleration structure building statistics: 
	Bottom Level Acceleration Structure: 
		Maximum [B]: 0
		Minimum [B]: 18446744073709551615
		Currently Allocated [B]: 0
		Currently Created [num]: 0
		Current Average [B]: 0
		Maximum Triangles [num]: 0
		Minimum Triangles [num]: 18446744073709551615
		Total Triangles [num]: 0
		Maximum Meshes [num]: 0
		Minimum Meshes [num]: 18446744073709551615
		Total Meshes [num]: 0
	Top Level Acceleration Structure: 
		Maximum [B]: 0
		Minimum [B]: 18446744073709551615
		Currently Allocated [B]: 0
		Total Allocated [B]: 0
		Total Created [num]: 0
		Average Allocated [B]: 0
		Maximum Instances [num]: 0
		Minimum Instances [num]: 18446744073709551615
		Total Instances [num]: 0
	Scratch Buffer: 
		Maximum [B]: 0
		Minimum [B]: 18446744073709551615
		Currently Allocated [B]: 0
		Total Allocated [B]: 0
		Total Created [num]: 0
		Average Allocated [B]: 0
ProfilingStack: 
[PROF] Profiling statistics: 
	Scopes entered : 409
	Scopes exited : 407
	Overhead per scope [ticks] : 164.3
	Threads entered : 3
	Threads exited : 0
	============================
		         Sum[Mt]   Parent[%]  Samples[num]       Avg[Mt]   Last/Curr[Mt]        Self[Mt]     Self[%] 	 Name

	main:

		    2815.622 Mt   100.000 %         1 x     2815.623 Mt     2815.622 Mt     2465.797 Mt    87.576 % 	 /

		      71.597 Mt     2.543 %         1 x       71.597 Mt        0.000 Mt        1.101 Mt     1.537 % 	 ./Initialize

		       3.046 Mt     4.254 %         1 x        3.046 Mt        0.000 Mt        3.046 Mt   100.000 % 	 ../TexturedRLInitialization

		       1.440 Mt     2.012 %         1 x        1.440 Mt        0.000 Mt        1.440 Mt   100.000 % 	 ../ShadowMapRLInitialization

		       8.784 Mt    12.268 %         1 x        8.784 Mt        0.000 Mt        8.784 Mt   100.000 % 	 ../AmbientOcclusionRLInitialization

		       5.024 Mt     7.016 %         1 x        5.024 Mt        0.000 Mt        5.024 Mt   100.000 % 	 ../RasterResolveRLInitialization

		       4.347 Mt     6.071 %         1 x        4.347 Mt        0.000 Mt        4.347 Mt   100.000 % 	 ../DeferredRLInitialization

		      43.220 Mt    60.366 %         1 x       43.220 Mt        0.000 Mt        1.497 Mt     3.463 % 	 ../RayTracingRLInitialization

		      41.723 Mt    96.537 %         1 x       41.723 Mt        0.000 Mt       41.723 Mt   100.000 % 	 .../PipelineBuild

		       4.636 Mt     6.475 %         1 x        4.636 Mt        0.000 Mt        4.636 Mt   100.000 % 	 ../ResolveRLInitialization

		     278.303 Mt     9.884 %         3 x       92.768 Mt      257.307 Mt        0.370 Mt     0.133 % 	 ./Run

		     270.365 Mt    97.148 %        17 x       15.904 Mt      256.957 Mt      125.219 Mt    46.315 % 	 ../Update

		      73.821 Mt    27.304 %         1 x       73.821 Mt       73.821 Mt       53.670 Mt    72.703 % 	 .../ScenePrep

		      20.151 Mt    27.297 %         1 x       20.151 Mt       20.151 Mt       20.151 Mt   100.000 % 	 ..../SceneDesc-CreateScene

		      71.325 Mt    26.381 %        62 x        1.150 Mt        1.120 Mt       25.290 Mt    35.458 % 	 .../AccelerationStructureBuild

		      18.837 Mt    26.410 %        62 x        0.304 Mt        0.265 Mt       18.837 Mt   100.000 % 	 ..../BuildBottomLevelAS

		      27.198 Mt    38.132 %        62 x        0.439 Mt        0.403 Mt       27.198 Mt   100.000 % 	 ..../BuildTopLevelAS

		       7.575 Mt     2.722 %         2 x        3.788 Mt        0.000 Mt        0.003 Mt     0.037 % 	 ../Render

		       7.572 Mt    99.963 %         2 x        3.786 Mt        0.000 Mt        7.572 Mt   100.000 % 	 .../Render

	WindowThread:

		    2813.344 Mt   100.000 %         1 x     2813.344 Mt     2813.343 Mt     2813.344 Mt   100.000 % 	 /

	GpuThread:

		      50.627 Mt   100.000 %        63 x        0.804 Mt        0.805 Mt       -0.344 Mt    -0.679 % 	 /

		       0.003 Mt     0.005 %         2 x        0.001 Mt        0.000 Mt        0.003 Mt   100.000 % 	 ./Present

		      50.968 Mt   100.674 %        62 x        0.822 Mt        0.805 Mt        0.105 Mt     0.206 % 	 ./AccelerationStructureBuild

		      42.643 Mt    83.666 %        62 x        0.688 Mt        0.676 Mt       42.643 Mt   100.000 % 	 ../BuildBottomLevelASGpu

		       8.220 Mt    16.128 %        62 x        0.133 Mt        0.126 Mt        8.220 Mt   100.000 % 	 ../BuildTopLevelASGpu


	============================


