Configuration: 
Command line parameters  = 
Window width             = 1186
Window height            = 1219
Window title             = Direct3D App
Back-buffer count        = 3
Fill Triangles           = enabled
Triangles Font Clock-Wise= disabled
Fast Build AS            = disabled
Target FPS               = 0
Target UPS               = 60
Tearing                  = enabled
VSync                    = disabled
GUI rendering            = disabled
Debug layer              = enabled
GPU validation           = disabled
GPU profiling            = enabled
Render mode              = Ray Tracing
Loaded scene file        = 
Using testing scene      = disabled
BLAS duplication         = disabled
Rays per pixel           = 14
Quality preset           = Unknown
Rasterization Quality    : 
  AO                     = enabled
  AO kernel size         = 4
  Shadows                = enabled
  Shadow map resolution  = 4096
  Shadow PCF kernel size = 4
  Reflections            = disabled
Ray Tracing Quality      : 
  AO                     = enabled
  AO rays                = 4
  AO kernel size         = 4
  Shadows                = enabled
  Shadow rays            = 4
  Shadow kernel size     = 4
  Reflections            = disabled

ProfilingAggregator: 
Render	,	1424.37	,	66.1495	,	78.8283	,	65.2366	,	74.7573	,	96.2502	,	83.908	,	66.2978	,	65.6532	,	75.3133	,	72.6838	,	66.007	,	66.602	,	67.5612	,	69.378	,	67.7383	,	67.9634	,	76.3529	,	68.5341	,	67.5672	,	64.121	,	68.3011	,	75.7655	,	65.4039	,	65.6848	,	66.4304	,	65.4628	,	87.0991	,	70.3938	,	72.4231	,	63.5692	,	63.5651	,	63.948	,	65.2954	,	64.1013	,	77.8751	,	83.0243	,	64.4954	,	64.1933	,	74.037	,	71.4928	,	72.4782	,	69.5287	,	93.6377	,	63.3685	,	67.2661	,	72.0552	,	64.7699	,	66.7656	,	66.2678	,	66.9569	,	66.2655	,	65.8423	,	65.0518	,	67.3232	,	64.5218	,	63.5561	,	67.7504	,	63.3929	,	71.6844	,	74.9614	,	74.4794	,	76.9422	,	65.0947	,	69.1599	,	73.2843	,	66.093	,	65.7445	,	76.0336	,	69.0613	,	69.865	,	71.8566	,	68.4173	,	63.3195	,	88.6644	,	68.2838	,	69.6985	,	69.1711	,	69.5828	,	68.7496	,	67.3391	,	69.3434	,	68.4086	,	68.6876	,	65.2087	,	77.1095	,	71.2571	,	76.6645	,	64.7588	,	67.1986	,	64.2812	,	15.904	,	15.2469	,	15.3915	,	18.3069	,	17.6408	,	17.4291	,	61.9179	,	17.5407	,	62.563	,	64.4924	,	63.1126	,	66.0831	,	74.4628	,	61.5628	,	71.2734	,	64.85	,	71.1426	,	67.1601	,	64.9513	,	73.7689	,	66.4115	,	69.4712	,	67.1338	,	64.869	,	62.9756	,	66.9217	,	64.7577	,	63.0674	,	67.5743	,	66.6561	,	102.603	,	69.8631	,	71.2694	,	73.0381	,	69.9518	,	71.1938	,	67.3405	,	62.9837	,	64.5087	,	64.4962	,	72.164	,	66.3262	,	64.5093	,	63.662	,	64.2569	,	65.6503	,	66.0828	,	66.2776	,	65.3995
Update	,	0.1046	,	0.1496	,	0.193	,	0.1179	,	0.1041	,	0.128	,	0.1047	,	0.1166	,	0.1099	,	0.1044	,	0.1047	,	0.1045	,	0.1048	,	0.1045	,	0.124	,	0.1638	,	0.1185	,	0.1043	,	0.1248	,	0.1246	,	0.1059	,	0.1244	,	0.1039	,	0.106	,	0.1248	,	0.1105	,	0.1244	,	0.1044	,	0.1042	,	0.1045	,	0.1055	,	0.1062	,	0.1069	,	0.1044	,	0.1043	,	0.104	,	0.163	,	0.1054	,	0.1239	,	0.124	,	0.1244	,	0.1056	,	0.1065	,	0.2303	,	0.1076	,	0.1245	,	0.1038	,	0.108	,	0.1239	,	0.1044	,	0.1055	,	0.107	,	0.1178	,	0.1049	,	0.1046	,	0.1252	,	0.1046	,	0.1243	,	0.1242	,	0.146	,	0.1042	,	0.108	,	0.1043	,	0.1249	,	0.1049	,	0.1045	,	0.1043	,	0.1046	,	0.1075	,	0.1043	,	0.1273	,	0.1039	,	0.1277	,	0.1041	,	0.1046	,	0.1238	,	0.1046	,	0.105	,	0.1048	,	0.1042	,	0.1065	,	0.105	,	0.124	,	0.1241	,	0.1045	,	0.1048	,	0.105	,	0.1046	,	0.1051	,	0.1247	,	0.1045	,	0.3784	,	0.124	,	0.1064	,	0.1264	,	0.1087	,	0.1073	,	0.1052	,	0.3736	,	0.1041	,	0.1044	,	0.1043	,	0.1309	,	0.1247	,	0.1045	,	0.1241	,	0.1047	,	0.1734	,	0.1243	,	0.1044	,	0.1044	,	0.1214	,	0.1242	,	0.1262	,	0.1245	,	0.1045	,	0.1242	,	0.1044	,	0.1042	,	0.124	,	0.1243	,	0.1464	,	0.106	,	0.1052	,	0.1048	,	0.1045	,	0.1042	,	0.1245	,	0.1241	,	0.1243	,	0.1045	,	0.1044	,	0.1046	,	0.1076	,	0.1238	,	0.1045	,	0.124	,	0.1268	,	0.1262	,	0.1061
RayTracing	,	1001.16	,	52.9338	,	57.7842	,	52.7692	,	60.3165	,	78.2717	,	68.2547	,	51.4328	,	50.8453	,	59.9924	,	57.6197	,	50.7167	,	50.4823	,	51.9342	,	53.7342	,	52.2169	,	52.4477	,	61.2636	,	52.6439	,	52.7106	,	50.234	,	51.5368	,	58.9492	,	50.1784	,	52.2518	,	54.9517	,	53.3788	,	68.4424	,	56.9869	,	56.0946	,	50.3293	,	51.5529	,	50.7247	,	50.7734	,	51.4289	,	64.5061	,	67.5347	,	50.6174	,	51.3353	,	54.9724	,	54.0946	,	58.1629	,	54.4147	,	78.1713	,	50.4669	,	52.4587	,	56.9434	,	50.3524	,	52.8011	,	53.1584	,	50.3672	,	51.8499	,	51.5432	,	51.1933	,	52.1635	,	50.979	,	50.3636	,	53.7123	,	51.0716	,	53.1139	,	59.3572	,	57.2747	,	59.969	,	50.5658	,	54.0763	,	56.6063	,	50.2885	,	50.9597	,	58.4675	,	51.651	,	54.4252	,	55.0031	,	52.5772	,	50.2683	,	73.1178	,	51.5739	,	52.8589	,	50.4942	,	50.6461	,	50.6133	,	50.6001	,	54.1014	,	52.3789	,	52.881	,	50.6758	,	53.8408	,	53.0372	,	59.9817	,	51.1102	,	53.2821	,	50.4622	,	7.7958	,	7.2018	,	7.1225	,	8.2818	,	8.155	,	7.9087	,	50.2791	,	8.3255	,	50.9608	,	50.7038	,	51.7171	,	54.2761	,	60.3603	,	50.5221	,	57.8722	,	50.3472	,	56.9405	,	53.0124	,	50.5768	,	57.1983	,	50.9059	,	54.6297	,	52.9177	,	52.0111	,	51.5803	,	53.4818	,	51.0373	,	50.6787	,	52.3221	,	50.3592	,	80.6629	,	51.7107	,	52.2027	,	53.9465	,	52.2125	,	52.6069	,	53.3444	,	51.3308	,	51.9103	,	50.7455	,	54.8194	,	53.4463	,	51.0653	,	51.0289	,	50.6921	,	52.3784	,	52.3988	,	52.9235	,	51.0672
RayTracingGpu	,	411.443	,	2.67312	,	13.1194	,	5.2305	,	6.9695	,	7.08246	,	8.13987	,	7.57898	,	7.46413	,	7.78656	,	7.76157	,	7.77389	,	8.9848	,	8.38058	,	7.42784	,	7.9464	,	7.71437	,	8.18442	,	8.59318	,	7.35123	,	6.69824	,	9.39357	,	9.15693	,	7.37962	,	6.06	,	4.3801	,	4.5176	,	5.90928	,	5.76518	,	8.9232	,	6.20202	,	4.83258	,	5.40061	,	7.2423	,	5.64083	,	6.17162	,	7.7776	,	6.49536	,	5.36998	,	11.712	,	9.80714	,	6.98688	,	7.32483	,	5.15219	,	5.40176	,	7.1872	,	7.09376	,	6.98147	,	6.60422	,	5.64973	,	6.21382	,	6.80838	,	6.73072	,	6.50115	,	7.68662	,	6.0615	,	5.84365	,	6.63741	,	5.08342	,	7.99968	,	8.3192	,	9.55971	,	8.84608	,	7.24438	,	7.93062	,	9.4673	,	8.65072	,	7.63536	,	9.78912	,	10.0388	,	8.3057	,	7.7191	,	8.04502	,	5.7	,	6.86778	,	8.94854	,	9.04995	,	10.9821	,	10.7871	,	10.9655	,	9.57389	,	7.66909	,	8.37504	,	6.77981	,	7.12605	,	13.486	,	10.9807	,	9.47686	,	6.4304	,	6.56422	,	6.4728	,	3.12518	,	3.01741	,	3.4017	,	4.85571	,	4.0271	,	4.11082	,	4.3728	,	3.84838	,	4.28378	,	4.81069	,	4.1401	,	4.39299	,	4.47414	,	3.60582	,	5.84774	,	7.12291	,	6.8616	,	6.84566	,	6.75302	,	9.25286	,	8.10214	,	7.43219	,	6.91482	,	4.92963	,	3.75322	,	5.7649	,	6.37491	,	5.10314	,	7.80954	,	8.9064	,	14.2152	,	10.9648	,	10.9526	,	10.9971	,	10.4396	,	11.0877	,	6.57904	,	4.55418	,	5.22816	,	6.62109	,	4.90634	,	5.82838	,	6.11994	,	5.74688	,	6.14794	,	5.69594	,	6.06816	,	5.80675	,	6.41885
DeferredRLGpu	,	0.447008	,	0.53408	,	5.39062	,	0.669696	,	1.00307	,	1.06893	,	1.0744	,	1.05894	,	1.04394	,	1.20387	,	1.06541	,	1.08653	,	1.63523	,	1.06707	,	1.07536	,	1.20589	,	1.06755	,	1.21581	,	1.10554	,	0.91296	,	0.923136	,	1.05238	,	1.03331	,	0.993408	,	0.891136	,	0.841248	,	0.905408	,	0.961344	,	0.962176	,	1.1056	,	0.93216	,	0.831168	,	0.947008	,	1.17318	,	1.11347	,	1.10218	,	1.1639	,	1.0935	,	1.03718	,	1.8032	,	1.35296	,	1.14838	,	1.57878	,	0.994016	,	1.03619	,	1.26861	,	1.29814	,	1.28701	,	1.192	,	1.18496	,	1.26186	,	1.27402	,	1.24768	,	1.17078	,	1.14611	,	1.12285	,	1.08832	,	1.10621	,	1.28131	,	2.32557	,	1.3377	,	1.73344	,	1.33245	,	1.3455	,	1.40186	,	1.40726	,	1.29514	,	1.24502	,	1.22285	,	1.64886	,	1.22662	,	1.28749	,	1.22291	,	1.38608	,	1.56218	,	1.35974	,	1.33104	,	1.37229	,	1.18438	,	1.66147	,	1.14224	,	1.15642	,	1.19955	,	1.0536	,	0.986336	,	1.82022	,	1.41024	,	1.18717	,	0.918464	,	1.01837	,	1.03763	,	1.02643	,	1.02643	,	1.02643	,	1.02643	,	1.02643	,	1.02643	,	0.752032	,	0.75024	,	0.749216	,	0.878656	,	0.813024	,	0.870464	,	0.987264	,	1.03837	,	1.15226	,	1.74941	,	1.42157	,	1.45261	,	1.46522	,	1.64554	,	1.32051	,	1.51661	,	1.48931	,	1.14218	,	0.93024	,	0.96272	,	1.18192	,	0.98848	,	0.965184	,	1.13981	,	1.71818	,	1.27299	,	1.11264	,	1.05066	,	1.11299	,	1.26538	,	1.1752	,	0.980736	,	1.05027	,	1.16234	,	1.028	,	1.13923	,	1.2039	,	1.12854	,	1.12032	,	1.10557	,	1.15728	,	1.12669	,	1.5025
RayTracingRLGpu	,	0.0384	,	1.74704	,	6.05453	,	4.12291	,	5.38691	,	5.36749	,	6.38176	,	5.85078	,	5.75571	,	5.91491	,	6.00963	,	5.79478	,	6.67459	,	6.65757	,	5.69184	,	6.09901	,	5.97354	,	6.31382	,	6.80035	,	5.78445	,	5.09523	,	7.62682	,	7.4464	,	5.73437	,	4.54195	,	2.86771	,	2.90362	,	4.20896	,	3.75146	,	7.05517	,	4.6247	,	3.37152	,	3.77677	,	5.35738	,	3.84026	,	4.37933	,	5.6585	,	4.69008	,	3.6128	,	9.1384	,	7.70666	,	5.18582	,	5.0343	,	3.45462	,	3.63702	,	5.15248	,	5.02134	,	4.95488	,	4.6831	,	3.70099	,	4.19123	,	4.78502	,	4.56269	,	4.56714	,	5.7663	,	4.24845	,	4.06726	,	4.79715	,	3.04605	,	4.89078	,	6.23616	,	7.10157	,	6.62842	,	5.20566	,	5.81472	,	7.36861	,	6.71802	,	5.75578	,	7.87802	,	7.73418	,	6.44944	,	5.76762	,	5.9488	,	3.70096	,	4.58854	,	6.91354	,	7.06042	,	8.93658	,	8.95571	,	8.66736	,	7.86029	,	5.91395	,	6.53997	,	5.06685	,	5.45443	,	10.9151	,	8.9415	,	7.7031	,	4.95299	,	4.87843	,	4.7273	,	3.12371	,	3.01597	,	3.40038	,	4.85434	,	4.02576	,	4.10931	,	3.13075	,	3.8471	,	3.14832	,	3.39024	,	2.71728	,	2.86157	,	2.78326	,	1.83674	,	3.93104	,	4.60861	,	4.66467	,	4.60138	,	4.4921	,	6.83885	,	6.11245	,	5.23274	,	4.74934	,	3.10317	,	2.1271	,	4.08774	,	4.41939	,	3.40064	,	6.12861	,	7.05184	,	11.7715	,	9.06394	,	9.10787	,	9.3592	,	8.66618	,	9.18026	,	4.80266	,	2.90125	,	3.46544	,	4.71117	,	3.16534	,	3.92864	,	4.15866	,	3.88064	,	4.30074	,	3.86774	,	4.13712	,	3.93043	,	4.19062
ResolveRLGpu	,	0.180992	,	0.38832	,	1.64429	,	0.435584	,	0.575872	,	0.64128	,	0.679424	,	0.66544	,	0.660416	,	0.664096	,	0.682592	,	0.88896	,	0.671744	,	0.65232	,	0.656704	,	0.638336	,	0.66816	,	0.650176	,	0.683904	,	0.648672	,	0.675392	,	0.709184	,	0.673152	,	0.64432	,	0.621472	,	0.66592	,	0.705088	,	0.73456	,	1.04774	,	0.75568	,	0.6416	,	0.62464	,	0.672672	,	0.707904	,	0.68352	,	0.68592	,	0.951616	,	0.707904	,	0.715776	,	0.766048	,	0.744096	,	0.647968	,	0.707072	,	0.69792	,	0.724576	,	0.7624	,	0.767328	,	0.735488	,	0.722496	,	0.75968	,	0.755296	,	0.746176	,	0.916448	,	0.758944	,	0.769952	,	0.686944	,	0.684544	,	0.730816	,	0.751456	,	0.779616	,	0.738208	,	0.715488	,	0.8808	,	0.688448	,	0.709856	,	0.686304	,	0.634304	,	0.630016	,	0.683104	,	0.651744	,	0.623872	,	0.658912	,	0.869632	,	0.609984	,	0.713664	,	0.671456	,	0.653504	,	0.66992	,	0.64256	,	0.629984	,	0.568256	,	0.594464	,	0.632096	,	0.65408	,	0.68128	,	0.747232	,	0.62496	,	0.583392	,	0.55632	,	0.662144	,	0.704288	,	0.680128	,	0.680128	,	0.680128	,	0.680128	,	0.680128	,	0.680128	,	0.487584	,	0.382976	,	0.382464	,	0.538432	,	0.60432	,	0.657472	,	0.699072	,	0.725952	,	0.761504	,	0.76128	,	0.771168	,	0.787936	,	0.791296	,	0.765216	,	0.66592	,	0.678592	,	0.671744	,	0.680352	,	0.691552	,	0.711296	,	0.768608	,	0.708704	,	0.710048	,	0.709184	,	0.72112	,	0.623136	,	0.728256	,	0.583584	,	0.654656	,	0.636768	,	0.595808	,	0.667072	,	0.706784	,	0.7432	,	0.70672	,	0.757216	,	0.75312	,	0.733024	,	0.722624	,	0.717888	,	0.768832	,	0.742848	,	0.7208
Index	,	0	,	1	,	2	,	3	,	4	,	5	,	6	,	7	,	8	,	9	,	10	,	11	,	12	,	13	,	14	,	15	,	16	,	17	,	18	,	19	,	20	,	21	,	22	,	23	,	24	,	25	,	26	,	27	,	28	,	29	,	30	,	31	,	32	,	33	,	34	,	35	,	36	,	37	,	38	,	39	,	40	,	41	,	42	,	43	,	44	,	45	,	46	,	47	,	48	,	49	,	50	,	51	,	52	,	53	,	54	,	55	,	56	,	57	,	58	,	59	,	60	,	61	,	62	,	63	,	64	,	65	,	66	,	67	,	68	,	69	,	70	,	71	,	72	,	73	,	74	,	75	,	76	,	77	,	78	,	79	,	80	,	81	,	82	,	83	,	84	,	85	,	86	,	87	,	88	,	89	,	90	,	91	,	92	,	93	,	94	,	95	,	96	,	97	,	98	,	99	,	100	,	101	,	102	,	103	,	104	,	105	,	106	,	107	,	108	,	109	,	110	,	111	,	112	,	113	,	114	,	115	,	116	,	117	,	118	,	119	,	120	,	121	,	122	,	123	,	124	,	125	,	126	,	127	,	128	,	129	,	130	,	131	,	132	,	133	,	134	,	135	,	136	,	137	,	138	,	139

ProfilingBuildAggregator: 
BuildBottomLevelAS	,	773.535
BuildBottomLevelASGpu	,	410.368
BuildTopLevelAS	,	0.792
BuildTopLevelASGpu	,	0.397664
Triangles	,	3531738
Meshes	,	3195
BottomLevels	,	2696
TopLevelSize	,	172544
BottomLevelsSize	,	209177152
Index	,	0

FpsAggregator: 
FPS	,	1	,	1	,	3	,	14	,	13	,	12	,	14	,	13	,	13	,	12	,	13	,	14	,	13	,	14	,	13	,	14	,	13	,	13	,	13	,	13	,	13	,	13	,	13	,	13	,	13	,	14	,	13	,	13	,	13	,	12	,	13	,	14	,	13	,	13	,	13	,	14	,	12	,	13	,	13	,	12	,	13	,	13	,	13	,	13	,	14	,	13	,	13	,	13	,	13	,	13	,	14	,	13	,	14	,	14	,	13	,	13	,	13	,	14	,	13	,	13	,	13	,	13	,	13	,	13	,	13	,	12	,	13	,	13	,	12	,	13	,	13	,	13	,	12	,	13	,	14	,	13	,	13	,	13	,	13	,	12	,	13	,	13	,	13	,	13	,	13	,	13	,	12	,	12	,	13	,	13	,	13	,	19	,	29	,	37	,	37	,	31	,	34	,	21	,	29	,	16	,	14	,	14	,	14	,	13	,	14	,	14	,	13	,	12	,	14	,	13	,	13	,	13	,	13	,	13	,	13	,	14	,	14	,	13	,	12	,	13	,	13	,	12	,	12	,	13	,	12	,	12	,	12	,	13	,	14	,	14	,	14	,	14	,	14	,	13	,	13	,	13	,	14	,	13	,	13	,	14
UPS	,	3773	,	765	,	7303	,	65	,	62	,	62	,	65	,	64	,	60	,	65	,	62	,	64	,	62	,	65	,	62	,	64	,	61	,	60	,	65	,	62	,	60	,	62	,	63	,	64	,	60	,	65	,	61	,	61	,	65	,	61	,	63	,	64	,	61	,	60	,	64	,	64	,	61	,	65	,	62	,	61	,	65	,	61	,	60	,	62	,	66	,	62	,	62	,	62	,	62	,	62	,	64	,	61	,	64	,	64	,	61	,	64	,	61	,	65	,	61	,	62	,	61	,	62	,	63	,	65	,	60	,	61	,	63	,	63	,	60	,	61	,	62	,	61	,	60	,	63	,	65	,	62	,	61	,	64	,	64	,	60	,	64	,	61	,	61	,	63	,	61	,	61	,	62	,	61	,	62	,	62	,	63	,	63	,	60	,	62	,	61	,	61	,	62	,	61	,	63	,	60	,	63	,	63	,	63	,	61	,	63	,	63	,	61	,	59	,	64	,	63	,	63	,	64	,	64	,	65	,	64	,	63	,	62	,	63	,	61	,	61	,	63	,	61	,	64	,	65	,	61	,	63	,	60	,	62	,	65	,	61	,	63	,	64	,	63	,	62	,	63	,	62	,	64	,	64	,	62	,	63
FrameTime	,	12753	,	120732	,	356.736	,	76.545	,	81.109	,	86.6019	,	77.2128	,	79.4474	,	79.2071	,	89.1989	,	78.8164	,	76.3909	,	79.9691	,	76.1108	,	80.5849	,	75.6196	,	78.3193	,	78.2395	,	82.571	,	79.3195	,	77.91	,	78.108	,	81.5603	,	81.6444	,	77.6375	,	76.463	,	77.9152	,	81.7109	,	80.6407	,	84.6651	,	80.804	,	76.9406	,	77.228	,	76.9263	,	81.3811	,	78.4081	,	83.5962	,	81.7291	,	80.1627	,	85.478	,	82.3101	,	78.7009	,	77.0247	,	81.0433	,	77.6005	,	78.1677	,	81.1083	,	78.4614	,	81.1637	,	77.7615	,	76.0374	,	78.4095	,	76.6124	,	75.3103	,	79.0672	,	81.8028	,	79.2281	,	75.5209	,	78.9717	,	80.6014	,	77.8099	,	79.1553	,	81.3495	,	82.1282	,	78.4612	,	83.3504	,	80.7697	,	80.4365	,	83.9338	,	78.0709	,	79.7443	,	78.3272	,	84.4285	,	79.3056	,	78.2385	,	78.7491	,	77.9849	,	81.9947	,	81.9232	,	83.904	,	81.3792	,	78.8253	,	78.3645	,	79.9836	,	77.9636	,	79.7476	,	86.8131	,	83.519	,	79.0337	,	80.0245	,	80.3608	,	52.6943	,	34.5874	,	27.5529	,	27.9256	,	33.2494	,	29.548	,	50.5823	,	35.5094	,	63.8965	,	75.0677	,	75.6314	,	74.767	,	78.3695	,	74.2458	,	76.0266	,	77.0462	,	84.2719	,	75.2164	,	80.4252	,	81.685	,	82.0931	,	81.6462	,	82.5574	,	82.1768	,	75.1086	,	74.0212	,	79.8331	,	84.3662	,	80.4319	,	80.8897	,	85.6735	,	86.798	,	83.1799	,	84.6039	,	87.6446	,	84.9701	,	78.6325	,	76.1315	,	72.8936	,	75.4261	,	78	,	74.4459	,	79.4486	,	79.085	,	79.636	,	76.5272	,	81.9996	,	79.6149	,	75.0189
GigaRays/s	,	0.000863333	,	0.000155616	,	0.0526661	,	0.245448	,	0.231637	,	0.216945	,	0.243326	,	0.236482	,	0.237199	,	0.210629	,	0.238375	,	0.245944	,	0.234939	,	0.246849	,	0.233144	,	0.248452	,	0.239888	,	0.240133	,	0.227536	,	0.236863	,	0.241148	,	0.240537	,	0.230355	,	0.230118	,	0.241995	,	0.245712	,	0.241132	,	0.229931	,	0.232982	,	0.221908	,	0.232512	,	0.244187	,	0.243278	,	0.244232	,	0.230863	,	0.239616	,	0.224745	,	0.22988	,	0.234372	,	0.219798	,	0.228257	,	0.238725	,	0.24392	,	0.231825	,	0.24211	,	0.240353	,	0.231639	,	0.239454	,	0.231481	,	0.241609	,	0.247087	,	0.239612	,	0.245233	,	0.249473	,	0.237619	,	0.229673	,	0.237136	,	0.248777	,	0.237906	,	0.233096	,	0.241459	,	0.237355	,	0.230952	,	0.228763	,	0.239454	,	0.225408	,	0.23261	,	0.233574	,	0.223841	,	0.240651	,	0.235601	,	0.239864	,	0.22253	,	0.236905	,	0.240136	,	0.238579	,	0.240916	,	0.229135	,	0.229335	,	0.223921	,	0.230868	,	0.238348	,	0.23975	,	0.234896	,	0.240983	,	0.235592	,	0.216417	,	0.224953	,	0.23772	,	0.234776	,	0.233794	,	0.331077	,	0.5044	,	0.633176	,	0.624726	,	0.524698	,	0.590424	,	0.371431	,	0.491302	,	0.294036	,	0.250279	,	0.248414	,	0.251285	,	0.239734	,	0.25305	,	0.247122	,	0.243852	,	0.222943	,	0.249784	,	0.233607	,	0.230004	,	0.22886	,	0.230113	,	0.227573	,	0.228627	,	0.250143	,	0.253817	,	0.235339	,	0.222694	,	0.233587	,	0.232265	,	0.219296	,	0.216455	,	0.22587	,	0.222068	,	0.214364	,	0.221111	,	0.238933	,	0.246782	,	0.257744	,	0.24909	,	0.24087	,	0.252369	,	0.236478	,	0.237565	,	0.235922	,	0.245506	,	0.229121	,	0.235984	,	0.250442
Index	,	0	,	1	,	2	,	3	,	4	,	5	,	6	,	7	,	8	,	9	,	10	,	11	,	12	,	13	,	14	,	15	,	16	,	17	,	18	,	19	,	20	,	21	,	22	,	23	,	24	,	25	,	26	,	27	,	28	,	29	,	30	,	31	,	32	,	33	,	34	,	35	,	36	,	37	,	38	,	39	,	40	,	41	,	42	,	43	,	44	,	45	,	46	,	47	,	48	,	49	,	50	,	51	,	52	,	53	,	54	,	55	,	56	,	57	,	58	,	59	,	60	,	61	,	62	,	63	,	64	,	65	,	66	,	67	,	68	,	69	,	70	,	71	,	72	,	73	,	74	,	75	,	76	,	77	,	78	,	79	,	80	,	81	,	82	,	83	,	84	,	85	,	86	,	87	,	88	,	89	,	90	,	91	,	92	,	93	,	94	,	95	,	96	,	97	,	98	,	99	,	100	,	101	,	102	,	103	,	104	,	105	,	106	,	107	,	108	,	109	,	110	,	111	,	112	,	113	,	114	,	115	,	116	,	117	,	118	,	119	,	120	,	121	,	122	,	123	,	124	,	125	,	126	,	127	,	128	,	129	,	130	,	131	,	132	,	133	,	134	,	135	,	136	,	137	,	138	,	139


AccelerationStructure: 
Ray tracing acceleration structure building statistics: 
	Bottom Level Acceleration Structure: 
		Maximum [B]: 6865152
		Minimum [B]: 4112
		Currently Allocated [B]: 209177152
		Currently Created [num]: 2696
		Current Average [B]: 77587
		Maximum Triangles [num]: 123080
		Minimum Triangles [num]: 2
		Total Triangles [num]: 3531738
		Maximum Meshes [num]: 6
		Minimum Meshes [num]: 1
		Total Meshes [num]: 3195
	Top Level Acceleration Structure: 
		Maximum [B]: 172544
		Minimum [B]: 172544
		Currently Allocated [B]: 172544
		Total Allocated [B]: 172544
		Total Created [num]: 1
		Average Allocated [B]: 172544
		Maximum Instances [num]: 2696
		Minimum Instances [num]: 2696
		Total Instances [num]: 2696
	Scratch Buffer: 
		Maximum [B]: 2173952
		Minimum [B]: 2173952
		Currently Allocated [B]: 2173952
		Total Allocated [B]: 2173952
		Total Created [num]: 1
		Average Allocated [B]: 2173952
ProfilingStack: 
[PROF] Profiling statistics: 
	Scopes entered : 62650
	Scopes exited : 62650
	Overhead per scope [ticks] : 164.5
	Threads entered : 3
	Threads exited : 0
	============================
		         Sum[Mt]   Parent[%]  Samples[num]       Avg[Mt]   Last/Curr[Mt]        Self[Mt]     Self[%] 	 Name

	main:

		  341080.361 Mt   100.000 %         1 x   341080.362 Mt   341080.361 Mt   203911.578 Mt    59.784 % 	 /

		     265.072 Mt     0.078 %         1 x      265.072 Mt        0.000 Mt        1.145 Mt     0.432 % 	 ./Initialize

		       3.302 Mt     1.246 %         1 x        3.302 Mt        0.000 Mt        3.302 Mt   100.000 % 	 ../TexturedRLInitialization

		       1.682 Mt     0.635 %         1 x        1.682 Mt        0.000 Mt        1.682 Mt   100.000 % 	 ../ShadowMapRLInitialization

		       7.674 Mt     2.895 %         1 x        7.674 Mt        0.000 Mt        7.674 Mt   100.000 % 	 ../AmbientOcclusionRLInitialization

		       5.214 Mt     1.967 %         1 x        5.214 Mt        0.000 Mt        5.214 Mt   100.000 % 	 ../RasterResolveRLInitialization

		      13.205 Mt     4.982 %         1 x       13.205 Mt        0.000 Mt       13.205 Mt   100.000 % 	 ../DeferredRLInitialization

		     227.084 Mt    85.669 %         1 x      227.084 Mt        0.000 Mt        1.681 Mt     0.740 % 	 ../RayTracingRLInitialization

		     225.403 Mt    99.260 %         1 x      225.403 Mt        0.000 Mt      225.403 Mt   100.000 % 	 .../PipelineBuild

		       5.766 Mt     2.175 %         1 x        5.766 Mt        0.000 Mt        5.766 Mt   100.000 % 	 ../ResolveRLInitialization

		  136903.709 Mt    40.138 %      1944 x       70.424 Mt       64.361 Mt      196.997 Mt     0.144 % 	 ./Run

		   13806.450 Mt    10.085 %     20446 x        0.675 Mt        0.107 Mt     8096.394 Mt    58.642 % 	 ../Update

		    1253.947 Mt     9.082 %         1 x     1253.947 Mt        0.000 Mt     1168.586 Mt    93.193 % 	 .../ScenePrep

		      85.361 Mt     6.807 %         1 x       85.361 Mt        0.000 Mt       85.361 Mt   100.000 % 	 ..../SceneDesc-CreateScene

		    4456.108 Mt    32.276 %      3576 x        1.246 Mt        0.000 Mt     1629.196 Mt    36.561 % 	 .../AccelerationStructureBuild

		    1111.940 Mt    24.953 %      3576 x        0.311 Mt        0.000 Mt     1111.940 Mt   100.000 % 	 ..../BuildBottomLevelAS

		    1714.973 Mt    38.486 %      3576 x        0.480 Mt        0.000 Mt     1714.973 Mt   100.000 % 	 ..../BuildTopLevelAS

		  122900.263 Mt    89.771 %      1944 x       63.220 Mt       63.567 Mt        2.749 Mt     0.002 % 	 ../Render

		  122897.513 Mt    99.998 %      1944 x       63.219 Mt       63.566 Mt    28075.888 Mt    22.845 % 	 .../Render

		   94821.625 Mt    77.155 %      1944 x       48.777 Mt       50.840 Mt    93868.305 Mt    98.995 % 	 ..../RayTracing

		      57.489 Mt     0.061 %      1723 x        0.033 Mt        0.003 Mt        2.444 Mt     4.251 % 	 ...../DeferredRLPrep

		      55.045 Mt    95.749 %         1 x       55.045 Mt        0.000 Mt        4.181 Mt     7.595 % 	 ....../PrepareForRendering

		       0.998 Mt     1.814 %         1 x        0.998 Mt        0.000 Mt        0.998 Mt   100.000 % 	 ......./PrepareMaterials

		       2.991 Mt     5.433 %         1 x        2.991 Mt        0.000 Mt        2.991 Mt   100.000 % 	 ......./BuildMaterialCache

		      46.876 Mt    85.158 %         1 x       46.876 Mt        0.000 Mt       46.876 Mt   100.000 % 	 ......./PrepareDrawBundle

		     895.831 Mt     0.945 %      1944 x        0.461 Mt        0.004 Mt       15.332 Mt     1.711 % 	 ...../RayTracingRLPrep

		      82.823 Mt     9.245 %         1 x       82.823 Mt        0.000 Mt       82.823 Mt   100.000 % 	 ....../PrepareAccelerationStructures

		       0.980 Mt     0.109 %         1 x        0.980 Mt        0.000 Mt        0.980 Mt   100.000 % 	 ....../PrepareCache

		       8.133 Mt     0.908 %         1 x        8.133 Mt        0.000 Mt        8.133 Mt   100.000 % 	 ....../BuildCache

		     782.300 Mt    87.327 %         1 x      782.300 Mt        0.000 Mt        0.002 Mt     0.000 % 	 ....../BuildAccelerationStructures

		     782.298 Mt   100.000 %         1 x      782.298 Mt        0.000 Mt        7.971 Mt     1.019 % 	 ......./AccelerationStructureBuild

		     773.535 Mt    98.880 %         1 x      773.535 Mt        0.000 Mt      773.535 Mt   100.000 % 	 ......../BuildBottomLevelAS

		       0.792 Mt     0.101 %         1 x        0.792 Mt        0.000 Mt        0.792 Mt   100.000 % 	 ......../BuildTopLevelAS

		       6.263 Mt     0.699 %         1 x        6.263 Mt        0.000 Mt        6.263 Mt   100.000 % 	 ....../BuildShaderTables

		       0.001 Mt     0.000 %         1 x        0.001 Mt        0.001 Mt        0.001 Mt   100.000 % 	 ./Destroy

	WindowThread:

		  341078.383 Mt   100.000 %         1 x   341078.383 Mt   341078.383 Mt   341078.383 Mt   100.000 % 	 /

	GpuThread:

		   15245.215 Mt   100.000 %      5519 x        2.762 Mt        5.629 Mt       -0.077 Mt    -0.001 % 	 /

		    1447.326 Mt     9.494 %      3576 x        0.405 Mt        0.000 Mt        7.222 Mt     0.499 % 	 ./AccelerationStructureBuild

		     975.328 Mt    67.388 %      3576 x        0.273 Mt        0.000 Mt      975.328 Mt   100.000 % 	 ../BuildBottomLevelASGpu

		     464.776 Mt    32.113 %      3576 x        0.130 Mt        0.000 Mt      464.776 Mt   100.000 % 	 ../BuildTopLevelASGpu

		   13780.781 Mt    90.394 %      1944 x        7.089 Mt        5.625 Mt        7.737 Mt     0.056 % 	 ./RayTracingGpu

		    2055.386 Mt    14.915 %      1723 x        1.193 Mt        1.104 Mt     2055.386 Mt   100.000 % 	 ../DeferredRLGpu

		     410.767 Mt     2.981 %         1 x      410.767 Mt        0.000 Mt        0.001 Mt     0.000 % 	 ../AccelerationStructureBuild

		     410.368 Mt    99.903 %         1 x      410.368 Mt        0.000 Mt      410.368 Mt   100.000 % 	 .../BuildBottomLevelASGpu

		       0.398 Mt     0.097 %         1 x        0.398 Mt        0.000 Mt        0.398 Mt   100.000 % 	 .../BuildTopLevelASGpu

		   10117.965 Mt    73.421 %      1944 x        5.205 Mt        3.799 Mt    10117.965 Mt   100.000 % 	 ../RayTracingRLGpu

		    1188.926 Mt     8.627 %      1723 x        0.690 Mt        0.718 Mt     1188.926 Mt   100.000 % 	 ../ResolveRLGpu

		      17.185 Mt     0.113 %      1944 x        0.009 Mt        0.002 Mt       17.185 Mt   100.000 % 	 ./Present


	============================


