Configuration: 
Command line parameters  = E:\programming\FIT-DIP\Masters-DXR-Main-git\build\Measurement\x64\Debug\Measurement.exe --scene Cube/Cube.gltf --duplication-cube --duplication-offset 2.5 --profile-triangles --profile-camera-track Cube/CubeFast.trk --profile-max-duplication 10 --rt-mode --width 1024 --height 768 --profile-output TrianglesCube768Rt 
Window width             = 1024
Window height            = 768
Window title             = Direct3D App
Back-buffer count        = 3
Fill Triangles           = enabled
Triangles Font Clock-Wise= enabled
Fast Build AS            = disabled
Target FPS               = 0
Target UPS               = 60
Tearing                  = enabled
VSync                    = disabled
GUI rendering            = disabled
Debug layer              = enabled
GPU validation           = disabled
GPU profiling            = enabled
Render mode              = Ray Tracing
Loaded scene file        = Cube/Cube.gltf
Using testing scene      = disabled
Duplication              = 10
Duplication in cube      = enabled
Duplication offset       = 2.5
BLAS duplication         = enabled
Rays per pixel           = 14
Quality preset           = High
Rasterization Quality    : 
  AO                     = enabled
  AO kernel size         = 4
  Shadows                = enabled
  Shadow map resolution  = 4096
  Shadow PCF kernel size = 4
  Reflections            = enabled
Ray Tracing Quality      : 
  AO                     = enabled
  AO rays                = 4
  AO kernel size         = 4
  Shadows                = enabled
  Shadow rays            = 4
  Shadow kernel size     = 4
  Reflections            = enabled

ProfilingAggregator: 
Render	,	4.218	,	4.218	,	3.8567	,	3.8567	,	4.2128	,	4.2128	,	4.1272	,	4.1272	,	3.5964	,	3.5964	,	2.9641	,	3.8825	,	3.8825	,	3.5676	,	3.5676	,	4.0239	,	4.0239	,	4.7374	,	4.7374	,	3.6351	,	3.6351	,	3.0627	,	4.6954	,	4.6954	,	4.0249	,	4.0249	,	4.7763	,	4.7763	,	4.5479	,	4.5479	,	3.4465	,	3.4465	,	3.8181	,	5.1223	,	5.1223	,	4.4636	,	4.4636	,	4.651	,	4.651	,	4.5415	,	4.5415	,	4.0806	,	4.0806	,	3.8217	,	5.4487	,	5.4487	,	5.1174	,	5.1174	,	5.8185	,	5.8185	,	5.3106	,	5.3106	,	4.5288	,	4.5288	,	4.3137	,	7.8056	,	7.8056	,	7.1926	,	7.1926	,	7.6557	,	7.6557	,	6.3264	,	6.3264	,	5.7931	,	5.7931	,	4.8922	,	8.5907	,	8.5907	,	7.4552	,	7.4552	,	7.8145	,	7.8145	,	9.0576	,	9.0576	,	7.759	,	7.759	,	6.0487	,	9.6521	,	9.6521	,	8.97	,	8.97	,	9.3275	,	9.3275	,	9.5157	,	9.5157	,	9.6555	,	9.6555	,	7.5685	,	11.7359	,	11.7359	,	10.8933	,	10.8933	,	12.8256	,	12.8256	,	13.9969	,	13.9969	,	12.1861	,	12.1861	,	10.0308	,	14.5212	,	14.5212	,	13.5026	,	13.5026	,	14.934	,	14.934	,	13.8461	,	13.8461	,	15.8569	,	15.8569	,	14.7038
Update	,	0.719	,	0.719	,	0.9296	,	0.9296	,	0.7069	,	0.7069	,	0.577	,	0.577	,	0.557	,	0.557	,	0.4905	,	0.4827	,	0.4827	,	0.4955	,	0.4955	,	0.4791	,	0.4791	,	0.4796	,	0.4796	,	1.0276	,	1.0276	,	0.7651	,	0.5926	,	0.5926	,	0.9309	,	0.9309	,	0.8364	,	0.8364	,	0.8043	,	0.8043	,	1.1455	,	1.1455	,	0.5612	,	0.7747	,	0.7747	,	0.5325	,	0.5325	,	0.8225	,	0.8225	,	0.9326	,	0.9326	,	0.5839	,	0.5839	,	0.8027	,	0.8059	,	0.8059	,	0.6012	,	0.6012	,	1.151	,	1.151	,	0.8343	,	0.8343	,	0.9823	,	0.9823	,	0.7484	,	1.0525	,	1.0525	,	1.1847	,	1.1847	,	1.0491	,	1.0491	,	1.03	,	1.03	,	1.1905	,	1.1905	,	0.704	,	0.8109	,	0.8109	,	1.55	,	1.55	,	1.0784	,	1.0784	,	0.9909	,	0.9909	,	1.4522	,	1.4522	,	0.8192	,	1.0151	,	1.0151	,	1.1209	,	1.1209	,	1.1989	,	1.1989	,	1.0348	,	1.0348	,	1.3415	,	1.3415	,	1.1513	,	1.7344	,	1.7344	,	1.5835	,	1.5835	,	1.8657	,	1.8657	,	1.451	,	1.451	,	1.9637	,	1.9637	,	1.2967	,	1.8604	,	1.8604	,	1.653	,	1.653	,	2.0172	,	2.0172	,	1.9114	,	1.9114	,	1.9764	,	1.9764	,	1.8299
RayTracing	,	1.4728	,	1.4728	,	1.393	,	1.393	,	1.5004	,	1.5004	,	1.4783	,	1.4783	,	1.6143	,	1.6143	,	1.2719	,	1.3063	,	1.3063	,	1.2957	,	1.2957	,	1.2963	,	1.2963	,	1.7604	,	1.7604	,	1.4064	,	1.4064	,	1.2797	,	1.4297	,	1.4297	,	1.4167	,	1.4167	,	1.7246	,	1.7246	,	1.6725	,	1.6725	,	1.4097	,	1.4097	,	1.5989	,	1.7879	,	1.7879	,	1.6975	,	1.6975	,	1.6816	,	1.6816	,	1.6628	,	1.6628	,	1.7449	,	1.7449	,	1.7174	,	2.1455	,	2.1455	,	2.0439	,	2.0439	,	2.4186	,	2.4186	,	2.0399	,	2.0399	,	2.048	,	2.048	,	2.0244	,	3.3319	,	3.3319	,	3.231	,	3.231	,	3.5508	,	3.5508	,	2.6566	,	2.6566	,	2.8094	,	2.8094	,	2.6457	,	3.4437	,	3.4437	,	3.5485	,	3.5485	,	3.42	,	3.42	,	4.0882	,	4.0882	,	4.0755	,	4.0755	,	3.4063	,	4.4904	,	4.4904	,	4.5423	,	4.5423	,	4.4741	,	4.4741	,	4.5197	,	4.5197	,	5.3417	,	5.3417	,	4.5643	,	6.0092	,	6.0092	,	5.9011	,	5.9011	,	6.9751	,	6.9751	,	7.1126	,	7.1126	,	7.0895	,	7.0895	,	5.9235	,	8.9227	,	8.9227	,	7.763	,	7.763	,	8.5804	,	8.5804	,	7.7392	,	7.7392	,	8.9533	,	8.9533	,	9.0845
RayTracingGpu	,	1.34323	,	1.34323	,	1.19133	,	1.19133	,	1.52141	,	1.52141	,	1.54387	,	1.54387	,	0.94336	,	0.94336	,	0.832256	,	1.66074	,	1.66074	,	1.46637	,	1.46637	,	1.65574	,	1.65574	,	1.64419	,	1.64419	,	1.07715	,	1.07715	,	0.910016	,	1.92989	,	1.92989	,	1.62742	,	1.62742	,	1.76934	,	1.76934	,	1.76618	,	1.76618	,	1.12774	,	1.12774	,	0.915584	,	1.96237	,	1.96237	,	1.66224	,	1.66224	,	1.85584	,	1.85584	,	1.89469	,	1.89469	,	1.15661	,	1.15661	,	0.951008	,	2.42195	,	2.42195	,	1.99792	,	1.99792	,	2.1312	,	2.1312	,	2.21046	,	2.21046	,	1.41059	,	1.41059	,	1.10477	,	2.94384	,	2.94384	,	2.39565	,	2.39565	,	2.60154	,	2.60154	,	2.65405	,	2.65405	,	1.70179	,	1.70179	,	1.06874	,	3.87133	,	3.87133	,	2.91379	,	2.91379	,	3.09712	,	3.09712	,	3.28157	,	3.28157	,	2.29942	,	2.29942	,	1.44637	,	3.81008	,	3.81008	,	3.17862	,	3.17862	,	3.54304	,	3.54304	,	3.72576	,	3.72576	,	2.77389	,	2.77389	,	1.83075	,	4.2471	,	4.2471	,	3.83539	,	3.83539	,	4.50893	,	4.50893	,	5.64381	,	5.64381	,	3.55629	,	3.55629	,	2.37514	,	4.21971	,	4.21971	,	4.24477	,	4.24477	,	4.8224	,	4.8224	,	4.95494	,	4.95494	,	4.96118	,	4.96118	,	3.79888
DeferredRLGpu	,	0.106304	,	0.106304	,	0.079008	,	0.079008	,	0.12	,	0.12	,	0.122592	,	0.122592	,	0.057056	,	0.057056	,	0.02512	,	0.235904	,	0.235904	,	0.121856	,	0.121856	,	0.15312	,	0.15312	,	0.179456	,	0.179456	,	0.09856	,	0.09856	,	0.044736	,	0.278016	,	0.278016	,	0.174176	,	0.174176	,	0.233056	,	0.233056	,	0.267008	,	0.267008	,	0.14288	,	0.14288	,	0.06256	,	0.4544	,	0.4544	,	0.209248	,	0.209248	,	0.262912	,	0.262912	,	0.293856	,	0.293856	,	0.185888	,	0.185888	,	0.079808	,	0.511072	,	0.511072	,	0.300512	,	0.300512	,	0.385632	,	0.385632	,	0.431104	,	0.431104	,	0.27232	,	0.27232	,	0.11568	,	0.732864	,	0.732864	,	0.401632	,	0.401632	,	0.505472	,	0.505472	,	0.56576	,	0.56576	,	0.38848	,	0.38848	,	0.134048	,	1.02957	,	1.02957	,	0.579648	,	0.579648	,	0.728096	,	0.728096	,	0.836928	,	0.836928	,	0.586592	,	0.586592	,	0.212992	,	1.14387	,	1.14387	,	0.679616	,	0.679616	,	0.912384	,	0.912384	,	1.06563	,	1.06563	,	0.790848	,	0.790848	,	0.295904	,	1.38733	,	1.38733	,	0.916288	,	0.916288	,	1.22291	,	1.22291	,	1.72931	,	1.72931	,	1.12218	,	1.12218	,	0.435296	,	0.960256	,	0.960256	,	1.28403	,	1.28403	,	1.6009	,	1.6009	,	1.69341	,	1.69341	,	1.44893	,	1.44893	,	1.19293
RayTracingRLGpu	,	0.596736	,	0.596736	,	0.5056	,	0.5056	,	0.78752	,	0.78752	,	0.81584	,	0.81584	,	0.302048	,	0.302048	,	0.136192	,	0.746048	,	0.746048	,	0.705376	,	0.705376	,	0.857472	,	0.857472	,	0.83728	,	0.83728	,	0.37488	,	0.37488	,	0.1648	,	0.968256	,	0.968256	,	0.828704	,	0.828704	,	0.915776	,	0.915776	,	0.899168	,	0.899168	,	0.395456	,	0.395456	,	0.182848	,	0.833952	,	0.833952	,	0.839552	,	0.839552	,	0.97392	,	0.97392	,	1.01382	,	1.01382	,	0.402464	,	0.402464	,	0.193248	,	1.13747	,	1.13747	,	0.99568	,	0.99568	,	1.05517	,	1.05517	,	1.09901	,	1.09901	,	0.482528	,	0.482528	,	0.222048	,	1.32163	,	1.32163	,	1.20432	,	1.20432	,	1.30886	,	1.30886	,	1.30477	,	1.30477	,	0.57024	,	0.57024	,	0.216288	,	1.7439	,	1.7439	,	1.31309	,	1.31309	,	1.35213	,	1.35213	,	1.41344	,	1.41344	,	0.743744	,	0.743744	,	0.288928	,	1.61139	,	1.61139	,	1.41693	,	1.41693	,	1.53744	,	1.53744	,	1.54739	,	1.54739	,	0.886336	,	0.886336	,	0.370752	,	1.70941	,	1.70941	,	1.69309	,	1.69309	,	1.81536	,	1.81536	,	2.58941	,	2.58941	,	1.10211	,	1.10211	,	0.482688	,	1.95533	,	1.95533	,	1.74819	,	1.74819	,	1.90493	,	1.90493	,	1.91974	,	1.91974	,	1.38787	,	1.38787	,	0.673088
ResolveRLGpu	,	0.63888	,	0.63888	,	0.605344	,	0.605344	,	0.61264	,	0.61264	,	0.604064	,	0.604064	,	0.5832	,	0.5832	,	0.669664	,	0.677408	,	0.677408	,	0.636544	,	0.636544	,	0.64368	,	0.64368	,	0.624576	,	0.624576	,	0.601088	,	0.601088	,	0.698272	,	0.68224	,	0.68224	,	0.623008	,	0.623008	,	0.617728	,	0.617728	,	0.597664	,	0.597664	,	0.586976	,	0.586976	,	0.66896	,	0.672992	,	0.672992	,	0.612512	,	0.612512	,	0.617792	,	0.617792	,	0.585728	,	0.585728	,	0.567296	,	0.567296	,	0.676352	,	0.771808	,	0.771808	,	0.700096	,	0.700096	,	0.689024	,	0.689024	,	0.678848	,	0.678848	,	0.6544	,	0.6544	,	0.765664	,	0.887104	,	0.887104	,	0.787584	,	0.787584	,	0.784768	,	0.784768	,	0.781888	,	0.781888	,	0.741728	,	0.741728	,	0.716704	,	1.09581	,	1.09581	,	1.01853	,	1.01853	,	1.01443	,	1.01443	,	1.02867	,	1.02867	,	0.966656	,	0.966656	,	0.941728	,	1.05251	,	1.05251	,	1.07981	,	1.07981	,	1.09043	,	1.09043	,	1.11021	,	1.11021	,	1.09418	,	1.09418	,	1.16157	,	1.14781	,	1.14781	,	1.22298	,	1.22298	,	1.46813	,	1.46813	,	1.32256	,	1.32256	,	1.32944	,	1.32944	,	1.45462	,	1.30186	,	1.30186	,	1.21005	,	1.21005	,	1.31405	,	1.31405	,	1.33955	,	1.33955	,	2.12061	,	2.12061	,	1.92806
Index	,	0	,	1	,	2	,	3	,	4	,	5	,	6	,	7	,	8	,	9	,	10	,	11	,	12	,	13	,	14	,	15	,	16	,	17	,	18	,	19	,	20	,	21	,	22	,	23	,	24	,	25	,	26	,	27	,	28	,	29	,	30	,	31	,	32	,	33	,	34	,	35	,	36	,	37	,	38	,	39	,	40	,	41	,	42	,	43	,	44	,	45	,	46	,	47	,	48	,	49	,	50	,	51	,	52	,	53	,	54	,	55	,	56	,	57	,	58	,	59	,	60	,	61	,	62	,	63	,	64	,	65	,	66	,	67	,	68	,	69	,	70	,	71	,	72	,	73	,	74	,	75	,	76	,	77	,	78	,	79	,	80	,	81	,	82	,	83	,	84	,	85	,	86	,	87	,	88	,	89	,	90	,	91	,	92	,	93	,	94	,	95	,	96	,	97	,	98	,	99	,	100	,	101	,	102	,	103	,	104	,	105	,	106	,	107	,	108	,	109

ProfilingBuildAggregator: 
BuildBottomLevelAS	,	1.0002	,	2.0093	,	6.4919	,	15.1087	,	29.1426	,	50.6183	,	82.5222	,	112.55	,	176.1	,	231.048
BuildBottomLevelASGpu	,	0.091584	,	0.805024	,	2.76032	,	7.40726	,	14.127	,	28.2199	,	50.969	,	99.1786	,	187.635	,	107.123
BuildTopLevelAS	,	1.0556	,	0.6245	,	0.7227	,	0.6371	,	0.65	,	0.6843	,	0.7202	,	0.7109	,	0.8942	,	0.7108
BuildTopLevelASGpu	,	0.06064	,	0.089376	,	0.124768	,	0.135392	,	0.177408	,	0.285984	,	0.260992	,	0.384256	,	0.259328	,	0.30208
Duplication	,	1	,	2	,	3	,	4	,	5	,	6	,	7	,	8	,	9	,	10
Triangles	,	12	,	96	,	324	,	768	,	1500	,	2592	,	4116	,	6144	,	8748	,	12000
Meshes	,	1	,	8	,	27	,	64	,	125	,	216	,	343	,	512	,	729	,	1000
BottomLevels	,	1	,	8	,	27	,	64	,	125	,	216	,	343	,	512	,	729	,	1000
TopLevelSize	,	64	,	512	,	1728	,	4096	,	8000	,	13824	,	21952	,	32768	,	46656	,	64000
BottomLevelsSize	,	5168	,	41344	,	139536	,	330752	,	646000	,	1116288	,	1772624	,	2646016	,	3767472	,	5168000
Index	,	0	,	1	,	2	,	3	,	4	,	5	,	6	,	7	,	8	,	9

FpsAggregator: 
FPS	,	239	,	239	,	249	,	249	,	242	,	242	,	233	,	233	,	255	,	255	,	311	,	222	,	222	,	220	,	220	,	227	,	227	,	224	,	224	,	242	,	242	,	266	,	201	,	201	,	201	,	201	,	208	,	208	,	207	,	207	,	225	,	225	,	256	,	196	,	196	,	194	,	194	,	193	,	193	,	197	,	197	,	213	,	213	,	241	,	165	,	165	,	163	,	163	,	170	,	170	,	167	,	167	,	182	,	182	,	199	,	134	,	134	,	134	,	134	,	140	,	140	,	138	,	138	,	147	,	147	,	175	,	106	,	106	,	110	,	110	,	114	,	114	,	110	,	110	,	116	,	116	,	137	,	98	,	98	,	95	,	95	,	98	,	98	,	93	,	93	,	95	,	95	,	106	,	78	,	78	,	75	,	75	,	74	,	74	,	70	,	70	,	73	,	73	,	86	,	65	,	65	,	64	,	64	,	59	,	59	,	59	,	59	,	64	,	64	,	62
UPS	,	60	,	60	,	60	,	60	,	61	,	61	,	60	,	60	,	60	,	60	,	60	,	60	,	60	,	61	,	61	,	60	,	60	,	60	,	60	,	60	,	60	,	61	,	60	,	60	,	60	,	60	,	60	,	60	,	61	,	61	,	60	,	60	,	60	,	60	,	60	,	61	,	61	,	60	,	60	,	60	,	60	,	60	,	60	,	60	,	61	,	61	,	60	,	60	,	60	,	60	,	60	,	60	,	60	,	60	,	60	,	60	,	60	,	60	,	60	,	60	,	60	,	61	,	61	,	60	,	60	,	60	,	61	,	61	,	60	,	60	,	60	,	60	,	60	,	60	,	61	,	61	,	60	,	60	,	60	,	60	,	60	,	61	,	61	,	60	,	60	,	60	,	60	,	61	,	60	,	60	,	61	,	61	,	60	,	60	,	60	,	60	,	61	,	61	,	60	,	61	,	61	,	61	,	61	,	60	,	60	,	60	,	60	,	61	,	61	,	60
FrameTime	,	4.1848	,	4.1848	,	4.01793	,	4.01793	,	4.14179	,	4.14179	,	4.30368	,	4.30368	,	3.93561	,	3.93561	,	3.2182	,	4.51222	,	4.51222	,	4.55928	,	4.55928	,	4.42105	,	4.42105	,	4.48522	,	4.48522	,	4.14433	,	4.14433	,	3.77173	,	4.9866	,	4.9866	,	4.97762	,	4.97762	,	4.82169	,	4.82169	,	4.85198	,	4.85198	,	4.44685	,	4.44685	,	3.90954	,	5.11077	,	5.11077	,	5.15835	,	5.15835	,	5.1835	,	5.1835	,	5.09635	,	5.09635	,	4.70598	,	4.70598	,	4.15966	,	6.07006	,	6.07006	,	6.15552	,	6.15552	,	5.89175	,	5.89175	,	6.01551	,	6.01551	,	5.50369	,	5.50369	,	5.03498	,	7.47598	,	7.47598	,	7.47292	,	7.47292	,	7.17036	,	7.17036	,	7.29065	,	7.29065	,	6.8234	,	6.8234	,	5.72282	,	9.46734	,	9.46734	,	9.16123	,	9.16123	,	8.79018	,	8.79018	,	9.1481	,	9.1481	,	8.65274	,	8.65274	,	7.33781	,	10.278	,	10.278	,	10.5349	,	10.5349	,	10.2769	,	10.2769	,	10.7808	,	10.7808	,	10.6241	,	10.6241	,	9.46657	,	12.8572	,	12.8572	,	13.4932	,	13.4932	,	13.5581	,	13.5581	,	14.3475	,	14.3475	,	13.8596	,	13.8596	,	11.7206	,	15.6128	,	15.6128	,	15.7729	,	15.7729	,	16.9595	,	16.9595	,	17.0991	,	17.0991	,	15.8954	,	15.8954	,	16.1645
GigaRays/s	,	2.63096	,	2.63096	,	2.74023	,	2.74023	,	2.65828	,	2.65828	,	2.55829	,	2.55829	,	2.79755	,	2.79755	,	3.42118	,	2.44005	,	2.44005	,	2.41487	,	2.41487	,	2.49037	,	2.49037	,	2.45474	,	2.45474	,	2.65665	,	2.65665	,	2.9191	,	2.20793	,	2.20793	,	2.21191	,	2.21191	,	2.28344	,	2.28344	,	2.26918	,	2.26918	,	2.47592	,	2.47592	,	2.8162	,	2.15428	,	2.15428	,	2.13441	,	2.13441	,	2.12406	,	2.12406	,	2.16038	,	2.16038	,	2.33959	,	2.33959	,	2.64686	,	1.81383	,	1.81383	,	1.78865	,	1.78865	,	1.86872	,	1.86872	,	1.83028	,	1.83028	,	2.00049	,	2.00049	,	2.18671	,	1.47272	,	1.47272	,	1.47333	,	1.47333	,	1.53549	,	1.53549	,	1.51016	,	1.51016	,	1.61357	,	1.61357	,	1.92388	,	1.16295	,	1.16295	,	1.20181	,	1.20181	,	1.25254	,	1.25254	,	1.20353	,	1.20353	,	1.27243	,	1.27243	,	1.50046	,	1.07123	,	1.07123	,	1.0451	,	1.0451	,	1.07134	,	1.07134	,	1.02127	,	1.02127	,	1.03632	,	1.03632	,	1.16305	,	0.856332	,	0.856332	,	0.815969	,	0.815969	,	0.812064	,	0.812064	,	0.767386	,	0.767386	,	0.794401	,	0.794401	,	0.939379	,	0.705193	,	0.705193	,	0.698034	,	0.698034	,	0.649198	,	0.649198	,	0.643896	,	0.643896	,	0.692657	,	0.692657	,	0.681127
Duplication	,	1	,	1	,	1	,	1	,	1	,	1	,	1	,	1	,	1	,	1	,	1	,	2	,	2	,	2	,	2	,	2	,	2	,	2	,	2	,	2	,	2	,	2	,	3	,	3	,	3	,	3	,	3	,	3	,	3	,	3	,	3	,	3	,	3	,	4	,	4	,	4	,	4	,	4	,	4	,	4	,	4	,	4	,	4	,	4	,	5	,	5	,	5	,	5	,	5	,	5	,	5	,	5	,	5	,	5	,	5	,	6	,	6	,	6	,	6	,	6	,	6	,	6	,	6	,	6	,	6	,	6	,	7	,	7	,	7	,	7	,	7	,	7	,	7	,	7	,	7	,	7	,	7	,	8	,	8	,	8	,	8	,	8	,	8	,	8	,	8	,	8	,	8	,	8	,	9	,	9	,	9	,	9	,	9	,	9	,	9	,	9	,	9	,	9	,	9	,	10	,	10	,	10	,	10	,	10	,	10	,	10	,	10	,	10	,	10	,	10
Index	,	0	,	1	,	2	,	3	,	4	,	5	,	6	,	7	,	8	,	9	,	10	,	11	,	12	,	13	,	14	,	15	,	16	,	17	,	18	,	19	,	20	,	21	,	22	,	23	,	24	,	25	,	26	,	27	,	28	,	29	,	30	,	31	,	32	,	33	,	34	,	35	,	36	,	37	,	38	,	39	,	40	,	41	,	42	,	43	,	44	,	45	,	46	,	47	,	48	,	49	,	50	,	51	,	52	,	53	,	54	,	55	,	56	,	57	,	58	,	59	,	60	,	61	,	62	,	63	,	64	,	65	,	66	,	67	,	68	,	69	,	70	,	71	,	72	,	73	,	74	,	75	,	76	,	77	,	78	,	79	,	80	,	81	,	82	,	83	,	84	,	85	,	86	,	87	,	88	,	89	,	90	,	91	,	92	,	93	,	94	,	95	,	96	,	97	,	98	,	99	,	100	,	101	,	102	,	103	,	104	,	105	,	106	,	107	,	108	,	109


AccelerationStructure: 
Ray tracing acceleration structure building statistics: 
	Bottom Level Acceleration Structure: 
		Maximum [B]: 5168
		Minimum [B]: 5168
		Currently Allocated [B]: 5168000
		Currently Created [num]: 1000
		Current Average [B]: 5168
		Maximum Triangles [num]: 12
		Minimum Triangles [num]: 12
		Total Triangles [num]: 12000
		Maximum Meshes [num]: 1
		Minimum Meshes [num]: 1
		Total Meshes [num]: 1000
	Top Level Acceleration Structure: 
		Maximum [B]: 64000
		Minimum [B]: 64000
		Currently Allocated [B]: 64000
		Total Allocated [B]: 64000
		Total Created [num]: 1
		Average Allocated [B]: 64000
		Maximum Instances [num]: 1000
		Minimum Instances [num]: 1000
		Total Instances [num]: 1000
	Scratch Buffer: 
		Maximum [B]: 79360
		Minimum [B]: 79360
		Currently Allocated [B]: 79360
		Total Allocated [B]: 79360
		Total Created [num]: 1
		Average Allocated [B]: 79360
ProfilingStack: 
[PROF] Profiling statistics: 
	Scopes entered : 150078
	Scopes exited : 150077
	Overhead per scope [ticks] : 1023
	Threads entered : 3
	Threads exited : 0
	============================
		         Sum[Mt]   Parent[%]  Samples[num]       Avg[Mt]   Last/Curr[Mt]        Self[Mt]     Self[%] 	 Name

	main:

		   91733.523 Mt   100.000 %         1 x    91733.524 Mt    91733.522 Mt        0.718 Mt     0.001 % 	 /

		   91732.850 Mt    99.999 %         1 x    91732.852 Mt    91732.850 Mt      404.159 Mt     0.441 % 	 ./Main application loop

		       2.953 Mt     0.003 %         1 x        2.953 Mt        0.000 Mt        2.953 Mt   100.000 % 	 ../TexturedRLInitialization

		       2.403 Mt     0.003 %         1 x        2.403 Mt        0.000 Mt        2.403 Mt   100.000 % 	 ../ShadowMapRLInitialization

		       4.250 Mt     0.005 %         1 x        4.250 Mt        0.000 Mt        4.250 Mt   100.000 % 	 ../AmbientOcclusionRLInitialization

		       5.108 Mt     0.006 %         1 x        5.108 Mt        0.000 Mt        5.108 Mt   100.000 % 	 ../RasterResolveRLInitialization

		     155.393 Mt     0.169 %         1 x      155.393 Mt        0.000 Mt       12.855 Mt     8.273 % 	 ../Initialization

		     142.538 Mt    91.727 %         1 x      142.538 Mt        0.000 Mt        3.876 Mt     2.719 % 	 .../ScenePrep

		     103.056 Mt    72.301 %         1 x      103.056 Mt        0.000 Mt       14.844 Mt    14.404 % 	 ..../SceneLoad

		      58.368 Mt    56.637 %         1 x       58.368 Mt        0.000 Mt       13.526 Mt    23.173 % 	 ...../glTF-LoadScene

		      44.842 Mt    76.827 %         2 x       22.421 Mt        0.000 Mt       44.842 Mt   100.000 % 	 ....../glTF-LoadImageData

		      13.566 Mt    13.164 %         1 x       13.566 Mt        0.000 Mt       13.566 Mt   100.000 % 	 ...../glTF-CreateScene

		      16.278 Mt    15.795 %         1 x       16.278 Mt        0.000 Mt       16.278 Mt   100.000 % 	 ...../SceneDesc-CreateScene

		       2.492 Mt     1.748 %         1 x        2.492 Mt        0.000 Mt        0.005 Mt     0.193 % 	 ..../ShadowMapRLPrep

		       2.487 Mt    99.807 %         1 x        2.487 Mt        0.000 Mt        2.428 Mt    97.628 % 	 ...../PrepareForRendering

		       0.059 Mt     2.372 %         1 x        0.059 Mt        0.000 Mt        0.059 Mt   100.000 % 	 ....../PrepareDrawBundle

		       2.715 Mt     1.905 %         1 x        2.715 Mt        0.000 Mt        0.004 Mt     0.166 % 	 ..../TexturedRLPrep

		       2.711 Mt    99.834 %         1 x        2.711 Mt        0.000 Mt        1.185 Mt    43.720 % 	 ...../PrepareForRendering

		       1.248 Mt    46.055 %         1 x        1.248 Mt        0.000 Mt        1.248 Mt   100.000 % 	 ....../PrepareMaterials

		       0.277 Mt    10.225 %         1 x        0.277 Mt        0.000 Mt        0.277 Mt   100.000 % 	 ....../PrepareDrawBundle

		       3.464 Mt     2.431 %         1 x        3.464 Mt        0.000 Mt        0.004 Mt     0.130 % 	 ..../DeferredRLPrep

		       3.460 Mt    99.870 %         1 x        3.460 Mt        0.000 Mt        2.128 Mt    61.496 % 	 ...../PrepareForRendering

		       0.018 Mt     0.512 %         1 x        0.018 Mt        0.000 Mt        0.018 Mt   100.000 % 	 ....../PrepareMaterials

		       1.036 Mt    29.949 %         1 x        1.036 Mt        0.000 Mt        1.036 Mt   100.000 % 	 ....../BuildMaterialCache

		       0.278 Mt     8.044 %         1 x        0.278 Mt        0.000 Mt        0.278 Mt   100.000 % 	 ....../PrepareDrawBundle

		      18.773 Mt    13.171 %         1 x       18.773 Mt        0.000 Mt        4.318 Mt    23.001 % 	 ..../RayTracingRLPrep

		       0.246 Mt     1.311 %         1 x        0.246 Mt        0.000 Mt        0.246 Mt   100.000 % 	 ...../PrepareAccelerationStructures

		       0.026 Mt     0.139 %         1 x        0.026 Mt        0.000 Mt        0.026 Mt   100.000 % 	 ...../PrepareCache

		       1.806 Mt     9.618 %         1 x        1.806 Mt        0.000 Mt        1.806 Mt   100.000 % 	 ...../BuildCache

		       6.141 Mt    32.714 %         1 x        6.141 Mt        0.000 Mt        0.004 Mt     0.062 % 	 ...../BuildAccelerationStructures

		       6.138 Mt    99.938 %         1 x        6.138 Mt        0.000 Mt        4.082 Mt    66.505 % 	 ....../AccelerationStructureBuild

		       1.000 Mt    16.296 %         1 x        1.000 Mt        0.000 Mt        1.000 Mt   100.000 % 	 ......./BuildBottomLevelAS

		       1.056 Mt    17.199 %         1 x        1.056 Mt        0.000 Mt        1.056 Mt   100.000 % 	 ......./BuildTopLevelAS

		       6.236 Mt    33.218 %         1 x        6.236 Mt        0.000 Mt        6.236 Mt   100.000 % 	 ...../BuildShaderTables

		       8.161 Mt     5.726 %         1 x        8.161 Mt        0.000 Mt        8.161 Mt   100.000 % 	 ..../GpuSidePrep

		       4.893 Mt     0.005 %         1 x        4.893 Mt        0.000 Mt        4.893 Mt   100.000 % 	 ../DeferredRLInitialization

		      63.085 Mt     0.069 %         1 x       63.085 Mt        0.000 Mt        2.336 Mt     3.702 % 	 ../RayTracingRLInitialization

		      60.749 Mt    96.298 %         1 x       60.749 Mt        0.000 Mt       60.749 Mt   100.000 % 	 .../PipelineBuild

		       5.096 Mt     0.006 %         1 x        5.096 Mt        0.000 Mt        5.096 Mt   100.000 % 	 ../ResolveRLInitialization

		   91085.510 Mt    99.294 %     19146 x        4.757 Mt       35.633 Mt     1473.485 Mt     1.618 % 	 ../MainLoop

		    6634.228 Mt     7.284 %      5467 x        1.214 Mt        1.617 Mt     6633.018 Mt    99.982 % 	 .../Update

		       1.210 Mt     0.018 %         1 x        1.210 Mt        0.000 Mt        1.210 Mt   100.000 % 	 ..../GuiModelApply

		   82977.798 Mt    91.099 %     13909 x        5.966 Mt       16.287 Mt    44672.544 Mt    53.837 % 	 .../Render

		   38305.253 Mt    46.163 %     13909 x        2.754 Mt        8.279 Mt    35569.974 Mt    92.859 % 	 ..../RayTracing

		     191.174 Mt     0.499 %     13909 x        0.014 Mt        0.006 Mt       64.174 Mt    33.568 % 	 ...../DeferredRLPrep

		     127.000 Mt    66.432 %        16 x        7.938 Mt        0.000 Mt        5.325 Mt     4.193 % 	 ....../PrepareForRendering

		      13.320 Mt    10.488 %        16 x        0.833 Mt        0.000 Mt       13.320 Mt   100.000 % 	 ......./PrepareMaterials

		       0.012 Mt     0.009 %        16 x        0.001 Mt        0.000 Mt        0.012 Mt   100.000 % 	 ......./BuildMaterialCache

		     108.343 Mt    85.309 %        16 x        6.771 Mt        0.000 Mt      108.343 Mt   100.000 % 	 ......./PrepareDrawBundle

		    2544.105 Mt     6.642 %     13909 x        0.183 Mt        0.010 Mt       74.939 Mt     2.946 % 	 ...../RayTracingRLPrep

		    1099.622 Mt    43.222 %        16 x       68.726 Mt        0.000 Mt     1099.622 Mt   100.000 % 	 ....../PrepareAccelerationStructures

		      13.298 Mt     0.523 %        16 x        0.831 Mt        0.000 Mt       13.298 Mt   100.000 % 	 ....../PrepareCache

		       0.012 Mt     0.000 %        16 x        0.001 Mt        0.000 Mt        0.012 Mt   100.000 % 	 ....../BuildCache

		    1244.674 Mt    48.924 %        16 x       77.792 Mt        0.000 Mt        0.037 Mt     0.003 % 	 ....../BuildAccelerationStructures

		    1244.637 Mt    99.997 %        16 x       77.790 Mt        0.000 Mt       55.711 Mt     4.476 % 	 ......./AccelerationStructureBuild

		    1177.632 Mt    94.617 %        16 x       73.602 Mt        0.000 Mt     1177.632 Mt   100.000 % 	 ......../BuildBottomLevelAS

		      11.294 Mt     0.907 %        16 x        0.706 Mt        0.000 Mt       11.294 Mt   100.000 % 	 ......../BuildTopLevelAS

		     111.561 Mt     4.385 %        16 x        6.973 Mt        0.000 Mt      111.561 Mt   100.000 % 	 ....../BuildShaderTables

	WindowThread:

		   91728.873 Mt   100.000 %         1 x    91728.873 Mt    91728.872 Mt    91728.873 Mt   100.000 % 	 /

	GpuThread:

		   28530.892 Mt   100.000 %     13909 x        2.051 Mt        5.775 Mt      131.176 Mt     0.460 % 	 /

		       0.158 Mt     0.001 %         1 x        0.158 Mt        0.000 Mt        0.005 Mt     3.352 % 	 ./ScenePrep

		       0.153 Mt    96.648 %         1 x        0.153 Mt        0.000 Mt        0.001 Mt     0.627 % 	 ../AccelerationStructureBuild

		       0.092 Mt    59.787 %         1 x        0.092 Mt        0.000 Mt        0.092 Mt   100.000 % 	 .../BuildBottomLevelASGpu

		       0.061 Mt    39.586 %         1 x        0.061 Mt        0.000 Mt        0.061 Mt   100.000 % 	 .../BuildTopLevelASGpu

		   28233.485 Mt    98.958 %     13909 x        2.030 Mt        5.442 Mt       26.221 Mt     0.093 % 	 ./RayTracingGpu

		    4915.312 Mt    17.410 %     13909 x        0.353 Mt        1.897 Mt     4915.312 Mt   100.000 % 	 ../DeferredRLGpu

		   11525.856 Mt    40.823 %     13909 x        0.829 Mt        1.242 Mt    11525.856 Mt   100.000 % 	 ../RayTracingRLGpu

		   10907.626 Mt    38.634 %     13909 x        0.784 Mt        2.287 Mt    10907.626 Mt   100.000 % 	 ../ResolveRLGpu

		     858.470 Mt     3.041 %        16 x       53.654 Mt        0.000 Mt        0.027 Mt     0.003 % 	 ../AccelerationStructureBuild

		     855.027 Mt    99.599 %        16 x       53.439 Mt        0.000 Mt      855.027 Mt   100.000 % 	 .../BuildBottomLevelASGpu

		       3.416 Mt     0.398 %        16 x        0.213 Mt        0.000 Mt        3.416 Mt   100.000 % 	 .../BuildTopLevelASGpu

		     166.073 Mt     0.582 %     13909 x        0.012 Mt        0.333 Mt      166.073 Mt   100.000 % 	 ./Present


	============================


