Configuration: 
Command line parameters  = E:\programming\FIT-DIP\Masters-DXR-Main-git\build\Measurement\x64\Debug\Measurement.exe --scene Sponza/Sponza.gltf --duplication-cube --duplication-offset 25 --profile-triangles --profile-camera-track Sponza/SponzaFast.trk --profile-max-duplication 7 --rt-mode-pure --width 2560 --height 1440 --profile-output TrianglesSponza1440Rp 
Window width             = 2560
Window height            = 1421
Window title             = Direct3D App
Back-buffer count        = 3
Fill Triangles           = enabled
Triangles Font Clock-Wise= enabled
Fast Build AS            = disabled
Target FPS               = 0
Target UPS               = 60
Tearing                  = enabled
VSync                    = disabled
GUI rendering            = disabled
Debug layer              = enabled
GPU validation           = disabled
GPU profiling            = enabled
Render mode              = Ray Tracing
Loaded scene file        = Sponza/Sponza.gltf
Using testing scene      = disabled
Duplication              = 7
Duplication in cube      = enabled
Duplication offset       = 25
BLAS duplication         = enabled
Rays per pixel           = 13
Quality preset           = High
Rasterization Quality    : 
  AO                     = enabled
  AO kernel size         = 4
  Shadows                = enabled
  Shadow map resolution  = 4096
  Shadow PCF kernel size = 4
  Reflections            = enabled
Ray Tracing Quality      : 
  AO                     = enabled
  AO rays                = 4
  AO kernel size         = 4
  Shadows                = enabled
  Shadow rays            = 4
  Shadow kernel size     = 4
  Reflections            = enabled

ProfilingAggregator: 
Render	,	8.1448	,	8.1448	,	8.7524	,	8.7524	,	10.2587	,	10.2587	,	8.5968	,	8.5968	,	10.0924	,	10.0924	,	9.1493	,	5.5526	,	5.5526	,	5.3266	,	5.3266	,	5.7222	,	5.7222	,	6.6459	,	6.6459	,	7.136	,	7.136	,	7.8047	,	7.8426	,	7.8426	,	9.2331	,	9.2331	,	7.8115	,	7.8115	,	8.2187	,	8.2187	,	10.7359	,	10.7359	,	8.3182	,	6.6315	,	6.6315	,	6.7894	,	6.7894	,	6.4922	,	6.4922	,	8.1674	,	8.1674	,	8.4941	,	8.4941	,	8.5638	,	9.5506	,	9.5506	,	9.4227	,	9.4227	,	10.0186	,	10.0186	,	9.4155	,	9.4155	,	12.8066	,	12.8066	,	9.7817	,	7.7724	,	7.7724	,	9.1086	,	9.1086	,	8.7509	,	8.7509	,	7.984	,	7.984	,	7.2029	,	9.9254	,	9.9254	,	9.4018	,	9.4018	,	10.312	,	10.312	,	9.4736
Update	,	0.6058	,	0.6058	,	0.7732	,	0.7732	,	0.9164	,	0.9164	,	0.5851	,	0.5851	,	0.9864	,	0.9864	,	0.5939	,	1.0955	,	1.0955	,	0.7508	,	0.7508	,	0.6062	,	0.6062	,	0.7125	,	0.7125	,	0.5829	,	0.5829	,	0.5689	,	0.7378	,	0.7378	,	0.7168	,	0.7168	,	0.6267	,	0.6267	,	0.6502	,	0.6502	,	0.7663	,	0.7663	,	0.7928	,	0.8252	,	0.8252	,	0.6546	,	0.6546	,	0.5869	,	0.5869	,	0.6564	,	0.6564	,	0.6741	,	0.6741	,	0.8995	,	0.7942	,	0.7942	,	1.0247	,	1.0247	,	0.8548	,	0.8548	,	0.7291	,	0.7291	,	0.9951	,	0.9951	,	0.8719	,	0.868	,	0.868	,	0.8593	,	0.8593	,	0.8477	,	0.8477	,	0.9725	,	0.9725	,	0.8404	,	1.5019	,	1.5019	,	1.2991	,	1.2991	,	1.0678	,	1.0678	,	0.9916
RayTracing	,	1.2201	,	1.2201	,	1.2527	,	1.2527	,	2.4211	,	2.4211	,	1.2484	,	1.2484	,	1.2412	,	1.2412	,	1.2277	,	1.1844	,	1.1844	,	1.0145	,	1.0145	,	1.1806	,	1.1806	,	1.2016	,	1.2016	,	1.1811	,	1.1811	,	1.2138	,	1.1914	,	1.1914	,	1.2156	,	1.2156	,	1.2313	,	1.2313	,	1.2924	,	1.2924	,	1.198	,	1.198	,	1.1961	,	1.1788	,	1.1788	,	1.1759	,	1.1759	,	1.0336	,	1.0336	,	1.2045	,	1.2045	,	1.233	,	1.233	,	1.2072	,	1.199	,	1.199	,	1.3024	,	1.3024	,	1.2037	,	1.2037	,	1.2098	,	1.2098	,	1.2164	,	1.2164	,	1.2318	,	1.2278	,	1.2278	,	1.2452	,	1.2452	,	1.2008	,	1.2008	,	1.2272	,	1.2272	,	1.231	,	1.2093	,	1.2093	,	1.2686	,	1.2686	,	1.2159	,	1.2159	,	1.1881
RayTracingGpu	,	5.55722	,	5.55722	,	6.14182	,	6.14182	,	6.17338	,	6.17338	,	5.98928	,	5.98928	,	7.44934	,	7.44934	,	6.60035	,	3.08528	,	3.08528	,	3.42294	,	3.42294	,	3.33136	,	3.33136	,	4.22467	,	4.22467	,	4.85206	,	4.85206	,	5.25805	,	5.36989	,	5.36989	,	6.7193	,	6.7193	,	5.2169	,	5.2169	,	5.44483	,	5.44483	,	8.23827	,	8.23827	,	5.8481	,	4.25754	,	4.25754	,	4.49302	,	4.49302	,	4.60192	,	4.60192	,	5.7593	,	5.7593	,	5.98509	,	5.98509	,	6.03562	,	7.2391	,	7.2391	,	6.58957	,	6.58957	,	7.60195	,	7.60195	,	6.98902	,	6.98902	,	10.2801	,	10.2801	,	7.20998	,	5.2681	,	5.2681	,	6.47322	,	6.47322	,	6.38333	,	6.38333	,	5.51747	,	5.51747	,	4.63763	,	7.26422	,	7.26422	,	6.83942	,	6.83942	,	7.90474	,	7.90474	,	7.03219
RayTracingRLGpu	,	5.55622	,	5.55622	,	6.14112	,	6.14112	,	6.1727	,	6.1727	,	5.98861	,	5.98861	,	7.44883	,	7.44883	,	6.59971	,	3.08464	,	3.08464	,	3.41782	,	3.41782	,	3.33098	,	3.33098	,	4.22413	,	4.22413	,	4.85168	,	4.85168	,	5.25453	,	5.36922	,	5.36922	,	6.71875	,	6.71875	,	5.21635	,	5.21635	,	5.44419	,	5.44419	,	8.23763	,	8.23763	,	5.84758	,	4.25715	,	4.25715	,	4.49238	,	4.49238	,	4.60128	,	4.60128	,	5.75891	,	5.75891	,	5.98445	,	5.98445	,	6.0351	,	7.23856	,	7.23856	,	6.58918	,	6.58918	,	7.60154	,	7.60154	,	6.98848	,	6.98848	,	10.2796	,	10.2796	,	7.20931	,	5.26755	,	5.26755	,	6.4727	,	6.4727	,	6.38294	,	6.38294	,	5.51693	,	5.51693	,	4.63725	,	7.26368	,	7.26368	,	6.83875	,	6.83875	,	7.90435	,	7.90435	,	7.03165
Index	,	0	,	1	,	2	,	3	,	4	,	5	,	6	,	7	,	8	,	9	,	10	,	11	,	12	,	13	,	14	,	15	,	16	,	17	,	18	,	19	,	20	,	21	,	22	,	23	,	24	,	25	,	26	,	27	,	28	,	29	,	30	,	31	,	32	,	33	,	34	,	35	,	36	,	37	,	38	,	39	,	40	,	41	,	42	,	43	,	44	,	45	,	46	,	47	,	48	,	49	,	50	,	51	,	52	,	53	,	54	,	55	,	56	,	57	,	58	,	59	,	60	,	61	,	62	,	63	,	64	,	65	,	66	,	67	,	68	,	69	,	70

ProfilingBuildAggregator: 
BuildBottomLevelAS	,	4.102	,	10.3665	,	32.4563	,	77.6349	,	149.79	,	253.507	,	401.634
BuildBottomLevelASGpu	,	15.9446	,	9.75021	,	31.8611	,	73.225	,	141.723	,	246.271	,	390.658
BuildTopLevelAS	,	3.4161	,	0.855	,	0.6366	,	0.7995	,	0.785	,	0.7783	,	0.7369
BuildTopLevelASGpu	,	0.637952	,	0.073856	,	0.096384	,	0.115776	,	0.136128	,	0.142944	,	0.172928
Duplication	,	1	,	2	,	3	,	4	,	5	,	6	,	7
Triangles	,	262267	,	2098136	,	7081209	,	16785088	,	32783375	,	56649672	,	89957581
Meshes	,	103	,	824	,	2781	,	6592	,	12875	,	22248	,	35329
BottomLevels	,	1	,	8	,	27	,	64	,	125	,	216	,	343
TopLevelSize	,	64	,	512	,	1728	,	4096	,	8000	,	13824	,	21952
BottomLevelsSize	,	14623872	,	116990976	,	394844544	,	935927808	,	1827984000	,	3158756352	,	5015988096
Index	,	0	,	1	,	2	,	3	,	4	,	5	,	6

FpsAggregator: 
FPS	,	106	,	106	,	114	,	114	,	112	,	112	,	110	,	110	,	88	,	88	,	102	,	198	,	198	,	178	,	178	,	178	,	178	,	155	,	155	,	132	,	132	,	133	,	115	,	115	,	120	,	120	,	119	,	119	,	116	,	116	,	102	,	102	,	92	,	147	,	147	,	141	,	141	,	136	,	136	,	123	,	123	,	111	,	111	,	112	,	126	,	126	,	111	,	111	,	96	,	96	,	94	,	94	,	96	,	96	,	98	,	128	,	128	,	109	,	109	,	104	,	104	,	99	,	99	,	108	,	93	,	93	,	92	,	92	,	95	,	95	,	95
UPS	,	60	,	60	,	60	,	60	,	61	,	61	,	60	,	60	,	60	,	60	,	61	,	60	,	60	,	60	,	60	,	60	,	60	,	61	,	61	,	60	,	60	,	60	,	60	,	60	,	60	,	60	,	60	,	60	,	60	,	60	,	61	,	61	,	60	,	60	,	60	,	61	,	61	,	60	,	60	,	60	,	60	,	60	,	60	,	60	,	60	,	60	,	60	,	60	,	60	,	60	,	61	,	61	,	60	,	60	,	60	,	60	,	60	,	60	,	60	,	61	,	61	,	60	,	60	,	60	,	60	,	60	,	60	,	60	,	61	,	61	,	60
FrameTime	,	9.43921	,	9.43921	,	8.81847	,	8.81847	,	9.01949	,	9.01949	,	9.12783	,	9.12783	,	11.3856	,	11.3856	,	9.8953	,	5.06531	,	5.06531	,	5.63409	,	5.63409	,	5.63744	,	5.63744	,	6.48484	,	6.48484	,	7.60982	,	7.60982	,	7.55978	,	8.70139	,	8.70139	,	8.3698	,	8.3698	,	8.40932	,	8.40932	,	8.69002	,	8.69002	,	9.87751	,	9.87751	,	10.9199	,	6.83622	,	6.83622	,	7.10754	,	7.10754	,	7.39184	,	7.39184	,	8.17184	,	8.17184	,	9.02044	,	9.02044	,	8.9454	,	7.93827	,	7.93827	,	9.03024	,	9.03024	,	10.4259	,	10.4259	,	10.6819	,	10.6819	,	10.4193	,	10.4193	,	10.224	,	7.86494	,	7.86494	,	9.22949	,	9.22949	,	9.66843	,	9.66843	,	10.1542	,	10.1542	,	9.28768	,	10.8439	,	10.8439	,	10.8993	,	10.8993	,	10.5988	,	10.5988	,	10.5803
GigaRays/s	,	5.01005	,	5.01005	,	5.36271	,	5.36271	,	5.24319	,	5.24319	,	5.18095	,	5.18095	,	4.15358	,	4.15358	,	4.77912	,	9.33623	,	9.33623	,	8.3937	,	8.3937	,	8.38872	,	8.38872	,	7.29252	,	7.29252	,	6.21445	,	6.21445	,	6.25559	,	5.43486	,	5.43486	,	5.65018	,	5.65018	,	5.62363	,	5.62363	,	5.44198	,	5.44198	,	4.78773	,	4.78773	,	4.3307	,	6.9177	,	6.9177	,	6.65362	,	6.65362	,	6.39771	,	6.39771	,	5.78705	,	5.78705	,	5.24264	,	5.24264	,	5.28662	,	5.95733	,	5.95733	,	5.23695	,	5.23695	,	4.53592	,	4.53592	,	4.4272	,	4.4272	,	4.53877	,	4.53877	,	4.6255	,	6.01287	,	6.01287	,	5.12389	,	5.12389	,	4.89127	,	4.89127	,	4.65727	,	4.65727	,	5.09179	,	4.36107	,	4.36107	,	4.33889	,	4.33889	,	4.4619	,	4.4619	,	4.46969
Duplication	,	1	,	1	,	1	,	1	,	1	,	1	,	1	,	1	,	1	,	1	,	1	,	2	,	2	,	2	,	2	,	2	,	2	,	2	,	2	,	2	,	2	,	2	,	3	,	3	,	3	,	3	,	3	,	3	,	3	,	3	,	3	,	3	,	3	,	4	,	4	,	4	,	4	,	4	,	4	,	4	,	4	,	4	,	4	,	4	,	5	,	5	,	5	,	5	,	5	,	5	,	5	,	5	,	5	,	5	,	5	,	6	,	6	,	6	,	6	,	6	,	6	,	6	,	6	,	6	,	7	,	7	,	7	,	7	,	7	,	7	,	7
Index	,	0	,	1	,	2	,	3	,	4	,	5	,	6	,	7	,	8	,	9	,	10	,	11	,	12	,	13	,	14	,	15	,	16	,	17	,	18	,	19	,	20	,	21	,	22	,	23	,	24	,	25	,	26	,	27	,	28	,	29	,	30	,	31	,	32	,	33	,	34	,	35	,	36	,	37	,	38	,	39	,	40	,	41	,	42	,	43	,	44	,	45	,	46	,	47	,	48	,	49	,	50	,	51	,	52	,	53	,	54	,	55	,	56	,	57	,	58	,	59	,	60	,	61	,	62	,	63	,	64	,	65	,	66	,	67	,	68	,	69	,	70


AccelerationStructure: 
Ray tracing acceleration structure building statistics: 
	Bottom Level Acceleration Structure: 
		Maximum [B]: 14623872
		Minimum [B]: 14623872
		Currently Allocated [B]: 5015988096
		Currently Created [num]: 343
		Current Average [B]: 14623872
		Maximum Triangles [num]: 262267
		Minimum Triangles [num]: 262267
		Total Triangles [num]: 89957581
		Maximum Meshes [num]: 103
		Minimum Meshes [num]: 103
		Total Meshes [num]: 35329
	Top Level Acceleration Structure: 
		Maximum [B]: 21952
		Minimum [B]: 21952
		Currently Allocated [B]: 21952
		Total Allocated [B]: 21952
		Total Created [num]: 1
		Average Allocated [B]: 21952
		Maximum Instances [num]: 343
		Minimum Instances [num]: 343
		Total Instances [num]: 343
	Scratch Buffer: 
		Maximum [B]: 11660800
		Minimum [B]: 11660800
		Currently Allocated [B]: 11660800
		Total Allocated [B]: 11660800
		Total Created [num]: 1
		Average Allocated [B]: 11660800
ProfilingStack: 
[PROF] Profiling statistics: 
	Scopes entered : 52648
	Scopes exited : 52647
	Overhead per scope [ticks] : 999.6
	Threads entered : 3
	Threads exited : 0
	============================
		         Sum[Mt]   Parent[%]  Samples[num]       Avg[Mt]   Last/Curr[Mt]        Self[Mt]     Self[%] 	 Name

	main:

		   71520.740 Mt   100.000 %         1 x    71520.743 Mt    71520.739 Mt        0.683 Mt     0.001 % 	 /

		   71520.151 Mt    99.999 %         1 x    71520.156 Mt    71520.151 Mt      366.704 Mt     0.513 % 	 ./Main application loop

		       4.121 Mt     0.006 %         1 x        4.121 Mt        0.000 Mt        4.121 Mt   100.000 % 	 ../TexturedRLInitialization

		       3.262 Mt     0.005 %         1 x        3.262 Mt        0.000 Mt        3.262 Mt   100.000 % 	 ../ShadowMapRLInitialization

		       4.412 Mt     0.006 %         1 x        4.412 Mt        0.000 Mt        4.412 Mt   100.000 % 	 ../AmbientOcclusionRLInitialization

		       6.521 Mt     0.009 %         1 x        6.521 Mt        0.000 Mt        6.521 Mt   100.000 % 	 ../RasterResolveRLInitialization

		    9028.278 Mt    12.623 %         1 x     9028.278 Mt        0.000 Mt       12.259 Mt     0.136 % 	 ../Initialization

		    9016.019 Mt    99.864 %         1 x     9016.019 Mt        0.000 Mt        3.264 Mt     0.036 % 	 .../ScenePrep

		    8901.722 Mt    98.732 %         1 x     8901.722 Mt        0.000 Mt      335.294 Mt     3.767 % 	 ..../SceneLoad

		    8125.648 Mt    91.282 %         1 x     8125.648 Mt        0.000 Mt     1111.172 Mt    13.675 % 	 ...../glTF-LoadScene

		    7014.476 Mt    86.325 %        69 x      101.659 Mt        0.000 Mt     7014.476 Mt   100.000 % 	 ....../glTF-LoadImageData

		     291.391 Mt     3.273 %         1 x      291.391 Mt        0.000 Mt      291.391 Mt   100.000 % 	 ...../glTF-CreateScene

		     149.389 Mt     1.678 %         1 x      149.389 Mt        0.000 Mt      149.389 Mt   100.000 % 	 ...../SceneDesc-CreateScene

		       2.642 Mt     0.029 %         1 x        2.642 Mt        0.000 Mt        0.006 Mt     0.212 % 	 ..../ShadowMapRLPrep

		       2.637 Mt    99.788 %         1 x        2.637 Mt        0.000 Mt        1.929 Mt    73.168 % 	 ...../PrepareForRendering

		       0.708 Mt    26.832 %         1 x        0.708 Mt        0.000 Mt        0.708 Mt   100.000 % 	 ....../PrepareDrawBundle

		       6.269 Mt     0.070 %         1 x        6.269 Mt        0.000 Mt        0.005 Mt     0.080 % 	 ..../TexturedRLPrep

		       6.264 Mt    99.920 %         1 x        6.264 Mt        0.000 Mt        1.293 Mt    20.641 % 	 ...../PrepareForRendering

		       2.692 Mt    42.968 %         1 x        2.692 Mt        0.000 Mt        2.692 Mt   100.000 % 	 ....../PrepareMaterials

		       2.280 Mt    36.391 %         1 x        2.280 Mt        0.000 Mt        2.280 Mt   100.000 % 	 ....../PrepareDrawBundle

		       7.744 Mt     0.086 %         1 x        7.744 Mt        0.000 Mt        0.005 Mt     0.063 % 	 ..../DeferredRLPrep

		       7.739 Mt    99.937 %         1 x        7.739 Mt        0.000 Mt        2.958 Mt    38.218 % 	 ...../PrepareForRendering

		       0.020 Mt     0.257 %         1 x        0.020 Mt        0.000 Mt        0.020 Mt   100.000 % 	 ....../PrepareMaterials

		       2.154 Mt    27.833 %         1 x        2.154 Mt        0.000 Mt        2.154 Mt   100.000 % 	 ....../BuildMaterialCache

		       2.607 Mt    33.692 %         1 x        2.607 Mt        0.000 Mt        2.607 Mt   100.000 % 	 ....../PrepareDrawBundle

		      28.739 Mt     0.319 %         1 x       28.739 Mt        0.000 Mt        6.512 Mt    22.659 % 	 ..../RayTracingRLPrep

		       0.610 Mt     2.121 %         1 x        0.610 Mt        0.000 Mt        0.610 Mt   100.000 % 	 ...../PrepareAccelerationStructures

		       0.024 Mt     0.084 %         1 x        0.024 Mt        0.000 Mt        0.024 Mt   100.000 % 	 ...../PrepareCache

		       5.265 Mt    18.320 %         1 x        5.265 Mt        0.000 Mt        5.265 Mt   100.000 % 	 ...../BuildCache

		      11.977 Mt    41.675 %         1 x       11.977 Mt        0.000 Mt        0.004 Mt     0.033 % 	 ...../BuildAccelerationStructures

		      11.973 Mt    99.967 %         1 x       11.973 Mt        0.000 Mt        4.455 Mt    37.207 % 	 ....../AccelerationStructureBuild

		       4.102 Mt    34.261 %         1 x        4.102 Mt        0.000 Mt        4.102 Mt   100.000 % 	 ......./BuildBottomLevelAS

		       3.416 Mt    28.532 %         1 x        3.416 Mt        0.000 Mt        3.416 Mt   100.000 % 	 ......./BuildTopLevelAS

		       4.351 Mt    15.141 %         1 x        4.351 Mt        0.000 Mt        4.351 Mt   100.000 % 	 ...../BuildShaderTables

		      65.638 Mt     0.728 %         1 x       65.638 Mt        0.000 Mt       65.638 Mt   100.000 % 	 ..../GpuSidePrep

		       5.662 Mt     0.008 %         1 x        5.662 Mt        0.000 Mt        5.662 Mt   100.000 % 	 ../DeferredRLInitialization

		      57.605 Mt     0.081 %         1 x       57.605 Mt        0.000 Mt        2.177 Mt     3.780 % 	 ../RayTracingRLInitialization

		      55.427 Mt    96.220 %         1 x       55.427 Mt        0.000 Mt       55.427 Mt   100.000 % 	 .../PipelineBuild

		       5.043 Mt     0.007 %         1 x        5.043 Mt        0.000 Mt        5.043 Mt   100.000 % 	 ../ResolveRLInitialization

		   62038.543 Mt    86.743 %     11110 x        5.584 Mt       27.727 Mt      388.210 Mt     0.626 % 	 ../MainLoop

		    3405.569 Mt     5.489 %      3723 x        0.915 Mt        3.125 Mt     3404.175 Mt    99.959 % 	 .../Update

		       1.394 Mt     0.041 %         1 x        1.394 Mt        0.000 Mt        1.394 Mt   100.000 % 	 ..../GuiModelApply

		   58244.764 Mt    93.885 %      6262 x        9.301 Mt       13.009 Mt    45055.072 Mt    77.355 % 	 .../Render

		   13189.692 Mt    22.645 %      6262 x        2.106 Mt        3.597 Mt     7604.209 Mt    57.653 % 	 ..../RayTracing

		    5585.483 Mt    42.347 %      6262 x        0.892 Mt        0.011 Mt       46.772 Mt     0.837 % 	 ...../RayTracingRLPrep

		    1047.619 Mt    18.756 %        12 x       87.302 Mt        0.000 Mt     1047.619 Mt   100.000 % 	 ....../PrepareAccelerationStructures

		       4.251 Mt     0.076 %        12 x        0.354 Mt        0.000 Mt        4.251 Mt   100.000 % 	 ....../PrepareCache

		       0.009 Mt     0.000 %        12 x        0.001 Mt        0.000 Mt        0.009 Mt   100.000 % 	 ....../BuildCache

		    1943.381 Mt    34.793 %        12 x      161.948 Mt        0.000 Mt        0.030 Mt     0.002 % 	 ....../BuildAccelerationStructures

		    1943.351 Mt    99.998 %        12 x      161.946 Mt        0.000 Mt       33.981 Mt     1.749 % 	 ......./AccelerationStructureBuild

		    1900.015 Mt    97.770 %        12 x      158.335 Mt        0.000 Mt     1900.015 Mt   100.000 % 	 ......../BuildBottomLevelAS

		       9.355 Mt     0.481 %        12 x        0.780 Mt        0.000 Mt        9.355 Mt   100.000 % 	 ......../BuildTopLevelAS

		    2543.451 Mt    45.537 %        12 x      211.954 Mt        0.000 Mt     2543.451 Mt   100.000 % 	 ....../BuildShaderTables

	WindowThread:

		   71517.327 Mt   100.000 %         1 x    71517.328 Mt    71517.326 Mt    71517.327 Mt   100.000 % 	 /

	GpuThread:

		   37425.152 Mt   100.000 %      6262 x        5.977 Mt        6.739 Mt      183.205 Mt     0.490 % 	 /

		      16.636 Mt     0.044 %         1 x       16.636 Mt        0.000 Mt        0.051 Mt     0.305 % 	 ./ScenePrep

		      16.585 Mt    99.695 %         1 x       16.585 Mt        0.000 Mt        0.003 Mt     0.017 % 	 ../AccelerationStructureBuild

		      15.945 Mt    96.136 %         1 x       15.945 Mt        0.000 Mt       15.945 Mt   100.000 % 	 .../BuildBottomLevelASGpu

		       0.638 Mt     3.846 %         1 x        0.638 Mt        0.000 Mt        0.638 Mt   100.000 % 	 .../BuildTopLevelASGpu

		   37213.151 Mt    99.434 %      6262 x        5.943 Mt        6.737 Mt        3.755 Mt     0.010 % 	 ./RayTracingGpu

		   35422.131 Mt    95.187 %      6262 x        5.657 Mt        6.736 Mt    35422.131 Mt   100.000 % 	 ../RayTracingRLGpu

		    1787.264 Mt     4.803 %        12 x      148.939 Mt        0.000 Mt        0.009 Mt     0.001 % 	 ../AccelerationStructureBuild

		    1785.770 Mt    99.916 %        12 x      148.814 Mt        0.000 Mt     1785.770 Mt   100.000 % 	 .../BuildBottomLevelASGpu

		       1.485 Mt     0.083 %        12 x        0.124 Mt        0.000 Mt        1.485 Mt   100.000 % 	 .../BuildTopLevelASGpu

		      12.160 Mt     0.032 %      6262 x        0.002 Mt        0.002 Mt       12.160 Mt   100.000 % 	 ./Present


	============================


