Configuration: 
Command line parameters  = E:\programming\FIT-DIP\Masters-DXR-Main-git\build\Measurement\x64\Debug\Measurement.exe --scene Sponza/Sponza.gltf --duplication-cube --duplication-offset 0 --profile-triangles --profile-camera-track Sponza/SponzaFast.trk --profile-max-duplication 7 --rt-mode --width 1024 --height 768 --profile-output TrianglesSponzaNoOffset768Rt 
Window width             = 1024
Window height            = 768
Window title             = Direct3D App
Back-buffer count        = 3
Fill Triangles           = enabled
Triangles Font Clock-Wise= enabled
Fast Build AS            = disabled
Target FPS               = 0
Target UPS               = 60
Tearing                  = enabled
VSync                    = disabled
GUI rendering            = disabled
Debug layer              = enabled
GPU validation           = disabled
GPU profiling            = enabled
Render mode              = Ray Tracing
Loaded scene file        = Sponza/Sponza.gltf
Using testing scene      = disabled
Duplication              = 7
Duplication in cube      = enabled
Duplication offset       = 0
BLAS duplication         = enabled
Rays per pixel           = 14
Quality preset           = High
Rasterization Quality    : 
  AO                     = enabled
  AO kernel size         = 4
  Shadows                = enabled
  Shadow map resolution  = 4096
  Shadow PCF kernel size = 4
  Reflections            = enabled
Ray Tracing Quality      : 
  AO                     = enabled
  AO rays                = 4
  AO kernel size         = 4
  Shadows                = enabled
  Shadow rays            = 4
  Shadow kernel size     = 4
  Reflections            = enabled

ProfilingAggregator: 
Render	,	6.0273	,	6.0273	,	6.9195	,	6.9195	,	8.147	,	8.147	,	6.0879	,	6.0879	,	6.9389	,	6.9389	,	5.7903	,	14.4203	,	14.4203	,	15.5124	,	15.5124	,	14.517	,	14.517	,	15.1269	,	15.1269	,	19.7288	,	19.7288	,	15.0229	,	38.3272	,	38.3272	,	39.913	,	39.913	,	39.2763	,	39.2763	,	38.9703	,	38.9703	,	57.4184	,	57.4184	,	42.5979	,	94.6437	,	94.6437	,	97.9165	,	97.9165	,	91.751	,	91.751	,	152.792	,	152.792	,	122.549	,	122.549	,	100.484	,	192.16	,	192.16	,	179.088	,	179.088	,	290.047	,	290.047	,	228.262	,	228.262	,	205.311	,	324.767	,	324.767	,	317.805	,	317.805	,	537.593	,	537.593	,	365.71	,	563.043	,	563.043	,	598.062	,	598.062	,	598.261
Update	,	1.052	,	1.052	,	0.4693	,	0.4693	,	0.746	,	0.746	,	0.5155	,	0.5155	,	0.6022	,	0.6022	,	0.4675	,	0.5316	,	0.5316	,	0.905	,	0.905	,	0.6155	,	0.6155	,	1.0811	,	1.0811	,	0.4952	,	0.4952	,	0.4931	,	0.5047	,	0.5047	,	0.5124	,	0.5124	,	0.5151	,	0.5151	,	0.5052	,	0.5052	,	0.5123	,	0.5123	,	0.5002	,	0.55	,	0.55	,	0.549	,	0.549	,	0.5505	,	0.5505	,	0.5478	,	0.5478	,	0.5515	,	0.5515	,	0.5423	,	0.6243	,	0.6243	,	0.6275	,	0.6275	,	0.6246	,	0.6246	,	0.6288	,	0.6288	,	0.6163	,	0.7306	,	0.7306	,	0.7682	,	0.7682	,	0.7445	,	0.7445	,	0.7064	,	0.7485	,	0.7485	,	0.7469	,	0.7469	,	0.7471
RayTracing	,	2.5632	,	2.5632	,	3.0617	,	3.0617	,	4.185	,	4.185	,	2.5306	,	2.5306	,	2.9825	,	2.9825	,	2.5139	,	7.3549	,	7.3549	,	8.3492	,	8.3492	,	7.2076	,	7.2076	,	8.1839	,	8.1839	,	7.6497	,	7.6497	,	7.3312	,	19.7077	,	19.7077	,	20.0683	,	20.0683	,	20.2659	,	20.2659	,	20.4691	,	20.4691	,	21.5842	,	21.5842	,	20.929	,	45.7247	,	45.7247	,	47.1355	,	47.1355	,	46.303	,	46.303	,	46.6777	,	46.6777	,	47.5588	,	47.5588	,	45.1689	,	86.5547	,	86.5547	,	86.3254	,	86.3254	,	86.5868	,	86.5868	,	88.6587	,	88.6587	,	87.2442	,	147.605	,	147.605	,	146.882	,	146.882	,	145.84	,	145.84	,	147.367	,	229.712	,	229.712	,	228.806	,	228.806	,	228.979
RayTracingGpu	,	2.04653	,	2.04653	,	2.28032	,	2.28032	,	2.33536	,	2.33536	,	2.37654	,	2.37654	,	2.56115	,	2.56115	,	2.12806	,	5.56947	,	5.56947	,	5.73002	,	5.73002	,	5.93974	,	5.93974	,	5.48816	,	5.48816	,	10.4587	,	10.4587	,	6.20323	,	16.6251	,	16.6251	,	17.8233	,	17.8233	,	17.0394	,	17.0394	,	16.4874	,	16.4874	,	33.6942	,	33.6942	,	19.642	,	45.9106	,	45.9106	,	47.7642	,	47.7642	,	42.5119	,	42.5119	,	103.149	,	103.149	,	71.5399	,	71.5399	,	52.3393	,	100.966	,	100.966	,	88.086	,	88.086	,	198.834	,	198.834	,	134.243	,	134.243	,	113.223	,	170.066	,	170.066	,	163.884	,	163.884	,	384.389	,	384.389	,	211.062	,	323.043	,	323.043	,	358.941	,	358.941	,	358.957
DeferredRLGpu	,	0.362304	,	0.362304	,	0.45968	,	0.45968	,	0.408896	,	0.408896	,	0.382016	,	0.382016	,	0.558144	,	0.558144	,	0.412512	,	0.477376	,	0.477376	,	0.645344	,	0.645344	,	0.538528	,	0.538528	,	0.510432	,	0.510432	,	0.777344	,	0.777344	,	0.569536	,	0.79424	,	0.79424	,	1.12899	,	1.12899	,	0.880192	,	0.880192	,	0.849696	,	0.849696	,	1.29683	,	1.29683	,	0.97168	,	1.87421	,	1.87421	,	2.02554	,	2.02554	,	1.49283	,	1.49283	,	2.04675	,	2.04675	,	2.12291	,	2.12291	,	1.74589	,	3.56054	,	3.56054	,	2.3617	,	2.3617	,	3.17184	,	3.17184	,	3.6383	,	3.6383	,	3.04189	,	4.39286	,	4.39286	,	4.25952	,	4.25952	,	7.70608	,	7.70608	,	4.96301	,	6.72141	,	6.72141	,	8.43424	,	8.43424	,	7.65251
RayTracingRLGpu	,	1.08349	,	1.08349	,	1.17606	,	1.17606	,	1.26736	,	1.26736	,	1.31219	,	1.31219	,	1.45664	,	1.45664	,	1.17472	,	4.54557	,	4.54557	,	4.54749	,	4.54749	,	4.83766	,	4.83766	,	4.41469	,	4.41469	,	9.13555	,	9.13555	,	5.0943	,	15.2872	,	15.2872	,	16.1445	,	16.1445	,	15.6175	,	15.6175	,	15.0893	,	15.0893	,	31.849	,	31.849	,	18.1279	,	43.4968	,	43.4968	,	45.1988	,	45.1988	,	40.4756	,	40.4756	,	100.557	,	100.557	,	68.8677	,	68.8677	,	50.052	,	96.8594	,	96.8594	,	85.1749	,	85.1749	,	195.11	,	195.11	,	130.053	,	130.053	,	109.626	,	165.132	,	165.132	,	159.072	,	159.072	,	376.131	,	376.131	,	205.552	,	315.78	,	315.78	,	349.96	,	349.96	,	350.761
ResolveRLGpu	,	0.599104	,	0.599104	,	0.64336	,	0.64336	,	0.65776	,	0.65776	,	0.681184	,	0.681184	,	0.545216	,	0.545216	,	0.539808	,	0.54496	,	0.54496	,	0.535872	,	0.535872	,	0.562208	,	0.562208	,	0.561248	,	0.561248	,	0.5432	,	0.5432	,	0.538176	,	0.541568	,	0.541568	,	0.54816	,	0.54816	,	0.540192	,	0.540192	,	0.547328	,	0.547328	,	0.547232	,	0.547232	,	0.541152	,	0.53808	,	0.53808	,	0.537568	,	0.537568	,	0.54192	,	0.54192	,	0.544128	,	0.544128	,	0.54752	,	0.54752	,	0.54032	,	0.544448	,	0.544448	,	0.548064	,	0.548064	,	0.551072	,	0.551072	,	0.549792	,	0.549792	,	0.554816	,	0.539296	,	0.539296	,	0.551168	,	0.551168	,	0.551712	,	0.551712	,	0.545408	,	0.540704	,	0.540704	,	0.543904	,	0.543904	,	0.53968
Index	,	0	,	1	,	2	,	3	,	4	,	5	,	6	,	7	,	8	,	9	,	10	,	11	,	12	,	13	,	14	,	15	,	16	,	17	,	18	,	19	,	20	,	21	,	22	,	23	,	24	,	25	,	26	,	27	,	28	,	29	,	30	,	31	,	32	,	33	,	34	,	35	,	36	,	37	,	38	,	39	,	40	,	41	,	42	,	43	,	44	,	45	,	46	,	47	,	48	,	49	,	50	,	51	,	52	,	53	,	54	,	55	,	56	,	57	,	58	,	59	,	60	,	61	,	62	,	63	,	64

ProfilingBuildAggregator: 
BuildBottomLevelAS	,	4.1338	,	9.2216	,	32.6464	,	77.4731	,	159.947	,	268.058	,	435.706
BuildBottomLevelASGpu	,	11.0391	,	8.93709	,	31.2291	,	72.0589	,	141.246	,	241.759	,	471.308
BuildTopLevelAS	,	2.0222	,	0.7682	,	0.6412	,	0.7771	,	0.6914	,	0.7303	,	0.7905
BuildTopLevelASGpu	,	0.411296	,	0.165152	,	0.161696	,	0.289696	,	0.350912	,	0.389536	,	0.489728
Duplication	,	1	,	2	,	3	,	4	,	5	,	6	,	7
Triangles	,	262267	,	2098136	,	7081209	,	16785088	,	32783375	,	56649672	,	89957581
Meshes	,	103	,	824	,	2781	,	6592	,	12875	,	22248	,	35329
BottomLevels	,	1	,	8	,	27	,	64	,	125	,	216	,	343
TopLevelSize	,	64	,	512	,	1728	,	4096	,	8000	,	13824	,	21952
BottomLevelsSize	,	14623872	,	116990976	,	394844544	,	935927808	,	1827984000	,	3158756352	,	5015988096
Index	,	0	,	1	,	2	,	3	,	4	,	5	,	6

FpsAggregator: 
FPS	,	153	,	153	,	154	,	154	,	150	,	150	,	147	,	147	,	137	,	137	,	152	,	62	,	62	,	64	,	64	,	64	,	64	,	63	,	63	,	44	,	44	,	55	,	24	,	24	,	24	,	24	,	25	,	25	,	25	,	25	,	16	,	16	,	21	,	11	,	11	,	10	,	10	,	11	,	11	,	11	,	11	,	7	,	7	,	10	,	5	,	5	,	6	,	6	,	5	,	5	,	4	,	4	,	5	,	3	,	3	,	3	,	3	,	2	,	2	,	3	,	2	,	2	,	2	,	2	,	2
UPS	,	60	,	60	,	60	,	60	,	60	,	60	,	61	,	61	,	60	,	60	,	60	,	61	,	61	,	61	,	61	,	60	,	60	,	61	,	61	,	60	,	60	,	60	,	61	,	61	,	61	,	61	,	61	,	61	,	62	,	62	,	61	,	61	,	61	,	64	,	64	,	61	,	61	,	63	,	63	,	64	,	64	,	64	,	64	,	66	,	62	,	62	,	70	,	70	,	56	,	56	,	72	,	72	,	66	,	64	,	64	,	61	,	61	,	50	,	50	,	86	,	67	,	67	,	90	,	90	,	77
FrameTime	,	6.55066	,	6.55066	,	6.50552	,	6.50552	,	6.72002	,	6.72002	,	6.81514	,	6.81514	,	7.32028	,	7.32028	,	6.58643	,	16.2452	,	16.2452	,	15.7798	,	15.7798	,	15.7761	,	15.7761	,	16.026	,	16.026	,	22.8399	,	22.8399	,	18.2209	,	42.1335	,	42.1335	,	42.5886	,	42.5886	,	40.4956	,	40.4956	,	40.8597	,	40.8597	,	65.4617	,	65.4617	,	47.7532	,	96.6719	,	96.6719	,	102.028	,	102.028	,	95.1324	,	95.1324	,	102.438	,	102.438	,	148.366	,	148.366	,	107.115	,	207.51	,	207.51	,	190.646	,	190.646	,	210.685	,	210.685	,	285.875	,	285.875	,	215.025	,	346.591	,	346.591	,	336.165	,	336.165	,	526.74	,	526.74	,	418.431	,	572.029	,	572.029	,	782.807	,	782.807	,	634.088
GigaRays/s	,	1.68075	,	1.68075	,	1.69242	,	1.69242	,	1.63839	,	1.63839	,	1.61553	,	1.61553	,	1.50405	,	1.50405	,	1.67163	,	0.677741	,	0.677741	,	0.697732	,	0.697732	,	0.697894	,	0.697894	,	0.68701	,	0.68701	,	0.482054	,	0.482054	,	0.604254	,	0.261314	,	0.261314	,	0.258521	,	0.258521	,	0.271882	,	0.271882	,	0.26946	,	0.26946	,	0.168191	,	0.168191	,	0.230561	,	0.113891	,	0.113891	,	0.107912	,	0.107912	,	0.115734	,	0.115734	,	0.10748	,	0.10748	,	0.0742088	,	0.0742088	,	0.102788	,	0.0530579	,	0.0530579	,	0.0577512	,	0.0577512	,	0.0522584	,	0.0522584	,	0.0385135	,	0.0385135	,	0.0512036	,	0.0317667	,	0.0317667	,	0.032752	,	0.032752	,	0.0209023	,	0.0209023	,	0.0263127	,	0.0192474	,	0.0192474	,	0.0140648	,	0.0140648	,	0.0173636
Duplication	,	1	,	1	,	1	,	1	,	1	,	1	,	1	,	1	,	1	,	1	,	1	,	2	,	2	,	2	,	2	,	2	,	2	,	2	,	2	,	2	,	2	,	2	,	3	,	3	,	3	,	3	,	3	,	3	,	3	,	3	,	3	,	3	,	3	,	4	,	4	,	4	,	4	,	4	,	4	,	4	,	4	,	4	,	4	,	4	,	5	,	5	,	5	,	5	,	5	,	5	,	5	,	5	,	5	,	6	,	6	,	6	,	6	,	6	,	6	,	6	,	7	,	7	,	7	,	7	,	7
Index	,	0	,	1	,	2	,	3	,	4	,	5	,	6	,	7	,	8	,	9	,	10	,	11	,	12	,	13	,	14	,	15	,	16	,	17	,	18	,	19	,	20	,	21	,	22	,	23	,	24	,	25	,	26	,	27	,	28	,	29	,	30	,	31	,	32	,	33	,	34	,	35	,	36	,	37	,	38	,	39	,	40	,	41	,	42	,	43	,	44	,	45	,	46	,	47	,	48	,	49	,	50	,	51	,	52	,	53	,	54	,	55	,	56	,	57	,	58	,	59	,	60	,	61	,	62	,	63	,	64


AccelerationStructure: 
Ray tracing acceleration structure building statistics: 
	Bottom Level Acceleration Structure: 
		Maximum [B]: 14623872
		Minimum [B]: 14623872
		Currently Allocated [B]: 5015988096
		Currently Created [num]: 343
		Current Average [B]: 14623872
		Maximum Triangles [num]: 262267
		Minimum Triangles [num]: 262267
		Total Triangles [num]: 89957581
		Maximum Meshes [num]: 103
		Minimum Meshes [num]: 103
		Total Meshes [num]: 35329
	Top Level Acceleration Structure: 
		Maximum [B]: 21952
		Minimum [B]: 21952
		Currently Allocated [B]: 21952
		Total Allocated [B]: 21952
		Total Created [num]: 1
		Average Allocated [B]: 21952
		Maximum Instances [num]: 343
		Minimum Instances [num]: 343
		Total Instances [num]: 343
	Scratch Buffer: 
		Maximum [B]: 11660800
		Minimum [B]: 11660800
		Currently Allocated [B]: 11660800
		Total Allocated [B]: 11660800
		Total Created [num]: 1
		Average Allocated [B]: 11660800
ProfilingStack: 
[PROF] Profiling statistics: 
	Scopes entered : 30866
	Scopes exited : 30865
	Overhead per scope [ticks] : 997.6
	Threads entered : 3
	Threads exited : 0
	============================
		         Sum[Mt]   Parent[%]  Samples[num]       Avg[Mt]   Last/Curr[Mt]        Self[Mt]     Self[%] 	 Name

	main:

		   73825.352 Mt   100.000 %         1 x    73825.356 Mt    73825.349 Mt        1.101 Mt     0.001 % 	 /

		   73824.401 Mt    99.999 %         1 x    73824.409 Mt    73824.400 Mt      377.261 Mt     0.511 % 	 ./Main application loop

		       2.928 Mt     0.004 %         1 x        2.928 Mt        0.000 Mt        2.928 Mt   100.000 % 	 ../TexturedRLInitialization

		       2.419 Mt     0.003 %         1 x        2.419 Mt        0.000 Mt        2.419 Mt   100.000 % 	 ../ShadowMapRLInitialization

		       3.902 Mt     0.005 %         1 x        3.902 Mt        0.000 Mt        3.902 Mt   100.000 % 	 ../AmbientOcclusionRLInitialization

		       5.166 Mt     0.007 %         1 x        5.166 Mt        0.000 Mt        5.166 Mt   100.000 % 	 ../RasterResolveRLInitialization

		    9116.099 Mt    12.348 %         1 x     9116.099 Mt        0.000 Mt       12.431 Mt     0.136 % 	 ../Initialization

		    9103.667 Mt    99.864 %         1 x     9103.667 Mt        0.000 Mt        3.640 Mt     0.040 % 	 .../ScenePrep

		    8994.200 Mt    98.798 %         1 x     8994.200 Mt        0.000 Mt      342.802 Mt     3.811 % 	 ..../SceneLoad

		    8205.242 Mt    91.228 %         1 x     8205.242 Mt        0.000 Mt     1126.153 Mt    13.725 % 	 ...../glTF-LoadScene

		    7079.089 Mt    86.275 %        69 x      102.595 Mt        0.000 Mt     7079.089 Mt   100.000 % 	 ....../glTF-LoadImageData

		     288.671 Mt     3.210 %         1 x      288.671 Mt        0.000 Mt      288.671 Mt   100.000 % 	 ...../glTF-CreateScene

		     157.486 Mt     1.751 %         1 x      157.486 Mt        0.000 Mt      157.486 Mt   100.000 % 	 ...../SceneDesc-CreateScene

		       2.522 Mt     0.028 %         1 x        2.522 Mt        0.000 Mt        0.005 Mt     0.206 % 	 ..../ShadowMapRLPrep

		       2.517 Mt    99.794 %         1 x        2.517 Mt        0.000 Mt        1.820 Mt    72.307 % 	 ...../PrepareForRendering

		       0.697 Mt    27.693 %         1 x        0.697 Mt        0.000 Mt        0.697 Mt   100.000 % 	 ....../PrepareDrawBundle

		       7.801 Mt     0.086 %         1 x        7.801 Mt        0.000 Mt        0.005 Mt     0.064 % 	 ..../TexturedRLPrep

		       7.796 Mt    99.936 %         1 x        7.796 Mt        0.000 Mt        1.322 Mt    16.953 % 	 ...../PrepareForRendering

		       4.258 Mt    54.615 %         1 x        4.258 Mt        0.000 Mt        4.258 Mt   100.000 % 	 ....../PrepareMaterials

		       2.216 Mt    28.432 %         1 x        2.216 Mt        0.000 Mt        2.216 Mt   100.000 % 	 ....../PrepareDrawBundle

		       8.103 Mt     0.089 %         1 x        8.103 Mt        0.000 Mt        0.005 Mt     0.057 % 	 ..../DeferredRLPrep

		       8.098 Mt    99.943 %         1 x        8.098 Mt        0.000 Mt        3.384 Mt    41.787 % 	 ...../PrepareForRendering

		       0.020 Mt     0.246 %         1 x        0.020 Mt        0.000 Mt        0.020 Mt   100.000 % 	 ....../PrepareMaterials

		       2.120 Mt    26.182 %         1 x        2.120 Mt        0.000 Mt        2.120 Mt   100.000 % 	 ....../BuildMaterialCache

		       2.574 Mt    31.785 %         1 x        2.574 Mt        0.000 Mt        2.574 Mt   100.000 % 	 ....../PrepareDrawBundle

		      27.096 Mt     0.298 %         1 x       27.096 Mt        0.000 Mt        6.240 Mt    23.029 % 	 ..../RayTracingRLPrep

		       0.577 Mt     2.130 %         1 x        0.577 Mt        0.000 Mt        0.577 Mt   100.000 % 	 ...../PrepareAccelerationStructures

		       0.025 Mt     0.093 %         1 x        0.025 Mt        0.000 Mt        0.025 Mt   100.000 % 	 ...../PrepareCache

		       5.257 Mt    19.402 %         1 x        5.257 Mt        0.000 Mt        5.257 Mt   100.000 % 	 ...../BuildCache

		      10.698 Mt    39.482 %         1 x       10.698 Mt        0.000 Mt        0.005 Mt     0.050 % 	 ...../BuildAccelerationStructures

		      10.693 Mt    99.950 %         1 x       10.693 Mt        0.000 Mt        4.537 Mt    42.428 % 	 ....../AccelerationStructureBuild

		       4.134 Mt    38.660 %         1 x        4.134 Mt        0.000 Mt        4.134 Mt   100.000 % 	 ......./BuildBottomLevelAS

		       2.022 Mt    18.912 %         1 x        2.022 Mt        0.000 Mt        2.022 Mt   100.000 % 	 ......./BuildTopLevelAS

		       4.299 Mt    15.864 %         1 x        4.299 Mt        0.000 Mt        4.299 Mt   100.000 % 	 ...../BuildShaderTables

		      60.306 Mt     0.662 %         1 x       60.306 Mt        0.000 Mt       60.306 Mt   100.000 % 	 ..../GpuSidePrep

		       4.872 Mt     0.007 %         1 x        4.872 Mt        0.000 Mt        4.872 Mt   100.000 % 	 ../DeferredRLInitialization

		      51.418 Mt     0.070 %         1 x       51.418 Mt        0.000 Mt        2.272 Mt     4.419 % 	 ../RayTracingRLInitialization

		      49.146 Mt    95.581 %         1 x       49.146 Mt        0.000 Mt       49.146 Mt   100.000 % 	 .../PipelineBuild

		       5.129 Mt     0.007 %         1 x        5.129 Mt        0.000 Mt        5.129 Mt   100.000 % 	 ../ResolveRLInitialization

		   64255.207 Mt    87.038 %      7488 x        8.581 Mt      679.102 Mt      349.841 Mt     0.544 % 	 ../MainLoop

		    2952.520 Mt     4.595 %      3815 x        0.774 Mt        0.740 Mt     2951.311 Mt    99.959 % 	 .../Update

		       1.209 Mt     0.041 %         1 x        1.209 Mt        0.000 Mt        1.209 Mt   100.000 % 	 ..../GuiModelApply

		   60952.846 Mt    94.861 %      2148 x       28.377 Mt      624.749 Mt    32250.088 Mt    52.910 % 	 .../Render

		   28702.757 Mt    47.090 %      2148 x       13.363 Mt      257.578 Mt    24048.648 Mt    83.785 % 	 ..../RayTracing

		    1672.761 Mt     5.828 %      2148 x        0.779 Mt        0.006 Mt        8.710 Mt     0.521 % 	 ...../DeferredRLPrep

		    1664.051 Mt    99.479 %         8 x      208.006 Mt        0.000 Mt       47.682 Mt     2.865 % 	 ....../PrepareForRendering

		       2.240 Mt     0.135 %         8 x        0.280 Mt        0.000 Mt        2.240 Mt   100.000 % 	 ......./PrepareMaterials

		       0.006 Mt     0.000 %         8 x        0.001 Mt        0.000 Mt        0.006 Mt   100.000 % 	 ......./BuildMaterialCache

		    1614.124 Mt    97.000 %         8 x      201.765 Mt        0.000 Mt     1614.124 Mt   100.000 % 	 ......./PrepareDrawBundle

		    2981.348 Mt    10.387 %      2148 x        1.388 Mt        0.010 Mt       18.008 Mt     0.604 % 	 ...../RayTracingRLPrep

		     486.540 Mt    16.319 %         8 x       60.818 Mt        0.000 Mt      486.540 Mt   100.000 % 	 ....../PrepareAccelerationStructures

		       2.160 Mt     0.072 %         8 x        0.270 Mt        0.000 Mt        2.160 Mt   100.000 % 	 ....../PrepareCache

		       0.007 Mt     0.000 %         8 x        0.001 Mt        0.000 Mt        0.007 Mt   100.000 % 	 ....../BuildCache

		    1055.146 Mt    35.392 %         8 x      131.893 Mt        0.000 Mt        0.021 Mt     0.002 % 	 ....../BuildAccelerationStructures

		    1055.125 Mt    99.998 %         8 x      131.891 Mt        0.000 Mt       21.140 Mt     2.004 % 	 ......./AccelerationStructureBuild

		    1028.221 Mt    97.450 %         8 x      128.528 Mt        0.000 Mt     1028.221 Mt   100.000 % 	 ......../BuildBottomLevelAS

		       5.765 Mt     0.546 %         8 x        0.721 Mt        0.000 Mt        5.765 Mt   100.000 % 	 ......../BuildTopLevelAS

		    1419.487 Mt    47.612 %         8 x      177.436 Mt        0.000 Mt     1419.487 Mt   100.000 % 	 ....../BuildShaderTables

	WindowThread:

		   73812.862 Mt   100.000 %         1 x    73812.864 Mt    73812.861 Mt    73812.862 Mt   100.000 % 	 /

	GpuThread:

		   28934.418 Mt   100.000 %      2148 x       13.470 Mt      356.864 Mt      192.173 Mt     0.664 % 	 /

		      11.515 Mt     0.040 %         1 x       11.515 Mt        0.000 Mt        0.062 Mt     0.539 % 	 ./ScenePrep

		      11.453 Mt    99.461 %         1 x       11.453 Mt        0.000 Mt        0.003 Mt     0.025 % 	 ../AccelerationStructureBuild

		      11.039 Mt    96.384 %         1 x       11.039 Mt        0.000 Mt       11.039 Mt   100.000 % 	 .../BuildBottomLevelASGpu

		       0.411 Mt     3.591 %         1 x        0.411 Mt        0.000 Mt        0.411 Mt   100.000 % 	 .../BuildTopLevelASGpu

		   28716.928 Mt    99.248 %      2148 x       13.369 Mt      356.860 Mt        3.525 Mt     0.012 % 	 ./RayTracingGpu

		    1557.286 Mt     5.423 %      2148 x        0.725 Mt        7.650 Mt     1557.286 Mt   100.000 % 	 ../DeferredRLGpu

		   24872.003 Mt    86.611 %      2148 x       11.579 Mt      348.661 Mt    24872.003 Mt   100.000 % 	 ../RayTracingRLGpu

		    1274.457 Mt     4.438 %      2148 x        0.593 Mt        0.546 Mt     1274.457 Mt   100.000 % 	 ../ResolveRLGpu

		    1009.657 Mt     3.516 %         8 x      126.207 Mt        0.000 Mt        0.008 Mt     0.001 % 	 ../AccelerationStructureBuild

		    1007.561 Mt    99.792 %         8 x      125.945 Mt        0.000 Mt     1007.561 Mt   100.000 % 	 .../BuildBottomLevelASGpu

		       2.088 Mt     0.207 %         8 x        0.261 Mt        0.000 Mt        2.088 Mt   100.000 % 	 .../BuildTopLevelASGpu

		      13.801 Mt     0.048 %      2148 x        0.006 Mt        0.002 Mt       13.801 Mt   100.000 % 	 ./Present


	============================


