Configuration: 
Command line parameters  = E:\programming\FIT-DIP\Masters-DXR-Main-git\build\Measurement\x64\Debug\Measurement.exe --scene Sponza/Sponza.gltf --duplication-cube --duplication-offset 25 --profile-triangles --profile-camera-track Sponza/SponzaFast.trk --profile-max-duplication 7 --rt-mode --width 1024 --height 768 --profile-output TrianglesSponza768Rt 
Window width             = 1024
Window height            = 768
Window title             = Direct3D App
Back-buffer count        = 3
Fill Triangles           = enabled
Triangles Font Clock-Wise= enabled
Fast Build AS            = disabled
Target FPS               = 0
Target UPS               = 60
Tearing                  = enabled
VSync                    = disabled
GUI rendering            = disabled
Debug layer              = enabled
GPU validation           = disabled
GPU profiling            = enabled
Render mode              = Ray Tracing
Loaded scene file        = Sponza/Sponza.gltf
Using testing scene      = disabled
Duplication              = 7
Duplication in cube      = enabled
Duplication offset       = 25
BLAS duplication         = enabled
Rays per pixel           = 14
Quality preset           = High
Rasterization Quality    : 
  AO                     = enabled
  AO kernel size         = 4
  Shadows                = enabled
  Shadow map resolution  = 4096
  Shadow PCF kernel size = 4
  Reflections            = enabled
Ray Tracing Quality      : 
  AO                     = enabled
  AO rays                = 4
  AO kernel size         = 4
  Shadows                = enabled
  Shadow rays            = 4
  Shadow kernel size     = 4
  Reflections            = enabled

ProfilingAggregator: 
Render	,	5.8678	,	5.8678	,	7.4366	,	7.4366	,	7.9112	,	7.9112	,	6.7096	,	6.7096	,	6.8181	,	6.8181	,	6.2354	,	13.2549	,	13.2549	,	13.9725	,	13.9725	,	14.0076	,	14.0076	,	13.7074	,	13.7074	,	14.2506	,	14.2506	,	14.5514	,	31.6437	,	31.6437	,	32.1063	,	32.1063	,	31.9428	,	31.9428	,	32.7788	,	32.7788	,	37.3661	,	37.3661	,	33.1083	,	58.0027	,	58.0027	,	57.8704	,	57.8704	,	58.3895	,	58.3895	,	60.7066	,	60.7066	,	61.4132	,	61.4132	,	60.1528	,	103.649	,	103.649	,	108.473	,	108.473	,	109.562	,	109.562	,	109.03	,	109.03	,	107.782	,	174.154	,	174.154	,	176.623	,	176.623	,	177.094	,	177.094	,	174.813	,	278.377	,	278.377	,	272.398	,	272.398	,	279.154
Update	,	0.9178	,	0.9178	,	0.6991	,	0.6991	,	0.7406	,	0.7406	,	0.5538	,	0.5538	,	1.1829	,	1.1829	,	0.745	,	0.8435	,	0.8435	,	0.6374	,	0.6374	,	0.4972	,	0.4972	,	0.7311	,	0.7311	,	0.9431	,	0.9431	,	0.5204	,	0.4311	,	0.4311	,	0.5116	,	0.5116	,	0.5128	,	0.5128	,	0.5127	,	0.5127	,	0.5115	,	0.5115	,	0.5012	,	0.549	,	0.549	,	0.5509	,	0.5509	,	0.5512	,	0.5512	,	0.5544	,	0.5544	,	0.553	,	0.553	,	0.5442	,	0.6261	,	0.6261	,	0.5226	,	0.5226	,	0.6251	,	0.6251	,	0.6256	,	0.6256	,	0.6198	,	0.6186	,	0.6186	,	0.6193	,	0.6193	,	0.7368	,	0.7368	,	0.5969	,	0.8451	,	0.8451	,	0.748	,	0.748	,	0.8266
RayTracing	,	2.5942	,	2.5942	,	3.4649	,	3.4649	,	4.266	,	4.266	,	2.9317	,	2.9317	,	2.9573	,	2.9573	,	2.9301	,	8.5953	,	8.5953	,	8.556	,	8.556	,	8.5495	,	8.5495	,	7.2356	,	7.2356	,	7.2042	,	7.2042	,	7.2329	,	19.5607	,	19.5607	,	19.9851	,	19.9851	,	20.4841	,	20.4841	,	20.7148	,	20.7148	,	20.2588	,	20.2588	,	20.706	,	44.622	,	44.622	,	44.2896	,	44.2896	,	44.8266	,	44.8266	,	45.244	,	45.244	,	45.016	,	45.016	,	44.3653	,	84.139	,	84.139	,	84.3476	,	84.3476	,	84.7913	,	84.7913	,	84.7896	,	84.7896	,	84.2038	,	145.354	,	145.354	,	144.706	,	144.706	,	144.924	,	144.924	,	145.475	,	230.149	,	230.149	,	227.569	,	227.569	,	235.093
RayTracingGpu	,	2.08048	,	2.08048	,	2.30186	,	2.30186	,	2.35869	,	2.35869	,	2.34902	,	2.34902	,	2.57968	,	2.57968	,	2.1401	,	3.06323	,	3.06323	,	3.82637	,	3.82637	,	3.69859	,	3.69859	,	4.89293	,	4.89293	,	5.48202	,	5.48202	,	5.49101	,	9.95958	,	9.95958	,	9.95062	,	9.95062	,	9.26352	,	9.26352	,	9.85587	,	9.85587	,	14.8509	,	14.8509	,	10.1451	,	10.1976	,	10.1976	,	10.5037	,	10.5037	,	10.3984	,	10.3984	,	12.312	,	12.312	,	13.1325	,	13.1325	,	12.6808	,	14.8343	,	14.8343	,	19.4156	,	19.4156	,	20.1019	,	20.1019	,	19.4869	,	19.4869	,	18.8946	,	21.7065	,	21.7065	,	24.9524	,	24.9524	,	25.0194	,	25.0194	,	22.3445	,	38.0973	,	38.0973	,	34.8268	,	34.8268	,	34.1201
DeferredRLGpu	,	0.366272	,	0.366272	,	0.461856	,	0.461856	,	0.40944	,	0.40944	,	0.38208	,	0.38208	,	0.557888	,	0.557888	,	0.414976	,	0.721536	,	0.721536	,	0.644384	,	0.644384	,	0.70512	,	0.70512	,	1.11709	,	1.11709	,	1.48906	,	1.48906	,	1.03699	,	2.54387	,	2.54387	,	2.57261	,	2.57261	,	2.5807	,	2.5807	,	3.5977	,	3.5977	,	4.7415	,	4.7415	,	3.05245	,	5.00832	,	5.00832	,	4.64294	,	4.64294	,	4.76378	,	4.76378	,	6.21562	,	6.21562	,	6.62666	,	6.62666	,	5.75466	,	9.08326	,	9.08326	,	9.39443	,	9.39443	,	12.0337	,	12.0337	,	11.3483	,	11.3483	,	10.3728	,	14.6983	,	14.6983	,	18.1101	,	18.1101	,	17.8193	,	17.8193	,	16.5796	,	30.5287	,	30.5287	,	26.3457	,	26.3457	,	25.9231
RayTracingRLGpu	,	1.10413	,	1.10413	,	1.2063	,	1.2063	,	1.29142	,	1.29142	,	1.30163	,	1.30163	,	1.46838	,	1.46838	,	1.1775	,	1.22374	,	1.22374	,	1.73917	,	1.73917	,	1.66659	,	1.66659	,	2.28605	,	2.28605	,	2.56854	,	2.56854	,	2.78576	,	5.50618	,	5.50618	,	5.26586	,	5.26586	,	4.53328	,	4.53328	,	4.29139	,	4.29139	,	7.92304	,	7.92304	,	5.06442	,	3.10035	,	3.10035	,	3.75942	,	3.75942	,	3.54445	,	3.54445	,	3.99696	,	3.99696	,	4.40595	,	4.40595	,	4.84154	,	3.66458	,	3.66458	,	7.9056	,	7.9056	,	5.96051	,	5.96051	,	6.02515	,	6.02515	,	6.43677	,	4.92285	,	4.92285	,	4.73414	,	4.73414	,	5.09699	,	5.09699	,	3.67379	,	5.45718	,	5.45718	,	6.38077	,	6.38077	,	6.05117
ResolveRLGpu	,	0.608864	,	0.608864	,	0.632416	,	0.632416	,	0.656544	,	0.656544	,	0.663648	,	0.663648	,	0.552224	,	0.552224	,	0.546208	,	1.11418	,	1.11418	,	1.44051	,	1.44051	,	1.32486	,	1.32486	,	1.48774	,	1.48774	,	1.42266	,	1.42266	,	1.66672	,	1.90778	,	1.90778	,	2.10989	,	2.10989	,	2.14771	,	2.14771	,	1.9647	,	1.9647	,	2.18435	,	2.18435	,	2.02643	,	2.0865	,	2.0865	,	2.09805	,	2.09805	,	2.0881	,	2.0881	,	2.09667	,	2.09667	,	2.09786	,	2.09786	,	2.08282	,	2.08467	,	2.08467	,	2.11376	,	2.11376	,	2.10538	,	2.10538	,	2.11171	,	2.11171	,	2.08298	,	2.08288	,	2.08288	,	2.10445	,	2.10445	,	2.10083	,	2.10083	,	2.08851	,	2.10893	,	2.10893	,	2.09805	,	2.09805	,	2.14358
Index	,	0	,	1	,	2	,	3	,	4	,	5	,	6	,	7	,	8	,	9	,	10	,	11	,	12	,	13	,	14	,	15	,	16	,	17	,	18	,	19	,	20	,	21	,	22	,	23	,	24	,	25	,	26	,	27	,	28	,	29	,	30	,	31	,	32	,	33	,	34	,	35	,	36	,	37	,	38	,	39	,	40	,	41	,	42	,	43	,	44	,	45	,	46	,	47	,	48	,	49	,	50	,	51	,	52	,	53	,	54	,	55	,	56	,	57	,	58	,	59	,	60	,	61	,	62	,	63	,	64

ProfilingBuildAggregator: 
BuildBottomLevelAS	,	3.9996	,	9.4894	,	39.9546	,	99.28	,	192.053	,	426.908	,	742.822
BuildBottomLevelASGpu	,	15.6334	,	9.81875	,	80.2103	,	241.639	,	342.237	,	492.37	,	543.141
BuildTopLevelAS	,	2.0443	,	0.7425	,	0.8056	,	0.7402	,	0.7461	,	0.9351	,	0.986
BuildTopLevelASGpu	,	0.64128	,	0.073696	,	0.262848	,	0.33712	,	0.193248	,	0.154528	,	0.174112
Duplication	,	1	,	2	,	3	,	4	,	5	,	6	,	7
Triangles	,	262267	,	2098136	,	7081209	,	16785088	,	32783375	,	56649672	,	89957581
Meshes	,	103	,	824	,	2781	,	6592	,	12875	,	22248	,	35329
BottomLevels	,	1	,	8	,	27	,	64	,	125	,	216	,	343
TopLevelSize	,	64	,	512	,	1728	,	4096	,	8000	,	13824	,	21952
BottomLevelsSize	,	14623872	,	116990976	,	394844544	,	935927808	,	1827984000	,	3158756352	,	5015988096
Index	,	0	,	1	,	2	,	3	,	4	,	5	,	6

FpsAggregator: 
FPS	,	153	,	153	,	149	,	149	,	149	,	149	,	149	,	149	,	136	,	136	,	152	,	83	,	83	,	78	,	78	,	75	,	75	,	70	,	70	,	64	,	64	,	64	,	31	,	31	,	31	,	31	,	31	,	31	,	30	,	30	,	27	,	27	,	28	,	17	,	17	,	17	,	17	,	17	,	17	,	17	,	17	,	16	,	16	,	16	,	10	,	10	,	9	,	9	,	9	,	9	,	9	,	9	,	9	,	6	,	6	,	6	,	6	,	6	,	6	,	6	,	4	,	4	,	4	,	4	,	4
UPS	,	60	,	60	,	60	,	60	,	60	,	60	,	60	,	60	,	60	,	60	,	61	,	60	,	60	,	60	,	60	,	60	,	60	,	60	,	60	,	60	,	60	,	61	,	61	,	61	,	61	,	61	,	61	,	61	,	62	,	62	,	61	,	61	,	61	,	61	,	61	,	62	,	62	,	63	,	63	,	63	,	63	,	62	,	62	,	62	,	64	,	64	,	60	,	60	,	61	,	61	,	62	,	62	,	61	,	64	,	64	,	66	,	66	,	68	,	68	,	67	,	69	,	69	,	70	,	70	,	70
FrameTime	,	6.55995	,	6.55995	,	6.71666	,	6.71666	,	6.71317	,	6.71317	,	6.74635	,	6.74635	,	7.35944	,	7.35944	,	6.60264	,	12.0661	,	12.0661	,	12.8762	,	12.8762	,	13.3821	,	13.3821	,	14.3022	,	14.3022	,	15.7148	,	15.7148	,	15.7361	,	32.8818	,	32.8818	,	32.9522	,	32.9522	,	32.9518	,	32.9518	,	34.4087	,	34.4087	,	37.8342	,	37.8342	,	35.9519	,	59.6797	,	59.6797	,	60.7631	,	60.7631	,	61.3806	,	61.3806	,	62.4545	,	62.4545	,	64.74	,	64.74	,	63.6374	,	107.202	,	107.202	,	111.286	,	111.286	,	114.271	,	114.271	,	114.806	,	114.806	,	112.682	,	178.683	,	178.683	,	184.135	,	184.135	,	188.223	,	188.223	,	184.666	,	288.973	,	288.973	,	291.838	,	291.838	,	291.248
GigaRays/s	,	1.67838	,	1.67838	,	1.63922	,	1.63922	,	1.64007	,	1.64007	,	1.632	,	1.632	,	1.49604	,	1.49604	,	1.66752	,	0.912475	,	0.912475	,	0.855069	,	0.855069	,	0.822742	,	0.822742	,	0.769813	,	0.769813	,	0.700615	,	0.700615	,	0.699669	,	0.334837	,	0.334837	,	0.334122	,	0.334122	,	0.334126	,	0.334126	,	0.319979	,	0.319979	,	0.291007	,	0.291007	,	0.306244	,	0.184486	,	0.184486	,	0.181196	,	0.181196	,	0.179373	,	0.179373	,	0.176289	,	0.176289	,	0.170066	,	0.170066	,	0.173012	,	0.102704	,	0.102704	,	0.0989345	,	0.0989345	,	0.0963506	,	0.0963506	,	0.0959015	,	0.0959015	,	0.0977088	,	0.0616177	,	0.0616177	,	0.0597933	,	0.0597933	,	0.0584946	,	0.0584946	,	0.0596213	,	0.0381007	,	0.0381007	,	0.0377266	,	0.0377266	,	0.037803
Duplication	,	1	,	1	,	1	,	1	,	1	,	1	,	1	,	1	,	1	,	1	,	1	,	2	,	2	,	2	,	2	,	2	,	2	,	2	,	2	,	2	,	2	,	2	,	3	,	3	,	3	,	3	,	3	,	3	,	3	,	3	,	3	,	3	,	3	,	4	,	4	,	4	,	4	,	4	,	4	,	4	,	4	,	4	,	4	,	4	,	5	,	5	,	5	,	5	,	5	,	5	,	5	,	5	,	5	,	6	,	6	,	6	,	6	,	6	,	6	,	6	,	7	,	7	,	7	,	7	,	7
Index	,	0	,	1	,	2	,	3	,	4	,	5	,	6	,	7	,	8	,	9	,	10	,	11	,	12	,	13	,	14	,	15	,	16	,	17	,	18	,	19	,	20	,	21	,	22	,	23	,	24	,	25	,	26	,	27	,	28	,	29	,	30	,	31	,	32	,	33	,	34	,	35	,	36	,	37	,	38	,	39	,	40	,	41	,	42	,	43	,	44	,	45	,	46	,	47	,	48	,	49	,	50	,	51	,	52	,	53	,	54	,	55	,	56	,	57	,	58	,	59	,	60	,	61	,	62	,	63	,	64


AccelerationStructure: 
Ray tracing acceleration structure building statistics: 
	Bottom Level Acceleration Structure: 
		Maximum [B]: 14623872
		Minimum [B]: 14623872
		Currently Allocated [B]: 5015988096
		Currently Created [num]: 343
		Current Average [B]: 14623872
		Maximum Triangles [num]: 262267
		Minimum Triangles [num]: 262267
		Total Triangles [num]: 89957581
		Maximum Meshes [num]: 103
		Minimum Meshes [num]: 103
		Total Meshes [num]: 35329
	Top Level Acceleration Structure: 
		Maximum [B]: 21952
		Minimum [B]: 21952
		Currently Allocated [B]: 21952
		Total Allocated [B]: 21952
		Total Created [num]: 1
		Average Allocated [B]: 21952
		Maximum Instances [num]: 343
		Minimum Instances [num]: 343
		Total Instances [num]: 343
	Scratch Buffer: 
		Maximum [B]: 11660800
		Minimum [B]: 11660800
		Currently Allocated [B]: 11660800
		Total Allocated [B]: 11660800
		Total Created [num]: 1
		Average Allocated [B]: 11660800
ProfilingStack: 
[PROF] Profiling statistics: 
	Scopes entered : 34198
	Scopes exited : 34197
	Overhead per scope [ticks] : 996.4
	Threads entered : 3
	Threads exited : 0
	============================
		         Sum[Mt]   Parent[%]  Samples[num]       Avg[Mt]   Last/Curr[Mt]        Self[Mt]     Self[%] 	 Name

	main:

		   72498.082 Mt   100.000 %         1 x    72498.085 Mt    72498.081 Mt        0.762 Mt     0.001 % 	 /

		   72497.428 Mt    99.999 %         1 x    72497.434 Mt    72497.427 Mt      345.765 Mt     0.477 % 	 ./Main application loop

		       2.831 Mt     0.004 %         1 x        2.831 Mt        0.000 Mt        2.831 Mt   100.000 % 	 ../TexturedRLInitialization

		       2.531 Mt     0.003 %         1 x        2.531 Mt        0.000 Mt        2.531 Mt   100.000 % 	 ../ShadowMapRLInitialization

		       4.443 Mt     0.006 %         1 x        4.443 Mt        0.000 Mt        4.443 Mt   100.000 % 	 ../AmbientOcclusionRLInitialization

		       5.643 Mt     0.008 %         1 x        5.643 Mt        0.000 Mt        5.643 Mt   100.000 % 	 ../RasterResolveRLInitialization

		    9047.594 Mt    12.480 %         1 x     9047.594 Mt        0.000 Mt       12.436 Mt     0.137 % 	 ../Initialization

		    9035.157 Mt    99.863 %         1 x     9035.157 Mt        0.000 Mt        3.658 Mt     0.040 % 	 .../ScenePrep

		    8920.552 Mt    98.732 %         1 x     8920.552 Mt        0.000 Mt      343.042 Mt     3.846 % 	 ..../SceneLoad

		    8113.525 Mt    90.953 %         1 x     8113.525 Mt        0.000 Mt     1109.013 Mt    13.669 % 	 ...../glTF-LoadScene

		    7004.512 Mt    86.331 %        69 x      101.515 Mt        0.000 Mt     7004.512 Mt   100.000 % 	 ....../glTF-LoadImageData

		     306.640 Mt     3.437 %         1 x      306.640 Mt        0.000 Mt      306.640 Mt   100.000 % 	 ...../glTF-CreateScene

		     157.345 Mt     1.764 %         1 x      157.345 Mt        0.000 Mt      157.345 Mt   100.000 % 	 ...../SceneDesc-CreateScene

		       2.539 Mt     0.028 %         1 x        2.539 Mt        0.000 Mt        0.005 Mt     0.209 % 	 ..../ShadowMapRLPrep

		       2.534 Mt    99.791 %         1 x        2.534 Mt        0.000 Mt        1.841 Mt    72.669 % 	 ...../PrepareForRendering

		       0.693 Mt    27.331 %         1 x        0.693 Mt        0.000 Mt        0.693 Mt   100.000 % 	 ....../PrepareDrawBundle

		       6.145 Mt     0.068 %         1 x        6.145 Mt        0.000 Mt        0.005 Mt     0.081 % 	 ..../TexturedRLPrep

		       6.140 Mt    99.919 %         1 x        6.140 Mt        0.000 Mt        1.165 Mt    18.971 % 	 ...../PrepareForRendering

		       2.724 Mt    44.366 %         1 x        2.724 Mt        0.000 Mt        2.724 Mt   100.000 % 	 ....../PrepareMaterials

		       2.251 Mt    36.662 %         1 x        2.251 Mt        0.000 Mt        2.251 Mt   100.000 % 	 ....../PrepareDrawBundle

		       7.894 Mt     0.087 %         1 x        7.894 Mt        0.000 Mt        0.005 Mt     0.061 % 	 ..../DeferredRLPrep

		       7.889 Mt    99.939 %         1 x        7.889 Mt        0.000 Mt        3.022 Mt    38.304 % 	 ...../PrepareForRendering

		       0.021 Mt     0.260 %         1 x        0.021 Mt        0.000 Mt        0.021 Mt   100.000 % 	 ....../PrepareMaterials

		       2.175 Mt    27.574 %         1 x        2.175 Mt        0.000 Mt        2.175 Mt   100.000 % 	 ....../BuildMaterialCache

		       2.671 Mt    33.861 %         1 x        2.671 Mt        0.000 Mt        2.671 Mt   100.000 % 	 ....../PrepareDrawBundle

		      29.121 Mt     0.322 %         1 x       29.121 Mt        0.000 Mt        6.464 Mt    22.197 % 	 ..../RayTracingRLPrep

		       0.609 Mt     2.090 %         1 x        0.609 Mt        0.000 Mt        0.609 Mt   100.000 % 	 ...../PrepareAccelerationStructures

		       0.025 Mt     0.085 %         1 x        0.025 Mt        0.000 Mt        0.025 Mt   100.000 % 	 ...../PrepareCache

		       5.297 Mt    18.191 %         1 x        5.297 Mt        0.000 Mt        5.297 Mt   100.000 % 	 ...../BuildCache

		      12.167 Mt    41.782 %         1 x       12.167 Mt        0.000 Mt        0.004 Mt     0.032 % 	 ...../BuildAccelerationStructures

		      12.163 Mt    99.968 %         1 x       12.163 Mt        0.000 Mt        6.119 Mt    50.310 % 	 ....../AccelerationStructureBuild

		       4.000 Mt    32.883 %         1 x        4.000 Mt        0.000 Mt        4.000 Mt   100.000 % 	 ......./BuildBottomLevelAS

		       2.044 Mt    16.807 %         1 x        2.044 Mt        0.000 Mt        2.044 Mt   100.000 % 	 ......./BuildTopLevelAS

		       4.559 Mt    15.656 %         1 x        4.559 Mt        0.000 Mt        4.559 Mt   100.000 % 	 ...../BuildShaderTables

		      65.249 Mt     0.722 %         1 x       65.249 Mt        0.000 Mt       65.249 Mt   100.000 % 	 ..../GpuSidePrep

		       4.952 Mt     0.007 %         1 x        4.952 Mt        0.000 Mt        4.952 Mt   100.000 % 	 ../DeferredRLInitialization

		      49.118 Mt     0.068 %         1 x       49.118 Mt        0.000 Mt        2.160 Mt     4.398 % 	 ../RayTracingRLInitialization

		      46.958 Mt    95.602 %         1 x       46.958 Mt        0.000 Mt       46.958 Mt   100.000 % 	 .../PipelineBuild

		       5.064 Mt     0.007 %         1 x        5.064 Mt        0.000 Mt        5.064 Mt   100.000 % 	 ../ResolveRLInitialization

		   63029.486 Mt    86.940 %      7640 x        8.250 Mt      302.455 Mt      326.961 Mt     0.519 % 	 ../MainLoop

		    2875.229 Mt     4.562 %      3764 x        0.764 Mt        0.740 Mt     2874.028 Mt    99.958 % 	 .../Update

		       1.201 Mt     0.042 %         1 x        1.201 Mt        0.000 Mt        1.201 Mt   100.000 % 	 ..../GuiModelApply

		   59827.296 Mt    94.920 %      2507 x       23.864 Mt      275.688 Mt    17973.720 Mt    30.043 % 	 .../Render

		   41853.576 Mt    69.957 %      2507 x       16.695 Mt      229.440 Mt    36650.071 Mt    87.567 % 	 ..../RayTracing

		    1670.859 Mt     3.992 %      2507 x        0.666 Mt        0.004 Mt        9.494 Mt     0.568 % 	 ...../DeferredRLPrep

		    1661.366 Mt    99.432 %         8 x      207.671 Mt        0.000 Mt       49.464 Mt     2.977 % 	 ....../PrepareForRendering

		       2.244 Mt     0.135 %         8 x        0.281 Mt        0.000 Mt        2.244 Mt   100.000 % 	 ......./PrepareMaterials

		       0.008 Mt     0.000 %         8 x        0.001 Mt        0.000 Mt        0.008 Mt   100.000 % 	 ......./BuildMaterialCache

		    1609.650 Mt    96.887 %         8 x      201.206 Mt        0.000 Mt     1609.650 Mt   100.000 % 	 ......./PrepareDrawBundle

		    3532.646 Mt     8.440 %      2507 x        1.409 Mt        0.010 Mt       19.903 Mt     0.563 % 	 ...../RayTracingRLPrep

		     495.462 Mt    14.025 %         8 x       61.933 Mt        0.000 Mt      495.462 Mt   100.000 % 	 ....../PrepareAccelerationStructures

		       2.195 Mt     0.062 %         8 x        0.274 Mt        0.000 Mt        2.195 Mt   100.000 % 	 ....../PrepareCache

		       0.007 Mt     0.000 %         8 x        0.001 Mt        0.000 Mt        0.007 Mt   100.000 % 	 ....../BuildCache

		    1599.042 Mt    45.265 %         8 x      199.880 Mt        0.000 Mt        0.020 Mt     0.001 % 	 ....../BuildAccelerationStructures

		    1599.022 Mt    99.999 %         8 x      199.878 Mt        0.000 Mt       28.935 Mt     1.810 % 	 ......./AccelerationStructureBuild

		    1563.630 Mt    97.787 %         8 x      195.454 Mt        0.000 Mt     1563.630 Mt   100.000 % 	 ......../BuildBottomLevelAS

		       6.457 Mt     0.404 %         8 x        0.807 Mt        0.000 Mt        6.457 Mt   100.000 % 	 ......../BuildTopLevelAS

		    1416.036 Mt    40.084 %         8 x      177.005 Mt        0.000 Mt     1416.036 Mt   100.000 % 	 ....../BuildShaderTables

	WindowThread:

		   72495.888 Mt   100.000 %         1 x    72495.889 Mt    72495.887 Mt    72495.888 Mt   100.000 % 	 /

	GpuThread:

		   13676.126 Mt   100.000 %      2507 x        5.455 Mt       36.035 Mt      162.780 Mt     1.190 % 	 /

		      16.329 Mt     0.119 %         1 x       16.329 Mt        0.000 Mt        0.051 Mt     0.314 % 	 ./ScenePrep

		      16.278 Mt    99.686 %         1 x       16.278 Mt        0.000 Mt        0.003 Mt     0.020 % 	 ../AccelerationStructureBuild

		      15.633 Mt    96.040 %         1 x       15.633 Mt        0.000 Mt       15.633 Mt   100.000 % 	 .../BuildBottomLevelASGpu

		       0.641 Mt     3.940 %         1 x        0.641 Mt        0.000 Mt        0.641 Mt   100.000 % 	 .../BuildTopLevelASGpu

		   13463.327 Mt    98.444 %      2507 x        5.370 Mt       36.032 Mt        4.710 Mt     0.035 % 	 ./RayTracingGpu

		    4098.428 Mt    30.441 %      2507 x        1.635 Mt       27.814 Mt     4098.428 Mt   100.000 % 	 ../DeferredRLGpu

		    5079.876 Mt    37.731 %      2507 x        2.026 Mt        6.092 Mt     5079.876 Mt   100.000 % 	 ../RayTracingRLGpu

		    2480.023 Mt    18.421 %      2507 x        0.989 Mt        2.122 Mt     2480.023 Mt   100.000 % 	 ../ResolveRLGpu

		    1800.289 Mt    13.372 %         8 x      225.036 Mt        0.000 Mt        0.014 Mt     0.001 % 	 ../AccelerationStructureBuild

		    1798.762 Mt    99.915 %         8 x      224.845 Mt        0.000 Mt     1798.762 Mt   100.000 % 	 .../BuildBottomLevelASGpu

		       1.513 Mt     0.084 %         8 x        0.189 Mt        0.000 Mt        1.513 Mt   100.000 % 	 .../BuildTopLevelASGpu

		      33.691 Mt     0.246 %      2507 x        0.013 Mt        0.003 Mt       33.691 Mt   100.000 % 	 ./Present


	============================


