Configuration: 
Command line parameters  = E:\programming\FIT-DIP\Masters-DXR-Main-git\build\Measurement\x64\Debug\Measurement.exe --scene Sponza/Sponza.gltf --duplication-cube --duplication-offset 25 --profile-triangles --profile-camera-track Sponza/SponzaFast.trk --profile-max-duplication 7 --rt-mode --width 2560 --height 1440 --profile-output TrianglesSponza1440Rt 
Window width             = 2560
Window height            = 1421
Window title             = Direct3D App
Back-buffer count        = 3
Fill Triangles           = enabled
Triangles Font Clock-Wise= enabled
Fast Build AS            = disabled
Target FPS               = 0
Target UPS               = 60
Tearing                  = enabled
VSync                    = disabled
GUI rendering            = disabled
Debug layer              = enabled
GPU validation           = disabled
GPU profiling            = enabled
Render mode              = Ray Tracing
Loaded scene file        = Sponza/Sponza.gltf
Using testing scene      = disabled
Duplication              = 7
Duplication in cube      = enabled
Duplication offset       = 25
BLAS duplication         = enabled
Rays per pixel           = 14
Quality preset           = High
Rasterization Quality    : 
  AO                     = enabled
  AO kernel size         = 4
  Shadows                = enabled
  Shadow map resolution  = 4096
  Shadow PCF kernel size = 4
  Reflections            = enabled
Ray Tracing Quality      : 
  AO                     = enabled
  AO rays                = 4
  AO kernel size         = 4
  Shadows                = enabled
  Shadow rays            = 4
  Shadow kernel size     = 4
  Reflections            = enabled

ProfilingAggregator: 
Render	,	12.9051	,	12.9051	,	13.2404	,	13.2404	,	14.4649	,	14.4649	,	12.9792	,	12.9792	,	15.2799	,	15.2799	,	13.4421	,	16.1571	,	16.1571	,	16.4271	,	16.4271	,	16.7909	,	16.7909	,	17.2247	,	17.2247	,	18.7477	,	18.7477	,	18.9714	,	36.5695	,	36.5695	,	34.9029	,	34.9029	,	34.1003	,	34.1003	,	37.7472	,	37.7472	,	42.6241	,	42.6241	,	33.6989	,	65.629	,	65.629	,	67.1889	,	67.1889	,	70.1843	,	70.1843	,	77.2592	,	77.2592	,	77.1447	,	77.1447	,	72.6466	,	113.662	,	113.662	,	135.058	,	135.058	,	133.583	,	133.583	,	131.203	,	131.203	,	126.155	,	194.22	,	194.22	,	211.019	,	211.019	,	215.924	,	215.924	,	208.438	,	314.016	,	314.016	,	305.614	,	305.614	,	309.25
Update	,	0.7501	,	0.7501	,	0.5567	,	0.5567	,	0.8323	,	0.8323	,	0.5693	,	0.5693	,	0.6592	,	0.6592	,	0.5431	,	0.4877	,	0.4877	,	0.5926	,	0.5926	,	0.6804	,	0.6804	,	0.5895	,	0.5895	,	0.4855	,	0.4855	,	0.5608	,	0.51	,	0.51	,	0.5093	,	0.5093	,	0.4478	,	0.4478	,	0.512	,	0.512	,	0.5165	,	0.5165	,	0.4972	,	0.5484	,	0.5484	,	0.55	,	0.55	,	0.5507	,	0.5507	,	0.5496	,	0.5496	,	0.5518	,	0.5518	,	0.541	,	0.6218	,	0.6218	,	0.6254	,	0.6254	,	0.6254	,	0.6254	,	0.6259	,	0.6259	,	0.6167	,	0.7167	,	0.7167	,	0.73	,	0.73	,	0.7387	,	0.7387	,	0.7437	,	0.8921	,	0.8921	,	0.8462	,	0.8462	,	0.7994
RayTracing	,	2.9881	,	2.9881	,	3.0308	,	3.0308	,	4.1854	,	4.1854	,	2.9929	,	2.9929	,	3.0123	,	3.0123	,	3.0559	,	8.4553	,	8.4553	,	8.8031	,	8.8031	,	8.4942	,	8.4942	,	7.2192	,	7.2192	,	7.2125	,	7.2125	,	8.3372	,	21.4006	,	21.4006	,	20.2012	,	20.2012	,	19.744	,	19.744	,	21.0084	,	21.0084	,	22.4801	,	22.4801	,	20.1228	,	45.7887	,	45.7887	,	44.9454	,	44.9454	,	45.3701	,	45.3701	,	45.3526	,	45.3526	,	46.2776	,	46.2776	,	44.9752	,	84.7963	,	84.7963	,	86.4069	,	86.4069	,	86.2097	,	86.2097	,	85.9954	,	85.9954	,	85.6713	,	145.954	,	145.954	,	146.814	,	146.814	,	147.159	,	147.159	,	147.442	,	231.42	,	231.42	,	229.874	,	229.874	,	230.635
RayTracingGpu	,	8.56147	,	8.56147	,	8.69462	,	8.69462	,	8.69795	,	8.69795	,	8.55274	,	8.55274	,	10.5708	,	10.5708	,	8.81715	,	6.07744	,	6.07744	,	5.81187	,	5.81187	,	6.86416	,	6.86416	,	8.56333	,	8.56333	,	10.1137	,	10.1137	,	9.01075	,	13.1201	,	13.1201	,	12.5948	,	12.5948	,	12.2721	,	12.2721	,	14.6278	,	14.6278	,	17.7296	,	17.7296	,	11.5795	,	16.637	,	16.637	,	19.0876	,	19.0876	,	21.6308	,	21.6308	,	28.6585	,	28.6585	,	27.6795	,	27.6795	,	24.5729	,	24.1382	,	24.1382	,	43.9585	,	43.9585	,	42.6078	,	42.6078	,	40.434	,	40.434	,	35.9288	,	41.1787	,	41.1787	,	56.9394	,	56.9394	,	61.4572	,	61.4572	,	53.7411	,	72.3475	,	72.3475	,	65.5628	,	65.5628	,	68.3419
DeferredRLGpu	,	1.18192	,	1.18192	,	1.53699	,	1.53699	,	1.28166	,	1.28166	,	1.13021	,	1.13021	,	1.98576	,	1.98576	,	1.33046	,	1.49437	,	1.49437	,	1.26	,	1.26	,	1.58365	,	1.58365	,	2.73325	,	2.73325	,	3.59712	,	3.59712	,	2.52358	,	2.66976	,	2.66976	,	2.20922	,	2.20922	,	2.94765	,	2.94765	,	4.5609	,	4.5609	,	7.18006	,	7.18006	,	4.07389	,	5.7703	,	5.7703	,	4.4817	,	4.4817	,	6.39744	,	6.39744	,	11.3092	,	11.3092	,	12.134	,	12.134	,	8.30451	,	8.30202	,	8.30202	,	12.6554	,	12.6554	,	18.9591	,	18.9591	,	16.5294	,	16.5294	,	13.902	,	16.5008	,	16.5008	,	27.9414	,	27.9414	,	30.1731	,	30.1731	,	27.9509	,	39.8462	,	39.8462	,	40.2772	,	40.2772	,	35.9292
RayTracingRLGpu	,	4.77133	,	4.77133	,	4.66755	,	4.66755	,	4.83408	,	4.83408	,	4.94112	,	4.94112	,	5.91072	,	5.91072	,	4.98269	,	2.20243	,	2.20243	,	2.16131	,	2.16131	,	2.76307	,	2.76307	,	3.3633	,	3.3633	,	3.93859	,	3.93859	,	4.01856	,	7.3919	,	7.3919	,	7.12381	,	7.12381	,	5.85021	,	5.85021	,	6.57744	,	6.57744	,	7.80643	,	7.80643	,	4.97283	,	6.04371	,	6.04371	,	9.12582	,	9.12582	,	9.29514	,	9.29514	,	11.0774	,	11.0774	,	10.0719	,	10.0719	,	11.0573	,	9.76749	,	9.76749	,	24.2172	,	24.2172	,	16.7467	,	16.7467	,	17.6442	,	17.6442	,	16.0347	,	17.1857	,	17.1857	,	20.3235	,	20.3235	,	21.7712	,	21.7712	,	16.3395	,	23.5551	,	23.5551	,	16.6272	,	16.6272	,	23.7525
ResolveRLGpu	,	2.60666	,	2.60666	,	2.48912	,	2.48912	,	2.57754	,	2.57754	,	2.48019	,	2.48019	,	2.67338	,	2.67338	,	2.50304	,	2.37914	,	2.37914	,	2.38896	,	2.38896	,	2.51491	,	2.51491	,	2.46438	,	2.46438	,	2.57658	,	2.57658	,	2.46624	,	3.05699	,	3.05699	,	3.25978	,	3.25978	,	3.47222	,	3.47222	,	3.4873	,	3.4873	,	2.74176	,	2.74176	,	2.53098	,	4.82115	,	4.82115	,	5.47699	,	5.47699	,	5.93613	,	5.93613	,	6.26922	,	6.26922	,	5.47056	,	5.47056	,	5.20874	,	6.06618	,	6.06618	,	7.08291	,	7.08291	,	6.89981	,	6.89981	,	6.2583	,	6.2583	,	5.98899	,	7.4896	,	7.4896	,	8.67248	,	8.67248	,	9.51098	,	9.51098	,	9.44858	,	8.94387	,	8.94387	,	8.65661	,	8.65661	,	8.65814
Index	,	0	,	1	,	2	,	3	,	4	,	5	,	6	,	7	,	8	,	9	,	10	,	11	,	12	,	13	,	14	,	15	,	16	,	17	,	18	,	19	,	20	,	21	,	22	,	23	,	24	,	25	,	26	,	27	,	28	,	29	,	30	,	31	,	32	,	33	,	34	,	35	,	36	,	37	,	38	,	39	,	40	,	41	,	42	,	43	,	44	,	45	,	46	,	47	,	48	,	49	,	50	,	51	,	52	,	53	,	54	,	55	,	56	,	57	,	58	,	59	,	60	,	61	,	62	,	63	,	64

ProfilingBuildAggregator: 
BuildBottomLevelAS	,	4.166	,	32.5163	,	79.5363	,	194.158	,	342.065	,	551.78
BuildBottomLevelASGpu	,	15.6362	,	31.7301	,	72.8984	,	286.51	,	421.017	,	476.994
BuildTopLevelAS	,	2.6312	,	0.793	,	0.774	,	0.7837	,	0.7865	,	0.825
BuildTopLevelASGpu	,	0.61184	,	0.09616	,	0.115904	,	0.169632	,	0.149312	,	0.171104
Duplication	,	1	,	3	,	4	,	5	,	6	,	7
Triangles	,	262267	,	7081209	,	16785088	,	32783375	,	56649672	,	89957581
Meshes	,	103	,	2781	,	6592	,	12875	,	22248	,	35329
BottomLevels	,	1	,	27	,	64	,	125	,	216	,	343
TopLevelSize	,	64	,	1728	,	4096	,	8000	,	13824	,	21952
BottomLevelsSize	,	14623872	,	394844544	,	935927808	,	1827984000	,	3158756352	,	5015988096
Index	,	0	,	1	,	2	,	3	,	4	,	5

FpsAggregator: 
FPS	,	70	,	70	,	72	,	72	,	73	,	73	,	73	,	73	,	59	,	59	,	69	,	66	,	66	,	62	,	62	,	61	,	61	,	58	,	58	,	49	,	49	,	51	,	27	,	27	,	28	,	28	,	28	,	28	,	27	,	27	,	24	,	24	,	26	,	16	,	16	,	15	,	15	,	14	,	14	,	13	,	13	,	12	,	12	,	13	,	9	,	9	,	8	,	8	,	8	,	8	,	8	,	8	,	8	,	6	,	6	,	5	,	5	,	5	,	5	,	5	,	4	,	4	,	3	,	3	,	4
UPS	,	60	,	60	,	60	,	60	,	61	,	61	,	61	,	61	,	60	,	60	,	61	,	60	,	60	,	60	,	60	,	60	,	60	,	61	,	61	,	60	,	60	,	61	,	60	,	60	,	61	,	61	,	60	,	60	,	62	,	62	,	61	,	61	,	61	,	63	,	63	,	61	,	61	,	60	,	60	,	61	,	61	,	61	,	61	,	60	,	64	,	64	,	60	,	60	,	68	,	68	,	67	,	67	,	67	,	70	,	70	,	63	,	63	,	69	,	69	,	68	,	75	,	75	,	61	,	61	,	78
FrameTime	,	14.3273	,	14.3273	,	13.9433	,	13.9433	,	13.8883	,	13.8883	,	13.8127	,	13.8127	,	17.0735	,	17.0735	,	14.5943	,	15.2033	,	15.2033	,	16.2071	,	16.2071	,	16.4862	,	16.4862	,	17.4525	,	17.4525	,	20.5617	,	20.5617	,	19.6981	,	37.2883	,	37.2883	,	36.0551	,	36.0551	,	35.7485	,	35.7485	,	38.291	,	38.291	,	42.2117	,	42.2117	,	38.7859	,	65.7435	,	65.7435	,	68.049	,	68.049	,	71.5712	,	71.5712	,	78.5768	,	78.5768	,	84.2526	,	84.2526	,	77.2005	,	117.52	,	117.52	,	128.839	,	128.839	,	142.097	,	142.097	,	138.1	,	138.1	,	138.223	,	197.747	,	197.747	,	215.354	,	215.354	,	230.886	,	230.886	,	223.531	,	321.521	,	321.521	,	336.654	,	336.654	,	326.741
GigaRays/s	,	3.55466	,	3.55466	,	3.65257	,	3.65257	,	3.66703	,	3.66703	,	3.68709	,	3.68709	,	2.9829	,	2.9829	,	3.48963	,	3.34984	,	3.34984	,	3.14236	,	3.14236	,	3.08917	,	3.08917	,	2.91813	,	2.91813	,	2.47687	,	2.47687	,	2.58545	,	1.36581	,	1.36581	,	1.41252	,	1.41252	,	1.42464	,	1.42464	,	1.33004	,	1.33004	,	1.20651	,	1.20651	,	1.31307	,	0.774657	,	0.774657	,	0.748412	,	0.748412	,	0.71158	,	0.71158	,	0.648139	,	0.648139	,	0.604475	,	0.604475	,	0.659693	,	0.433361	,	0.433361	,	0.395288	,	0.395288	,	0.358407	,	0.358407	,	0.368781	,	0.368781	,	0.368453	,	0.257545	,	0.257545	,	0.236488	,	0.236488	,	0.220579	,	0.220579	,	0.227837	,	0.158399	,	0.158399	,	0.151279	,	0.151279	,	0.155869
Duplication	,	1	,	1	,	1	,	1	,	1	,	1	,	1	,	1	,	1	,	1	,	1	,	2	,	2	,	2	,	2	,	2	,	2	,	2	,	2	,	2	,	2	,	2	,	3	,	3	,	3	,	3	,	3	,	3	,	3	,	3	,	3	,	3	,	3	,	4	,	4	,	4	,	4	,	4	,	4	,	4	,	4	,	4	,	4	,	4	,	5	,	5	,	5	,	5	,	5	,	5	,	5	,	5	,	5	,	6	,	6	,	6	,	6	,	6	,	6	,	6	,	7	,	7	,	7	,	7	,	7
Index	,	0	,	1	,	2	,	3	,	4	,	5	,	6	,	7	,	8	,	9	,	10	,	11	,	12	,	13	,	14	,	15	,	16	,	17	,	18	,	19	,	20	,	21	,	22	,	23	,	24	,	25	,	26	,	27	,	28	,	29	,	30	,	31	,	32	,	33	,	34	,	35	,	36	,	37	,	38	,	39	,	40	,	41	,	42	,	43	,	44	,	45	,	46	,	47	,	48	,	49	,	50	,	51	,	52	,	53	,	54	,	55	,	56	,	57	,	58	,	59	,	60	,	61	,	62	,	63	,	64


AccelerationStructure: 
Ray tracing acceleration structure building statistics: 
	Bottom Level Acceleration Structure: 
		Maximum [B]: 14623872
		Minimum [B]: 14623872
		Currently Allocated [B]: 5015988096
		Currently Created [num]: 343
		Current Average [B]: 14623872
		Maximum Triangles [num]: 262267
		Minimum Triangles [num]: 262267
		Total Triangles [num]: 89957581
		Maximum Meshes [num]: 103
		Minimum Meshes [num]: 103
		Total Meshes [num]: 35329
	Top Level Acceleration Structure: 
		Maximum [B]: 21952
		Minimum [B]: 21952
		Currently Allocated [B]: 21952
		Total Allocated [B]: 21952
		Total Created [num]: 1
		Average Allocated [B]: 21952
		Maximum Instances [num]: 343
		Minimum Instances [num]: 343
		Total Instances [num]: 343
	Scratch Buffer: 
		Maximum [B]: 11660800
		Minimum [B]: 11660800
		Currently Allocated [B]: 11660800
		Total Allocated [B]: 11660800
		Total Created [num]: 1
		Average Allocated [B]: 11660800
ProfilingStack: 
[PROF] Profiling statistics: 
	Scopes entered : 24464
	Scopes exited : 24463
	Overhead per scope [ticks] : 1000
	Threads entered : 3
	Threads exited : 0
	============================
		         Sum[Mt]   Parent[%]  Samples[num]       Avg[Mt]   Last/Curr[Mt]        Self[Mt]     Self[%] 	 Name

	main:

		   72763.787 Mt   100.000 %         1 x    72763.791 Mt    72763.785 Mt        0.711 Mt     0.001 % 	 /

		   72763.210 Mt    99.999 %         1 x    72763.217 Mt    72763.209 Mt      360.660 Mt     0.496 % 	 ./Main application loop

		       4.280 Mt     0.006 %         1 x        4.280 Mt        0.000 Mt        4.280 Mt   100.000 % 	 ../TexturedRLInitialization

		       3.330 Mt     0.005 %         1 x        3.330 Mt        0.000 Mt        3.330 Mt   100.000 % 	 ../ShadowMapRLInitialization

		       4.225 Mt     0.006 %         1 x        4.225 Mt        0.000 Mt        4.225 Mt   100.000 % 	 ../AmbientOcclusionRLInitialization

		       6.237 Mt     0.009 %         1 x        6.237 Mt        0.000 Mt        6.237 Mt   100.000 % 	 ../RasterResolveRLInitialization

		    9093.685 Mt    12.498 %         1 x     9093.685 Mt        0.000 Mt       12.822 Mt     0.141 % 	 ../Initialization

		    9080.862 Mt    99.859 %         1 x     9080.862 Mt        0.000 Mt        3.640 Mt     0.040 % 	 .../ScenePrep

		    8962.926 Mt    98.701 %         1 x     8962.926 Mt        0.000 Mt      326.871 Mt     3.647 % 	 ..../SceneLoad

		    8174.290 Mt    91.201 %         1 x     8174.290 Mt        0.000 Mt     1106.707 Mt    13.539 % 	 ...../glTF-LoadScene

		    7067.583 Mt    86.461 %        69 x      102.429 Mt        0.000 Mt     7067.583 Mt   100.000 % 	 ....../glTF-LoadImageData

		     303.576 Mt     3.387 %         1 x      303.576 Mt        0.000 Mt      303.576 Mt   100.000 % 	 ...../glTF-CreateScene

		     158.188 Mt     1.765 %         1 x      158.188 Mt        0.000 Mt      158.188 Mt   100.000 % 	 ...../SceneDesc-CreateScene

		       2.763 Mt     0.030 %         1 x        2.763 Mt        0.000 Mt        0.005 Mt     0.185 % 	 ..../ShadowMapRLPrep

		       2.758 Mt    99.815 %         1 x        2.758 Mt        0.000 Mt        1.936 Mt    70.205 % 	 ...../PrepareForRendering

		       0.822 Mt    29.795 %         1 x        0.822 Mt        0.000 Mt        0.822 Mt   100.000 % 	 ....../PrepareDrawBundle

		       6.191 Mt     0.068 %         1 x        6.191 Mt        0.000 Mt        0.005 Mt     0.081 % 	 ..../TexturedRLPrep

		       6.186 Mt    99.919 %         1 x        6.186 Mt        0.000 Mt        1.173 Mt    18.968 % 	 ...../PrepareForRendering

		       2.753 Mt    44.501 %         1 x        2.753 Mt        0.000 Mt        2.753 Mt   100.000 % 	 ....../PrepareMaterials

		       2.260 Mt    36.531 %         1 x        2.260 Mt        0.000 Mt        2.260 Mt   100.000 % 	 ....../PrepareDrawBundle

		       7.875 Mt     0.087 %         1 x        7.875 Mt        0.000 Mt        0.005 Mt     0.062 % 	 ..../DeferredRLPrep

		       7.870 Mt    99.938 %         1 x        7.870 Mt        0.000 Mt        3.069 Mt    38.988 % 	 ...../PrepareForRendering

		       0.021 Mt     0.266 %         1 x        0.021 Mt        0.000 Mt        0.021 Mt   100.000 % 	 ....../PrepareMaterials

		       2.209 Mt    28.074 %         1 x        2.209 Mt        0.000 Mt        2.209 Mt   100.000 % 	 ....../BuildMaterialCache

		       2.571 Mt    32.673 %         1 x        2.571 Mt        0.000 Mt        2.571 Mt   100.000 % 	 ....../PrepareDrawBundle

		      28.850 Mt     0.318 %         1 x       28.850 Mt        0.000 Mt        6.695 Mt    23.205 % 	 ..../RayTracingRLPrep

		       0.605 Mt     2.096 %         1 x        0.605 Mt        0.000 Mt        0.605 Mt   100.000 % 	 ...../PrepareAccelerationStructures

		       0.024 Mt     0.083 %         1 x        0.024 Mt        0.000 Mt        0.024 Mt   100.000 % 	 ...../PrepareCache

		       5.319 Mt    18.435 %         1 x        5.319 Mt        0.000 Mt        5.319 Mt   100.000 % 	 ...../BuildCache

		      11.644 Mt    40.359 %         1 x       11.644 Mt        0.000 Mt        0.004 Mt     0.035 % 	 ...../BuildAccelerationStructures

		      11.639 Mt    99.965 %         1 x       11.639 Mt        0.000 Mt        4.842 Mt    41.602 % 	 ....../AccelerationStructureBuild

		       4.166 Mt    35.792 %         1 x        4.166 Mt        0.000 Mt        4.166 Mt   100.000 % 	 ......./BuildBottomLevelAS

		       2.631 Mt    22.606 %         1 x        2.631 Mt        0.000 Mt        2.631 Mt   100.000 % 	 ......./BuildTopLevelAS

		       4.564 Mt    15.821 %         1 x        4.564 Mt        0.000 Mt        4.564 Mt   100.000 % 	 ...../BuildShaderTables

		      68.618 Mt     0.756 %         1 x       68.618 Mt        0.000 Mt       68.618 Mt   100.000 % 	 ..../GpuSidePrep

		       5.668 Mt     0.008 %         1 x        5.668 Mt        0.000 Mt        5.668 Mt   100.000 % 	 ../DeferredRLInitialization

		      49.045 Mt     0.067 %         1 x       49.045 Mt        0.000 Mt        2.327 Mt     4.744 % 	 ../RayTracingRLInitialization

		      46.718 Mt    95.256 %         1 x       46.718 Mt        0.000 Mt       46.718 Mt   100.000 % 	 .../PipelineBuild

		       5.011 Mt     0.007 %         1 x        5.011 Mt        0.000 Mt        5.011 Mt   100.000 % 	 ../ResolveRLInitialization

		   63231.068 Mt    86.900 %      6256 x       10.107 Mt      373.997 Mt      327.744 Mt     0.518 % 	 ../MainLoop

		    2940.232 Mt     4.650 %      3772 x        0.779 Mt        0.816 Mt     2938.832 Mt    99.952 % 	 .../Update

		       1.401 Mt     0.048 %         1 x        1.401 Mt        0.000 Mt        1.401 Mt   100.000 % 	 ..../GuiModelApply

		   59963.092 Mt    94.832 %      1580 x       37.951 Mt      321.190 Mt    23696.659 Mt    39.519 % 	 .../Render

		   36266.433 Mt    60.481 %      1580 x       22.953 Mt      232.033 Mt    31452.123 Mt    86.725 % 	 ..../RayTracing

		    1651.207 Mt     4.553 %      1580 x        1.045 Mt        0.005 Mt        5.462 Mt     0.331 % 	 ...../DeferredRLPrep

		    1645.745 Mt    99.669 %         7 x      235.106 Mt        0.000 Mt       47.664 Mt     2.896 % 	 ....../PrepareForRendering

		       2.236 Mt     0.136 %         7 x        0.319 Mt        0.000 Mt        2.236 Mt   100.000 % 	 ......./PrepareMaterials

		       0.005 Mt     0.000 %         7 x        0.001 Mt        0.000 Mt        0.005 Mt   100.000 % 	 ......./BuildMaterialCache

		    1595.839 Mt    96.968 %         7 x      227.977 Mt        0.000 Mt     1595.839 Mt   100.000 % 	 ......./PrepareDrawBundle

		    3163.102 Mt     8.722 %      1580 x        2.002 Mt        0.011 Mt       15.590 Mt     0.493 % 	 ...../RayTracingRLPrep

		     486.712 Mt    15.387 %         7 x       69.530 Mt        0.000 Mt      486.712 Mt   100.000 % 	 ....../PrepareAccelerationStructures

		       2.178 Mt     0.069 %         7 x        0.311 Mt        0.000 Mt        2.178 Mt   100.000 % 	 ....../PrepareCache

		       0.005 Mt     0.000 %         7 x        0.001 Mt        0.000 Mt        0.005 Mt   100.000 % 	 ....../BuildCache

		    1268.071 Mt    40.089 %         7 x      181.153 Mt        0.000 Mt        0.018 Mt     0.001 % 	 ....../BuildAccelerationStructures

		    1268.053 Mt    99.999 %         7 x      181.150 Mt        0.000 Mt       19.690 Mt     1.553 % 	 ......./AccelerationStructureBuild

		    1243.006 Mt    98.025 %         7 x      177.572 Mt        0.000 Mt     1243.006 Mt   100.000 % 	 ......../BuildBottomLevelAS

		       5.357 Mt     0.422 %         7 x        0.765 Mt        0.000 Mt        5.357 Mt   100.000 % 	 ......../BuildTopLevelAS

		    1390.547 Mt    43.961 %         7 x      198.650 Mt        0.000 Mt     1390.547 Mt   100.000 % 	 ....../BuildShaderTables

	WindowThread:

		   72763.767 Mt   100.000 %         1 x    72763.769 Mt    72763.766 Mt    72763.767 Mt   100.000 % 	 /

	GpuThread:

		   20609.143 Mt   100.000 %      1580 x       13.044 Mt       78.637 Mt      186.609 Mt     0.905 % 	 /

		      16.300 Mt     0.079 %         1 x       16.300 Mt        0.000 Mt        0.050 Mt     0.307 % 	 ./ScenePrep

		      16.250 Mt    99.693 %         1 x       16.250 Mt        0.000 Mt        0.002 Mt     0.012 % 	 ../AccelerationStructureBuild

		      15.636 Mt    96.223 %         1 x       15.636 Mt        0.000 Mt       15.636 Mt   100.000 % 	 .../BuildBottomLevelASGpu

		       0.612 Mt     3.765 %         1 x        0.612 Mt        0.000 Mt        0.612 Mt   100.000 % 	 .../BuildTopLevelASGpu

		   20352.537 Mt    98.755 %      1580 x       12.881 Mt       78.328 Mt        2.520 Mt     0.012 % 	 ./RayTracingGpu

		    5532.160 Mt    27.182 %      1580 x        3.501 Mt       41.431 Mt     5532.160 Mt   100.000 % 	 ../DeferredRLGpu

		    8784.147 Mt    43.160 %      1580 x        5.560 Mt       27.082 Mt     8784.147 Mt   100.000 % 	 ../RayTracingRLGpu

		    4702.731 Mt    23.106 %      1580 x        2.976 Mt        9.811 Mt     4702.731 Mt   100.000 % 	 ../ResolveRLGpu

		    1330.979 Mt     6.540 %         7 x      190.140 Mt        0.000 Mt        0.007 Mt     0.001 % 	 ../AccelerationStructureBuild

		    1330.100 Mt    99.934 %         7 x      190.014 Mt        0.000 Mt     1330.100 Mt   100.000 % 	 .../BuildBottomLevelASGpu

		       0.872 Mt     0.066 %         7 x        0.125 Mt        0.000 Mt        0.872 Mt   100.000 % 	 .../BuildTopLevelASGpu

		      53.697 Mt     0.261 %      1580 x        0.034 Mt        0.308 Mt       53.697 Mt   100.000 % 	 ./Present


	============================


