Configuration: 
Command line parameters  = E:\programming\FIT-DIP\Masters-DXR-Main-git\build\Measurement\x64\Release\Measurement.exe --scene Sponza/Sponza.gltf --profile-builds --profile-output BuildsSponza 
Build type               = Release
Device name              = NVIDIA GeForce RTX 2080 Ti
Device memory MB         = 11049
Ray Tracing backend      = Hardware
Window width             = 1024
Window height            = 768
Window title             = Direct3D App
Back-buffer count        = 3
Fill Triangles           = enabled
Triangles Font Clock-Wise= enabled
Fast Build AS            = disabled
Target FPS               = 60
Target UPS               = 60
Tearing                  = disabled
VSync                    = disabled
GUI rendering            = enabled
Debug layer              = disabled
GPU validation           = disabled
GPU profiling            = enabled
Render mode              = Rasterization
Loaded scene file        = Sponza/Sponza.gltf
Using testing scene      = disabled
Duplication              = 1
Duplication in cube      = disabled
Duplication offset       = 10
BLAS duplication         = disabled
Rays per pixel           = 13
Quality preset           = High
Rasterization Quality    : 
  AO                     = enabled
  AO kernel size         = 4
  Shadows                = enabled
  Shadow map resolution  = 4096
  Shadow PCF kernel size = 4
  Reflections            = enabled
Ray Tracing Quality      : 
  AO                     = enabled
  AO rays                = 4
  AO kernel size         = 4
  Shadows                = enabled
  Shadow rays            = 4
  Shadow kernel size     = 4
  Reflections            = enabled

ProfilingAggregator: 

ProfilingBuildAggregator: 
BuildBottomLevelAS	,	1.675	,	1.675	,	1.675	,	1.675	,	1.675	,	1.675	,	1.675	,	1.675	,	1.675	,	1.675	,	1.675	,	1.675	,	1.675	,	1.675	,	1.675	,	1.675	,	1.675	,	1.675	,	1.675	,	1.675	,	1.675	,	1.675	,	1.675	,	1.675	,	1.675	,	1.675	,	1.675	,	1.675	,	1.675	,	1.675	,	1.675	,	1.675	,	1.675	,	1.675	,	1.675	,	1.675	,	1.675	,	1.675	,	1.675	,	1.675	,	1.675	,	1.675	,	1.675	,	1.675	,	1.675	,	1.675	,	1.675	,	1.675	,	1.675	,	1.675	,	1.675	,	1.675	,	1.675	,	1.675	,	1.675	,	1.675	,	1.675	,	1.675	,	1.675	,	1.675	,	1.675	,	1.675	,	1.675	,	1.675	,	1.675	,	1.675	,	1.675	,	1.675	,	1.675	,	1.675	,	1.675	,	1.675	,	1.675	,	1.675	,	1.675	,	1.675	,	1.675	,	1.675	,	1.675	,	1.675	,	1.675	,	1.675	,	1.675	,	1.675	,	1.675	,	1.675	,	1.675	,	1.675	,	1.675	,	1.675	,	1.675	,	1.675	,	1.675	,	1.675	,	1.675	,	1.675	,	1.675	,	1.675	,	1.675	,	1.675	,	1.675	,	1.675	,	1.675	,	1.675
BuildBottomLevelASGpu	,	1.48742	,	0.606624	,	0.381472	,	0.466432	,	0.427296	,	0.249792	,	0.308992	,	0.443456	,	0.445952	,	0.490464	,	0.18464	,	0.457696	,	0.38976	,	0.514656	,	0.314432	,	0.279104	,	0.297632	,	0.259264	,	0.2512	,	0.280448	,	0.230688	,	0.277184	,	0.249632	,	0.258208	,	0.250432	,	0.262752	,	0.268	,	0.262304	,	0.251008	,	0.281184	,	0.22992	,	0.280864	,	0.233024	,	0.278496	,	0.233408	,	0.361824	,	0.223136	,	0.290816	,	0.253984	,	0.340576	,	0.205344	,	0.242816	,	0.204896	,	0.40992	,	0.2112	,	0.51568	,	0.21088	,	0.15984	,	0.436288	,	0.524864	,	0.690624	,	0.188192	,	0.257056	,	0.542688	,	0.757088	,	0.577152	,	0.56928	,	0.57632	,	0.571712	,	0.56112	,	0.557792	,	0.560384	,	0.561504	,	0.6112	,	0.540704	,	0.519968	,	0.53344	,	0.514656	,	0.52304	,	0.519712	,	0.521696	,	0.547104	,	0.513312	,	0.5296	,	0.163392	,	0.593504	,	0.1632	,	0.597216	,	0.164896	,	0.600576	,	0.155008	,	0.599904	,	0.397728	,	0.486048	,	0.395424	,	0.450112	,	0.401312	,	0.480032	,	0.385088	,	0.464128	,	0.378848	,	0.457184	,	0.380992	,	0.46016	,	0.394528	,	0.470592	,	0.592832	,	0.44992	,	0.424704	,	0.468448	,	0.41616	,	0.208832	,	0.639488	,	0.163776
BuildTopLevelAS	,	0.5218	,	0.5218	,	0.5218	,	0.5218	,	0.5218	,	0.5218	,	0.5218	,	0.5218	,	0.5218	,	0.5218	,	0.5218	,	0.5218	,	0.5218	,	0.5218	,	0.5218	,	0.5218	,	0.5218	,	0.5218	,	0.5218	,	0.5218	,	0.5218	,	0.5218	,	0.5218	,	0.5218	,	0.5218	,	0.5218	,	0.5218	,	0.5218	,	0.5218	,	0.5218	,	0.5218	,	0.5218	,	0.5218	,	0.5218	,	0.5218	,	0.5218	,	0.5218	,	0.5218	,	0.5218	,	0.5218	,	0.5218	,	0.5218	,	0.5218	,	0.5218	,	0.5218	,	0.5218	,	0.5218	,	0.5218	,	0.5218	,	0.5218	,	0.5218	,	0.5218	,	0.5218	,	0.5218	,	0.5218	,	0.5218	,	0.5218	,	0.5218	,	0.5218	,	0.5218	,	0.5218	,	0.5218	,	0.5218	,	0.5218	,	0.5218	,	0.5218	,	0.5218	,	0.5218	,	0.5218	,	0.5218	,	0.5218	,	0.5218	,	0.5218	,	0.5218	,	0.5218	,	0.5218	,	0.5218	,	0.5218	,	0.5218	,	0.5218	,	0.5218	,	0.5218	,	0.5218	,	0.5218	,	0.5218	,	0.5218	,	0.5218	,	0.5218	,	0.5218	,	0.5218	,	0.5218	,	0.5218	,	0.5218	,	0.5218	,	0.5218	,	0.5218	,	0.5218	,	0.5218	,	0.5218	,	0.5218	,	0.5218	,	0.5218	,	0.5218	,	0.5218
BuildTopLevelASGpu	,	0.086144	,	0.083776	,	0.078144	,	0.079136	,	0.082624	,	0.079104	,	0.083424	,	0.078912	,	0.08304	,	0.08416	,	0.083168	,	0.0832	,	0.082048	,	0.08416	,	0.08304	,	0.078528	,	0.084192	,	0.07952	,	0.083008	,	0.084192	,	0.079296	,	0.083232	,	0.084192	,	0.079296	,	0.083424	,	0.079104	,	0.083968	,	0.07872	,	0.0832	,	0.08336	,	0.079328	,	0.084576	,	0.07856	,	0.083232	,	0.078496	,	0.083584	,	0.082816	,	0.078944	,	0.083392	,	0.07856	,	0.084608	,	0.078912	,	0.083424	,	0.084384	,	0.078144	,	0.083776	,	0.079328	,	0.0832	,	0.082848	,	0.0832	,	0.083008	,	0.0832	,	0.084384	,	0.079936	,	0.083424	,	0.084352	,	0.08304	,	0.084	,	0.083232	,	0.07856	,	0.083168	,	0.084192	,	0.084384	,	0.084736	,	0.084608	,	0.083424	,	0.083584	,	0.082624	,	0.083776	,	0.083424	,	0.0832	,	0.083584	,	0.084	,	0.083776	,	0.085536	,	0.079584	,	0.08496	,	0.083392	,	0.084768	,	0.084	,	0.079904	,	0.084384	,	0.083424	,	0.084128	,	0.0848	,	0.079232	,	0.083232	,	0.083232	,	0.081056	,	0.084	,	0.084	,	0.07888	,	0.083808	,	0.0832	,	0.0832	,	0.083232	,	0.083616	,	0.083648	,	0.083392	,	0.082432	,	0.084352	,	0.083424	,	0.084192	,	0.084
Duplication	,	1	,	1	,	1	,	1	,	1	,	1	,	1	,	1	,	1	,	1	,	1	,	1	,	1	,	1	,	1	,	1	,	1	,	1	,	1	,	1	,	1	,	1	,	1	,	1	,	1	,	1	,	1	,	1	,	1	,	1	,	1	,	1	,	1	,	1	,	1	,	1	,	1	,	1	,	1	,	1	,	1	,	1	,	1	,	1	,	1	,	1	,	1	,	1	,	1	,	1	,	1	,	1	,	1	,	1	,	1	,	1	,	1	,	1	,	1	,	1	,	1	,	1	,	1	,	1	,	1	,	1	,	1	,	1	,	1	,	1	,	1	,	1	,	1	,	1	,	1	,	1	,	1	,	1	,	1	,	1	,	1	,	1	,	1	,	1	,	1	,	1	,	1	,	1	,	1	,	1	,	1	,	1	,	1	,	1	,	1	,	1	,	1	,	1	,	1	,	1	,	1	,	1	,	1	,	1
Triangles	,	262267	,	3640	,	468	,	2211	,	1362	,	108	,	280	,	2332	,	1456	,	2896	,	16	,	2332	,	1096	,	3680	,	204	,	204	,	148	,	160	,	112	,	160	,	112	,	160	,	112	,	160	,	112	,	160	,	112	,	160	,	112	,	160	,	112	,	160	,	112	,	160	,	112	,	440	,	32	,	280	,	54	,	242	,	24	,	82	,	24	,	556	,	50	,	3408	,	50	,	5	,	1360	,	3736	,	23208	,	18	,	64	,	5456	,	27796	,	5504	,	5504	,	5504	,	5504	,	5504	,	5504	,	5504	,	5504	,	11040	,	4864	,	4608	,	4864	,	4864	,	4608	,	4864	,	4608	,	4864	,	4608	,	4864	,	8	,	4957	,	8	,	4957	,	8	,	4957	,	8	,	4957	,	468	,	2211	,	468	,	2211	,	468	,	2211	,	400	,	2211	,	400	,	2211	,	400	,	2211	,	400	,	2211	,	9184	,	1521	,	1362	,	1521	,	1362	,	28	,	14484	,	10
Meshes	,	103	,	1	,	1	,	1	,	1	,	1	,	1	,	1	,	1	,	1	,	1	,	1	,	1	,	1	,	1	,	1	,	1	,	1	,	1	,	1	,	1	,	1	,	1	,	1	,	1	,	1	,	1	,	1	,	1	,	1	,	1	,	1	,	1	,	1	,	1	,	1	,	1	,	1	,	1	,	1	,	1	,	1	,	1	,	1	,	1	,	1	,	1	,	1	,	1	,	1	,	1	,	1	,	1	,	1	,	1	,	1	,	1	,	1	,	1	,	1	,	1	,	1	,	1	,	1	,	1	,	1	,	1	,	1	,	1	,	1	,	1	,	1	,	1	,	1	,	1	,	1	,	1	,	1	,	1	,	1	,	1	,	1	,	1	,	1	,	1	,	1	,	1	,	1	,	1	,	1	,	1	,	1	,	1	,	1	,	1	,	1	,	1	,	1	,	1	,	1	,	1	,	1	,	1	,	1
BottomLevels	,	1	,	1	,	1	,	1	,	1	,	1	,	1	,	1	,	1	,	1	,	1	,	1	,	1	,	1	,	1	,	1	,	1	,	1	,	1	,	1	,	1	,	1	,	1	,	1	,	1	,	1	,	1	,	1	,	1	,	1	,	1	,	1	,	1	,	1	,	1	,	1	,	1	,	1	,	1	,	1	,	1	,	1	,	1	,	1	,	1	,	1	,	1	,	1	,	1	,	1	,	1	,	1	,	1	,	1	,	1	,	1	,	1	,	1	,	1	,	1	,	1	,	1	,	1	,	1	,	1	,	1	,	1	,	1	,	1	,	1	,	1	,	1	,	1	,	1	,	1	,	1	,	1	,	1	,	1	,	1	,	1	,	1	,	1	,	1	,	1	,	1	,	1	,	1	,	1	,	1	,	1	,	1	,	1	,	1	,	1	,	1	,	1	,	1	,	1	,	1	,	1	,	1	,	1	,	1
TopLevelSize	,	64	,	64	,	64	,	64	,	64	,	64	,	64	,	64	,	64	,	64	,	64	,	64	,	64	,	64	,	64	,	64	,	64	,	64	,	64	,	64	,	64	,	64	,	64	,	64	,	64	,	64	,	64	,	64	,	64	,	64	,	64	,	64	,	64	,	64	,	64	,	64	,	64	,	64	,	64	,	64	,	64	,	64	,	64	,	64	,	64	,	64	,	64	,	64	,	64	,	64	,	64	,	64	,	64	,	64	,	64	,	64	,	64	,	64	,	64	,	64	,	64	,	64	,	64	,	64	,	64	,	64	,	64	,	64	,	64	,	64	,	64	,	64	,	64	,	64	,	64	,	64	,	64	,	64	,	64	,	64	,	64	,	64	,	64	,	64	,	64	,	64	,	64	,	64	,	64	,	64	,	64	,	64	,	64	,	64	,	64	,	64	,	64	,	64	,	64	,	64	,	64	,	64	,	64	,	64
BottomLevelsSize	,	14622208	,	260736	,	37504	,	158080	,	99072	,	11904	,	23168	,	168192	,	104832	,	206080	,	4864	,	168192	,	82560	,	261376	,	17792	,	17792	,	13952	,	15616	,	12032	,	15616	,	12032	,	15616	,	12032	,	15616	,	12032	,	15616	,	12032	,	15616	,	12032	,	15616	,	12032	,	15616	,	12032	,	15616	,	12032	,	35712	,	6528	,	23168	,	8192	,	21120	,	5216	,	10112	,	5216	,	43264	,	6784	,	246016	,	6784	,	3712	,	99072	,	267904	,	1631872	,	4864	,	8448	,	389504	,	1954560	,	390272	,	390272	,	390272	,	390272	,	390272	,	390272	,	390272	,	390272	,	777984	,	346880	,	326144	,	346880	,	346880	,	326144	,	346880	,	326144	,	346880	,	326144	,	346880	,	3840	,	353792	,	3840	,	353792	,	3840	,	353792	,	3840	,	353792	,	37504	,	158080	,	37504	,	158080	,	37504	,	158080	,	32256	,	158080	,	32256	,	158080	,	32256	,	158080	,	32256	,	158080	,	648576	,	109952	,	99072	,	109952	,	99072	,	6400	,	1021440	,	4096
Index	,	0	,	1	,	2	,	3	,	4	,	5	,	6	,	7	,	8	,	9	,	10	,	11	,	12	,	13	,	14	,	15	,	16	,	17	,	18	,	19	,	20	,	21	,	22	,	23	,	24	,	25	,	26	,	27	,	28	,	29	,	30	,	31	,	32	,	33	,	34	,	35	,	36	,	37	,	38	,	39	,	40	,	41	,	42	,	43	,	44	,	45	,	46	,	47	,	48	,	49	,	50	,	51	,	52	,	53	,	54	,	55	,	56	,	57	,	58	,	59	,	60	,	61	,	62	,	63	,	64	,	65	,	66	,	67	,	68	,	69	,	70	,	71	,	72	,	73	,	74	,	75	,	76	,	77	,	78	,	79	,	80	,	81	,	82	,	83	,	84	,	85	,	86	,	87	,	88	,	89	,	90	,	91	,	92	,	93	,	94	,	95	,	96	,	97	,	98	,	99	,	100	,	101	,	102	,	103

FpsAggregator: 
FPS	,	0	,	0	,	0	,	0	,	0	,	0	,	0	,	0	,	0	,	0	,	0	,	0	,	0	,	0	,	0	,	0	,	0	,	0	,	0	,	0	,	0	,	0	,	0	,	0	,	0	,	0	,	0	,	0	,	0	,	0	,	0	,	0	,	0	,	0	,	0	,	0	,	0	,	0	,	0	,	0	,	0	,	0	,	0	,	0	,	0	,	0	,	0	,	0	,	0	,	0	,	0	,	0	,	0	,	0	,	0	,	0	,	0	,	0	,	0	,	0	,	0	,	0	,	0	,	0	,	0	,	0	,	0	,	0	,	0	,	0	,	0	,	0	,	0	,	0	,	0	,	0	,	0	,	0	,	0	,	0	,	0	,	0	,	0	,	0	,	0	,	0	,	0	,	0	,	0	,	0	,	0	,	0	,	0	,	0	,	0	,	0	,	0	,	0	,	0	,	0	,	0	,	0	,	0	,	0
UPS	,	0	,	0	,	0	,	0	,	0	,	0	,	0	,	0	,	0	,	0	,	0	,	0	,	0	,	0	,	0	,	0	,	0	,	0	,	0	,	0	,	0	,	0	,	0	,	0	,	0	,	0	,	0	,	0	,	0	,	0	,	0	,	0	,	0	,	0	,	0	,	0	,	0	,	0	,	0	,	0	,	0	,	0	,	0	,	0	,	0	,	0	,	0	,	0	,	0	,	0	,	0	,	0	,	0	,	0	,	0	,	0	,	0	,	0	,	0	,	0	,	0	,	0	,	0	,	0	,	0	,	0	,	0	,	0	,	0	,	0	,	0	,	0	,	0	,	0	,	0	,	0	,	0	,	0	,	0	,	0	,	0	,	0	,	0	,	0	,	0	,	0	,	0	,	0	,	0	,	0	,	0	,	0	,	0	,	0	,	0	,	0	,	0	,	0	,	0	,	0	,	0	,	0	,	0	,	0
FrameTime	,	0	,	0	,	0	,	0	,	0	,	0	,	0	,	0	,	0	,	0	,	0	,	0	,	0	,	0	,	0	,	0	,	0	,	0	,	0	,	0	,	0	,	0	,	0	,	0	,	0	,	0	,	0	,	0	,	0	,	0	,	0	,	0	,	0	,	0	,	0	,	0	,	0	,	0	,	0	,	0	,	0	,	0	,	0	,	0	,	0	,	0	,	0	,	0	,	0	,	0	,	0	,	0	,	0	,	0	,	0	,	0	,	0	,	0	,	0	,	0	,	0	,	0	,	0	,	0	,	0	,	0	,	0	,	0	,	0	,	0	,	0	,	0	,	0	,	0	,	0	,	0	,	0	,	0	,	0	,	0	,	0	,	0	,	0	,	0	,	0	,	0	,	0	,	0	,	0	,	0	,	0	,	0	,	0	,	0	,	0	,	0	,	0	,	0	,	0	,	0	,	0	,	0	,	0	,	0
GigaRays/s	,	0	,	0	,	0	,	0	,	0	,	0	,	0	,	0	,	0	,	0	,	0	,	0	,	0	,	0	,	0	,	0	,	0	,	0	,	0	,	0	,	0	,	0	,	0	,	0	,	0	,	0	,	0	,	0	,	0	,	0	,	0	,	0	,	0	,	0	,	0	,	0	,	0	,	0	,	0	,	0	,	0	,	0	,	0	,	0	,	0	,	0	,	0	,	0	,	0	,	0	,	0	,	0	,	0	,	0	,	0	,	0	,	0	,	0	,	0	,	0	,	0	,	0	,	0	,	0	,	0	,	0	,	0	,	0	,	0	,	0	,	0	,	0	,	0	,	0	,	0	,	0	,	0	,	0	,	0	,	0	,	0	,	0	,	0	,	0	,	0	,	0	,	0	,	0	,	0	,	0	,	0	,	0	,	0	,	0	,	0	,	0	,	0	,	0	,	0	,	0	,	0	,	0	,	0	,	0
Index	,	0	,	1	,	2	,	3	,	4	,	5	,	6	,	7	,	8	,	9	,	10	,	11	,	12	,	13	,	14	,	15	,	16	,	17	,	18	,	19	,	20	,	21	,	22	,	23	,	24	,	25	,	26	,	27	,	28	,	29	,	30	,	31	,	32	,	33	,	34	,	35	,	36	,	37	,	38	,	39	,	40	,	41	,	42	,	43	,	44	,	45	,	46	,	47	,	48	,	49	,	50	,	51	,	52	,	53	,	54	,	55	,	56	,	57	,	58	,	59	,	60	,	61	,	62	,	63	,	64	,	65	,	66	,	67	,	68	,	69	,	70	,	71	,	72	,	73	,	74	,	75	,	76	,	77	,	78	,	79	,	80	,	81	,	82	,	83	,	84	,	85	,	86	,	87	,	88	,	89	,	90	,	91	,	92	,	93	,	94	,	95	,	96	,	97	,	98	,	99	,	100	,	101	,	102	,	103


AccelerationStructure: 
Ray tracing acceleration structure building statistics: 
	Bottom Level Acceleration Structure: 
		Maximum [B]: 18390656
		Minimum [B]: 18390656
		Currently Allocated [B]: 18390656
		Currently Created [num]: 1
		Current Average [B]: 18390656
		Maximum Triangles [num]: 262267
		Minimum Triangles [num]: 262267
		Total Triangles [num]: 262267
		Maximum Meshes [num]: 103
		Minimum Meshes [num]: 103
		Total Meshes [num]: 103
	Top Level Acceleration Structure: 
		Maximum [B]: 64
		Minimum [B]: 64
		Currently Allocated [B]: 64
		Total Allocated [B]: 64
		Total Created [num]: 1
		Average Allocated [B]: 64
		Maximum Instances [num]: 1
		Minimum Instances [num]: 1
		Total Instances [num]: 1
	Scratch Buffer: 
		Maximum [B]: 14995072
		Minimum [B]: 14995072
		Currently Allocated [B]: 14995072
		Total Allocated [B]: 14995072
		Total Created [num]: 1
		Average Allocated [B]: 14995072
ProfilingStack: 
[PROF] Profiling statistics: 
	Scopes entered : 741
	Scopes exited : 740
	Overhead per scope [ticks] : 102.4
	Threads entered : 3
	Threads exited : 0
	============================
		         Sum[Mt]   Parent[%]  Samples[num]       Avg[Mt]   Last/Curr[Mt]        Self[Mt]     Self[%] 	 Name

	main:

		    4892.309 Mt   100.000 %         1 x     4892.310 Mt     4892.309 Mt        0.414 Mt     0.008 % 	 /

		    4891.939 Mt    99.992 %         1 x     4891.941 Mt     4891.939 Mt      496.358 Mt    10.146 % 	 ./Main application loop

		       2.739 Mt     0.056 %         1 x        2.739 Mt        2.739 Mt        2.739 Mt   100.000 % 	 ../TexturedRLInitialization

		       3.330 Mt     0.068 %         1 x        3.330 Mt        3.330 Mt        3.330 Mt   100.000 % 	 ../AmbientOcclusionRLInitialization

		       6.959 Mt     0.142 %         1 x        6.959 Mt        6.959 Mt        6.959 Mt   100.000 % 	 ../RasterResolveRLInitialization

		       4.722 Mt     0.097 %         1 x        4.722 Mt        4.722 Mt        4.722 Mt   100.000 % 	 ../DeferredRLInitialization

		    1032.345 Mt    21.103 %       105 x        9.832 Mt       13.083 Mt      746.950 Mt    72.355 % 	 ../AccelerationStructureBuild

		     115.002 Mt    11.140 %       105 x        1.095 Mt        1.193 Mt      115.002 Mt   100.000 % 	 .../BuildBottomLevelAS

		     170.393 Mt    16.505 %       105 x        1.623 Mt        1.628 Mt      170.393 Mt   100.000 % 	 .../BuildTopLevelAS

		       1.460 Mt     0.030 %         1 x        1.460 Mt        1.460 Mt        1.460 Mt   100.000 % 	 ../ShadowMapRLInitialization

		      75.484 Mt     1.543 %         1 x       75.484 Mt       75.484 Mt        2.717 Mt     3.599 % 	 ../RayTracingRLInitialization

		      72.767 Mt    96.401 %         1 x       72.767 Mt       72.767 Mt       72.767 Mt   100.000 % 	 .../PipelineBuild

		       4.548 Mt     0.093 %         1 x        4.548 Mt        4.548 Mt        4.548 Mt   100.000 % 	 ../ResolveRLInitialization

		    3263.995 Mt    66.722 %         1 x     3263.995 Mt     3263.995 Mt        0.188 Mt     0.006 % 	 ../Initialization

		    3263.807 Mt    99.994 %         1 x     3263.807 Mt     3263.807 Mt        4.240 Mt     0.130 % 	 .../ScenePrep

		    3157.130 Mt    96.732 %         1 x     3157.130 Mt     3157.130 Mt      346.497 Mt    10.975 % 	 ..../SceneLoad

		    2074.107 Mt    65.696 %         1 x     2074.107 Mt     2074.107 Mt      624.024 Mt    30.086 % 	 ...../glTF-LoadScene

		    1450.083 Mt    69.914 %        69 x       21.016 Mt        0.006 Mt     1450.083 Mt   100.000 % 	 ....../glTF-LoadImageData

		     462.084 Mt    14.636 %         1 x      462.084 Mt      462.084 Mt      462.084 Mt   100.000 % 	 ...../glTF-CreateScene

		     274.442 Mt     8.693 %         1 x      274.442 Mt      274.442 Mt      274.442 Mt   100.000 % 	 ...../SceneDesc-CreateScene

		       2.183 Mt     0.067 %         1 x        2.183 Mt        2.183 Mt        0.007 Mt     0.316 % 	 ..../ShadowMapRLPrep

		       2.176 Mt    99.684 %         1 x        2.176 Mt        2.176 Mt        2.140 Mt    98.350 % 	 ...../PrepareForRendering

		       0.036 Mt     1.650 %         1 x        0.036 Mt        0.036 Mt        0.036 Mt   100.000 % 	 ....../PrepareDrawBundle

		       9.688 Mt     0.297 %         1 x        9.688 Mt        9.688 Mt        0.001 Mt     0.011 % 	 ..../TexturedRLPrep

		       9.687 Mt    99.989 %         1 x        9.687 Mt        9.687 Mt        9.643 Mt    99.554 % 	 ...../PrepareForRendering

		       0.004 Mt     0.038 %         1 x        0.004 Mt        0.004 Mt        0.004 Mt   100.000 % 	 ....../PrepareMaterials

		       0.040 Mt     0.408 %         1 x        0.040 Mt        0.040 Mt        0.040 Mt   100.000 % 	 ....../PrepareDrawBundle

		       5.414 Mt     0.166 %         1 x        5.414 Mt        5.414 Mt        0.000 Mt     0.007 % 	 ..../DeferredRLPrep

		       5.413 Mt    99.993 %         1 x        5.413 Mt        5.413 Mt        4.066 Mt    75.116 % 	 ...../PrepareForRendering

		       0.001 Mt     0.020 %         1 x        0.001 Mt        0.001 Mt        0.001 Mt   100.000 % 	 ....../PrepareMaterials

		       1.290 Mt    23.839 %         1 x        1.290 Mt        1.290 Mt        1.290 Mt   100.000 % 	 ....../BuildMaterialCache

		       0.056 Mt     1.025 %         1 x        0.056 Mt        0.056 Mt        0.056 Mt   100.000 % 	 ....../PrepareDrawBundle

		      46.955 Mt     1.439 %         1 x       46.955 Mt       46.955 Mt        3.037 Mt     6.468 % 	 ..../RayTracingRLPrep

		       0.066 Mt     0.140 %         1 x        0.066 Mt        0.066 Mt        0.066 Mt   100.000 % 	 ...../PrepareAccelerationStructures

		       0.003 Mt     0.005 %         1 x        0.003 Mt        0.003 Mt        0.003 Mt   100.000 % 	 ...../PrepareCache

		      33.919 Mt    72.238 %         1 x       33.919 Mt       33.919 Mt       33.919 Mt   100.000 % 	 ...../PipelineBuild

		       1.097 Mt     2.335 %         1 x        1.097 Mt        1.097 Mt        1.097 Mt   100.000 % 	 ...../BuildCache

		       6.219 Mt    13.244 %         1 x        6.219 Mt        6.219 Mt        0.000 Mt     0.008 % 	 ...../BuildAccelerationStructures

		       6.218 Mt    99.992 %         1 x        6.218 Mt        6.218 Mt        4.021 Mt    64.671 % 	 ....../AccelerationStructureBuild

		       1.675 Mt    26.937 %         1 x        1.675 Mt        1.675 Mt        1.675 Mt   100.000 % 	 ......./BuildBottomLevelAS

		       0.522 Mt     8.391 %         1 x        0.522 Mt        0.522 Mt        0.522 Mt   100.000 % 	 ......./BuildTopLevelAS

		       2.615 Mt     5.570 %         1 x        2.615 Mt        2.615 Mt        2.615 Mt   100.000 % 	 ...../BuildShaderTables

		      38.198 Mt     1.170 %         1 x       38.198 Mt       38.198 Mt       38.198 Mt   100.000 % 	 ..../GpuSidePrep

	WindowThread:

		    4884.601 Mt   100.000 %         1 x     4884.601 Mt     4884.600 Mt     4884.601 Mt   100.000 % 	 /

	GpuThread:

		     112.359 Mt   100.000 %       104 x        1.080 Mt        0.249 Mt       57.116 Mt    50.834 % 	 /

		       2.715 Mt     2.416 %         1 x        2.715 Mt        2.715 Mt        0.006 Mt     0.216 % 	 ./ScenePrep

		       2.709 Mt    99.784 %         1 x        2.709 Mt        2.709 Mt        0.001 Mt     0.052 % 	 ../AccelerationStructureBuild

		       2.616 Mt    96.584 %         1 x        2.616 Mt        2.616 Mt        2.616 Mt   100.000 % 	 .../BuildBottomLevelASGpu

		       0.091 Mt     3.364 %         1 x        0.091 Mt        0.091 Mt        0.091 Mt   100.000 % 	 .../BuildTopLevelASGpu

		      52.528 Mt    46.750 %       105 x        0.500 Mt        0.249 Mt        0.140 Mt     0.266 % 	 ./AccelerationStructureBuild

		      43.713 Mt    83.218 %       105 x        0.416 Mt        0.164 Mt       43.713 Mt   100.000 % 	 ../BuildBottomLevelASGpu

		       8.675 Mt    16.516 %       105 x        0.083 Mt        0.084 Mt        8.675 Mt   100.000 % 	 ../BuildTopLevelASGpu


	============================


