Configuration: 
Command line parameters  = E:\programming\FIT-DIP\Masters-DXR-Main-git\build\Measurement\x64\Release\Measurement.exe --scene Suzanne/Suzanne.gltf --duplication-cube --duplication-offset 3 --profile-triangles --profile-camera-track Suzanne/SuzanneFast.trk --profile-max-duplication 10 --rt-mode --width 2560 --height 1440 --profile-output TrianglesSuzanne1440Rt 
Build type               = Release
Device name              = NVIDIA GeForce RTX 2080 Ti
Device memory MB         = 11049
Ray Tracing backend      = Hardware
Window width             = 2560
Window height            = 1421
Window title             = Direct3D App
Back-buffer count        = 3
Fill Triangles           = enabled
Triangles Font Clock-Wise= enabled
Fast Build AS            = disabled
Target FPS               = 0
Target UPS               = 60
Tearing                  = enabled
VSync                    = disabled
GUI rendering            = disabled
Debug layer              = disabled
GPU validation           = disabled
GPU profiling            = enabled
Render mode              = Ray Tracing
Loaded scene file        = Suzanne/Suzanne.gltf
Using testing scene      = disabled
Duplication              = 10
Duplication in cube      = enabled
Duplication offset       = 3
BLAS duplication         = enabled
Rays per pixel           = 13
Quality preset           = High
Rasterization Quality    : 
  AO                     = enabled
  AO kernel size         = 4
  Shadows                = enabled
  Shadow map resolution  = 4096
  Shadow PCF kernel size = 4
  Reflections            = enabled
Ray Tracing Quality      : 
  AO                     = enabled
  AO rays                = 4
  AO kernel size         = 4
  Shadows                = enabled
  Shadow rays            = 4
  Shadow kernel size     = 4
  Reflections            = enabled

ProfilingAggregator: 
Render	,	3.5004	,	3.5004	,	3.079	,	3.079	,	4.2046	,	4.2046	,	6.5158	,	6.5158	,	4.4881	,	4.4881	,	3.7187	,	4.4314	,	4.4314	,	3.4166	,	3.4166	,	4.4693	,	4.4693	,	5.3653	,	5.3653	,	5.2004	,	5.2004	,	3.6261	,	5.8624	,	5.8624	,	3.7109	,	3.7109	,	6.0998	,	6.0998	,	6.3897	,	6.3897	,	6.783	,	6.783	,	3.8946	,	5.7115	,	5.7115	,	3.7313	,	3.7313	,	6.2786	,	6.2786	,	7.9145	,	7.9145	,	8.0038	,	8.0038	,	4.7843	,	6.1002	,	6.1002	,	3.9559	,	3.9559	,	6.3333	,	6.3333	,	9.0389	,	9.0389	,	8.3991	,	8.3991	,	5.1223	,	6.8141	,	6.8141	,	4.2065	,	4.2065	,	6.6162	,	6.6162	,	9.7389	,	9.7389	,	9.4987	,	9.4987	,	4.7873	,	7.7537	,	7.7537	,	4.437	,	4.437	,	6.8764	,	6.8764	,	10.2301	,	10.2301	,	9.1151	,	9.1151	,	4.9353	,	8.1905	,	8.1905	,	4.5912	,	4.5912	,	7.4275	,	7.4275	,	11.1987	,	11.1987	,	9.7451	,	9.7451	,	5.4095	,	9.0543	,	9.0543	,	6.6498	,	6.6498	,	10.2161	,	10.2161	,	12.5383	,	12.5383	,	8.7642	,	8.7642	,	5.9006	,	7.4247	,	7.4247	,	7.3677	,	7.3677	,	11.6203	,	11.6203	,	12.0753	,	12.0753	,	8.5393	,	8.5393	,	6.4213
Update	,	0.0715	,	0.0715	,	0.0718	,	0.0718	,	0.0706	,	0.0706	,	0.0687	,	0.0687	,	0.0721	,	0.0721	,	0.0719	,	0.074	,	0.074	,	0.0652	,	0.0652	,	0.073	,	0.073	,	0.0709	,	0.0709	,	0.0731	,	0.0731	,	0.07	,	0.0729	,	0.0729	,	0.075	,	0.075	,	0.0748	,	0.0748	,	0.0754	,	0.0754	,	0.0728	,	0.0728	,	0.0761	,	0.0766	,	0.0766	,	0.0775	,	0.0775	,	0.0811	,	0.0811	,	0.0756	,	0.0756	,	0.0751	,	0.0751	,	0.0752	,	0.0779	,	0.0779	,	0.0784	,	0.0784	,	0.0799	,	0.0799	,	0.0798	,	0.0798	,	0.0781	,	0.0781	,	0.0776	,	0.0849	,	0.0849	,	0.0832	,	0.0832	,	0.0836	,	0.0836	,	0.0813	,	0.0813	,	0.0831	,	0.0831	,	0.0854	,	0.0858	,	0.0858	,	0.0893	,	0.0893	,	0.0954	,	0.0954	,	0.0858	,	0.0858	,	0.0905	,	0.0905	,	0.0877	,	0.0974	,	0.0974	,	0.0967	,	0.0967	,	0.0964	,	0.0964	,	0.0967	,	0.0967	,	0.0972	,	0.0972	,	0.0969	,	0.1071	,	0.1071	,	0.1057	,	0.1057	,	0.1092	,	0.1092	,	0.1062	,	0.1062	,	0.1052	,	0.1052	,	0.1023	,	0.1196	,	0.1196	,	0.1183	,	0.1183	,	0.1169	,	0.1169	,	0.1153	,	0.1153	,	0.1183	,	0.1183	,	0.1192
RayTracing	,	0.1699	,	0.1699	,	0.151	,	0.151	,	0.1745	,	0.1745	,	0.1763	,	0.1763	,	0.1722	,	0.1722	,	0.1888	,	0.1783	,	0.1783	,	0.1775	,	0.1775	,	0.1774	,	0.1774	,	0.1819	,	0.1819	,	0.1801	,	0.1801	,	0.2052	,	0.1749	,	0.1749	,	0.1759	,	0.1759	,	0.1772	,	0.1772	,	0.2005	,	0.2005	,	0.2038	,	0.2038	,	0.1679	,	0.1667	,	0.1667	,	0.1665	,	0.1665	,	0.17	,	0.17	,	0.1687	,	0.1687	,	0.167	,	0.167	,	0.1765	,	0.1695	,	0.1695	,	0.1667	,	0.1667	,	0.1688	,	0.1688	,	0.1666	,	0.1666	,	0.1693	,	0.1693	,	0.1717	,	0.1718	,	0.1718	,	0.1702	,	0.1702	,	0.1705	,	0.1705	,	0.174	,	0.174	,	0.1799	,	0.1799	,	0.174	,	0.169	,	0.169	,	0.1787	,	0.1787	,	0.1752	,	0.1752	,	0.1686	,	0.1686	,	0.1698	,	0.1698	,	0.15	,	0.1686	,	0.1686	,	0.1962	,	0.1962	,	0.1963	,	0.1963	,	0.2018	,	0.2018	,	0.1719	,	0.1719	,	0.172	,	0.1721	,	0.1721	,	0.1695	,	0.1695	,	0.1723	,	0.1723	,	0.2048	,	0.2048	,	0.1701	,	0.1701	,	0.1771	,	0.1713	,	0.1713	,	0.1698	,	0.1698	,	0.1697	,	0.1697	,	0.1669	,	0.1669	,	0.1732	,	0.1732	,	0.1739
RayTracingGpu	,	2.71818	,	2.71818	,	2.37747	,	2.37747	,	3.38026	,	3.38026	,	5.72118	,	5.72118	,	3.75744	,	3.75744	,	2.86579	,	3.55952	,	3.55952	,	2.59267	,	2.59267	,	3.6839	,	3.6839	,	4.42003	,	4.42003	,	4.2583	,	4.2583	,	2.77462	,	4.88326	,	4.88326	,	2.81098	,	2.81098	,	5.21914	,	5.21914	,	5.37834	,	5.37834	,	5.83702	,	5.83702	,	3.0936	,	4.93165	,	4.93165	,	3.03632	,	3.03632	,	5.19267	,	5.19267	,	7.01082	,	7.01082	,	6.89888	,	6.89888	,	3.87392	,	5.34141	,	5.34141	,	3.19827	,	3.19827	,	5.58368	,	5.58368	,	8.19619	,	8.19619	,	7.50592	,	7.50592	,	4.24045	,	5.9072	,	5.9072	,	3.37174	,	3.37174	,	5.88848	,	5.88848	,	8.8072	,	8.8072	,	8.60307	,	8.60307	,	3.9128	,	6.87658	,	6.87658	,	3.54947	,	3.54947	,	6.12579	,	6.12579	,	9.31242	,	9.31242	,	8.27098	,	8.27098	,	4.25072	,	7.3671	,	7.3671	,	3.76208	,	3.76208	,	6.58931	,	6.58931	,	10.0551	,	10.0551	,	8.83523	,	8.83523	,	4.59661	,	8.01341	,	8.01341	,	5.78509	,	5.78509	,	9.3495	,	9.3495	,	11.4978	,	11.4978	,	7.88362	,	7.88362	,	5.06515	,	6.6009	,	6.6009	,	6.54442	,	6.54442	,	10.4926	,	10.4926	,	11.1313	,	11.1313	,	7.67683	,	7.67683	,	5.50163
DeferredRLGpu	,	0.090176	,	0.090176	,	0.048192	,	0.048192	,	0.182304	,	0.182304	,	0.320096	,	0.320096	,	0.2664	,	0.2664	,	0.071488	,	0.209888	,	0.209888	,	0.08608	,	0.08608	,	0.242048	,	0.242048	,	0.305792	,	0.305792	,	0.389984	,	0.389984	,	0.155136	,	0.345952	,	0.345952	,	0.130208	,	0.130208	,	0.403968	,	0.403968	,	0.445088	,	0.445088	,	0.724832	,	0.724832	,	0.221376	,	0.463168	,	0.463168	,	0.181888	,	0.181888	,	0.508	,	0.508	,	0.79216	,	0.79216	,	0.954912	,	0.954912	,	0.307744	,	0.565248	,	0.565248	,	0.225888	,	0.225888	,	0.718496	,	0.718496	,	1.04614	,	1.04614	,	1.19603	,	1.19603	,	0.400512	,	0.74224	,	0.74224	,	0.289312	,	0.289312	,	0.818656	,	0.818656	,	1.11885	,	1.11885	,	1.45882	,	1.45882	,	0.508576	,	0.879456	,	0.879456	,	0.35632	,	0.35632	,	1.04195	,	1.04195	,	1.32925	,	1.32925	,	1.70576	,	1.70576	,	0.64	,	1.44195	,	1.44195	,	0.431808	,	0.431808	,	1.21066	,	1.21066	,	1.70627	,	1.70627	,	1.93514	,	1.93514	,	0.787232	,	1.20074	,	1.20074	,	0.933792	,	0.933792	,	1.73187	,	1.73187	,	2.5529	,	2.5529	,	1.88189	,	1.88189	,	0.97408	,	1.11651	,	1.11651	,	1.28128	,	1.28128	,	2.08198	,	2.08198	,	2.58758	,	2.58758	,	1.97146	,	1.97146	,	1.17408
RayTracingRLGpu	,	0.470944	,	0.470944	,	0.213824	,	0.213824	,	0.971136	,	0.971136	,	3.0361	,	3.0361	,	1.22854	,	1.22854	,	0.26096	,	1.11181	,	1.11181	,	0.370752	,	0.370752	,	1.18166	,	1.18166	,	1.8152	,	1.8152	,	1.59216	,	1.59216	,	0.470016	,	2.13149	,	2.13149	,	0.5336	,	0.5336	,	2.29027	,	2.29027	,	2.49386	,	2.49386	,	2.74144	,	2.74144	,	0.695616	,	2.13443	,	2.13443	,	0.686176	,	0.686176	,	2.07302	,	2.07302	,	3.3824	,	3.3824	,	3.41706	,	3.41706	,	1.24381	,	2.43434	,	2.43434	,	0.794272	,	0.794272	,	2.50826	,	2.50826	,	4.31965	,	4.31965	,	3.50096	,	3.50096	,	1.42109	,	2.7976	,	2.7976	,	0.8984	,	0.8984	,	2.70582	,	2.70582	,	4.96144	,	4.96144	,	4.46781	,	4.46781	,	1.19853	,	3.39965	,	3.39965	,	1.00925	,	1.00925	,	2.71773	,	2.71773	,	5.28451	,	5.28451	,	4.11456	,	4.11456	,	1.39024	,	3.39754	,	3.39754	,	1.13395	,	1.13395	,	2.98835	,	2.98835	,	5.68806	,	5.68806	,	4.43085	,	4.43085	,	1.57846	,	4.06032	,	4.06032	,	2.52288	,	2.52288	,	5.11082	,	5.11082	,	6.29962	,	6.29962	,	3.4665	,	3.4665	,	1.8273	,	3.12291	,	3.12291	,	2.89213	,	2.89213	,	5.58102	,	5.58102	,	5.80288	,	5.80288	,	3.21382	,	3.21382	,	2.07549
ResolveRLGpu	,	2.15427	,	2.15427	,	2.11376	,	2.11376	,	2.22362	,	2.22362	,	2.36298	,	2.36298	,	2.26051	,	2.26051	,	2.53171	,	2.23571	,	2.23571	,	2.1343	,	2.1343	,	2.25811	,	2.25811	,	2.29699	,	2.29699	,	2.27184	,	2.27184	,	2.14749	,	2.40262	,	2.40262	,	2.14515	,	2.14515	,	2.52189	,	2.52189	,	2.43693	,	2.43693	,	2.36883	,	2.36883	,	2.17453	,	2.33056	,	2.33056	,	2.16627	,	2.16627	,	2.60934	,	2.60934	,	2.8343	,	2.8343	,	2.524	,	2.524	,	2.31946	,	2.33987	,	2.33987	,	2.17616	,	2.17616	,	2.35498	,	2.35498	,	2.82832	,	2.82832	,	2.80694	,	2.80694	,	2.41686	,	2.36531	,	2.36531	,	2.18077	,	2.18077	,	2.36186	,	2.36186	,	2.72394	,	2.72394	,	2.67434	,	2.67434	,	2.20371	,	2.59552	,	2.59552	,	2.18102	,	2.18102	,	2.364	,	2.364	,	2.69667	,	2.69667	,	2.44758	,	2.44758	,	2.21779	,	2.52605	,	2.52605	,	2.1944	,	2.1944	,	2.38742	,	2.38742	,	2.65917	,	2.65917	,	2.46714	,	2.46714	,	2.22896	,	2.75075	,	2.75075	,	2.32646	,	2.32646	,	2.50464	,	2.50464	,	2.64362	,	2.64362	,	2.53344	,	2.53344	,	2.25994	,	2.35933	,	2.35933	,	2.36899	,	2.36899	,	2.828	,	2.828	,	2.73882	,	2.73882	,	2.48992	,	2.48992	,	2.25008
Index	,	0	,	1	,	2	,	3	,	4	,	5	,	6	,	7	,	8	,	9	,	10	,	11	,	12	,	13	,	14	,	15	,	16	,	17	,	18	,	19	,	20	,	21	,	22	,	23	,	24	,	25	,	26	,	27	,	28	,	29	,	30	,	31	,	32	,	33	,	34	,	35	,	36	,	37	,	38	,	39	,	40	,	41	,	42	,	43	,	44	,	45	,	46	,	47	,	48	,	49	,	50	,	51	,	52	,	53	,	54	,	55	,	56	,	57	,	58	,	59	,	60	,	61	,	62	,	63	,	64	,	65	,	66	,	67	,	68	,	69	,	70	,	71	,	72	,	73	,	74	,	75	,	76	,	77	,	78	,	79	,	80	,	81	,	82	,	83	,	84	,	85	,	86	,	87	,	88	,	89	,	90	,	91	,	92	,	93	,	94	,	95	,	96	,	97	,	98	,	99	,	100	,	101	,	102	,	103	,	104	,	105	,	106	,	107	,	108	,	109

ProfilingBuildAggregator: 
BuildBottomLevelAS	,	0.8457	,	2.8685	,	9.9078	,	22.7474	,	40.1844	,	63.7307	,	93.5177	,	117.781	,	154.046	,	195.402
BuildBottomLevelASGpu	,	0.25504	,	1.92826	,	6.85872	,	16.2938	,	30.7221	,	53.1176	,	83.5764	,	123.871	,	175.589	,	240.895
BuildTopLevelAS	,	0.8209	,	0.9245	,	0.9272	,	1.0879	,	0.9756	,	0.9193	,	0.7761	,	0.9167	,	0.776	,	0.8492
BuildTopLevelASGpu	,	0.061248	,	0.068	,	0.092736	,	0.100544	,	0.124768	,	0.162432	,	0.149408	,	0.137568	,	0.19456	,	0.215456
Duplication	,	1	,	2	,	3	,	4	,	5	,	6	,	7	,	8	,	9	,	10
Triangles	,	3936	,	31488	,	106272	,	251904	,	492000	,	850176	,	1350048	,	2015232	,	2869344	,	3936000
Meshes	,	1	,	8	,	27	,	64	,	125	,	216	,	343	,	512	,	729	,	1000
BottomLevels	,	1	,	8	,	27	,	64	,	125	,	216	,	343	,	512	,	729	,	1000
TopLevelSize	,	64	,	512	,	1728	,	4096	,	8000	,	13824	,	21952	,	32768	,	46656	,	64000
BottomLevelsSize	,	222592	,	1780736	,	6009984	,	14245888	,	27824000	,	48079872	,	76349056	,	113967104	,	162269568	,	222592000
Index	,	0	,	1	,	2	,	3	,	4	,	5	,	6	,	7	,	8	,	9

FpsAggregator: 
FPS	,	299	,	299	,	277	,	277	,	277	,	277	,	194	,	194	,	163	,	163	,	268	,	268	,	268	,	231	,	231	,	245	,	245	,	185	,	185	,	176	,	176	,	228	,	247	,	247	,	209	,	209	,	219	,	219	,	162	,	162	,	145	,	145	,	198	,	227	,	227	,	180	,	180	,	204	,	204	,	137	,	137	,	119	,	119	,	174	,	214	,	214	,	166	,	166	,	190	,	190	,	126	,	126	,	112	,	112	,	163	,	202	,	202	,	156	,	156	,	178	,	178	,	110	,	110	,	103	,	103	,	151	,	192	,	192	,	147	,	147	,	171	,	171	,	108	,	108	,	98	,	98	,	144	,	183	,	183	,	141	,	141	,	162	,	162	,	99	,	99	,	92	,	92	,	134	,	132	,	132	,	170	,	170	,	118	,	118	,	88	,	88	,	96	,	96	,	154	,	117	,	117	,	161	,	161	,	105	,	105	,	84	,	84	,	95	,	95	,	146
UPS	,	60	,	60	,	60	,	60	,	60	,	60	,	60	,	60	,	60	,	60	,	60	,	60	,	60	,	60	,	60	,	60	,	60	,	60	,	60	,	60	,	60	,	60	,	60	,	60	,	60	,	60	,	60	,	60	,	60	,	60	,	60	,	60	,	61	,	60	,	60	,	60	,	60	,	60	,	60	,	60	,	60	,	60	,	60	,	61	,	60	,	60	,	61	,	61	,	60	,	60	,	60	,	60	,	60	,	60	,	60	,	61	,	61	,	60	,	60	,	60	,	60	,	60	,	60	,	60	,	60	,	61	,	60	,	60	,	60	,	60	,	60	,	60	,	61	,	61	,	60	,	60	,	60	,	60	,	60	,	61	,	61	,	60	,	60	,	60	,	60	,	61	,	61	,	60	,	60	,	60	,	61	,	61	,	60	,	60	,	60	,	60	,	61	,	61	,	60	,	60	,	60	,	61	,	61	,	60	,	60	,	60	,	60	,	60	,	60	,	61
FrameTime	,	3.35051	,	3.35051	,	3.61372	,	3.61372	,	3.61784	,	3.61784	,	5.18025	,	5.18025	,	6.14389	,	6.14389	,	3.74178	,	3.73277	,	3.73277	,	4.34102	,	4.34102	,	4.08993	,	4.08993	,	5.40671	,	5.40671	,	5.69362	,	5.69362	,	4.39364	,	4.06777	,	4.06777	,	4.79043	,	4.79043	,	4.57313	,	4.57313	,	6.18613	,	6.18613	,	6.91963	,	6.91963	,	5.06199	,	4.41276	,	4.41276	,	5.5742	,	5.5742	,	4.92863	,	4.92863	,	7.30618	,	7.30618	,	8.42606	,	8.42606	,	5.74888	,	4.68891	,	4.68891	,	6.0252	,	6.0252	,	5.27282	,	5.27282	,	7.96016	,	7.96016	,	8.93659	,	8.93659	,	6.15414	,	4.96697	,	4.96697	,	6.41755	,	6.41755	,	5.64462	,	5.64462	,	9.1456	,	9.1456	,	9.73147	,	9.73147	,	6.63993	,	5.23591	,	5.23591	,	6.81654	,	6.81654	,	5.88518	,	5.88518	,	9.34353	,	9.34353	,	10.244	,	10.244	,	6.94777	,	5.50722	,	5.50722	,	7.12029	,	7.12029	,	6.21021	,	6.21021	,	10.1654	,	10.1654	,	10.9689	,	10.9689	,	7.48793	,	7.58057	,	7.58057	,	5.91495	,	5.91495	,	8.54261	,	8.54261	,	11.4962	,	11.4962	,	10.4238	,	10.4238	,	6.50752	,	8.59437	,	8.59437	,	6.22249	,	6.22249	,	9.56933	,	9.56933	,	11.9599	,	11.9599	,	10.5518	,	10.5518	,	6.87396
GigaRays/s	,	14.1145	,	14.1145	,	13.0865	,	13.0865	,	13.0716	,	13.0716	,	9.12907	,	9.12907	,	7.69722	,	7.69722	,	12.6386	,	12.6691	,	12.6691	,	10.894	,	10.894	,	11.5628	,	11.5628	,	8.7467	,	8.7467	,	8.30594	,	8.30594	,	10.7635	,	11.6257	,	11.6257	,	9.87195	,	9.87195	,	10.341	,	10.341	,	7.64466	,	7.64466	,	6.83431	,	6.83431	,	9.34235	,	10.7168	,	10.7168	,	8.48389	,	8.48389	,	9.59514	,	9.59514	,	6.47272	,	6.47272	,	5.61245	,	5.61245	,	8.2261	,	10.0857	,	10.0857	,	7.84885	,	7.84885	,	8.9688	,	8.9688	,	5.94095	,	5.94095	,	5.29183	,	5.29183	,	7.6844	,	9.52108	,	9.52108	,	7.36899	,	7.36899	,	8.37805	,	8.37805	,	5.17089	,	5.17089	,	4.85958	,	4.85958	,	7.12219	,	9.03202	,	9.03202	,	6.93767	,	6.93767	,	8.03559	,	8.03559	,	5.06135	,	5.06135	,	4.61646	,	4.61646	,	6.80662	,	8.58707	,	8.58707	,	6.64171	,	6.64171	,	7.61503	,	7.61503	,	4.65214	,	4.65214	,	4.31137	,	4.31137	,	6.31561	,	6.23844	,	6.23844	,	7.99515	,	7.99515	,	5.53588	,	5.53588	,	4.11361	,	4.11361	,	4.53684	,	4.53684	,	7.26712	,	5.50254	,	5.50254	,	7.59999	,	7.59999	,	4.94192	,	4.94192	,	3.95412	,	3.95412	,	4.4818	,	4.4818	,	6.87971
Duplication	,	1	,	1	,	1	,	1	,	1	,	1	,	1	,	1	,	1	,	1	,	1	,	2	,	2	,	2	,	2	,	2	,	2	,	2	,	2	,	2	,	2	,	2	,	3	,	3	,	3	,	3	,	3	,	3	,	3	,	3	,	3	,	3	,	3	,	4	,	4	,	4	,	4	,	4	,	4	,	4	,	4	,	4	,	4	,	4	,	5	,	5	,	5	,	5	,	5	,	5	,	5	,	5	,	5	,	5	,	5	,	6	,	6	,	6	,	6	,	6	,	6	,	6	,	6	,	6	,	6	,	6	,	7	,	7	,	7	,	7	,	7	,	7	,	7	,	7	,	7	,	7	,	7	,	8	,	8	,	8	,	8	,	8	,	8	,	8	,	8	,	8	,	8	,	8	,	9	,	9	,	9	,	9	,	9	,	9	,	9	,	9	,	9	,	9	,	9	,	10	,	10	,	10	,	10	,	10	,	10	,	10	,	10	,	10	,	10	,	10
Index	,	0	,	1	,	2	,	3	,	4	,	5	,	6	,	7	,	8	,	9	,	10	,	11	,	12	,	13	,	14	,	15	,	16	,	17	,	18	,	19	,	20	,	21	,	22	,	23	,	24	,	25	,	26	,	27	,	28	,	29	,	30	,	31	,	32	,	33	,	34	,	35	,	36	,	37	,	38	,	39	,	40	,	41	,	42	,	43	,	44	,	45	,	46	,	47	,	48	,	49	,	50	,	51	,	52	,	53	,	54	,	55	,	56	,	57	,	58	,	59	,	60	,	61	,	62	,	63	,	64	,	65	,	66	,	67	,	68	,	69	,	70	,	71	,	72	,	73	,	74	,	75	,	76	,	77	,	78	,	79	,	80	,	81	,	82	,	83	,	84	,	85	,	86	,	87	,	88	,	89	,	90	,	91	,	92	,	93	,	94	,	95	,	96	,	97	,	98	,	99	,	100	,	101	,	102	,	103	,	104	,	105	,	106	,	107	,	108	,	109


AccelerationStructure: 
Ray tracing acceleration structure building statistics: 
	Bottom Level Acceleration Structure: 
		Maximum [B]: 222592
		Minimum [B]: 222592
		Currently Allocated [B]: 222592000
		Currently Created [num]: 1000
		Current Average [B]: 222592
		Maximum Triangles [num]: 3936
		Minimum Triangles [num]: 3936
		Total Triangles [num]: 3936000
		Maximum Meshes [num]: 1
		Minimum Meshes [num]: 1
		Total Meshes [num]: 1000
	Top Level Acceleration Structure: 
		Maximum [B]: 64000
		Minimum [B]: 64000
		Currently Allocated [B]: 64000
		Total Allocated [B]: 64000
		Total Created [num]: 1
		Average Allocated [B]: 64000
		Maximum Instances [num]: 1000
		Minimum Instances [num]: 1000
		Total Instances [num]: 1000
	Scratch Buffer: 
		Maximum [B]: 78336
		Minimum [B]: 78336
		Currently Allocated [B]: 78336
		Total Allocated [B]: 78336
		Total Created [num]: 1
		Average Allocated [B]: 78336
ProfilingStack: 
[PROF] Profiling statistics: 
	Scopes entered : 293918
	Scopes exited : 293917
	Overhead per scope [ticks] : 103
	Threads entered : 3
	Threads exited : 0
	============================
		         Sum[Mt]   Parent[%]  Samples[num]       Avg[Mt]   Last/Curr[Mt]        Self[Mt]     Self[%] 	 Name

	main:

		   91069.925 Mt   100.000 %         1 x    91069.926 Mt    91069.925 Mt        0.364 Mt     0.000 % 	 /

		   91069.597 Mt   100.000 %         1 x    91069.599 Mt    91069.597 Mt      282.754 Mt     0.310 % 	 ./Main application loop

		       2.959 Mt     0.003 %         1 x        2.959 Mt        0.000 Mt        2.959 Mt   100.000 % 	 ../TexturedRLInitialization

		       1.311 Mt     0.001 %         1 x        1.311 Mt        0.000 Mt        1.311 Mt   100.000 % 	 ../ShadowMapRLInitialization

		       4.529 Mt     0.005 %         1 x        4.529 Mt        0.000 Mt        4.529 Mt   100.000 % 	 ../RasterResolveRLInitialization

		       2.979 Mt     0.003 %         1 x        2.979 Mt        0.000 Mt        2.979 Mt   100.000 % 	 ../AmbientOcclusionRLInitialization

		       4.588 Mt     0.005 %         1 x        4.588 Mt        0.000 Mt        4.588 Mt   100.000 % 	 ../DeferredRLInitialization

		      52.636 Mt     0.058 %         1 x       52.636 Mt        0.000 Mt        2.761 Mt     5.245 % 	 ../RayTracingRLInitialization

		      49.875 Mt    94.755 %         1 x       49.875 Mt        0.000 Mt       49.875 Mt   100.000 % 	 .../PipelineBuild

		       3.769 Mt     0.004 %         1 x        3.769 Mt        0.000 Mt        3.769 Mt   100.000 % 	 ../ResolveRLInitialization

		     103.037 Mt     0.113 %         1 x      103.037 Mt        0.000 Mt        0.486 Mt     0.471 % 	 ../Initialization

		     102.551 Mt    99.529 %         1 x      102.551 Mt        0.000 Mt        1.132 Mt     1.104 % 	 .../ScenePrep

		      63.570 Mt    61.989 %         1 x       63.570 Mt        0.000 Mt       15.877 Mt    24.975 % 	 ..../SceneLoad

		      39.742 Mt    62.517 %         1 x       39.742 Mt        0.000 Mt        8.657 Mt    21.782 % 	 ...../glTF-LoadScene

		      31.085 Mt    78.218 %         2 x       15.543 Mt        0.000 Mt       31.085 Mt   100.000 % 	 ....../glTF-LoadImageData

		       6.027 Mt     9.480 %         1 x        6.027 Mt        0.000 Mt        6.027 Mt   100.000 % 	 ...../glTF-CreateScene

		       1.925 Mt     3.028 %         1 x        1.925 Mt        0.000 Mt        1.925 Mt   100.000 % 	 ...../SceneDesc-CreateScene

		       0.302 Mt     0.295 %         1 x        0.302 Mt        0.000 Mt        0.001 Mt     0.198 % 	 ..../ShadowMapRLPrep

		       0.302 Mt    99.802 %         1 x        0.302 Mt        0.000 Mt        0.294 Mt    97.317 % 	 ...../PrepareForRendering

		       0.008 Mt     2.683 %         1 x        0.008 Mt        0.000 Mt        0.008 Mt   100.000 % 	 ....../PrepareDrawBundle

		       0.752 Mt     0.733 %         1 x        0.752 Mt        0.000 Mt        0.000 Mt     0.040 % 	 ..../TexturedRLPrep

		       0.752 Mt    99.960 %         1 x        0.752 Mt        0.000 Mt        0.747 Mt    99.362 % 	 ...../PrepareForRendering

		       0.002 Mt     0.226 %         1 x        0.002 Mt        0.000 Mt        0.002 Mt   100.000 % 	 ....../PrepareMaterials

		       0.003 Mt     0.412 %         1 x        0.003 Mt        0.000 Mt        0.003 Mt   100.000 % 	 ....../PrepareDrawBundle

		       1.501 Mt     1.464 %         1 x        1.501 Mt        0.000 Mt        0.000 Mt     0.027 % 	 ..../DeferredRLPrep

		       1.501 Mt    99.973 %         1 x        1.501 Mt        0.000 Mt        1.158 Mt    77.155 % 	 ...../PrepareForRendering

		       0.001 Mt     0.047 %         1 x        0.001 Mt        0.000 Mt        0.001 Mt   100.000 % 	 ....../PrepareMaterials

		       0.339 Mt    22.612 %         1 x        0.339 Mt        0.000 Mt        0.339 Mt   100.000 % 	 ....../BuildMaterialCache

		       0.003 Mt     0.187 %         1 x        0.003 Mt        0.000 Mt        0.003 Mt   100.000 % 	 ....../PrepareDrawBundle

		      23.823 Mt    23.231 %         1 x       23.823 Mt        0.000 Mt        2.799 Mt    11.748 % 	 ..../RayTracingRLPrep

		       0.044 Mt     0.184 %         1 x        0.044 Mt        0.000 Mt        0.044 Mt   100.000 % 	 ...../PrepareAccelerationStructures

		       0.001 Mt     0.003 %         1 x        0.001 Mt        0.000 Mt        0.001 Mt   100.000 % 	 ...../PrepareCache

		      14.661 Mt    61.541 %         1 x       14.661 Mt        0.000 Mt       14.661 Mt   100.000 % 	 ...../PipelineBuild

		       0.374 Mt     1.568 %         1 x        0.374 Mt        0.000 Mt        0.374 Mt   100.000 % 	 ...../BuildCache

		       4.426 Mt    18.578 %         1 x        4.426 Mt        0.000 Mt        0.000 Mt     0.009 % 	 ...../BuildAccelerationStructures

		       4.425 Mt    99.991 %         1 x        4.425 Mt        0.000 Mt        2.759 Mt    62.340 % 	 ....../AccelerationStructureBuild

		       0.846 Mt    19.110 %         1 x        0.846 Mt        0.000 Mt        0.846 Mt   100.000 % 	 ......./BuildBottomLevelAS

		       0.821 Mt    18.550 %         1 x        0.821 Mt        0.000 Mt        0.821 Mt   100.000 % 	 ......./BuildTopLevelAS

		       1.520 Mt     6.378 %         1 x        1.520 Mt        0.000 Mt        1.520 Mt   100.000 % 	 ...../BuildShaderTables

		      11.470 Mt    11.184 %         1 x       11.470 Mt        0.000 Mt       11.470 Mt   100.000 % 	 ..../GpuSidePrep

		   90611.034 Mt    99.496 %    104653 x        0.866 Mt        6.684 Mt     1127.726 Mt     1.245 % 	 ../MainLoop

		     595.733 Mt     0.657 %      5437 x        0.110 Mt        0.052 Mt      595.102 Mt    99.894 % 	 .../Update

		       0.631 Mt     0.106 %         1 x        0.631 Mt        0.000 Mt        0.631 Mt   100.000 % 	 ..../GuiModelApply

		   88887.576 Mt    98.098 %     14115 x        6.297 Mt        6.479 Mt     1601.776 Mt     1.802 % 	 .../Render

		    5570.923 Mt     6.267 %     14115 x        0.395 Mt        0.230 Mt       96.620 Mt     1.734 % 	 ..../RayTracing

		    1099.414 Mt    19.735 %     14115 x        0.078 Mt        0.090 Mt     1060.063 Mt    96.421 % 	 ...../Deferred

		      39.351 Mt     3.579 %     14115 x        0.003 Mt        0.001 Mt       14.690 Mt    37.330 % 	 ....../DeferredRLPrep

		      24.661 Mt    62.670 %        18 x        1.370 Mt        0.000 Mt       14.474 Mt    58.691 % 	 ......./PrepareForRendering

		       0.710 Mt     2.880 %        18 x        0.039 Mt        0.000 Mt        0.710 Mt   100.000 % 	 ......../PrepareMaterials

		       0.004 Mt     0.018 %        18 x        0.000 Mt        0.000 Mt        0.004 Mt   100.000 % 	 ......../BuildMaterialCache

		       9.473 Mt    38.412 %        18 x        0.526 Mt        0.000 Mt        9.473 Mt   100.000 % 	 ......../PrepareDrawBundle

		    3929.718 Mt    70.540 %     14115 x        0.278 Mt        0.087 Mt      871.468 Mt    22.176 % 	 ...../RayCasting

		    3058.249 Mt    77.824 %     14115 x        0.217 Mt        0.001 Mt       44.998 Mt     1.471 % 	 ....../RayTracingRLPrep

		    1087.950 Mt    35.574 %        18 x       60.442 Mt        0.000 Mt     1087.950 Mt   100.000 % 	 ......./PrepareAccelerationStructures

		       0.285 Mt     0.009 %        18 x        0.016 Mt        0.000 Mt        0.285 Mt   100.000 % 	 ......./PrepareCache

		     355.256 Mt    11.616 %        18 x       19.736 Mt        0.000 Mt      355.256 Mt   100.000 % 	 ......./PipelineBuild

		       0.005 Mt     0.000 %        18 x        0.000 Mt        0.000 Mt        0.005 Mt   100.000 % 	 ......./BuildCache

		    1532.898 Mt    50.123 %        18 x       85.161 Mt        0.000 Mt        0.014 Mt     0.001 % 	 ......./BuildAccelerationStructures

		    1532.884 Mt    99.999 %        18 x       85.160 Mt        0.000 Mt       66.665 Mt     4.349 % 	 ......../AccelerationStructureBuild

		    1448.030 Mt    94.464 %        18 x       80.446 Mt        0.000 Mt     1448.030 Mt   100.000 % 	 ........./BuildBottomLevelAS

		      18.189 Mt     1.187 %        18 x        1.010 Mt        0.000 Mt       18.189 Mt   100.000 % 	 ........./BuildTopLevelAS

		      36.857 Mt     1.205 %        18 x        2.048 Mt        0.000 Mt       36.857 Mt   100.000 % 	 ......./BuildShaderTables

		     445.171 Mt     7.991 %     14115 x        0.032 Mt        0.045 Mt      445.171 Mt   100.000 % 	 ...../Resolve

		   81714.877 Mt    91.931 %     14115 x        5.789 Mt        6.084 Mt    81714.877 Mt   100.000 % 	 ..../Present

	WindowThread:

		   91067.436 Mt   100.000 %         1 x    91067.436 Mt    91067.436 Mt    91067.436 Mt   100.000 % 	 /

	GpuThread:

		   73919.712 Mt   100.000 %     14115 x        5.237 Mt        5.504 Mt      136.934 Mt     0.185 % 	 /

		       0.322 Mt     0.000 %         1 x        0.322 Mt        0.000 Mt        0.005 Mt     1.412 % 	 ./ScenePrep

		       0.317 Mt    98.588 %         1 x        0.317 Mt        0.000 Mt        0.001 Mt     0.333 % 	 ../AccelerationStructureBuild

		       0.255 Mt    80.367 %         1 x        0.255 Mt        0.000 Mt        0.255 Mt   100.000 % 	 .../BuildBottomLevelASGpu

		       0.061 Mt    19.300 %         1 x        0.061 Mt        0.000 Mt        0.061 Mt   100.000 % 	 .../BuildTopLevelASGpu

		   73467.865 Mt    99.389 %     14115 x        5.205 Mt        5.500 Mt       36.966 Mt     0.050 % 	 ./RayTracingGpu

		    9221.588 Mt    12.552 %     14115 x        0.653 Mt        1.183 Mt     9221.588 Mt   100.000 % 	 ../DeferredRLGpu

		   29477.314 Mt    40.123 %     14115 x        2.088 Mt        2.070 Mt    29477.314 Mt   100.000 % 	 ../RayTracingRLGpu

		   33265.123 Mt    45.278 %     14115 x        2.357 Mt        2.245 Mt    33265.123 Mt   100.000 % 	 ../ResolveRLGpu

		    1466.875 Mt     1.997 %        18 x       81.493 Mt        0.000 Mt        0.042 Mt     0.003 % 	 ../AccelerationStructureBuild

		    1464.350 Mt    99.828 %        18 x       81.353 Mt        0.000 Mt     1464.350 Mt   100.000 % 	 .../BuildBottomLevelASGpu

		       2.483 Mt     0.169 %        18 x        0.138 Mt        0.000 Mt        2.483 Mt   100.000 % 	 .../BuildTopLevelASGpu

		     314.590 Mt     0.426 %     14115 x        0.022 Mt        0.002 Mt      314.590 Mt   100.000 % 	 ./Present


	============================


