Configuration: 
Command line parameters  = E:\programming\FIT-DIP\Masters-DXR-Main-git\build\Measurement\x64\Release\Measurement.exe --scene Suzanne/Suzanne.gltf --duplication-cube --duplication-offset 3 --profile-triangles --profile-camera-track Suzanne/SuzanneFast.trk --profile-max-duplication 10 --rt-mode-pure --width 1024 --height 768 --profile-output TrianglesSuzanne768Rp 
Build type               = Release
Device name              = NVIDIA GeForce RTX 2080 Ti
Device memory MB         = 11049
Ray Tracing backend      = Hardware
Window width             = 1024
Window height            = 768
Window title             = Direct3D App
Back-buffer count        = 3
Fill Triangles           = enabled
Triangles Font Clock-Wise= enabled
Fast Build AS            = disabled
Target FPS               = 0
Target UPS               = 60
Tearing                  = enabled
VSync                    = disabled
GUI rendering            = disabled
Debug layer              = disabled
GPU validation           = disabled
GPU profiling            = enabled
Render mode              = Ray Tracing
Loaded scene file        = Suzanne/Suzanne.gltf
Using testing scene      = disabled
Duplication              = 10
Duplication in cube      = enabled
Duplication offset       = 3
BLAS duplication         = enabled
Rays per pixel           = 14
Quality preset           = High
Rasterization Quality    : 
  AO                     = enabled
  AO kernel size         = 4
  Shadows                = enabled
  Shadow map resolution  = 4096
  Shadow PCF kernel size = 4
  Reflections            = enabled
Ray Tracing Quality      : 
  AO                     = enabled
  AO rays                = 4
  AO kernel size         = 4
  Shadows                = enabled
  Shadow rays            = 4
  Shadow kernel size     = 4
  Reflections            = enabled

ProfilingAggregator: 
Render	,	0.5265	,	0.5265	,	0.3151	,	0.3151	,	0.5914	,	0.5914	,	1.3821	,	1.3821	,	0.8007	,	0.8007	,	0.4945	,	0.6308	,	0.6308	,	0.4423	,	0.4423	,	0.7336	,	0.7336	,	0.8352	,	0.8352	,	0.8495	,	0.8495	,	0.5553	,	0.9673	,	0.9673	,	0.4536	,	0.4536	,	0.9272	,	0.9272	,	1.1029	,	1.1029	,	1.5385	,	1.5385	,	0.6278	,	1.2815	,	1.2815	,	0.5467	,	0.5467	,	0.9442	,	0.9442	,	1.7249	,	1.7249	,	1.6799	,	1.6799	,	7.5371	,	1.203	,	1.203	,	0.6114	,	0.6114	,	1.1438	,	1.1438	,	1.8735	,	1.8735	,	1.8451	,	1.8451	,	0.9048	,	1.5177	,	1.5177	,	0.7869	,	0.7869	,	1.4201	,	1.4201	,	2.1199	,	2.1199	,	2.0797	,	2.0797	,	1.2314	,	1.6738	,	1.6738	,	0.9514	,	0.9514	,	1.437	,	1.437	,	2.2067	,	2.2067	,	2.1839	,	2.1839	,	1.5214	,	1.7274	,	1.7274	,	1.0849	,	1.0849	,	1.5149	,	1.5149	,	2.3371	,	2.3371	,	2.3398	,	2.3398	,	1.6516	,	2.2698	,	2.2698	,	1.6296	,	1.6296	,	2.4004	,	2.4004	,	2.3068	,	2.3068	,	2.3788	,	2.3788	,	1.948	,	2.1022	,	2.1022	,	1.8836	,	1.8836	,	2.4731	,	2.4731	,	2.8132	,	2.8132	,	2.6309	,	2.6309	,	2.2497
Update	,	0.0189	,	0.0189	,	0.0215	,	0.0215	,	0.0398	,	0.0398	,	0.0673	,	0.0673	,	0.0439	,	0.0439	,	0.0193	,	0.0211	,	0.0211	,	0.0369	,	0.0369	,	0.0561	,	0.0561	,	0.0605	,	0.0605	,	0.053	,	0.053	,	0.0195	,	0.0754	,	0.0754	,	0.022	,	0.022	,	0.0631	,	0.0631	,	0.0743	,	0.0743	,	0.0714	,	0.0714	,	0.0596	,	0.072	,	0.072	,	0.0257	,	0.0257	,	0.0652	,	0.0652	,	0.0726	,	0.0726	,	0.0486	,	0.0486	,	0.0589	,	0.061	,	0.061	,	0.0609	,	0.0609	,	0.0585	,	0.0585	,	0.0693	,	0.0693	,	0.0728	,	0.0728	,	0.0709	,	0.0711	,	0.0711	,	0.0699	,	0.0699	,	0.0762	,	0.0762	,	0.0779	,	0.0779	,	0.0785	,	0.0785	,	0.0764	,	0.0829	,	0.0829	,	0.0753	,	0.0753	,	0.0569	,	0.0569	,	0.0839	,	0.0839	,	0.0832	,	0.0832	,	0.0743	,	0.0909	,	0.0909	,	0.0841	,	0.0841	,	0.0723	,	0.0723	,	0.0915	,	0.0915	,	0.0933	,	0.0933	,	0.0911	,	0.0995	,	0.0995	,	0.0976	,	0.0976	,	0.0982	,	0.0982	,	0.1162	,	0.1162	,	0.0966	,	0.0966	,	0.1007	,	0.1088	,	0.1088	,	0.1234	,	0.1234	,	0.1089	,	0.1089	,	0.1102	,	0.1102	,	0.1066	,	0.1066	,	0.1108
RayTracing	,	0.0566	,	0.0566	,	0.0225	,	0.0225	,	0.042	,	0.042	,	0.0859	,	0.0859	,	0.0516	,	0.0516	,	0.0657	,	0.0265	,	0.0265	,	0.0357	,	0.0357	,	0.0587	,	0.0587	,	0.0674	,	0.0674	,	0.0566	,	0.0566	,	0.0551	,	0.0612	,	0.0612	,	0.0257	,	0.0257	,	0.0565	,	0.0565	,	0.0685	,	0.0685	,	0.0896	,	0.0896	,	0.0471	,	0.0911	,	0.0911	,	0.0287	,	0.0287	,	0.0485	,	0.0485	,	0.0955	,	0.0955	,	0.0893	,	0.0893	,	0.0454	,	0.0668	,	0.0668	,	0.0305	,	0.0305	,	0.0681	,	0.0681	,	0.0874	,	0.0874	,	0.0836	,	0.0836	,	0.0518	,	0.0894	,	0.0894	,	0.0532	,	0.0532	,	0.0748	,	0.0748	,	0.0902	,	0.0902	,	0.0859	,	0.0859	,	0.091	,	0.0936	,	0.0936	,	0.0691	,	0.0691	,	0.1065	,	0.1065	,	0.0898	,	0.0898	,	0.0895	,	0.0895	,	0.0727	,	0.0873	,	0.0873	,	0.0645	,	0.0645	,	0.0786	,	0.0786	,	0.0902	,	0.0902	,	0.0875	,	0.0875	,	0.0861	,	0.0871	,	0.0871	,	0.0723	,	0.0723	,	0.1496	,	0.1496	,	0.0904	,	0.0904	,	0.0895	,	0.0895	,	0.0911	,	0.0866	,	0.0866	,	0.0811	,	0.0811	,	0.0883	,	0.0883	,	0.0874	,	0.0874	,	0.0906	,	0.0906	,	0.09
RayTracingGpu	,	0.224576	,	0.224576	,	0.135872	,	0.135872	,	0.326016	,	0.326016	,	0.83248	,	0.83248	,	0.439008	,	0.439008	,	0.147744	,	0.42048	,	0.42048	,	0.193088	,	0.193088	,	0.398304	,	0.398304	,	0.465088	,	0.465088	,	0.530304	,	0.530304	,	0.236416	,	0.614624	,	0.614624	,	0.258912	,	0.258912	,	0.589632	,	0.589632	,	0.715872	,	0.715872	,	0.921472	,	0.921472	,	0.340672	,	0.727712	,	0.727712	,	0.327488	,	0.327488	,	0.638144	,	0.638144	,	1.04064	,	1.04064	,	1.00454	,	1.00454	,	0.453536	,	0.789344	,	0.789344	,	0.396768	,	0.396768	,	0.762144	,	0.762144	,	1.20723	,	1.20723	,	1.19718	,	1.19718	,	0.589536	,	0.915904	,	0.915904	,	0.468736	,	0.468736	,	0.835456	,	0.835456	,	1.41498	,	1.41498	,	1.42598	,	1.42598	,	0.734144	,	1.00035	,	1.00035	,	0.559808	,	0.559808	,	0.866016	,	0.866016	,	1.48163	,	1.48163	,	1.49667	,	1.49667	,	0.911552	,	1.06243	,	1.06243	,	0.673088	,	0.673088	,	0.935872	,	0.935872	,	1.6297	,	1.6297	,	1.70301	,	1.70301	,	1.1137	,	1.55722	,	1.55722	,	1.05011	,	1.05011	,	1.63683	,	1.63683	,	1.69789	,	1.69789	,	1.67267	,	1.67267	,	1.29094	,	1.34646	,	1.34646	,	1.15517	,	1.15517	,	1.79866	,	1.79866	,	2.05446	,	2.05446	,	1.86451	,	1.86451	,	1.52301
RayTracingRLGpu	,	0.222752	,	0.222752	,	0.135008	,	0.135008	,	0.324512	,	0.324512	,	0.830624	,	0.830624	,	0.43824	,	0.43824	,	0.146784	,	0.418688	,	0.418688	,	0.191648	,	0.191648	,	0.397536	,	0.397536	,	0.46416	,	0.46416	,	0.528672	,	0.528672	,	0.235584	,	0.613728	,	0.613728	,	0.258176	,	0.258176	,	0.58784	,	0.58784	,	0.715072	,	0.715072	,	0.919616	,	0.919616	,	0.338848	,	0.725952	,	0.725952	,	0.326592	,	0.326592	,	0.636352	,	0.636352	,	1.03971	,	1.03971	,	1.00381	,	1.00381	,	0.452704	,	0.788416	,	0.788416	,	0.396032	,	0.396032	,	0.760224	,	0.760224	,	1.20627	,	1.20627	,	1.19642	,	1.19642	,	0.588736	,	0.91408	,	0.91408	,	0.467936	,	0.467936	,	0.834656	,	0.834656	,	1.41418	,	1.41418	,	1.42406	,	1.42406	,	0.732256	,	0.998496	,	0.998496	,	0.558976	,	0.558976	,	0.865248	,	0.865248	,	1.4799	,	1.4799	,	1.49574	,	1.49574	,	0.910752	,	1.06166	,	1.06166	,	0.67232	,	0.67232	,	0.934944	,	0.934944	,	1.6287	,	1.6287	,	1.70221	,	1.70221	,	1.11277	,	1.55638	,	1.55638	,	1.0481	,	1.0481	,	1.63603	,	1.63603	,	1.69709	,	1.69709	,	1.67075	,	1.67075	,	1.29002	,	1.34563	,	1.34563	,	1.15318	,	1.15318	,	1.79664	,	1.79664	,	2.0537	,	2.0537	,	1.86358	,	1.86358	,	1.52205
Index	,	0	,	1	,	2	,	3	,	4	,	5	,	6	,	7	,	8	,	9	,	10	,	11	,	12	,	13	,	14	,	15	,	16	,	17	,	18	,	19	,	20	,	21	,	22	,	23	,	24	,	25	,	26	,	27	,	28	,	29	,	30	,	31	,	32	,	33	,	34	,	35	,	36	,	37	,	38	,	39	,	40	,	41	,	42	,	43	,	44	,	45	,	46	,	47	,	48	,	49	,	50	,	51	,	52	,	53	,	54	,	55	,	56	,	57	,	58	,	59	,	60	,	61	,	62	,	63	,	64	,	65	,	66	,	67	,	68	,	69	,	70	,	71	,	72	,	73	,	74	,	75	,	76	,	77	,	78	,	79	,	80	,	81	,	82	,	83	,	84	,	85	,	86	,	87	,	88	,	89	,	90	,	91	,	92	,	93	,	94	,	95	,	96	,	97	,	98	,	99	,	100	,	101	,	102	,	103	,	104	,	105	,	106	,	107	,	108	,	109

ProfilingBuildAggregator: 
BuildBottomLevelAS	,	0.9058	,	2.4807	,	8.3524	,	19.3881	,	41.2717	,	61.1569	,	94.5816	,	120.156	,	172.461	,	201.76
BuildBottomLevelASGpu	,	0.251168	,	1.92534	,	6.45936	,	16.0878	,	30.758	,	52.498	,	83.0541	,	123.534	,	175.53	,	240.371
BuildTopLevelAS	,	0.8808	,	0.8939	,	0.8833	,	1.0042	,	1.0924	,	0.9444	,	0.9166	,	0.959	,	0.8418	,	0.8244
BuildTopLevelASGpu	,	0.058688	,	0.067744	,	0.091872	,	0.099936	,	0.12512	,	0.164864	,	0.16256	,	0.136992	,	0.193184	,	0.199488
Duplication	,	1	,	2	,	3	,	4	,	5	,	6	,	7	,	8	,	9	,	10
Triangles	,	3936	,	31488	,	106272	,	251904	,	492000	,	850176	,	1350048	,	2015232	,	2869344	,	3936000
Meshes	,	1	,	8	,	27	,	64	,	125	,	216	,	343	,	512	,	729	,	1000
BottomLevels	,	1	,	8	,	27	,	64	,	125	,	216	,	343	,	512	,	729	,	1000
TopLevelSize	,	64	,	512	,	1728	,	4096	,	8000	,	13824	,	21952	,	32768	,	46656	,	64000
BottomLevelsSize	,	222592	,	1780736	,	6009984	,	14245888	,	27824000	,	48079872	,	76349056	,	113967104	,	162269568	,	222592000
Index	,	0	,	1	,	2	,	3	,	4	,	5	,	6	,	7	,	8	,	9

FpsAggregator: 
FPS	,	2537	,	2537	,	2151	,	2151	,	2254	,	2254	,	1383	,	1383	,	836	,	836	,	1995	,	2034	,	2034	,	1446	,	1446	,	1840	,	1840	,	1114	,	1114	,	1052	,	1052	,	1423	,	1647	,	1647	,	1092	,	1092	,	1423	,	1423	,	881	,	881	,	754	,	754	,	1054	,	1407	,	1407	,	923	,	923	,	1186	,	1186	,	638	,	638	,	533	,	533	,	845	,	1185	,	1185	,	795	,	795	,	1022	,	1022	,	608	,	608	,	521	,	521	,	691	,	1005	,	1005	,	688	,	688	,	856	,	856	,	507	,	507	,	472	,	472	,	579	,	836	,	836	,	611	,	611	,	776	,	776	,	505	,	505	,	447	,	447	,	511	,	719	,	719	,	556	,	556	,	694	,	694	,	466	,	466	,	431	,	431	,	503	,	503	,	503	,	624	,	624	,	530	,	530	,	419	,	419	,	401	,	401	,	476	,	451	,	451	,	561	,	561	,	475	,	475	,	390	,	390	,	378	,	378	,	434
UPS	,	60	,	60	,	60	,	60	,	60	,	60	,	60	,	60	,	60	,	60	,	60	,	60	,	60	,	60	,	60	,	60	,	60	,	60	,	60	,	60	,	60	,	60	,	60	,	60	,	60	,	60	,	60	,	60	,	60	,	60	,	60	,	60	,	60	,	60	,	60	,	60	,	60	,	60	,	60	,	60	,	60	,	60	,	60	,	60	,	60	,	60	,	60	,	60	,	60	,	60	,	60	,	60	,	60	,	60	,	60	,	60	,	60	,	60	,	60	,	60	,	60	,	60	,	60	,	60	,	60	,	61	,	60	,	60	,	60	,	60	,	60	,	60	,	60	,	60	,	60	,	60	,	60	,	60	,	60	,	60	,	60	,	60	,	60	,	60	,	60	,	60	,	60	,	60	,	60	,	60	,	60	,	60	,	60	,	60	,	60	,	60	,	60	,	60	,	60	,	60	,	60	,	60	,	60	,	60	,	60	,	60	,	60	,	60	,	60	,	60
FrameTime	,	0.394204	,	0.394204	,	0.465004	,	0.465004	,	0.443695	,	0.443695	,	0.723606	,	0.723606	,	1.19679	,	1.19679	,	0.501478	,	0.491841	,	0.491841	,	0.691642	,	0.691642	,	0.543747	,	0.543747	,	0.898127	,	0.898127	,	0.951299	,	0.951299	,	0.702969	,	0.607717	,	0.607717	,	0.915992	,	0.915992	,	0.702923	,	0.702923	,	1.13519	,	1.13519	,	1.32721	,	1.32721	,	0.948958	,	0.711104	,	0.711104	,	1.08366	,	1.08366	,	0.843566	,	0.843566	,	1.5687	,	1.5687	,	1.87879	,	1.87879	,	1.19201	,	0.844002	,	0.844002	,	1.25814	,	1.25814	,	0.979092	,	0.979092	,	1.647	,	1.647	,	1.92214	,	1.92214	,	1.44737	,	0.995624	,	0.995624	,	1.45462	,	1.45462	,	1.16922	,	1.16922	,	1.97387	,	1.97387	,	2.12229	,	2.12229	,	1.72874	,	1.19701	,	1.19701	,	1.63764	,	1.63764	,	1.28892	,	1.28892	,	1.98216	,	1.98216	,	2.23778	,	2.23778	,	1.95917	,	1.39102	,	1.39102	,	1.79906	,	1.79906	,	1.44163	,	1.44163	,	2.14791	,	2.14791	,	2.32329	,	2.32329	,	1.98987	,	1.98807	,	1.98807	,	1.60281	,	1.60281	,	1.8873	,	1.8873	,	2.38799	,	2.38799	,	2.49765	,	2.49765	,	2.10174	,	2.21919	,	2.21919	,	1.78256	,	1.78256	,	2.10697	,	2.10697	,	2.56424	,	2.56424	,	2.65153	,	2.65153	,	2.30505
GigaRays/s	,	27.9299	,	27.9299	,	23.6773	,	23.6773	,	24.8145	,	24.8145	,	15.2155	,	15.2155	,	9.19967	,	9.19967	,	21.9552	,	22.3854	,	22.3854	,	15.9187	,	15.9187	,	20.2485	,	20.2485	,	12.2589	,	12.2589	,	11.5737	,	11.5737	,	15.6622	,	18.1171	,	18.1171	,	12.0198	,	12.0198	,	15.6632	,	15.6632	,	9.69886	,	9.69886	,	8.29565	,	8.29565	,	11.6023	,	15.483	,	15.483	,	10.1601	,	10.1601	,	13.0518	,	13.0518	,	7.01859	,	7.01859	,	5.8602	,	5.8602	,	9.23658	,	13.0451	,	13.0451	,	8.75102	,	8.75102	,	11.2452	,	11.2452	,	6.68491	,	6.68491	,	5.72801	,	5.72801	,	7.60692	,	11.0584	,	11.0584	,	7.56904	,	7.56904	,	9.41655	,	9.41655	,	5.57789	,	5.57789	,	5.18782	,	5.18782	,	6.36882	,	9.19792	,	9.19792	,	6.7231	,	6.7231	,	8.54206	,	8.54206	,	5.55458	,	5.55458	,	4.92007	,	4.92007	,	5.61976	,	7.91508	,	7.91508	,	6.11991	,	6.11991	,	7.63723	,	7.63723	,	5.12593	,	5.12593	,	4.73898	,	4.73898	,	5.53305	,	5.53805	,	5.53805	,	6.86922	,	6.86922	,	5.83376	,	5.83376	,	4.61059	,	4.61059	,	4.40816	,	4.40816	,	5.23854	,	4.9613	,	4.9613	,	6.17655	,	6.17655	,	5.22553	,	5.22553	,	4.29368	,	4.29368	,	4.15234	,	4.15234	,	4.77648
Duplication	,	1	,	1	,	1	,	1	,	1	,	1	,	1	,	1	,	1	,	1	,	1	,	2	,	2	,	2	,	2	,	2	,	2	,	2	,	2	,	2	,	2	,	2	,	3	,	3	,	3	,	3	,	3	,	3	,	3	,	3	,	3	,	3	,	3	,	4	,	4	,	4	,	4	,	4	,	4	,	4	,	4	,	4	,	4	,	4	,	5	,	5	,	5	,	5	,	5	,	5	,	5	,	5	,	5	,	5	,	5	,	6	,	6	,	6	,	6	,	6	,	6	,	6	,	6	,	6	,	6	,	6	,	7	,	7	,	7	,	7	,	7	,	7	,	7	,	7	,	7	,	7	,	7	,	8	,	8	,	8	,	8	,	8	,	8	,	8	,	8	,	8	,	8	,	8	,	9	,	9	,	9	,	9	,	9	,	9	,	9	,	9	,	9	,	9	,	9	,	10	,	10	,	10	,	10	,	10	,	10	,	10	,	10	,	10	,	10	,	10
Index	,	0	,	1	,	2	,	3	,	4	,	5	,	6	,	7	,	8	,	9	,	10	,	11	,	12	,	13	,	14	,	15	,	16	,	17	,	18	,	19	,	20	,	21	,	22	,	23	,	24	,	25	,	26	,	27	,	28	,	29	,	30	,	31	,	32	,	33	,	34	,	35	,	36	,	37	,	38	,	39	,	40	,	41	,	42	,	43	,	44	,	45	,	46	,	47	,	48	,	49	,	50	,	51	,	52	,	53	,	54	,	55	,	56	,	57	,	58	,	59	,	60	,	61	,	62	,	63	,	64	,	65	,	66	,	67	,	68	,	69	,	70	,	71	,	72	,	73	,	74	,	75	,	76	,	77	,	78	,	79	,	80	,	81	,	82	,	83	,	84	,	85	,	86	,	87	,	88	,	89	,	90	,	91	,	92	,	93	,	94	,	95	,	96	,	97	,	98	,	99	,	100	,	101	,	102	,	103	,	104	,	105	,	106	,	107	,	108	,	109


AccelerationStructure: 
Ray tracing acceleration structure building statistics: 
	Bottom Level Acceleration Structure: 
		Maximum [B]: 222592
		Minimum [B]: 222592
		Currently Allocated [B]: 222592000
		Currently Created [num]: 1000
		Current Average [B]: 222592
		Maximum Triangles [num]: 3936
		Minimum Triangles [num]: 3936
		Total Triangles [num]: 3936000
		Maximum Meshes [num]: 1
		Minimum Meshes [num]: 1
		Total Meshes [num]: 1000
	Top Level Acceleration Structure: 
		Maximum [B]: 64000
		Minimum [B]: 64000
		Currently Allocated [B]: 64000
		Total Allocated [B]: 64000
		Total Created [num]: 1
		Average Allocated [B]: 64000
		Maximum Instances [num]: 1000
		Minimum Instances [num]: 1000
		Total Instances [num]: 1000
	Scratch Buffer: 
		Maximum [B]: 78336
		Minimum [B]: 78336
		Currently Allocated [B]: 78336
		Total Allocated [B]: 78336
		Total Created [num]: 1
		Average Allocated [B]: 78336
ProfilingStack: 
[PROF] Profiling statistics: 
	Scopes entered : 703185
	Scopes exited : 703184
	Overhead per scope [ticks] : 101.9
	Threads entered : 3
	Threads exited : 0
	============================
		         Sum[Mt]   Parent[%]  Samples[num]       Avg[Mt]   Last/Curr[Mt]        Self[Mt]     Self[%] 	 Name

	main:

		   91012.246 Mt   100.000 %         1 x    91012.246 Mt    91012.245 Mt        0.486 Mt     0.001 % 	 /

		   91011.787 Mt    99.999 %         1 x    91011.789 Mt    91011.787 Mt      372.878 Mt     0.410 % 	 ./Main application loop

		       4.242 Mt     0.005 %         1 x        4.242 Mt        0.000 Mt        4.242 Mt   100.000 % 	 ../TexturedRLInitialization

		       1.751 Mt     0.002 %         1 x        1.751 Mt        0.000 Mt        1.751 Mt   100.000 % 	 ../ShadowMapRLInitialization

		       5.738 Mt     0.006 %         1 x        5.738 Mt        0.000 Mt        5.738 Mt   100.000 % 	 ../RasterResolveRLInitialization

		       3.900 Mt     0.004 %         1 x        3.900 Mt        0.000 Mt        3.900 Mt   100.000 % 	 ../AmbientOcclusionRLInitialization

		       5.117 Mt     0.006 %         1 x        5.117 Mt        0.000 Mt        5.117 Mt   100.000 % 	 ../DeferredRLInitialization

		      52.335 Mt     0.058 %         1 x       52.335 Mt        0.000 Mt        2.797 Mt     5.344 % 	 ../RayTracingRLInitialization

		      49.538 Mt    94.656 %         1 x       49.538 Mt        0.000 Mt       49.538 Mt   100.000 % 	 .../PipelineBuild

		       3.591 Mt     0.004 %         1 x        3.591 Mt        0.000 Mt        3.591 Mt   100.000 % 	 ../ResolveRLInitialization

		     103.883 Mt     0.114 %         1 x      103.883 Mt        0.000 Mt        0.173 Mt     0.166 % 	 ../Initialization

		     103.711 Mt    99.834 %         1 x      103.711 Mt        0.000 Mt        1.133 Mt     1.092 % 	 .../ScenePrep

		      61.511 Mt    59.310 %         1 x       61.511 Mt        0.000 Mt       14.551 Mt    23.655 % 	 ..../SceneLoad

		      39.331 Mt    63.941 %         1 x       39.331 Mt        0.000 Mt        8.503 Mt    21.619 % 	 ...../glTF-LoadScene

		      30.828 Mt    78.381 %         2 x       15.414 Mt        0.000 Mt       30.828 Mt   100.000 % 	 ....../glTF-LoadImageData

		       5.877 Mt     9.555 %         1 x        5.877 Mt        0.000 Mt        5.877 Mt   100.000 % 	 ...../glTF-CreateScene

		       1.752 Mt     2.849 %         1 x        1.752 Mt        0.000 Mt        1.752 Mt   100.000 % 	 ...../SceneDesc-CreateScene

		       0.303 Mt     0.293 %         1 x        0.303 Mt        0.000 Mt        0.000 Mt     0.132 % 	 ..../ShadowMapRLPrep

		       0.303 Mt    99.868 %         1 x        0.303 Mt        0.000 Mt        0.295 Mt    97.196 % 	 ...../PrepareForRendering

		       0.009 Mt     2.804 %         1 x        0.009 Mt        0.000 Mt        0.009 Mt   100.000 % 	 ....../PrepareDrawBundle

		       0.748 Mt     0.721 %         1 x        0.748 Mt        0.000 Mt        0.000 Mt     0.040 % 	 ..../TexturedRLPrep

		       0.748 Mt    99.960 %         1 x        0.748 Mt        0.000 Mt        0.743 Mt    99.412 % 	 ...../PrepareForRendering

		       0.002 Mt     0.214 %         1 x        0.002 Mt        0.000 Mt        0.002 Mt   100.000 % 	 ....../PrepareMaterials

		       0.003 Mt     0.374 %         1 x        0.003 Mt        0.000 Mt        0.003 Mt   100.000 % 	 ....../PrepareDrawBundle

		       1.694 Mt     1.634 %         1 x        1.694 Mt        0.000 Mt        0.001 Mt     0.041 % 	 ..../DeferredRLPrep

		       1.694 Mt    99.959 %         1 x        1.694 Mt        0.000 Mt        1.344 Mt    79.366 % 	 ...../PrepareForRendering

		       0.001 Mt     0.035 %         1 x        0.001 Mt        0.000 Mt        0.001 Mt   100.000 % 	 ....../PrepareMaterials

		       0.340 Mt    20.073 %         1 x        0.340 Mt        0.000 Mt        0.340 Mt   100.000 % 	 ....../BuildMaterialCache

		       0.009 Mt     0.525 %         1 x        0.009 Mt        0.000 Mt        0.009 Mt   100.000 % 	 ....../PrepareDrawBundle

		      25.948 Mt    25.019 %         1 x       25.948 Mt        0.000 Mt        2.943 Mt    11.343 % 	 ..../RayTracingRLPrep

		       0.141 Mt     0.541 %         1 x        0.141 Mt        0.000 Mt        0.141 Mt   100.000 % 	 ...../PrepareAccelerationStructures

		       0.002 Mt     0.009 %         1 x        0.002 Mt        0.000 Mt        0.002 Mt   100.000 % 	 ...../PrepareCache

		      16.503 Mt    63.599 %         1 x       16.503 Mt        0.000 Mt       16.503 Mt   100.000 % 	 ...../PipelineBuild

		       0.356 Mt     1.372 %         1 x        0.356 Mt        0.000 Mt        0.356 Mt   100.000 % 	 ...../BuildCache

		       4.460 Mt    17.186 %         1 x        4.460 Mt        0.000 Mt        0.000 Mt     0.009 % 	 ...../BuildAccelerationStructures

		       4.459 Mt    99.991 %         1 x        4.459 Mt        0.000 Mt        2.673 Mt    59.934 % 	 ....../AccelerationStructureBuild

		       0.906 Mt    20.314 %         1 x        0.906 Mt        0.000 Mt        0.906 Mt   100.000 % 	 ......./BuildBottomLevelAS

		       0.881 Mt    19.753 %         1 x        0.881 Mt        0.000 Mt        0.881 Mt   100.000 % 	 ......./BuildTopLevelAS

		       1.544 Mt     5.950 %         1 x        1.544 Mt        0.000 Mt        1.544 Mt   100.000 % 	 ...../BuildShaderTables

		      12.373 Mt    11.931 %         1 x       12.373 Mt        0.000 Mt       12.373 Mt   100.000 % 	 ..../GpuSidePrep

		   90458.353 Mt    99.392 %     97727 x        0.926 Mt        2.241 Mt      979.328 Mt     1.083 % 	 ../MainLoop

		     494.663 Mt     0.547 %      5429 x        0.091 Mt        0.135 Mt      494.413 Mt    99.950 % 	 .../Update

		       0.249 Mt     0.050 %         1 x        0.249 Mt        0.000 Mt        0.249 Mt   100.000 % 	 ..../GuiModelApply

		   88984.362 Mt    98.371 %     74971 x        1.187 Mt        2.103 Mt     4879.823 Mt     5.484 % 	 .../Render

		    7721.567 Mt     8.677 %     74971 x        0.103 Mt        0.098 Mt      288.121 Mt     3.731 % 	 ..../RayTracing

		    7433.446 Mt    96.269 %     74971 x        0.099 Mt        0.092 Mt     4252.686 Mt    57.210 % 	 ...../RayCasting

		    3180.760 Mt    42.790 %     74971 x        0.042 Mt        0.001 Mt       86.003 Mt     2.704 % 	 ....../RayTracingRLPrep

		    1108.085 Mt    34.837 %        18 x       61.560 Mt        0.000 Mt     1108.085 Mt   100.000 % 	 ......./PrepareAccelerationStructures

		       0.250 Mt     0.008 %        18 x        0.014 Mt        0.000 Mt        0.250 Mt   100.000 % 	 ......./PrepareCache

		     354.477 Mt    11.144 %        18 x       19.693 Mt        0.000 Mt      354.477 Mt   100.000 % 	 ......./PipelineBuild

		       0.004 Mt     0.000 %        18 x        0.000 Mt        0.000 Mt        0.004 Mt   100.000 % 	 ......./BuildCache

		    1590.841 Mt    50.014 %        18 x       88.380 Mt        0.000 Mt        0.012 Mt     0.001 % 	 ......./BuildAccelerationStructures

		    1590.829 Mt    99.999 %        18 x       88.379 Mt        0.000 Mt       74.669 Mt     4.694 % 	 ......../AccelerationStructureBuild

		    1498.613 Mt    94.203 %        18 x       83.256 Mt        0.000 Mt     1498.613 Mt   100.000 % 	 ........./BuildBottomLevelAS

		      17.547 Mt     1.103 %        18 x        0.975 Mt        0.000 Mt       17.547 Mt   100.000 % 	 ........./BuildTopLevelAS

		      41.100 Mt     1.292 %        18 x        2.283 Mt        0.000 Mt       41.100 Mt   100.000 % 	 ......./BuildShaderTables

		   76382.972 Mt    85.839 %     74971 x        1.019 Mt        1.896 Mt    76382.972 Mt   100.000 % 	 ..../Present

	WindowThread:

		   91009.853 Mt   100.000 %         1 x    91009.853 Mt    91009.853 Mt    91009.853 Mt   100.000 % 	 /

	GpuThread:

		   54028.835 Mt   100.000 %     74971 x        0.721 Mt        1.518 Mt      158.784 Mt     0.294 % 	 /

		       0.316 Mt     0.001 %         1 x        0.316 Mt        0.000 Mt        0.006 Mt     1.811 % 	 ./ScenePrep

		       0.310 Mt    98.189 %         1 x        0.310 Mt        0.000 Mt        0.001 Mt     0.206 % 	 ../AccelerationStructureBuild

		       0.251 Mt    80.893 %         1 x        0.251 Mt        0.000 Mt        0.251 Mt   100.000 % 	 .../BuildBottomLevelASGpu

		       0.059 Mt    18.901 %         1 x        0.059 Mt        0.000 Mt        0.059 Mt   100.000 % 	 .../BuildTopLevelASGpu

		   53729.976 Mt    99.447 %     74971 x        0.717 Mt        1.516 Mt       91.864 Mt     0.171 % 	 ./RayTracingGpu

		   52174.488 Mt    97.105 %     74971 x        0.696 Mt        1.515 Mt    52174.488 Mt   100.000 % 	 ../RayTracingRLGpu

		    1463.624 Mt     2.724 %        18 x       81.312 Mt        0.000 Mt        0.044 Mt     0.003 % 	 ../AccelerationStructureBuild

		    1461.073 Mt    99.826 %        18 x       81.171 Mt        0.000 Mt     1461.073 Mt   100.000 % 	 .../BuildBottomLevelASGpu

		       2.507 Mt     0.171 %        18 x        0.139 Mt        0.000 Mt        2.507 Mt   100.000 % 	 .../BuildTopLevelASGpu

		     139.758 Mt     0.259 %     74971 x        0.002 Mt        0.002 Mt      139.758 Mt   100.000 % 	 ./Present


	============================


