Configuration: 
Command line parameters  = E:\programming\FIT-DIP\Masters-DXR-Main-git\build\Measurement\x64\Release\Measurement.exe --scene Sponza/Sponza.gltf --duplication-cube --duplication-offset 25 --profile-triangles --profile-camera-track Sponza/SponzaFast.trk --profile-max-duplication 7 --rt-mode-pure --width 2560 --height 1440 --profile-output TrianglesSponza1440Rp 
Build type               = Release
Device name              = NVIDIA GeForce RTX 2080 Ti
Device memory MB         = 11049
Ray Tracing backend      = Hardware
Window width             = 2560
Window height            = 1421
Window title             = Direct3D App
Back-buffer count        = 3
Fill Triangles           = enabled
Triangles Font Clock-Wise= enabled
Fast Build AS            = disabled
Target FPS               = 0
Target UPS               = 60
Tearing                  = enabled
VSync                    = disabled
GUI rendering            = disabled
Debug layer              = disabled
GPU validation           = disabled
GPU profiling            = enabled
Render mode              = Ray Tracing
Loaded scene file        = Sponza/Sponza.gltf
Using testing scene      = disabled
Duplication              = 7
Duplication in cube      = enabled
Duplication offset       = 25
BLAS duplication         = enabled
Rays per pixel           = 14
Quality preset           = High
Rasterization Quality    : 
  AO                     = enabled
  AO kernel size         = 4
  Shadows                = enabled
  Shadow map resolution  = 4096
  Shadow PCF kernel size = 4
  Reflections            = enabled
Ray Tracing Quality      : 
  AO                     = enabled
  AO rays                = 4
  AO kernel size         = 4
  Shadows                = enabled
  Shadow rays            = 4
  Shadow kernel size     = 4
  Reflections            = enabled

ProfilingAggregator: 
Render	,	6.4729	,	6.4729	,	6.6813	,	6.6813	,	6.6587	,	6.6587	,	6.8036	,	6.8036	,	8.278	,	8.278	,	6.6734	,	3.9717	,	3.9717	,	3.8074	,	3.8074	,	4.1782	,	4.1782	,	4.9725	,	4.9725	,	5.6355	,	5.6355	,	6.1383	,	6.0772	,	6.0772	,	8.4457	,	8.4457	,	6.5384	,	6.5384	,	6.3343	,	6.3343	,	10.0037	,	10.0037	,	6.6999	,	5.3366	,	5.3366	,	5.4177	,	5.4177	,	5.1998	,	5.1998	,	6.9266	,	6.9266	,	6.8999	,	6.8999	,	7.2015	,	5.9072	,	5.9072	,	6.2598	,	6.2598	,	6.6954	,	6.6954	,	8.5818	,	8.5818	,	9.409	,	9.409	,	8.3268	,	5.3487	,	5.3487	,	7.0547	,	7.0547	,	6.1985	,	6.1985	,	8.4428	,	8.4428	,	8.419	,	8.419	,	5.4704	,	6.5558	,	6.5558	,	8.6195	,	8.6195	,	7.5262	,	7.5262	,	12.445	,	12.445	,	7.3515
Update	,	0.0742	,	0.0742	,	0.0724	,	0.0724	,	0.0756	,	0.0756	,	0.0705	,	0.0705	,	0.0732	,	0.0732	,	0.0706	,	0.0723	,	0.0723	,	0.0736	,	0.0736	,	0.073	,	0.073	,	0.0705	,	0.0705	,	0.0709	,	0.0709	,	0.0693	,	0.0723	,	0.0723	,	0.0712	,	0.0712	,	0.0714	,	0.0714	,	0.0717	,	0.0717	,	0.0723	,	0.0723	,	0.0722	,	0.0773	,	0.0773	,	0.0742	,	0.0742	,	0.0776	,	0.0776	,	0.0797	,	0.0797	,	0.0783	,	0.0783	,	0.0849	,	0.0844	,	0.0844	,	0.0783	,	0.0783	,	0.0724	,	0.0724	,	0.0746	,	0.0746	,	0.0799	,	0.0799	,	0.0764	,	0.0814	,	0.0814	,	0.0821	,	0.0821	,	0.0746	,	0.0746	,	0.0842	,	0.0842	,	0.0848	,	0.0848	,	0.0827	,	0.1035	,	0.1035	,	0.0837	,	0.0837	,	0.0864	,	0.0864	,	0.0869	,	0.0869	,	0.0871
RayTracing	,	0.0932	,	0.0932	,	0.1013	,	0.1013	,	0.0869	,	0.0869	,	0.1437	,	0.1437	,	0.0913	,	0.0913	,	0.0938	,	0.0927	,	0.0927	,	0.0866	,	0.0866	,	0.1067	,	0.1067	,	0.0903	,	0.0903	,	0.091	,	0.091	,	0.0885	,	0.0855	,	0.0855	,	0.0852	,	0.0852	,	0.0887	,	0.0887	,	0.0907	,	0.0907	,	0.1009	,	0.1009	,	0.0931	,	0.0903	,	0.0903	,	0.0903	,	0.0903	,	0.0886	,	0.0886	,	0.0872	,	0.0872	,	0.0916	,	0.0916	,	0.0947	,	0.0985	,	0.0985	,	0.0972	,	0.0972	,	0.0884	,	0.0884	,	0.0859	,	0.0859	,	0.0896	,	0.0896	,	0.089	,	0.0919	,	0.0919	,	0.0888	,	0.0888	,	0.0882	,	0.0882	,	0.0915	,	0.0915	,	0.0889	,	0.0889	,	0.0903	,	0.1082	,	0.1082	,	0.0896	,	0.0896	,	0.0872	,	0.0872	,	0.0943	,	0.0943	,	0.0855
RayTracingGpu	,	5.73501	,	5.73501	,	5.90838	,	5.90838	,	5.89718	,	5.89718	,	5.97309	,	5.97309	,	7.53056	,	7.53056	,	6.03923	,	3.22835	,	3.22835	,	3.12771	,	3.12771	,	3.47782	,	3.47782	,	4.29194	,	4.29194	,	4.94573	,	4.94573	,	5.36307	,	5.44397	,	5.44397	,	7.78912	,	7.78912	,	5.76125	,	5.76125	,	5.45395	,	5.45395	,	9.2511	,	9.2511	,	5.88467	,	4.56806	,	4.56806	,	4.59213	,	4.59213	,	4.47469	,	4.47469	,	6.15366	,	6.15366	,	6.08989	,	6.08989	,	6.4161	,	5.1425	,	5.1425	,	5.47501	,	5.47501	,	5.92678	,	5.92678	,	7.95507	,	7.95507	,	8.68032	,	8.68032	,	7.52173	,	4.52166	,	4.52166	,	6.28419	,	6.28419	,	5.40051	,	5.40051	,	7.67443	,	7.67443	,	7.58749	,	7.58749	,	4.67181	,	5.8599	,	5.8599	,	7.89318	,	7.89318	,	6.82374	,	6.82374	,	11.5875	,	11.5875	,	6.24422
RayTracingRLGpu	,	5.73312	,	5.73312	,	5.90653	,	5.90653	,	5.89638	,	5.89638	,	5.97075	,	5.97075	,	7.52976	,	7.52976	,	6.03843	,	3.22742	,	3.22742	,	3.12576	,	3.12576	,	3.47683	,	3.47683	,	4.29005	,	4.29005	,	4.94493	,	4.94493	,	5.36128	,	5.44317	,	5.44317	,	7.78717	,	7.78717	,	5.75933	,	5.75933	,	5.45203	,	5.45203	,	9.2503	,	9.2503	,	5.88278	,	4.56685	,	4.56685	,	4.5903	,	4.5903	,	4.47373	,	4.47373	,	6.1529	,	6.1529	,	6.08909	,	6.08909	,	6.4153	,	5.14061	,	5.14061	,	5.47299	,	5.47299	,	5.92582	,	5.92582	,	7.95286	,	7.95286	,	8.67907	,	8.67907	,	7.52093	,	4.51978	,	4.51978	,	6.28323	,	6.28323	,	5.39958	,	5.39958	,	7.67363	,	7.67363	,	7.58666	,	7.58666	,	4.67101	,	5.8583	,	5.8583	,	7.8912	,	7.8912	,	6.82288	,	6.82288	,	11.5868	,	11.5868	,	6.24246
Index	,	0	,	1	,	2	,	3	,	4	,	5	,	6	,	7	,	8	,	9	,	10	,	11	,	12	,	13	,	14	,	15	,	16	,	17	,	18	,	19	,	20	,	21	,	22	,	23	,	24	,	25	,	26	,	27	,	28	,	29	,	30	,	31	,	32	,	33	,	34	,	35	,	36	,	37	,	38	,	39	,	40	,	41	,	42	,	43	,	44	,	45	,	46	,	47	,	48	,	49	,	50	,	51	,	52	,	53	,	54	,	55	,	56	,	57	,	58	,	59	,	60	,	61	,	62	,	63	,	64	,	65	,	66	,	67	,	68	,	69	,	70	,	71	,	72	,	73	,	74

ProfilingBuildAggregator: 
BuildBottomLevelAS	,	1.5057	,	9.6447	,	28.896	,	71.5756	,	158.372	,	275.075	,	452.791
BuildBottomLevelASGpu	,	1.49984	,	9.6119	,	31.4255	,	73.9701	,	142.634	,	245.859	,	390.475
BuildTopLevelAS	,	0.8567	,	1.4062	,	1.1346	,	1.6716	,	1.7556	,	1.9976	,	2.0305
BuildTopLevelASGpu	,	0.087456	,	0.072928	,	0.098336	,	0.107136	,	0.13328	,	0.154336	,	0.15456
Duplication	,	1	,	2	,	3	,	4	,	5	,	6	,	7
Triangles	,	262267	,	2098136	,	7081209	,	16785088	,	32783375	,	56649672	,	89957581
Meshes	,	103	,	824	,	2781	,	6592	,	12875	,	22248	,	35329
BottomLevels	,	1	,	8	,	27	,	64	,	125	,	216	,	343
TopLevelSize	,	64	,	512	,	1728	,	4096	,	8000	,	13824	,	21952
BottomLevelsSize	,	14622208	,	116977664	,	394799616	,	935821312	,	1827776000	,	3158396928	,	5015417344
Index	,	0	,	1	,	2	,	3	,	4	,	5	,	6

FpsAggregator: 
FPS	,	138	,	138	,	153	,	153	,	149	,	149	,	144	,	144	,	104	,	104	,	134	,	290	,	290	,	257	,	257	,	254	,	254	,	209	,	209	,	174	,	174	,	178	,	153	,	153	,	157	,	157	,	154	,	154	,	148	,	148	,	125	,	125	,	115	,	201	,	201	,	197	,	197	,	175	,	175	,	158	,	158	,	141	,	141	,	145	,	157	,	157	,	162	,	162	,	151	,	151	,	104	,	104	,	116	,	116	,	127	,	184	,	184	,	154	,	154	,	135	,	135	,	125	,	125	,	132	,	132	,	165	,	154	,	154	,	125	,	125	,	117	,	117	,	109	,	109	,	129
UPS	,	60	,	60	,	60	,	60	,	61	,	61	,	60	,	60	,	60	,	60	,	60	,	60	,	60	,	60	,	60	,	60	,	60	,	60	,	60	,	60	,	60	,	61	,	60	,	60	,	60	,	60	,	60	,	60	,	60	,	60	,	60	,	60	,	60	,	60	,	60	,	61	,	61	,	60	,	60	,	60	,	60	,	60	,	60	,	60	,	60	,	60	,	60	,	60	,	60	,	60	,	61	,	61	,	60	,	60	,	60	,	60	,	60	,	60	,	60	,	61	,	61	,	59	,	59	,	61	,	61	,	60	,	60	,	60	,	60	,	60	,	61	,	61	,	59	,	59	,	61
FrameTime	,	7.28254	,	7.28254	,	6.55418	,	6.55418	,	6.74794	,	6.74794	,	6.94959	,	6.94959	,	9.65559	,	9.65559	,	7.47812	,	3.457	,	3.457	,	3.90503	,	3.90503	,	3.94097	,	3.94097	,	4.78727	,	4.78727	,	5.77054	,	5.77054	,	5.64198	,	6.55017	,	6.55017	,	6.38321	,	6.38321	,	6.50571	,	6.50571	,	6.76618	,	6.76618	,	8.0281	,	8.0281	,	8.7254	,	4.98863	,	4.98863	,	5.09893	,	5.09893	,	5.7318	,	5.7318	,	6.34259	,	6.34259	,	7.10687	,	7.10687	,	6.90594	,	6.3796	,	6.3796	,	6.20237	,	6.20237	,	6.64478	,	6.64478	,	9.68496	,	9.68496	,	8.66245	,	8.66245	,	7.92427	,	5.45075	,	5.45075	,	6.52127	,	6.52127	,	7.4115	,	7.4115	,	8.01415	,	8.01415	,	7.58617	,	7.58617	,	6.06194	,	6.531	,	6.531	,	8.05075	,	8.05075	,	8.58432	,	8.58432	,	9.17723	,	9.17723	,	7.7576
GigaRays/s	,	6.99325	,	6.99325	,	7.7704	,	7.7704	,	7.54729	,	7.54729	,	7.3283	,	7.3283	,	5.27452	,	5.27452	,	6.81036	,	14.732	,	14.732	,	13.0418	,	13.0418	,	12.9229	,	12.9229	,	10.6383	,	10.6383	,	8.82562	,	8.82562	,	9.02673	,	7.77517	,	7.77517	,	7.97853	,	7.97853	,	7.8283	,	7.8283	,	7.52694	,	7.52694	,	6.34379	,	6.34379	,	5.83682	,	10.209	,	10.209	,	9.9881	,	9.9881	,	8.88528	,	8.88528	,	8.02963	,	8.02963	,	7.16611	,	7.16611	,	7.37461	,	7.98305	,	7.98305	,	8.21116	,	8.21116	,	7.66446	,	7.66446	,	5.25853	,	5.25853	,	5.87924	,	5.87924	,	6.42692	,	9.34341	,	9.34341	,	7.80962	,	7.80962	,	6.87157	,	6.87157	,	6.35484	,	6.35484	,	6.71335	,	6.71335	,	8.40137	,	7.79799	,	7.79799	,	6.32595	,	6.32595	,	5.93275	,	5.93275	,	5.54946	,	5.54946	,	6.565
Duplication	,	1	,	1	,	1	,	1	,	1	,	1	,	1	,	1	,	1	,	1	,	1	,	2	,	2	,	2	,	2	,	2	,	2	,	2	,	2	,	2	,	2	,	2	,	3	,	3	,	3	,	3	,	3	,	3	,	3	,	3	,	3	,	3	,	3	,	4	,	4	,	4	,	4	,	4	,	4	,	4	,	4	,	4	,	4	,	4	,	5	,	5	,	5	,	5	,	5	,	5	,	5	,	5	,	5	,	5	,	5	,	6	,	6	,	6	,	6	,	6	,	6	,	6	,	6	,	6	,	6	,	6	,	7	,	7	,	7	,	7	,	7	,	7	,	7	,	7	,	7
Index	,	0	,	1	,	2	,	3	,	4	,	5	,	6	,	7	,	8	,	9	,	10	,	11	,	12	,	13	,	14	,	15	,	16	,	17	,	18	,	19	,	20	,	21	,	22	,	23	,	24	,	25	,	26	,	27	,	28	,	29	,	30	,	31	,	32	,	33	,	34	,	35	,	36	,	37	,	38	,	39	,	40	,	41	,	42	,	43	,	44	,	45	,	46	,	47	,	48	,	49	,	50	,	51	,	52	,	53	,	54	,	55	,	56	,	57	,	58	,	59	,	60	,	61	,	62	,	63	,	64	,	65	,	66	,	67	,	68	,	69	,	70	,	71	,	72	,	73	,	74


AccelerationStructure: 
Ray tracing acceleration structure building statistics: 
	Bottom Level Acceleration Structure: 
		Maximum [B]: 14622208
		Minimum [B]: 14622208
		Currently Allocated [B]: 5015417344
		Currently Created [num]: 343
		Current Average [B]: 14622208
		Maximum Triangles [num]: 262267
		Minimum Triangles [num]: 262267
		Total Triangles [num]: 89957581
		Maximum Meshes [num]: 103
		Minimum Meshes [num]: 103
		Total Meshes [num]: 35329
	Top Level Acceleration Structure: 
		Maximum [B]: 21952
		Minimum [B]: 21952
		Currently Allocated [B]: 21952
		Total Allocated [B]: 21952
		Total Created [num]: 1
		Average Allocated [B]: 21952
		Maximum Instances [num]: 343
		Minimum Instances [num]: 343
		Total Instances [num]: 343
	Scratch Buffer: 
		Maximum [B]: 11657856
		Minimum [B]: 11657856
		Currently Allocated [B]: 11657856
		Total Allocated [B]: 11657856
		Total Created [num]: 1
		Average Allocated [B]: 11657856
ProfilingStack: 
[PROF] Profiling statistics: 
	Scopes entered : 161980
	Scopes exited : 161979
	Overhead per scope [ticks] : 103.6
	Threads entered : 3
	Threads exited : 0
	============================
		         Sum[Mt]   Parent[%]  Samples[num]       Avg[Mt]   Last/Curr[Mt]        Self[Mt]     Self[%] 	 Name

	main:

		   66394.999 Mt   100.000 %         1 x    66395.000 Mt    66394.999 Mt        0.428 Mt     0.001 % 	 /

		   66394.602 Mt    99.999 %         1 x    66394.604 Mt    66394.602 Mt      263.323 Mt     0.397 % 	 ./Main application loop

		       3.041 Mt     0.005 %         1 x        3.041 Mt        0.000 Mt        3.041 Mt   100.000 % 	 ../TexturedRLInitialization

		       1.204 Mt     0.002 %         1 x        1.204 Mt        0.000 Mt        1.204 Mt   100.000 % 	 ../ShadowMapRLInitialization

		       5.685 Mt     0.009 %         1 x        5.685 Mt        0.000 Mt        5.685 Mt   100.000 % 	 ../RasterResolveRLInitialization

		       2.804 Mt     0.004 %         1 x        2.804 Mt        0.000 Mt        2.804 Mt   100.000 % 	 ../AmbientOcclusionRLInitialization

		       5.417 Mt     0.008 %         1 x        5.417 Mt        0.000 Mt        5.417 Mt   100.000 % 	 ../DeferredRLInitialization

		      62.509 Mt     0.094 %         1 x       62.509 Mt        0.000 Mt        2.774 Mt     4.437 % 	 ../RayTracingRLInitialization

		      59.735 Mt    95.563 %         1 x       59.735 Mt        0.000 Mt       59.735 Mt   100.000 % 	 .../PipelineBuild

		       3.723 Mt     0.006 %         1 x        3.723 Mt        0.000 Mt        3.723 Mt   100.000 % 	 ../ResolveRLInitialization

		    3211.299 Mt     4.837 %         1 x     3211.299 Mt        0.000 Mt        0.488 Mt     0.015 % 	 ../Initialization

		    3210.811 Mt    99.985 %         1 x     3210.811 Mt        0.000 Mt        2.061 Mt     0.064 % 	 .../ScenePrep

		    3144.798 Mt    97.944 %         1 x     3144.798 Mt        0.000 Mt     1016.188 Mt    32.313 % 	 ..../SceneLoad

		    1902.344 Mt    60.492 %         1 x     1902.344 Mt        0.000 Mt      547.051 Mt    28.757 % 	 ...../glTF-LoadScene

		    1355.293 Mt    71.243 %        69 x       19.642 Mt        0.000 Mt     1355.293 Mt   100.000 % 	 ....../glTF-LoadImageData

		     173.839 Mt     5.528 %         1 x      173.839 Mt        0.000 Mt      173.839 Mt   100.000 % 	 ...../glTF-CreateScene

		      52.428 Mt     1.667 %         1 x       52.428 Mt        0.000 Mt       52.428 Mt   100.000 % 	 ...../SceneDesc-CreateScene

		       1.105 Mt     0.034 %         1 x        1.105 Mt        0.000 Mt        0.000 Mt     0.036 % 	 ..../ShadowMapRLPrep

		       1.105 Mt    99.964 %         1 x        1.105 Mt        0.000 Mt        1.069 Mt    96.750 % 	 ...../PrepareForRendering

		       0.036 Mt     3.250 %         1 x        0.036 Mt        0.000 Mt        0.036 Mt   100.000 % 	 ....../PrepareDrawBundle

		       3.700 Mt     0.115 %         1 x        3.700 Mt        0.000 Mt        0.000 Mt     0.008 % 	 ..../TexturedRLPrep

		       3.700 Mt    99.992 %         1 x        3.700 Mt        0.000 Mt        3.662 Mt    98.962 % 	 ...../PrepareForRendering

		       0.002 Mt     0.059 %         1 x        0.002 Mt        0.000 Mt        0.002 Mt   100.000 % 	 ....../PrepareMaterials

		       0.036 Mt     0.978 %         1 x        0.036 Mt        0.000 Mt        0.036 Mt   100.000 % 	 ....../PrepareDrawBundle

		       3.500 Mt     0.109 %         1 x        3.500 Mt        0.000 Mt        0.000 Mt     0.011 % 	 ..../DeferredRLPrep

		       3.500 Mt    99.989 %         1 x        3.500 Mt        0.000 Mt        2.940 Mt    84.021 % 	 ...../PrepareForRendering

		       0.001 Mt     0.034 %         1 x        0.001 Mt        0.000 Mt        0.001 Mt   100.000 % 	 ....../PrepareMaterials

		       0.494 Mt    14.116 %         1 x        0.494 Mt        0.000 Mt        0.494 Mt   100.000 % 	 ....../BuildMaterialCache

		       0.064 Mt     1.829 %         1 x        0.064 Mt        0.000 Mt        0.064 Mt   100.000 % 	 ....../PrepareDrawBundle

		      25.644 Mt     0.799 %         1 x       25.644 Mt        0.000 Mt        2.776 Mt    10.823 % 	 ..../RayTracingRLPrep

		       0.066 Mt     0.259 %         1 x        0.066 Mt        0.000 Mt        0.066 Mt   100.000 % 	 ...../PrepareAccelerationStructures

		       0.001 Mt     0.004 %         1 x        0.001 Mt        0.000 Mt        0.001 Mt   100.000 % 	 ...../PrepareCache

		      13.602 Mt    53.040 %         1 x       13.602 Mt        0.000 Mt       13.602 Mt   100.000 % 	 ...../PipelineBuild

		       0.729 Mt     2.844 %         1 x        0.729 Mt        0.000 Mt        0.729 Mt   100.000 % 	 ...../BuildCache

		       6.909 Mt    26.941 %         1 x        6.909 Mt        0.000 Mt        0.001 Mt     0.009 % 	 ...../BuildAccelerationStructures

		       6.908 Mt    99.991 %         1 x        6.908 Mt        0.000 Mt        4.546 Mt    65.803 % 	 ....../AccelerationStructureBuild

		       1.506 Mt    21.796 %         1 x        1.506 Mt        0.000 Mt        1.506 Mt   100.000 % 	 ......./BuildBottomLevelAS

		       0.857 Mt    12.401 %         1 x        0.857 Mt        0.000 Mt        0.857 Mt   100.000 % 	 ......./BuildTopLevelAS

		       1.561 Mt     6.089 %         1 x        1.561 Mt        0.000 Mt        1.561 Mt   100.000 % 	 ...../BuildShaderTables

		      30.001 Mt     0.934 %         1 x       30.001 Mt        0.000 Mt       30.001 Mt   100.000 % 	 ..../GpuSidePrep

		   62835.598 Mt    94.640 %     87522 x        0.718 Mt        7.363 Mt      826.695 Mt     1.316 % 	 ../MainLoop

		     377.248 Mt     0.600 %      3770 x        0.100 Mt        0.048 Mt      376.633 Mt    99.837 % 	 .../Update

		       0.615 Mt     0.163 %         1 x        0.615 Mt        0.000 Mt        0.615 Mt   100.000 % 	 ..../GuiModelApply

		   61631.655 Mt    98.084 %      8804 x        7.000 Mt        7.195 Mt      966.424 Mt     1.568 % 	 .../Render

		    4227.469 Mt     6.859 %      8804 x        0.480 Mt        0.139 Mt       55.465 Mt     1.312 % 	 ..../RayTracing

		    4172.004 Mt    98.688 %      8804 x        0.474 Mt        0.131 Mt      757.152 Mt    18.148 % 	 ...../RayCasting

		    3414.852 Mt    81.852 %      8804 x        0.388 Mt        0.002 Mt       42.502 Mt     1.245 % 	 ....../RayTracingRLPrep

		     677.524 Mt    19.841 %        12 x       56.460 Mt        0.000 Mt      677.524 Mt   100.000 % 	 ......./PrepareAccelerationStructures

		       0.108 Mt     0.003 %        12 x        0.009 Mt        0.000 Mt        0.108 Mt   100.000 % 	 ......./PrepareCache

		     238.513 Mt     6.985 %        12 x       19.876 Mt        0.000 Mt      238.513 Mt   100.000 % 	 ......./PipelineBuild

		       0.004 Mt     0.000 %        12 x        0.000 Mt        0.000 Mt        0.004 Mt   100.000 % 	 ......./BuildCache

		    2141.665 Mt    62.716 %        12 x      178.472 Mt        0.000 Mt        0.013 Mt     0.001 % 	 ......./BuildAccelerationStructures

		    2141.652 Mt    99.999 %        12 x      178.471 Mt        0.000 Mt       64.058 Mt     2.991 % 	 ......../AccelerationStructureBuild

		    2057.018 Mt    96.048 %        12 x      171.418 Mt        0.000 Mt     2057.018 Mt   100.000 % 	 ........./BuildBottomLevelAS

		      20.576 Mt     0.961 %        12 x        1.715 Mt        0.000 Mt       20.576 Mt   100.000 % 	 ........./BuildTopLevelAS

		     314.538 Mt     9.211 %        12 x       26.211 Mt        0.000 Mt      314.538 Mt   100.000 % 	 ......./BuildShaderTables

		   56437.762 Mt    91.573 %      8804 x        6.410 Mt        6.901 Mt    56437.762 Mt   100.000 % 	 ..../Present

	WindowThread:

		   66392.163 Mt   100.000 %         1 x    66392.163 Mt    66392.163 Mt    66392.163 Mt   100.000 % 	 /

	GpuThread:

		   51830.108 Mt   100.000 %      8804 x        5.887 Mt        6.433 Mt      161.335 Mt     0.311 % 	 /

		       1.595 Mt     0.003 %         1 x        1.595 Mt        0.000 Mt        0.007 Mt     0.409 % 	 ./ScenePrep

		       1.589 Mt    99.591 %         1 x        1.589 Mt        0.000 Mt        0.001 Mt     0.091 % 	 ../AccelerationStructureBuild

		       1.500 Mt    94.405 %         1 x        1.500 Mt        0.000 Mt        1.500 Mt   100.000 % 	 .../BuildBottomLevelASGpu

		       0.087 Mt     5.505 %         1 x        0.087 Mt        0.000 Mt        0.087 Mt   100.000 % 	 .../BuildTopLevelASGpu

		   51649.190 Mt    99.651 %      8804 x        5.867 Mt        6.430 Mt       11.468 Mt     0.022 % 	 ./RayTracingGpu

		   49849.649 Mt    96.516 %      8804 x        5.662 Mt        6.429 Mt    49849.649 Mt   100.000 % 	 ../RayTracingRLGpu

		    1788.073 Mt     3.462 %        12 x      149.006 Mt        0.000 Mt        0.023 Mt     0.001 % 	 ../AccelerationStructureBuild

		    1786.620 Mt    99.919 %        12 x      148.885 Mt        0.000 Mt     1786.620 Mt   100.000 % 	 .../BuildBottomLevelASGpu

		       1.430 Mt     0.080 %        12 x        0.119 Mt        0.000 Mt        1.430 Mt   100.000 % 	 .../BuildTopLevelASGpu

		      17.987 Mt     0.035 %      8804 x        0.002 Mt        0.002 Mt       17.987 Mt   100.000 % 	 ./Present


	============================


